%!PS-Adobe-3.0 EPSF-3.0
%%Title: glps_renderer figure
%%Creator: GL2PS 1.3.8, (C) 1999-2012 C. Geuzaine
%%For: Octave
%%CreationDate: Mon Nov  9 08:40:02 2015
%%LanguageLevel: 3
%%DocumentData: Clean7Bit
%%Pages: 1
%%BoundingBox: 0 0 576 432
%%EndComments
%%BeginProlog
/gl2psdict 64 dict def gl2psdict begin
0 setlinecap 0 setlinejoin
/tryPS3shading false def % set to false to force subdivision
/rThreshold 0.064 def % red component subdivision threshold
/gThreshold 0.034 def % green component subdivision threshold
/bThreshold 0.1 def % blue component subdivision threshold
/BD { bind def } bind def
/C  { setrgbcolor } BD
/G  { 0.082 mul exch 0.6094 mul add exch 0.3086 mul add neg 1.0 add setgray } BD
/W  { setlinewidth } BD
/FC { findfont exch /SH exch def SH scalefont setfont } BD
/SW { dup stringwidth pop } BD
/S  { FC moveto show } BD
/SBC{ FC moveto SW -2 div 0 rmoveto show } BD
/SBR{ FC moveto SW neg 0 rmoveto show } BD
/SCL{ FC moveto 0 SH -2 div rmoveto show } BD
/SCC{ FC moveto SW -2 div SH -2 div rmoveto show } BD
/SCR{ FC moveto SW neg SH -2 div rmoveto show } BD
/STL{ FC moveto 0 SH neg rmoveto show } BD
/STC{ FC moveto SW -2 div SH neg rmoveto show } BD
/STR{ FC moveto SW neg SH neg rmoveto show } BD
/FCT { FC translate 0 0 } BD
/SR  { gsave FCT moveto rotate show grestore } BD
/SBCR{ gsave FCT moveto rotate SW -2 div 0 rmoveto show grestore } BD
/SBRR{ gsave FCT moveto rotate SW neg 0 rmoveto show grestore } BD
/SCLR{ gsave FCT moveto rotate 0 SH -2 div rmoveto show grestore} BD
/SCCR{ gsave FCT moveto rotate SW -2 div SH -2 div rmoveto show grestore} BD
/SCRR{ gsave FCT moveto rotate SW neg SH -2 div rmoveto show grestore} BD
/STLR{ gsave FCT moveto rotate 0 SH neg rmoveto show grestore } BD
/STCR{ gsave FCT moveto rotate SW -2 div SH neg rmoveto show grestore } BD
/STRR{ gsave FCT moveto rotate SW neg SH neg rmoveto show grestore } BD
/P  { newpath 0.0 360.0 arc closepath fill } BD
/LS { newpath moveto } BD
/L  { lineto } BD
/LE { lineto stroke } BD
/T  { newpath moveto lineto lineto closepath fill } BD
/STshfill {
      /b1 exch def /g1 exch def /r1 exch def /y1 exch def /x1 exch def
      /b2 exch def /g2 exch def /r2 exch def /y2 exch def /x2 exch def
      /b3 exch def /g3 exch def /r3 exch def /y3 exch def /x3 exch def
      gsave << /ShadingType 4 /ColorSpace [/DeviceRGB]
      /DataSource [ 0 x1 y1 r1 g1 b1 0 x2 y2 r2 g2 b2 0 x3 y3 r3 g3 b3 ] >>
      shfill grestore } BD
/Tm { 3 -1 roll 8 -1 roll 13 -1 roll add add 3 div
      3 -1 roll 7 -1 roll 11 -1 roll add add 3 div
      3 -1 roll 6 -1 roll 9 -1 roll add add 3 div C T } BD
/STsplit {
      4 index 15 index add 0.5 mul
      4 index 15 index add 0.5 mul
      4 index 15 index add 0.5 mul
      4 index 15 index add 0.5 mul
      4 index 15 index add 0.5 mul
      5 copy 5 copy 25 15 roll
      9 index 30 index add 0.5 mul
      9 index 30 index add 0.5 mul
      9 index 30 index add 0.5 mul
      9 index 30 index add 0.5 mul
      9 index 30 index add 0.5 mul
      5 copy 5 copy 35 5 roll 25 5 roll 15 5 roll
      4 index 10 index add 0.5 mul
      4 index 10 index add 0.5 mul
      4 index 10 index add 0.5 mul
      4 index 10 index add 0.5 mul
      4 index 10 index add 0.5 mul
      5 copy 5 copy 40 5 roll 25 5 roll 15 5 roll 25 5 roll
      STnoshfill STnoshfill STnoshfill STnoshfill } BD
/STnoshfill {
      2 index 8 index sub abs rThreshold gt
      { STsplit }
      { 1 index 7 index sub abs gThreshold gt
        { STsplit }
        { dup 6 index sub abs bThreshold gt
          { STsplit }
          { 2 index 13 index sub abs rThreshold gt
            { STsplit }
            { 1 index 12 index sub abs gThreshold gt
              { STsplit }
              { dup 11 index sub abs bThreshold gt
                { STsplit }
                { 7 index 13 index sub abs rThreshold gt
                  { STsplit }
                  { 6 index 12 index sub abs gThreshold gt
                    { STsplit }
                    { 5 index 11 index sub abs bThreshold gt
                      { STsplit }
                      { Tm }
                      ifelse }
                    ifelse }
                  ifelse }
                ifelse }
              ifelse }
            ifelse }
          ifelse }
        ifelse }
      ifelse } BD
tryPS3shading
{ /shfill where
  { /ST { STshfill } BD }
  { /ST { STnoshfill } BD }
  ifelse }
{ /ST { STnoshfill } BD }
ifelse
end
%%EndProlog
%%BeginSetup
/DeviceRGB setcolorspace
gl2psdict begin
%%EndSetup
%%Page: 1 1
%%BeginPageSetup
%%EndPageSetup
mark
gsave
1.0 1.0 scale
1 1 1 C
474.12 47.52 474.12 399.6 474.12 47.52 T
474.12 47.52 474.12 399.6 474.12 399.6 T
122.04 399.6 474.12 399.6 122.04 399.6 T
122.04 399.6 474.12 399.6 474.12 399.6 T
122.04 399.6 474.12 47.52 122.04 47.52 T
122.04 399.6 474.12 399.6 474.12 47.52 T
0.5 W
[16 0] 0 setdash
0 0 0 C
122.04 47.52 LS
474.12 47.52 LE
122.04 399.6 LS
474.12 399.6 LE
122.04 399.6 LS
474.12 399.6 LE
122.04 47.52 LS
474.12 47.52 LE
122.04 47.52 LS
122.04 399.6 LE
474.12 47.52 LS
474.12 399.6 LE
474.12 47.52 LS
474.12 399.6 LE
122.04 47.52 LS
122.04 399.6 L
122.04 399.6 LE
474.12 399.6 LS
474.12 399.6 LE
474.12 47.52 LS
474.12 47.52 LE
122.04 47.52 LS
122.04 47.52 LE
[0 3 1 3 1 3 1 3 1 0] 0 setdash
122.04 47.52 LS
122.04 399.6 LE
210.06 47.52 LS
210.06 399.6 LE
298.08 47.52 LS
298.08 399.6 LE
386.1 47.52 LS
386.1 399.6 LE
474.12 47.52 LS
474.12 399.6 LE
[16 0] 0 setdash
122.04 47.52 LS
122.04 51.985 LE
122.04 399.6 LS
122.04 395.135 LE
210.06 47.52 LS
210.06 51.985 LE
210.06 399.6 LS
210.06 395.135 LE
298.08 47.52 LS
298.08 51.985 LE
298.08 399.6 LS
298.08 395.135 LE
386.1 47.52 LS
386.1 51.985 LE
386.1 399.6 LS
386.1 395.135 LE
474.12 47.52 LS
474.12 51.985 LE
474.12 399.6 LS
474.12 395.135 LE
(-1.5) 122.04 42.5189 15 /Helvetica STC
(-1) 210.06 42.5189 15 /Helvetica STC
(-0.5) 298.08 42.5189 15 /Helvetica STC
(0) 386.1 42.5189 15 /Helvetica STC
(0.5) 474.12 42.5189 15 /Helvetica STC
[0 3 1 3 1 3 1 3 1 0] 0 setdash
122.04 47.52 LS
474.12 47.52 LE
122.04 135.54 LS
474.12 135.54 LE
122.04 223.56 LS
474.12 223.56 LE
122.04 311.58 LS
474.12 311.58 LE
122.04 399.6 LS
474.12 399.6 LE
[16 0] 0 setdash
122.04 47.52 LS
126.505 47.52 LE
474.12 47.52 LS
469.655 47.52 LE
122.04 135.54 LS
126.505 135.54 LE
474.12 135.54 LS
469.655 135.54 LE
122.04 223.56 LS
126.505 223.56 LE
474.12 223.56 LS
469.655 223.56 LE
122.04 311.58 LS
126.505 311.58 LE
474.12 311.58 LS
469.655 311.58 LE
122.04 399.6 LS
126.505 399.6 LE
474.12 399.6 LS
469.655 399.6 LE
(-1) 117.039 47.52 15 /Helvetica SCR
(-0.5) 117.039 135.54 15 /Helvetica SCR
(0) 117.039 223.56 15 /Helvetica SCR
(0.5) 117.039 311.58 15 /Helvetica SCR
(1) 117.039 399.6 15 /Helvetica SCR
(Re) 298.08 24.5188 15 /Helvetica STC
(Im) 90 88.0389 223.56 15 /Helvetica SBCR
(Finding CFL(MAX), AB2) 298.08 409.6 15 /Helvetica SBC
1 W
[] 0 setdash
121.688 223.56 LS
474.472 223.56 LE
0.5 W
386.1 47.1679 LS
386.1 399.952 LE
2 W
0 0 1 C
386.1 223.56 LS
386.1 225.32 L
386.1 227.08 L
386.1 228.839 L
386.1 230.597 L
386.1 232.353 L
386.099 234.107 L
386.099 235.858 L
386.098 237.606 L
386.097 239.35 L
386.096 241.091 L
386.094 242.827 L
386.091 244.559 L
386.088 246.286 L
386.083 248.007 L
386.078 249.722 L
386.072 251.431 L
386.064 253.133 L
386.055 254.828 L
386.044 256.515 L
386.032 258.195 L
386.018 259.867 L
386.001 261.53 L
385.983 263.185 L
385.961 264.83 L
385.937 266.466 L
385.911 268.092 L
385.881 269.709 L
385.848 271.315 L
385.811 272.91 L
385.771 274.495 L
385.727 276.068 L
385.678 277.63 L
385.626 279.181 L
385.569 280.72 L
385.507 282.246 L
385.44 283.761 L
385.368 285.263 L
385.291 286.753 L
385.208 288.23 L
385.119 289.694 L
385.024 291.145 L
384.924 292.583 L
384.816 294.007 L
384.703 295.418 L
384.582 296.815 L
384.454 298.199 L
384.32 299.568 L
384.178 300.924 L
384.028 302.266 L
383.871 303.594 L
383.706 304.907 L
383.533 306.206 L
383.352 307.491 L
383.163 308.762 L
382.965 310.018 L
382.758 311.26 L
382.543 312.487 L
382.319 313.699 L
382.086 314.898 L
381.844 316.081 L
381.593 317.25 L
381.333 318.404 L
381.063 319.544 L
380.783 320.669 L
380.495 321.779 L
380.196 322.875 L
379.888 323.956 L
379.569 325.022 L
379.241 326.074 L
378.904 327.111 L
378.556 328.133 L
378.198 329.141 L
377.83 330.134 L
377.452 331.113 L
377.064 332.077 L
376.665 333.027 L
376.257 333.962 L
375.838 334.883 L
375.409 335.789 L
374.97 336.681 L
374.521 337.558 L
374.061 338.422 L
373.592 339.27 L
373.112 340.105 L
372.622 340.925 L
372.122 341.731 L
371.612 342.523 L
371.091 343.301 L
370.561 344.064 L
370.021 344.814 L
369.471 345.549 L
368.911 346.271 L
368.341 346.978 L
367.761 347.671 L
367.172 348.351 L
366.573 349.016 L
365.964 349.668 L
365.346 350.306 L
364.719 350.93 L
364.082 351.54 L
363.435 352.137 L
362.78 352.72 L
362.115 353.289 L
361.442 353.844 L
360.759 354.386 L
360.068 354.915 L
359.368 355.429 L
358.659 355.931 L
357.942 356.418 L
357.216 356.892 L
356.482 357.353 L
355.739 357.8 L
354.988 358.234 L
354.23 358.655 L
353.463 359.062 L
352.689 359.456 L
351.907 359.837 L
351.117 360.204 L
350.32 360.558 L
349.516 360.899 L
348.704 361.226 L
347.885 361.541 L
347.06 361.842 L
346.227 362.13 L
345.388 362.405 L
344.542 362.667 L
343.689 362.916 L
342.83 363.151 L
341.965 363.374 L
341.094 363.584 L
340.217 363.78 L
339.334 363.964 L
338.446 364.135 L
337.552 364.293 L
336.652 364.438 L
335.747 364.57 L
334.837 364.689 L
333.922 364.795 L
333.002 364.889 L
332.077 364.97 L
331.148 365.037 L
330.214 365.093 L
329.276 365.135 L
328.334 365.165 L
327.387 365.182 L
326.437 365.186 L
325.483 365.178 L
324.525 365.157 L
323.563 365.123 L
322.599 365.077 L
321.631 365.018 L
320.66 364.947 L
319.685 364.863 L
318.709 364.767 L
317.729 364.658 L
316.747 364.537 L
315.762 364.403 L
314.776 364.257 L
313.787 364.099 L
312.796 363.928 L
311.803 363.745 L
310.809 363.55 L
309.813 363.342 L
308.815 363.122 L
307.817 362.89 L
306.817 362.646 L
305.816 362.389 L
304.814 362.121 L
303.812 361.84 L
302.809 361.548 L
301.805 361.243 L
300.801 360.927 L
299.797 360.598 L
298.793 360.258 L
297.789 359.905 L
296.785 359.541 L
295.781 359.165 L
294.778 358.777 L
293.776 358.378 L
292.774 357.967 L
291.773 357.544 L
290.773 357.109 L
289.775 356.663 L
288.777 356.206 L
287.781 355.737 L
286.787 355.256 L
285.794 354.764 L
284.803 354.261 L
283.814 353.747 L
282.827 353.221 L
281.842 352.684 L
280.86 352.136 L
279.88 351.576 L
278.902 351.006 L
277.927 350.424 L
276.955 349.832 L
275.986 349.229 L
275.02 348.615 L
274.057 347.99 L
273.098 347.354 L
272.142 346.707 L
271.189 346.05 L
270.24 345.383 L
269.295 344.704 L
268.354 344.016 L
267.417 343.316 L
266.484 342.607 L
265.555 341.887 L
264.631 341.157 L
263.711 340.417 L
262.796 339.667 L
261.885 338.906 L
260.98 338.136 L
260.079 337.356 L
259.183 336.566 L
258.293 335.766 L
257.407 334.956 L
256.528 334.137 L
255.653 333.308 L
254.784 332.47 L
253.921 331.622 L
253.064 330.765 L
252.213 329.899 L
251.367 329.023 L
250.528 328.138 L
249.695 327.245 L
248.869 326.342 L
248.049 325.43 L
247.235 324.51 L
246.428 323.58 L
245.627 322.642 L
244.834 321.696 L
244.047 320.741 L
243.268 319.777 L
242.495 318.805 L
241.73 317.825 L
240.972 316.837 L
240.222 315.841 L
239.478 314.836 L
238.743 313.824 L
238.015 312.804 L
237.295 311.776 L
236.582 310.74 L
235.878 309.697 L
235.181 308.646 L
234.493 307.588 L
233.813 306.523 L
233.141 305.45 L
232.477 304.37 L
231.822 303.284 L
231.175 302.19 L
230.536 301.09 L
229.907 299.982 L
229.286 298.868 L
228.673 297.748 L
228.07 296.621 L
227.476 295.488 L
226.89 294.348 L
226.314 293.202 L
225.746 292.051 L
225.188 290.893 L
224.639 289.729 L
224.1 288.56 L
223.569 287.385 L
223.049 286.204 L
222.537 285.018 L
222.035 283.826 L
221.543 282.63 L
221.061 281.428 L
220.588 280.221 L
220.125 279.009 L
219.672 277.792 L
219.229 276.571 L
218.796 275.345 L
218.372 274.114 L
217.959 272.879 L
217.556 271.64 L
217.163 270.396 L
216.78 269.149 L
216.408 267.897 L
216.045 266.642 L
215.693 265.383 L
215.352 264.12 L
215.02 262.853 L
214.699 261.584 L
214.389 260.31 L
214.089 259.034 L
213.8 257.755 L
213.521 256.472 L
213.253 255.187 L
212.995 253.899 L
212.749 252.608 L
212.512 251.315 L
212.287 250.019 L
212.072 248.721 L
211.868 247.421 L
211.675 246.118 L
211.493 244.814 L
211.321 243.508 L
211.161 242.2 L
211.011 240.89 L
210.872 239.579 L
210.744 238.267 L
210.627 236.953 L
210.521 235.638 L
210.426 234.322 L
210.342 233.005 L
210.269 231.688 L
210.206 230.369 L
210.155 229.05 L
210.115 227.731 L
210.086 226.411 L
210.067 225.091 L
210.06 223.77 L
210.064 222.45 L
210.079 221.13 L
210.104 219.81 L
210.141 218.49 L
210.189 217.171 L
210.248 215.852 L
210.317 214.534 L
210.398 213.217 L
210.49 211.901 L
210.592 210.586 L
210.706 209.271 L
210.83 207.959 L
210.966 206.647 L
211.112 205.337 L
211.269 204.029 L
211.437 202.722 L
211.616 201.417 L
211.806 200.114 L
212.006 198.813 L
212.217 197.514 L
212.439 196.218 L
212.672 194.924 L
212.916 193.632 L
213.17 192.343 L
213.435 191.057 L
213.71 189.774 L
213.996 188.493 L
214.292 187.216 L
214.599 185.942 L
214.917 184.671 L
215.245 183.403 L
215.583 182.139 L
215.932 180.879 L
216.291 179.622 L
216.66 178.369 L
217.04 177.12 L
217.43 175.876 L
217.83 174.635 L
218.24 173.399 L
218.66 172.167 L
219.09 170.939 L
219.53 169.716 L
219.98 168.498 L
220.44 167.285 L
220.909 166.076 L
221.389 164.873 L
221.878 163.674 L
222.376 162.481 L
222.885 161.293 L
223.402 160.111 L
223.93 158.934 L
224.466 157.763 L
225.012 156.597 L
225.567 155.438 L
226.132 154.284 L
226.705 153.136 L
227.288 151.995 L
227.88 150.859 L
228.48 149.73 L
229.09 148.608 L
229.708 147.492 L
230.335 146.382 L
230.971 145.28 L
231.615 144.184 L
232.267 143.095 L
232.928 142.013 L
233.598 140.938 L
234.275 139.87 L
234.961 138.81 L
235.655 137.757 L
236.357 136.711 L
237.067 135.673 L
237.785 134.643 L
238.51 133.62 L
239.243 132.605 L
239.984 131.598 L
240.732 130.6 L
241.488 129.609 L
242.251 128.626 L
243.021 127.651 L
243.798 126.685 L
244.583 125.727 L
245.374 124.778 L
246.172 123.837 L
246.977 122.905 L
247.789 121.982 L
248.607 121.068 L
249.431 120.162 L
250.262 119.265 L
251.099 118.378 L
251.943 117.499 L
252.792 116.63 L
253.648 115.77 L
254.509 114.919 L
255.376 114.078 L
256.248 113.246 L
257.127 112.424 L
258.01 111.611 L
258.899 110.808 L
259.793 110.015 L
260.692 109.231 L
261.596 108.458 L
262.505 107.694 L
263.419 106.941 L
264.337 106.197 L
265.26 105.464 L
266.188 104.741 L
267.119 104.028 L
268.055 103.326 L
268.995 102.634 L
269.939 101.952 L
270.887 101.281 L
271.838 100.621 L
272.793 99.9709 L
273.751 99.3317 L
274.713 98.7033 L
275.678 98.0857 L
276.646 97.4789 L
277.617 96.883 L
278.591 96.2981 L
279.568 95.7242 L
280.547 95.1614 L
281.529 94.6096 L
282.513 94.069 L
283.499 93.5396 L
284.488 93.0215 L
285.478 92.5146 L
286.471 92.0191 L
287.464 91.535 L
288.46 91.0623 L
289.457 90.6011 L
290.455 90.1514 L
291.455 89.7133 L
292.455 89.2867 L
293.457 88.8718 L
294.459 88.4686 L
295.462 88.0771 L
296.465 87.6974 L
297.469 87.3294 L
298.473 86.9733 L
299.477 86.6291 L
300.481 86.2967 L
301.485 85.9763 L
302.489 85.6679 L
303.492 85.3714 L
304.495 85.087 L
305.497 84.8147 L
306.498 84.5545 L
307.498 84.3064 L
308.497 84.0705 L
309.495 83.8467 L
310.492 83.6352 L
311.487 83.436 L
312.48 83.249 L
313.471 83.0743 L
314.461 82.912 L
315.448 82.762 L
316.434 82.6244 L
317.417 82.4992 L
318.397 82.3865 L
319.375 82.2862 L
320.35 82.1984 L
321.322 82.1231 L
322.291 82.0604 L
323.256 82.0102 L
324.219 81.9726 L
325.178 81.9476 L
326.133 81.9352 L
327.085 81.9355 L
328.033 81.9484 L
328.976 81.9741 L
329.916 82.0125 L
330.851 82.0635 L
331.782 82.1274 L
332.708 82.204 L
333.63 82.2934 L
334.546 82.3957 L
335.458 82.5108 L
336.364 82.6387 L
337.266 82.7796 L
338.162 82.9333 L
339.052 83.1 L
339.937 83.2796 L
340.816 83.4722 L
341.689 83.6777 L
342.556 83.8963 L
343.416 84.1279 L
344.271 84.3725 L
345.119 84.6302 L
345.96 84.901 L
346.795 85.1849 L
347.623 85.482 L
348.444 85.7922 L
349.258 86.1156 L
350.065 86.4521 L
350.864 86.802 L
351.656 87.165 L
352.441 87.5413 L
353.218 87.931 L
353.987 88.3339 L
354.748 88.7502 L
355.501 89.1798 L
356.246 89.6229 L
356.983 90.0794 L
357.711 90.5493 L
358.431 91.0327 L
359.143 91.5296 L
359.846 92.04 L
360.54 92.5639 L
361.225 93.1015 L
361.902 93.6527 L
362.569 94.2175 L
363.228 94.796 L
363.877 95.3881 L
364.517 95.994 L
365.147 96.6137 L
365.768 97.2472 L
366.38 97.8945 L
366.982 98.5557 L
367.575 99.2307 L
368.157 99.9197 L
368.73 100.623 L
369.293 101.339 L
369.847 102.07 L
370.39 102.815 L
370.924 103.574 L
371.447 104.348 L
371.96 105.135 L
372.464 105.936 L
372.957 106.752 L
373.44 107.582 L
373.913 108.426 L
374.376 109.285 L
374.828 110.158 L
375.27 111.045 L
375.703 111.947 L
376.124 112.863 L
376.536 113.794 L
376.938 114.739 L
377.329 115.698 L
377.711 116.672 L
378.082 117.661 L
378.443 118.664 L
378.794 119.682 L
379.135 120.714 L
379.466 121.761 L
379.787 122.823 L
380.099 123.899 L
380.4 124.99 L
380.692 126.096 L
380.975 127.216 L
381.248 128.351 L
381.511 129.501 L
381.765 130.665 L
382.01 131.844 L
382.246 133.037 L
382.473 134.245 L
382.691 135.468 L
382.9 136.705 L
383.101 137.956 L
383.293 139.222 L
383.476 140.503 L
383.652 141.797 L
383.819 143.106 L
383.979 144.43 L
384.131 145.767 L
384.275 147.118 L
384.412 148.484 L
384.542 149.863 L
384.665 151.256 L
384.781 152.662 L
384.89 154.082 L
384.993 155.516 L
385.09 156.962 L
385.18 158.422 L
385.265 159.895 L
385.344 161.381 L
385.418 162.879 L
385.486 164.39 L
385.55 165.913 L
385.608 167.448 L
385.662 168.995 L
385.712 170.553 L
385.757 172.123 L
385.799 173.704 L
385.836 175.296 L
385.871 176.899 L
385.902 178.512 L
385.929 180.135 L
385.954 181.768 L
385.976 183.41 L
385.996 185.062 L
386.013 186.722 L
386.028 188.391 L
386.041 190.069 L
386.052 191.754 L
386.061 193.447 L
386.07 195.146 L
386.076 196.853 L
386.082 198.566 L
386.086 200.285 L
386.09 202.01 L
386.093 203.74 L
386.095 205.475 L
386.097 207.215 L
386.098 208.958 L
386.099 210.705 L
386.099 212.455 L
386.1 214.208 L
386.1 215.964 L
386.1 217.721 L
386.1 219.479 L
386.1 221.239 L
386.1 222.999 LE
1 0 0 C
386.1 223.56 LS
386.1 223.032 L
386.1 222.504 L
386.1 221.975 L
386.1 221.446 L
386.1 220.917 L
386.1 220.387 L
386.1 219.857 L
386.099 219.326 L
386.099 218.794 L
386.099 218.261 L
386.098 217.727 L
386.097 217.192 L
386.096 216.656 L
386.095 216.118 L
386.093 215.579 L
386.091 215.039 L
386.089 214.496 L
386.086 213.952 L
386.083 213.406 L
386.079 212.859 L
386.074 212.309 L
386.069 211.757 L
386.063 211.203 L
386.057 210.647 L
386.049 210.088 L
386.04 209.527 L
386.031 208.963 L
386.02 208.397 L
386.008 207.828 L
385.995 207.256 L
385.98 206.681 L
385.964 206.104 L
385.946 205.523 L
385.927 204.94 L
385.906 204.353 L
385.883 203.763 L
385.858 203.17 L
385.831 202.574 L
385.802 201.974 L
385.771 201.371 L
385.737 200.764 L
385.701 200.154 L
385.662 199.54 L
385.621 198.923 L
385.577 198.302 L
385.529 197.677 L
385.479 197.049 L
385.426 196.417 L
385.369 195.781 L
385.309 195.141 L
385.245 194.498 L
385.177 193.85 L
385.106 193.199 L
385.031 192.544 L
384.951 191.885 L
384.868 191.222 L
384.78 190.555 L
384.688 189.885 L
384.591 189.21 L
384.489 188.532 L
384.382 187.849 L
384.271 187.163 L
384.154 186.473 L
384.032 185.779 L
383.904 185.081 L
383.771 184.38 L
383.632 183.675 L
383.487 182.966 L
383.336 182.253 L
383.18 181.537 L
383.016 180.817 L
382.847 180.094 L
382.671 179.367 L
382.488 178.636 L
382.298 177.902 L
382.101 177.165 L
381.898 176.425 L
381.686 175.681 L
381.468 174.935 L
381.242 174.185 L
381.008 173.432 L
380.767 172.676 L
380.517 171.918 L
380.26 171.157 L
379.994 170.393 L
379.72 169.626 L
379.438 168.857 L
379.147 168.086 L
378.847 167.313 L
378.538 166.537 L
378.221 165.76 L
377.894 164.98 L
377.558 164.199 L
377.213 163.416 L
376.858 162.632 L
376.494 161.846 L
376.12 161.059 L
375.737 160.271 L
375.343 159.481 L
374.94 158.691 L
374.526 157.901 L
374.102 157.109 L
373.668 156.317 L
373.223 155.525 L
372.768 154.733 L
372.303 153.941 L
371.826 153.149 L
371.339 152.358 L
370.841 151.567 L
370.333 150.776 L
369.813 149.987 L
369.282 149.198 L
368.74 148.411 L
368.186 147.625 L
367.622 146.841 L
367.046 146.059 L
366.458 145.278 L
365.86 144.5 L
365.249 143.724 L
364.627 142.951 L
363.994 142.18 L
363.349 141.412 L
362.692 140.647 L
362.023 139.886 L
361.343 139.128 L
360.65 138.373 L
359.946 137.623 L
359.231 136.877 L
358.503 136.135 L
357.763 135.397 L
357.012 134.665 L
356.249 133.937 L
355.473 133.214 L
354.686 132.497 L
353.887 131.786 L
353.076 131.08 L
352.254 130.38 L
351.419 129.686 L
350.573 128.999 L
349.715 128.319 L
348.845 127.645 L
347.964 126.978 L
347.07 126.319 L
346.166 125.667 L
345.249 125.023 L
344.321 124.387 L
343.382 123.759 L
342.431 123.14 L
341.469 122.529 L
340.495 121.927 L
339.511 121.334 L
338.515 120.75 L
337.508 120.176 L
336.49 119.611 L
335.462 119.057 L
334.422 118.512 L
333.372 117.978 L
332.311 117.454 L
331.24 116.942 L
330.159 116.44 L
329.067 115.949 L
327.965 115.469 L
326.853 115.002 L
325.732 114.546 L
324.6 114.102 L
323.459 113.67 L
322.309 113.25 L
321.149 112.844 L
319.98 112.45 L
318.802 112.069 L
317.615 111.701 L
316.42 111.346 L
315.216 111.005 L
314.004 110.678 L
312.783 110.365 L
311.554 110.065 L
310.318 109.781 L
309.074 109.51 L
307.823 109.254 L
306.564 109.013 L
305.298 108.787 L
304.025 108.576 L
302.746 108.38 L
301.46 108.2 L
300.168 108.035 L
298.87 107.886 L
297.566 107.753 L
296.256 107.637 L
294.941 107.536 L
293.621 107.451 L
292.296 107.383 L
290.966 107.332 L
289.632 107.297 L
288.293 107.279 L
286.951 107.278 L
285.605 107.295 L
284.255 107.328 L
282.902 107.379 L
281.546 107.447 L
280.187 107.532 L
278.826 107.635 L
277.462 107.756 L
276.097 107.895 L
274.729 108.051 L
273.36 108.226 L
271.99 108.418 L
270.62 108.629 L
269.248 108.857 L
267.876 109.104 L
266.504 109.37 L
265.132 109.653 L
263.761 109.955 L
262.39 110.275 L
261.02 110.614 L
259.651 110.971 L
258.284 111.347 L
256.919 111.741 L
255.556 112.154 L
254.196 112.585 L
252.838 113.035 L
251.483 113.504 L
250.131 113.991 L
248.783 114.497 L
247.438 115.021 L
246.098 115.564 L
244.762 116.126 L
243.431 116.706 L
242.105 117.304 L
240.784 117.921 L
239.469 118.556 L
238.159 119.21 L
236.856 119.882 L
235.559 120.572 L
234.269 121.281 L
232.986 122.007 L
231.71 122.752 L
230.442 123.515 L
229.181 124.295 L
227.929 125.094 L
226.685 125.91 L
225.45 126.744 L
224.224 127.595 L
223.007 128.464 L
221.8 129.351 L
220.602 130.254 L
219.415 131.175 L
218.238 132.112 L
217.071 133.067 L
215.916 134.038 L
214.772 135.026 L
213.639 136.03 L
212.518 137.05 L
211.409 138.087 L
210.312 139.14 L
209.228 140.208 L
208.156 141.292 L
207.097 142.392 L
206.052 143.507 L
205.02 144.637 L
204.002 145.782 L
202.998 146.942 L
202.009 148.117 L
201.033 149.305 L
200.073 150.508 L
199.127 151.725 L
198.196 152.956 L
197.281 154.201 L
196.382 155.458 L
195.498 156.729 L
194.631 158.013 L
193.779 159.309 L
192.944 160.618 L
192.126 161.939 L
191.325 163.272 L
190.54 164.617 L
189.773 165.973 L
189.024 167.341 L
188.292 168.719 L
187.577 170.108 L
186.881 171.508 L
186.203 172.918 L
185.543 174.338 L
184.902 175.767 L
184.279 177.206 L
183.675 178.654 L
183.09 180.111 L
182.524 181.576 L
181.978 183.05 L
181.45 184.532 L
180.943 186.021 L
180.454 187.518 L
179.986 189.022 L
179.537 190.533 L
179.108 192.051 L
178.7 193.574 L
178.311 195.104 L
177.943 196.639 L
177.595 198.18 L
177.268 199.726 L
176.961 201.276 L
176.674 202.831 L
176.409 204.39 L
176.164 205.953 L
175.94 207.519 L
175.737 209.089 L
175.554 210.661 L
175.393 212.236 L
175.252 213.814 L
175.133 215.393 L
175.035 216.974 L
174.957 218.556 L
174.901 220.139 L
174.866 221.723 L
174.852 223.308 L
174.859 224.892 L
174.888 226.476 L
174.937 228.06 L
175.008 229.642 L
175.099 231.223 L
175.212 232.803 L
175.346 234.381 L
175.501 235.957 L
175.676 237.53 L
175.873 239.101 L
176.09 240.668 L
176.329 242.232 L
176.588 243.793 L
176.867 245.349 L
177.168 246.901 L
177.489 248.448 L
177.83 249.991 L
178.192 251.528 L
178.574 253.059 L
178.976 254.585 L
179.398 256.104 L
179.841 257.617 L
180.303 259.124 L
180.785 260.623 L
181.286 262.115 L
181.808 263.599 L
182.348 265.075 L
182.908 266.543 L
183.487 268.003 L
184.085 269.454 L
184.701 270.896 L
185.337 272.328 L
185.991 273.751 L
186.663 275.164 L
187.354 276.567 L
188.062 277.96 L
188.789 279.341 L
189.533 280.712 L
190.294 282.072 L
191.073 283.421 L
191.869 284.758 L
192.682 286.082 L
193.511 287.395 L
194.358 288.696 L
195.22 289.983 L
196.099 291.258 L
196.993 292.52 L
197.903 293.769 L
198.829 295.004 L
199.77 296.225 L
200.726 297.433 L
201.696 298.626 L
202.681 299.805 L
203.681 300.97 L
204.695 302.12 L
205.722 303.255 L
206.763 304.375 L
207.817 305.479 L
208.885 306.568 L
209.965 307.642 L
211.058 308.699 L
212.163 309.741 L
213.28 310.767 L
214.41 311.776 L
215.55 312.769 L
216.702 313.746 L
217.865 314.706 L
219.039 315.648 L
220.223 316.575 L
221.417 317.483 L
222.621 318.375 L
223.835 319.25 L
225.058 320.107 L
226.291 320.946 L
227.532 321.768 L
228.781 322.572 L
230.039 323.358 L
231.305 324.127 L
232.579 324.877 L
233.859 325.61 L
235.147 326.324 L
236.442 327.02 L
237.743 327.698 L
239.051 328.358 L
240.364 328.999 L
241.684 329.621 L
243.008 330.226 L
244.338 330.812 L
245.672 331.379 L
247.011 331.928 L
248.354 332.458 L
249.701 332.97 L
251.052 333.463 L
252.406 333.937 L
253.763 334.393 L
255.123 334.831 L
256.485 335.249 L
257.849 335.65 L
259.216 336.031 L
260.584 336.394 L
261.953 336.739 L
263.324 337.065 L
264.695 337.373 L
266.067 337.662 L
267.439 337.933 L
268.811 338.186 L
270.183 338.42 L
271.554 338.637 L
272.924 338.835 L
274.293 339.015 L
275.661 339.177 L
277.027 339.322 L
278.392 339.448 L
279.754 339.557 L
281.113 339.648 L
282.47 339.722 L
283.824 339.778 L
285.175 339.817 L
286.523 339.838 L
287.866 339.843 L
289.206 339.83 L
290.542 339.801 L
291.873 339.755 L
293.2 339.692 L
294.521 339.613 L
295.838 339.517 L
297.149 339.406 L
298.455 339.278 L
299.755 339.134 L
301.049 338.974 L
302.337 338.799 L
303.618 338.608 L
304.893 338.402 L
306.161 338.181 L
307.422 337.944 L
308.676 337.693 L
309.923 337.427 L
311.161 337.147 L
312.393 336.852 L
313.616 336.543 L
314.831 336.22 L
316.037 335.884 L
317.236 335.534 L
318.425 335.17 L
319.606 334.793 L
320.778 334.403 L
321.94 334 L
323.094 333.585 L
324.238 333.157 L
325.372 332.717 L
326.497 332.265 L
327.612 331.801 L
328.717 331.325 L
329.812 330.838 L
330.897 330.34 L
331.971 329.83 L
333.035 329.31 L
334.089 328.779 L
335.132 328.238 L
336.164 327.686 L
337.185 327.125 L
338.195 326.554 L
339.195 325.973 L
340.183 325.383 L
341.16 324.784 L
342.126 324.176 L
343.08 323.559 L
344.023 322.934 L
344.955 322.3 L
345.875 321.659 L
346.783 321.009 L
347.68 320.352 L
348.566 319.688 L
349.439 319.017 L
350.301 318.338 L
351.151 317.653 L
351.989 316.962 L
352.816 316.264 L
353.63 315.56 L
354.433 314.85 L
355.224 314.135 L
356.003 313.414 L
356.77 312.688 L
357.525 311.956 L
358.269 311.221 L
359 310.48 L
359.72 309.735 L
360.427 308.986 L
361.123 308.233 L
361.808 307.476 L
362.48 306.716 L
363.141 305.952 L
363.789 305.185 L
364.427 304.415 L
365.052 303.643 L
365.666 302.867 L
366.269 302.09 L
366.86 301.31 L
367.44 300.528 L
368.008 299.744 L
368.565 298.959 L
369.11 298.172 L
369.645 297.384 L
370.168 296.595 L
370.681 295.805 L
371.182 295.014 L
371.672 294.223 L
372.152 293.431 L
372.621 292.639 L
373.08 291.847 L
373.528 291.055 L
373.965 290.263 L
374.392 289.471 L
374.809 288.68 L
375.216 287.89 L
375.612 287.101 L
375.999 286.312 L
376.376 285.525 L
376.743 284.738 L
377.101 283.953 L
377.449 283.17 L
377.788 282.388 L
378.118 281.608 L
378.438 280.83 L
378.75 280.054 L
379.052 279.28 L
379.346 278.508 L
379.631 277.738 L
379.908 276.971 L
380.176 276.206 L
380.436 275.444 L
380.688 274.685 L
380.932 273.928 L
381.168 273.175 L
381.397 272.424 L
381.618 271.676 L
381.831 270.932 L
382.037 270.19 L
382.236 269.452 L
382.428 268.717 L
382.613 267.986 L
382.791 267.258 L
382.963 266.533 L
383.128 265.812 L
383.287 265.095 L
383.44 264.381 L
383.586 263.671 L
383.727 262.964 L
383.862 262.262 L
383.992 261.563 L
384.115 260.868 L
384.234 260.176 L
384.347 259.489 L
384.455 258.805 L
384.559 258.126 L
384.657 257.45 L
384.751 256.778 L
384.84 256.11 L
384.925 255.446 L
385.006 254.786 L
385.082 254.129 L
385.155 253.477 L
385.224 252.828 L
385.289 252.184 L
385.35 251.543 L
385.408 250.906 L
385.462 250.272 L
385.514 249.643 L
385.562 249.017 L
385.607 248.395 L
385.649 247.776 L
385.689 247.161 L
385.726 246.55 L
385.76 245.942 L
385.792 245.338 L
385.822 244.737 L
385.85 244.14 L
385.875 243.545 L
385.899 242.955 L
385.92 242.367 L
385.94 241.782 L
385.958 241.201 L
385.975 240.622 L
385.99 240.047 L
386.004 239.474 L
386.016 238.904 L
386.027 238.337 L
386.037 237.773 L
386.046 237.211 L
386.054 236.651 L
386.061 236.094 L
386.068 235.539 L
386.073 234.987 L
386.078 234.436 L
386.082 233.888 L
386.085 233.341 L
386.088 232.797 L
386.091 232.254 L
386.093 231.713 L
386.094 231.173 L
386.096 230.635 L
386.097 230.098 L
386.098 229.563 L
386.099 229.029 L
386.099 228.495 L
386.099 227.963 L
386.1 227.432 L
386.1 226.901 L
386.1 226.371 L
386.1 225.842 L
386.1 225.313 L
386.1 224.785 L
386.1 224.256 L
386.1 223.728 LE
0 1 0 C
386.1 223.56 LS
386.1 223.12 L
386.1 222.68 L
386.1 222.239 L
386.1 221.799 L
386.1 221.358 L
386.1 220.916 L
386.1 220.474 L
386.1 220.032 L
386.099 219.588 L
386.099 219.144 L
386.098 218.699 L
386.098 218.254 L
386.097 217.807 L
386.096 217.359 L
386.094 216.909 L
386.093 216.459 L
386.091 216.007 L
386.089 215.554 L
386.086 215.099 L
386.083 214.642 L
386.079 214.184 L
386.074 213.724 L
386.069 213.262 L
386.064 212.799 L
386.057 212.333 L
386.05 211.866 L
386.042 211.396 L
386.033 210.924 L
386.023 210.45 L
386.012 209.973 L
386 209.494 L
385.987 209.013 L
385.972 208.529 L
385.956 208.043 L
385.938 207.554 L
385.919 207.063 L
385.898 206.568 L
385.876 206.071 L
385.852 205.571 L
385.826 205.069 L
385.798 204.563 L
385.768 204.055 L
385.735 203.543 L
385.701 203.029 L
385.664 202.511 L
385.624 201.991 L
385.583 201.467 L
385.538 200.941 L
385.491 200.411 L
385.44 199.878 L
385.387 199.341 L
385.331 198.802 L
385.272 198.259 L
385.209 197.713 L
385.143 197.164 L
385.073 196.612 L
385 196.056 L
384.923 195.497 L
384.842 194.935 L
384.757 194.37 L
384.668 193.801 L
384.575 193.229 L
384.478 192.654 L
384.376 192.076 L
384.27 191.495 L
384.159 190.91 L
384.043 190.322 L
383.923 189.732 L
383.797 189.138 L
383.666 188.541 L
383.53 187.941 L
383.389 187.338 L
383.242 186.732 L
383.09 186.124 L
382.932 185.512 L
382.768 184.898 L
382.598 184.281 L
382.422 183.661 L
382.24 183.039 L
382.052 182.414 L
381.857 181.787 L
381.656 181.157 L
381.448 180.525 L
381.233 179.89 L
381.012 179.254 L
380.784 178.615 L
380.548 177.975 L
380.306 177.332 L
380.056 176.687 L
379.799 176.041 L
379.534 175.393 L
379.262 174.744 L
378.982 174.093 L
378.694 173.44 L
378.399 172.786 L
378.095 172.132 L
377.784 171.476 L
377.464 170.819 L
377.136 170.161 L
376.8 169.503 L
376.455 168.844 L
376.102 168.184 L
375.74 167.525 L
375.37 166.864 L
374.99 166.204 L
374.602 165.544 L
374.205 164.884 L
373.799 164.225 L
373.385 163.565 L
372.96 162.907 L
372.527 162.249 L
372.085 161.592 L
371.633 160.936 L
371.172 160.281 L
370.701 159.628 L
370.221 158.976 L
369.732 158.325 L
369.233 157.677 L
368.724 157.03 L
368.206 156.385 L
367.678 155.743 L
367.14 155.103 L
366.593 154.466 L
366.036 153.831 L
365.469 153.2 L
364.892 152.571 L
364.305 151.946 L
363.709 151.324 L
363.102 150.706 L
362.486 150.091 L
361.86 149.481 L
361.224 148.874 L
360.578 148.272 L
359.922 147.674 L
359.256 147.081 L
358.58 146.493 L
357.895 145.91 L
357.199 145.332 L
356.494 144.759 L
355.779 144.192 L
355.054 143.631 L
354.32 143.075 L
353.575 142.526 L
352.821 141.983 L
352.058 141.446 L
351.284 140.916 L
350.501 140.393 L
349.709 139.877 L
348.907 139.368 L
348.096 138.866 L
347.276 138.372 L
346.446 137.885 L
345.607 137.407 L
344.759 136.936 L
343.901 136.474 L
343.035 136.02 L
342.16 135.575 L
341.276 135.139 L
340.384 134.711 L
339.482 134.293 L
338.573 133.884 L
337.654 133.485 L
336.728 133.095 L
335.793 132.715 L
334.85 132.345 L
333.899 131.985 L
332.941 131.635 L
331.974 131.296 L
331 130.968 L
330.018 130.65 L
329.03 130.344 L
328.033 130.048 L
327.03 129.764 L
326.02 129.492 L
325.003 129.231 L
323.979 128.981 L
322.948 128.744 L
321.912 128.518 L
320.869 128.305 L
319.82 128.104 L
318.765 127.916 L
317.704 127.74 L
316.638 127.577 L
315.567 127.427 L
314.49 127.29 L
313.408 127.165 L
312.322 127.055 L
311.23 126.957 L
310.134 126.873 L
309.034 126.803 L
307.93 126.746 L
306.822 126.703 L
305.71 126.674 L
304.595 126.659 L
303.476 126.659 L
302.354 126.672 L
301.229 126.7 L
300.102 126.742 L
298.972 126.799 L
297.839 126.87 L
296.705 126.956 L
295.568 127.057 L
294.43 127.172 L
293.291 127.303 L
292.15 127.448 L
291.009 127.609 L
289.866 127.784 L
288.723 127.975 L
287.58 128.18 L
286.437 128.401 L
285.293 128.638 L
284.15 128.889 L
283.008 129.156 L
281.867 129.438 L
280.726 129.736 L
279.587 130.049 L
278.449 130.378 L
277.313 130.722 L
276.18 131.081 L
275.048 131.456 L
273.919 131.847 L
272.792 132.253 L
271.669 132.674 L
270.549 133.111 L
269.432 133.563 L
268.319 134.031 L
267.209 134.515 L
266.104 135.013 L
265.003 135.527 L
263.907 136.057 L
262.816 136.602 L
261.73 137.162 L
260.649 137.737 L
259.574 138.327 L
258.505 138.933 L
257.442 139.553 L
256.385 140.189 L
255.334 140.84 L
254.291 141.505 L
253.254 142.185 L
252.225 142.88 L
251.203 143.59 L
250.189 144.314 L
249.183 145.052 L
248.185 145.805 L
247.196 146.572 L
246.215 147.354 L
245.243 148.149 L
244.28 148.958 L
243.326 149.781 L
242.382 150.618 L
241.448 151.469 L
240.524 152.332 L
239.61 153.21 L
238.706 154.1 L
237.813 155.004 L
236.931 155.92 L
236.06 156.849 L
235.2 157.791 L
234.352 158.745 L
233.515 159.712 L
232.69 160.69 L
231.878 161.681 L
231.077 162.684 L
230.289 163.698 L
229.514 164.723 L
228.751 165.76 L
228.002 166.809 L
227.265 167.868 L
226.542 168.937 L
225.833 170.018 L
225.137 171.108 L
224.455 172.209 L
223.787 173.32 L
223.134 174.441 L
222.494 175.571 L
221.87 176.711 L
221.26 177.859 L
220.664 179.017 L
220.084 180.183 L
219.519 181.358 L
218.969 182.541 L
218.435 183.733 L
217.916 184.932 L
217.413 186.138 L
216.925 187.352 L
216.454 188.574 L
215.998 189.802 L
215.559 191.036 L
215.135 192.278 L
214.729 193.525 L
214.338 194.778 L
213.964 196.038 L
213.607 197.302 L
213.266 198.572 L
212.943 199.847 L
212.636 201.126 L
212.346 202.41 L
212.073 203.698 L
211.817 204.99 L
211.579 206.286 L
211.357 207.585 L
211.153 208.887 L
210.966 210.193 L
210.797 211.501 L
210.645 212.811 L
210.511 214.124 L
210.394 215.438 L
210.294 216.754 L
210.212 218.072 L
210.148 219.39 L
210.101 220.71 L
210.072 222.029 L
210.06 223.35 L
210.066 224.67 L
210.09 225.99 L
210.131 227.31 L
210.19 228.628 L
210.266 229.946 L
210.36 231.263 L
210.471 232.578 L
210.6 233.891 L
210.747 235.202 L
210.911 236.511 L
211.092 237.817 L
211.29 239.12 L
211.506 240.421 L
211.739 241.718 L
211.99 243.011 L
212.257 244.3 L
212.542 245.586 L
212.843 246.866 L
213.161 248.143 L
213.497 249.414 L
213.849 250.68 L
214.217 251.941 L
214.602 253.196 L
215.004 254.446 L
215.422 255.689 L
215.856 256.926 L
216.307 258.156 L
216.773 259.379 L
217.256 260.596 L
217.754 261.805 L
218.268 263.006 L
218.797 264.2 L
219.342 265.386 L
219.903 266.563 L
220.478 267.732 L
221.068 268.893 L
221.674 270.045 L
222.294 271.187 L
222.928 272.32 L
223.577 273.444 L
224.241 274.558 L
224.918 275.662 L
225.61 276.756 L
226.315 277.84 L
227.033 278.913 L
227.766 279.975 L
228.511 281.027 L
229.269 282.067 L
230.041 283.097 L
230.825 284.115 L
231.621 285.121 L
232.43 286.115 L
233.251 287.098 L
234.084 288.068 L
234.929 289.026 L
235.785 289.972 L
236.652 290.905 L
237.531 291.826 L
238.421 292.733 L
239.321 293.628 L
240.232 294.51 L
241.153 295.378 L
242.084 296.232 L
243.025 297.074 L
243.975 297.901 L
244.935 298.715 L
245.904 299.515 L
246.882 300.3 L
247.869 301.072 L
248.864 301.83 L
249.868 302.573 L
250.879 303.301 L
251.899 304.016 L
252.926 304.715 L
253.96 305.4 L
255.001 306.07 L
256.049 306.725 L
257.104 307.366 L
258.165 307.991 L
259.233 308.601 L
260.306 309.197 L
261.385 309.777 L
262.47 310.342 L
263.559 310.891 L
264.654 311.426 L
265.753 311.945 L
266.857 312.448 L
267.965 312.936 L
269.077 313.409 L
270.192 313.867 L
271.312 314.308 L
272.434 314.735 L
273.56 315.146 L
274.688 315.541 L
275.819 315.921 L
276.952 316.286 L
278.087 316.634 L
279.224 316.968 L
280.363 317.286 L
281.503 317.589 L
282.644 317.876 L
283.786 318.148 L
284.929 318.404 L
286.072 318.645 L
287.216 318.871 L
288.359 319.082 L
289.502 319.277 L
290.645 319.457 L
291.787 319.622 L
292.928 319.772 L
294.068 319.908 L
295.206 320.028 L
296.343 320.133 L
297.478 320.224 L
298.611 320.3 L
299.742 320.361 L
300.87 320.408 L
301.996 320.441 L
303.119 320.459 L
304.239 320.462 L
305.355 320.452 L
306.468 320.427 L
307.577 320.389 L
308.683 320.337 L
309.784 320.271 L
310.882 320.191 L
311.974 320.098 L
313.063 319.991 L
314.146 319.871 L
315.224 319.738 L
316.298 319.592 L
317.365 319.433 L
318.428 319.262 L
319.484 319.077 L
320.535 318.88 L
321.58 318.671 L
322.619 318.449 L
323.651 318.216 L
324.677 317.97 L
325.696 317.713 L
326.709 317.444 L
327.714 317.163 L
328.713 316.871 L
329.704 316.568 L
330.688 316.254 L
331.665 315.929 L
332.634 315.594 L
333.595 315.248 L
334.548 314.891 L
335.494 314.524 L
336.431 314.147 L
337.36 313.761 L
338.281 313.364 L
339.193 312.958 L
340.097 312.543 L
340.993 312.118 L
341.879 311.685 L
342.757 311.242 L
343.626 310.791 L
344.486 310.332 L
345.337 309.864 L
346.179 309.388 L
347.012 308.904 L
347.836 308.412 L
348.65 307.913 L
349.455 307.406 L
350.25 306.892 L
351.036 306.371 L
351.812 305.843 L
352.579 305.309 L
353.336 304.768 L
354.084 304.22 L
354.821 303.667 L
355.549 303.107 L
356.267 302.542 L
356.976 301.971 L
357.674 301.395 L
358.363 300.813 L
359.042 300.227 L
359.711 299.635 L
360.37 299.039 L
361.019 298.438 L
361.658 297.833 L
362.288 297.224 L
362.907 296.61 L
363.517 295.993 L
364.116 295.373 L
364.706 294.748 L
365.286 294.121 L
365.856 293.49 L
366.417 292.856 L
366.967 292.22 L
367.508 291.581 L
368.039 290.939 L
368.56 290.295 L
369.072 289.649 L
369.574 289.001 L
370.067 288.352 L
370.55 287.7 L
371.023 287.047 L
371.487 286.393 L
371.942 285.737 L
372.387 285.08 L
372.823 284.423 L
373.25 283.764 L
373.668 283.105 L
374.077 282.446 L
374.477 281.786 L
374.868 281.126 L
375.25 280.466 L
375.623 279.806 L
375.987 279.146 L
376.343 278.486 L
376.691 277.827 L
377.03 277.168 L
377.36 276.51 L
377.683 275.853 L
377.997 275.197 L
378.303 274.542 L
378.601 273.888 L
378.891 273.235 L
379.173 272.584 L
379.448 271.934 L
379.715 271.285 L
379.975 270.638 L
380.227 269.993 L
380.472 269.35 L
380.709 268.709 L
380.94 268.069 L
381.164 267.432 L
381.38 266.797 L
381.59 266.164 L
381.794 265.534 L
381.99 264.906 L
382.181 264.28 L
382.365 263.657 L
382.543 263.036 L
382.714 262.418 L
382.88 261.803 L
383.04 261.191 L
383.194 260.581 L
383.343 259.975 L
383.486 259.371 L
383.624 258.77 L
383.756 258.172 L
383.883 257.577 L
384.005 256.986 L
384.123 256.397 L
384.235 255.811 L
384.343 255.229 L
384.446 254.65 L
384.545 254.074 L
384.639 253.501 L
384.729 252.931 L
384.816 252.365 L
384.898 251.802 L
384.976 251.242 L
385.05 250.685 L
385.121 250.132 L
385.188 249.581 L
385.252 249.034 L
385.312 248.491 L
385.37 247.95 L
385.424 247.413 L
385.475 246.879 L
385.523 246.348 L
385.569 245.82 L
385.611 245.296 L
385.652 244.774 L
385.689 244.256 L
385.725 243.74 L
385.758 243.228 L
385.788 242.718 L
385.817 242.212 L
385.844 241.708 L
385.869 241.208 L
385.891 240.71 L
385.913 240.215 L
385.932 239.722 L
385.95 239.232 L
385.967 238.745 L
385.982 238.261 L
385.996 237.779 L
386.008 237.299 L
386.02 236.822 L
386.03 236.347 L
386.039 235.874 L
386.048 235.404 L
386.055 234.935 L
386.062 234.469 L
386.068 234.005 L
386.073 233.543 L
386.077 233.082 L
386.081 232.623 L
386.085 232.166 L
386.088 231.711 L
386.09 231.257 L
386.092 230.805 L
386.094 230.354 L
386.095 229.904 L
386.097 229.456 L
386.097 229.009 L
386.098 228.562 L
386.099 228.117 L
386.099 227.673 L
386.099 227.229 L
386.1 226.787 L
386.1 226.344 L
386.1 225.903 L
386.1 225.462 L
386.1 225.021 L
386.1 224.581 L
386.1 224.14 L
386.1 223.7 LE
1 0 1 C
386.1 223.56 LS
386.1 223.208 L
386.1 222.856 L
386.1 222.503 L
386.1 222.151 L
386.1 221.798 L
386.1 221.445 L
386.1 221.091 L
386.1 220.737 L
386.099 220.383 L
386.099 220.027 L
386.099 219.672 L
386.098 219.315 L
386.097 218.957 L
386.097 218.599 L
386.096 218.24 L
386.094 217.879 L
386.093 217.518 L
386.091 217.155 L
386.089 216.791 L
386.086 216.426 L
386.083 216.059 L
386.08 215.691 L
386.076 215.322 L
386.071 214.951 L
386.066 214.579 L
386.06 214.204 L
386.054 213.829 L
386.047 213.451 L
386.039 213.072 L
386.03 212.691 L
386.02 212.308 L
386.009 211.923 L
385.997 211.535 L
385.985 211.146 L
385.971 210.755 L
385.955 210.362 L
385.939 209.967 L
385.921 209.569 L
385.901 209.169 L
385.881 208.767 L
385.858 208.363 L
385.834 207.956 L
385.808 207.547 L
385.781 207.135 L
385.751 206.721 L
385.72 206.305 L
385.686 205.886 L
385.65 205.464 L
385.613 205.04 L
385.572 204.614 L
385.53 204.185 L
385.485 203.753 L
385.437 203.319 L
385.387 202.883 L
385.334 202.443 L
385.279 202.001 L
385.22 201.557 L
385.158 201.11 L
385.094 200.66 L
385.026 200.208 L
384.955 199.753 L
384.88 199.295 L
384.802 198.835 L
384.721 198.373 L
384.636 197.908 L
384.547 197.44 L
384.455 196.97 L
384.358 196.497 L
384.258 196.022 L
384.153 195.545 L
384.044 195.065 L
383.931 194.582 L
383.814 194.098 L
383.692 193.611 L
383.565 193.122 L
383.434 192.63 L
383.298 192.137 L
383.158 191.641 L
383.012 191.143 L
382.861 190.643 L
382.706 190.141 L
382.545 189.637 L
382.378 189.132 L
382.207 188.624 L
382.03 188.115 L
381.847 187.604 L
381.659 187.092 L
381.465 186.577 L
381.265 186.062 L
381.059 185.545 L
380.847 185.026 L
380.629 184.507 L
380.406 183.986 L
380.175 183.464 L
379.939 182.941 L
379.696 182.417 L
379.447 181.893 L
379.191 181.367 L
378.929 180.841 L
378.66 180.314 L
378.384 179.787 L
378.101 179.259 L
377.812 178.732 L
377.516 178.204 L
377.212 177.675 L
376.902 177.147 L
376.584 176.619 L
376.26 176.092 L
375.928 175.564 L
375.588 175.038 L
375.242 174.511 L
374.888 173.986 L
374.526 173.461 L
374.158 172.937 L
373.781 172.414 L
373.397 171.893 L
373.006 171.372 L
372.606 170.853 L
372.199 170.336 L
371.785 169.82 L
371.362 169.307 L
370.932 168.795 L
370.494 168.285 L
370.049 167.777 L
369.595 167.272 L
369.134 166.769 L
368.664 166.269 L
368.187 165.771 L
367.702 165.277 L
367.209 164.785 L
366.708 164.297 L
366.199 163.811 L
365.682 163.33 L
365.157 162.851 L
364.625 162.377 L
364.084 161.906 L
363.536 161.44 L
362.98 160.978 L
362.415 160.519 L
361.843 160.066 L
361.263 159.617 L
360.676 159.172 L
360.08 158.733 L
359.477 158.298 L
358.866 157.869 L
358.247 157.445 L
357.621 157.026 L
356.987 156.613 L
356.346 156.206 L
355.697 155.805 L
355.04 155.409 L
354.377 155.02 L
353.705 154.637 L
353.027 154.261 L
352.341 153.891 L
351.648 153.528 L
350.948 153.172 L
350.241 152.823 L
349.527 152.481 L
348.806 152.146 L
348.078 151.819 L
347.344 151.5 L
346.602 151.188 L
345.854 150.884 L
345.1 150.588 L
344.34 150.3 L
343.573 150.02 L
342.799 149.749 L
342.02 149.486 L
341.235 149.232 L
340.444 148.987 L
339.647 148.751 L
338.844 148.523 L
338.036 148.305 L
337.222 148.096 L
336.403 147.897 L
335.579 147.707 L
334.749 147.527 L
333.915 147.356 L
333.076 147.195 L
332.232 147.045 L
331.384 146.904 L
330.531 146.774 L
329.673 146.653 L
328.812 146.544 L
327.947 146.444 L
327.077 146.356 L
326.204 146.278 L
325.328 146.21 L
324.447 146.154 L
323.564 146.109 L
322.678 146.075 L
321.788 146.051 L
320.896 146.04 L
320.001 146.039 L
319.103 146.05 L
318.203 146.072 L
317.301 146.106 L
316.397 146.151 L
315.491 146.208 L
314.584 146.277 L
313.675 146.357 L
312.764 146.45 L
311.853 146.554 L
310.94 146.671 L
310.027 146.799 L
309.113 146.939 L
308.199 147.092 L
307.284 147.256 L
306.369 147.433 L
305.455 147.622 L
304.54 147.823 L
303.626 148.037 L
302.713 148.263 L
301.801 148.501 L
300.89 148.751 L
299.979 149.014 L
299.071 149.289 L
298.164 149.577 L
297.258 149.877 L
296.355 150.189 L
295.454 150.514 L
294.555 150.851 L
293.659 151.201 L
292.765 151.563 L
291.875 151.937 L
290.987 152.324 L
290.103 152.723 L
289.223 153.134 L
288.346 153.557 L
287.473 153.993 L
286.604 154.441 L
285.739 154.901 L
284.879 155.374 L
284.024 155.858 L
283.173 156.355 L
282.328 156.863 L
281.487 157.384 L
280.653 157.916 L
279.823 158.46 L
279 159.016 L
278.182 159.584 L
277.371 160.163 L
276.566 160.754 L
275.768 161.356 L
274.976 161.97 L
274.192 162.595 L
273.414 163.231 L
272.644 163.879 L
271.881 164.537 L
271.126 165.207 L
270.379 165.887 L
269.639 166.578 L
268.908 167.28 L
268.185 167.992 L
267.471 168.715 L
266.765 169.448 L
266.068 170.191 L
265.38 170.945 L
264.702 171.708 L
264.032 172.481 L
263.372 173.264 L
262.722 174.057 L
262.082 174.859 L
261.451 175.67 L
260.831 176.491 L
260.221 177.32 L
259.621 178.159 L
259.032 179.006 L
258.454 179.862 L
257.886 180.726 L
257.33 181.599 L
256.784 182.479 L
256.25 183.368 L
255.727 184.265 L
255.215 185.169 L
254.716 186.08 L
254.228 186.999 L
253.752 187.926 L
253.287 188.859 L
252.835 189.799 L
252.395 190.745 L
251.968 191.698 L
251.553 192.657 L
251.15 193.623 L
250.76 194.594 L
250.383 195.571 L
250.018 196.553 L
249.667 197.541 L
249.328 198.534 L
249.003 199.532 L
248.69 200.535 L
248.391 201.542 L
248.106 202.554 L
247.833 203.569 L
247.574 204.589 L
247.329 205.613 L
247.097 206.64 L
246.878 207.67 L
246.674 208.704 L
246.483 209.741 L
246.306 210.78 L
246.143 211.822 L
245.993 212.866 L
245.858 213.913 L
245.736 214.961 L
245.629 216.011 L
245.535 217.063 L
245.455 218.115 L
245.39 219.169 L
245.338 220.224 L
245.301 221.28 L
245.277 222.336 L
245.268 223.392 L
245.273 224.448 L
245.292 225.504 L
245.325 226.56 L
245.372 227.615 L
245.433 228.669 L
245.508 229.722 L
245.597 230.774 L
245.7 231.825 L
245.817 232.874 L
245.949 233.921 L
246.094 234.966 L
246.252 236.008 L
246.425 237.049 L
246.612 238.086 L
246.812 239.121 L
247.026 240.152 L
247.253 241.18 L
247.494 242.205 L
247.749 243.226 L
248.017 244.243 L
248.299 245.256 L
248.594 246.265 L
248.902 247.269 L
249.223 248.268 L
249.558 249.263 L
249.905 250.253 L
250.265 251.237 L
250.639 252.215 L
251.025 253.189 L
251.423 254.156 L
251.834 255.117 L
252.258 256.072 L
252.694 257.021 L
253.142 257.963 L
253.602 258.898 L
254.075 259.826 L
254.559 260.748 L
255.055 261.662 L
255.563 262.568 L
256.082 263.467 L
256.613 264.358 L
257.155 265.242 L
257.708 266.117 L
258.272 266.984 L
258.847 267.842 L
259.432 268.692 L
260.029 269.534 L
260.636 270.366 L
261.253 271.189 L
261.88 272.004 L
262.517 272.809 L
263.164 273.604 L
263.821 274.39 L
264.487 275.167 L
265.163 275.933 L
265.848 276.69 L
266.542 277.436 L
267.245 278.173 L
267.957 278.899 L
268.677 279.614 L
269.405 280.32 L
270.142 281.014 L
270.887 281.698 L
271.64 282.371 L
272.4 283.033 L
273.168 283.684 L
273.943 284.324 L
274.726 284.952 L
275.515 285.57 L
276.311 286.176 L
277.114 286.77 L
277.923 287.353 L
278.739 287.924 L
279.56 288.484 L
280.388 289.032 L
281.221 289.568 L
282.059 290.092 L
282.903 290.605 L
283.752 291.105 L
284.606 291.593 L
285.465 292.069 L
286.328 292.533 L
287.196 292.985 L
288.067 293.425 L
288.943 293.852 L
289.822 294.268 L
290.705 294.671 L
291.592 295.061 L
292.481 295.439 L
293.374 295.805 L
294.269 296.159 L
295.167 296.5 L
296.068 296.829 L
296.97 297.145 L
297.875 297.449 L
298.782 297.74 L
299.69 298.02 L
300.6 298.286 L
301.511 298.541 L
302.423 298.783 L
303.336 299.013 L
304.249 299.23 L
305.163 299.435 L
306.078 299.628 L
306.993 299.809 L
307.907 299.977 L
308.822 300.134 L
309.736 300.278 L
310.649 300.41 L
311.562 300.53 L
312.474 300.638 L
313.385 300.734 L
314.294 300.819 L
315.202 300.891 L
316.109 300.952 L
317.014 301.001 L
317.916 301.039 L
318.817 301.064 L
319.715 301.079 L
320.611 301.082 L
321.504 301.074 L
322.394 301.054 L
323.282 301.023 L
324.166 300.981 L
325.048 300.929 L
325.925 300.865 L
326.8 300.79 L
327.67 300.705 L
328.537 300.609 L
329.399 300.503 L
330.258 300.386 L
331.112 300.259 L
331.962 300.121 L
332.808 299.974 L
333.648 299.816 L
334.484 299.649 L
335.315 299.471 L
336.141 299.285 L
336.962 299.088 L
337.777 298.882 L
338.587 298.667 L
339.392 298.443 L
340.19 298.209 L
340.983 297.967 L
341.771 297.715 L
342.552 297.456 L
343.327 297.187 L
344.096 296.91 L
344.859 296.625 L
345.615 296.331 L
346.365 296.03 L
347.108 295.721 L
347.845 295.403 L
348.575 295.079 L
349.298 294.746 L
350.014 294.407 L
350.724 294.06 L
351.426 293.706 L
352.121 293.345 L
352.809 292.978 L
353.49 292.603 L
354.164 292.222 L
354.83 291.835 L
355.489 291.442 L
356.14 291.042 L
356.784 290.637 L
357.42 290.226 L
358.049 289.809 L
358.67 289.387 L
359.283 288.959 L
359.889 288.526 L
360.487 288.088 L
361.077 287.645 L
361.659 287.198 L
362.234 286.746 L
362.801 286.289 L
363.359 285.828 L
363.91 285.363 L
364.454 284.893 L
364.989 284.42 L
365.516 283.943 L
366.035 283.462 L
366.547 282.978 L
367.05 282.491 L
367.546 282 L
368.033 281.507 L
368.513 281.01 L
368.985 280.511 L
369.449 280.009 L
369.905 279.504 L
370.353 278.997 L
370.794 278.488 L
371.226 277.977 L
371.651 277.464 L
372.068 276.948 L
372.478 276.432 L
372.879 275.913 L
373.273 275.393 L
373.66 274.872 L
374.038 274.35 L
374.41 273.826 L
374.774 273.302 L
375.13 272.776 L
375.479 272.25 L
375.82 271.723 L
376.155 271.196 L
376.482 270.669 L
376.801 270.141 L
377.114 269.613 L
377.42 269.085 L
377.718 268.557 L
378.01 268.029 L
378.295 267.501 L
378.573 266.974 L
378.844 266.447 L
379.108 265.92 L
379.366 265.395 L
379.617 264.87 L
379.862 264.346 L
380.101 263.822 L
380.333 263.3 L
380.559 262.779 L
380.779 262.259 L
380.992 261.74 L
381.2 261.223 L
381.401 260.707 L
381.597 260.192 L
381.788 259.679 L
381.972 259.167 L
382.151 258.658 L
382.324 258.15 L
382.492 257.643 L
382.655 257.139 L
382.812 256.636 L
382.965 256.136 L
383.112 255.637 L
383.254 255.141 L
383.391 254.647 L
383.524 254.155 L
383.652 253.665 L
383.775 253.177 L
383.894 252.692 L
384.009 252.209 L
384.119 251.728 L
384.225 251.25 L
384.327 250.774 L
384.424 250.3 L
384.518 249.829 L
384.608 249.361 L
384.694 248.895 L
384.777 248.432 L
384.856 247.971 L
384.931 247.513 L
385.004 247.057 L
385.072 246.604 L
385.138 246.153 L
385.201 245.705 L
385.26 245.26 L
385.317 244.817 L
385.371 244.377 L
385.422 243.94 L
385.47 243.505 L
385.516 243.072 L
385.559 242.642 L
385.6 242.215 L
385.639 241.79 L
385.675 241.368 L
385.709 240.948 L
385.741 240.531 L
385.771 240.116 L
385.8 239.704 L
385.826 239.294 L
385.851 238.887 L
385.874 238.482 L
385.895 238.079 L
385.915 237.678 L
385.933 237.28 L
385.95 236.884 L
385.966 236.49 L
385.98 236.098 L
385.993 235.708 L
386.006 235.321 L
386.017 234.935 L
386.027 234.551 L
386.036 234.169 L
386.044 233.789 L
386.052 233.411 L
386.058 233.035 L
386.064 232.66 L
386.07 232.287 L
386.074 231.916 L
386.078 231.546 L
386.082 231.178 L
386.085 230.811 L
386.088 230.445 L
386.09 230.081 L
386.092 229.718 L
386.094 229.356 L
386.095 228.995 L
386.096 228.635 L
386.097 228.277 L
386.098 227.919 L
386.099 227.562 L
386.099 227.206 L
386.099 226.85 L
386.1 226.496 L
386.1 226.141 L
386.1 225.788 L
386.1 225.434 L
386.1 225.081 L
386.1 224.729 L
386.1 224.376 L
386.1 224.024 L
386.1 223.672 LE
1 1 1 C
309.038 50.2617 309.038 159.971 309.038 50.2617 T
309.038 50.2617 309.038 159.971 309.038 159.971 T
77.6217 159.971 309.038 159.971 77.6217 159.971 T
77.6217 159.971 309.038 159.971 309.038 159.971 T
77.6217 159.971 309.038 50.2617 77.6217 50.2617 T
77.6217 159.971 309.038 159.971 309.038 50.2617 T
[16 0] 0 setdash
0 0 0 C
77.6217 50.2617 LS
309.038 50.2617 LE
77.6217 159.971 LS
309.038 159.971 LE
77.6217 159.971 LS
309.038 159.971 LE
77.6217 50.2617 LS
309.038 50.2617 LE
77.6217 50.2617 LS
77.6217 159.971 LE
309.038 50.2617 LS
309.038 159.971 LE
309.038 50.2617 LS
309.038 159.971 LE
77.6217 50.2617 LS
77.6217 159.971 L
77.6217 159.971 LE
309.038 159.971 LS
309.038 159.971 LE
309.038 50.2617 LS
309.038 50.2617 LE
77.6217 50.2617 LS
77.6217 50.2617 LE
(AB2 stability region) 103.667 146.257 20 /Helvetica SCL
(0.3L.dx/u) 103.667 118.83 20 /Helvetica SCL
(0.25L.dx/u) 103.667 91.4027 20 /Helvetica SCL
(0.2L.dx/u) 103.667 63.9753 20 /Helvetica SCL
0.5 W
[] 0 setdash
0 0 1 C
80.3633 146.257 LS
100.926 146.257 LE
1 0 0 C
80.3633 118.83 LS
100.926 118.83 LE
0 1 0 C
80.3633 91.4027 LS
100.926 91.4027 LE
1 0 1 C
80.3633 63.9753 LS
100.926 63.9753 LE
grestore
showpage
cleartomark
%%PageTrailer
%%Trailer
end
%%EOF
