%!PS-Adobe-3.0 EPSF-3.0
%%Title: glps_renderer figure
%%Creator: GL2PS 1.3.8, (C) 1999-2012 C. Geuzaine
%%For: Octave
%%CreationDate: Mon Nov  9 08:36:01 2015
%%LanguageLevel: 3
%%DocumentData: Clean7Bit
%%Pages: 1
%%BoundingBox: 0 0 576 432
%%EndComments
%%BeginProlog
/gl2psdict 64 dict def gl2psdict begin
0 setlinecap 0 setlinejoin
/tryPS3shading false def % set to false to force subdivision
/rThreshold 0.064 def % red component subdivision threshold
/gThreshold 0.034 def % green component subdivision threshold
/bThreshold 0.1 def % blue component subdivision threshold
/BD { bind def } bind def
/C  { setrgbcolor } BD
/G  { 0.082 mul exch 0.6094 mul add exch 0.3086 mul add neg 1.0 add setgray } BD
/W  { setlinewidth } BD
/FC { findfont exch /SH exch def SH scalefont setfont } BD
/SW { dup stringwidth pop } BD
/S  { FC moveto show } BD
/SBC{ FC moveto SW -2 div 0 rmoveto show } BD
/SBR{ FC moveto SW neg 0 rmoveto show } BD
/SCL{ FC moveto 0 SH -2 div rmoveto show } BD
/SCC{ FC moveto SW -2 div SH -2 div rmoveto show } BD
/SCR{ FC moveto SW neg SH -2 div rmoveto show } BD
/STL{ FC moveto 0 SH neg rmoveto show } BD
/STC{ FC moveto SW -2 div SH neg rmoveto show } BD
/STR{ FC moveto SW neg SH neg rmoveto show } BD
/FCT { FC translate 0 0 } BD
/SR  { gsave FCT moveto rotate show grestore } BD
/SBCR{ gsave FCT moveto rotate SW -2 div 0 rmoveto show grestore } BD
/SBRR{ gsave FCT moveto rotate SW neg 0 rmoveto show grestore } BD
/SCLR{ gsave FCT moveto rotate 0 SH -2 div rmoveto show grestore} BD
/SCCR{ gsave FCT moveto rotate SW -2 div SH -2 div rmoveto show grestore} BD
/SCRR{ gsave FCT moveto rotate SW neg SH -2 div rmoveto show grestore} BD
/STLR{ gsave FCT moveto rotate 0 SH neg rmoveto show grestore } BD
/STCR{ gsave FCT moveto rotate SW -2 div SH neg rmoveto show grestore } BD
/STRR{ gsave FCT moveto rotate SW neg SH neg rmoveto show grestore } BD
/P  { newpath 0.0 360.0 arc closepath fill } BD
/LS { newpath moveto } BD
/L  { lineto } BD
/LE { lineto stroke } BD
/T  { newpath moveto lineto lineto closepath fill } BD
/STshfill {
      /b1 exch def /g1 exch def /r1 exch def /y1 exch def /x1 exch def
      /b2 exch def /g2 exch def /r2 exch def /y2 exch def /x2 exch def
      /b3 exch def /g3 exch def /r3 exch def /y3 exch def /x3 exch def
      gsave << /ShadingType 4 /ColorSpace [/DeviceRGB]
      /DataSource [ 0 x1 y1 r1 g1 b1 0 x2 y2 r2 g2 b2 0 x3 y3 r3 g3 b3 ] >>
      shfill grestore } BD
/Tm { 3 -1 roll 8 -1 roll 13 -1 roll add add 3 div
      3 -1 roll 7 -1 roll 11 -1 roll add add 3 div
      3 -1 roll 6 -1 roll 9 -1 roll add add 3 div C T } BD
/STsplit {
      4 index 15 index add 0.5 mul
      4 index 15 index add 0.5 mul
      4 index 15 index add 0.5 mul
      4 index 15 index add 0.5 mul
      4 index 15 index add 0.5 mul
      5 copy 5 copy 25 15 roll
      9 index 30 index add 0.5 mul
      9 index 30 index add 0.5 mul
      9 index 30 index add 0.5 mul
      9 index 30 index add 0.5 mul
      9 index 30 index add 0.5 mul
      5 copy 5 copy 35 5 roll 25 5 roll 15 5 roll
      4 index 10 index add 0.5 mul
      4 index 10 index add 0.5 mul
      4 index 10 index add 0.5 mul
      4 index 10 index add 0.5 mul
      4 index 10 index add 0.5 mul
      5 copy 5 copy 40 5 roll 25 5 roll 15 5 roll 25 5 roll
      STnoshfill STnoshfill STnoshfill STnoshfill } BD
/STnoshfill {
      2 index 8 index sub abs rThreshold gt
      { STsplit }
      { 1 index 7 index sub abs gThreshold gt
        { STsplit }
        { dup 6 index sub abs bThreshold gt
          { STsplit }
          { 2 index 13 index sub abs rThreshold gt
            { STsplit }
            { 1 index 12 index sub abs gThreshold gt
              { STsplit }
              { dup 11 index sub abs bThreshold gt
                { STsplit }
                { 7 index 13 index sub abs rThreshold gt
                  { STsplit }
                  { 6 index 12 index sub abs gThreshold gt
                    { STsplit }
                    { 5 index 11 index sub abs bThreshold gt
                      { STsplit }
                      { Tm }
                      ifelse }
                    ifelse }
                  ifelse }
                ifelse }
              ifelse }
            ifelse }
          ifelse }
        ifelse }
      ifelse } BD
tryPS3shading
{ /shfill where
  { /ST { STshfill } BD }
  { /ST { STnoshfill } BD }
  ifelse }
{ /ST { STnoshfill } BD }
ifelse
end
%%EndProlog
%%BeginSetup
/DeviceRGB setcolorspace
gl2psdict begin
%%EndSetup
%%Page: 1 1
%%BeginPageSetup
%%EndPageSetup
mark
gsave
1.0 1.0 scale
1 1 1 C
521.28 47.52 521.28 399.6 521.28 47.52 T
521.28 47.52 521.28 399.6 521.28 399.6 T
74.8801 399.6 521.28 399.6 74.8801 399.6 T
74.8801 399.6 521.28 399.6 521.28 399.6 T
74.8801 399.6 521.28 47.52 74.8801 47.52 T
74.8801 399.6 521.28 399.6 521.28 47.52 T
0.5 W
[16 0] 0 setdash
0 0 0 C
74.8801 47.52 LS
521.28 47.52 LE
74.8801 399.6 LS
521.28 399.6 LE
74.8801 399.6 LS
521.28 399.6 LE
74.8801 47.52 LS
521.28 47.52 LE
74.8801 47.52 LS
74.8801 399.6 LE
521.28 47.52 LS
521.28 399.6 LE
521.28 47.52 LS
521.28 399.6 LE
74.8801 47.52 LS
74.8801 399.6 L
74.8801 399.6 LE
521.28 399.6 LS
521.28 399.6 LE
521.28 47.52 LS
521.28 47.52 LE
74.8801 47.52 LS
74.8801 47.52 L
74.8801 51.985 LE
74.8801 399.6 LS
74.8801 395.135 LE
164.16 47.52 LS
164.16 51.985 LE
164.16 399.6 LS
164.16 395.135 LE
253.44 47.52 LS
253.44 51.985 LE
253.44 399.6 LS
253.44 395.135 LE
342.72 47.52 LS
342.72 51.985 LE
342.72 399.6 LS
342.72 395.135 LE
432 47.52 LS
432 51.985 LE
432 399.6 LS
432 395.135 LE
521.28 47.52 LS
521.28 51.985 LE
521.28 399.6 LS
521.28 395.135 LE
(15) 74.88 42.5189 12 /Helvetica STC
(16) 164.16 42.5189 12 /Helvetica STC
(17) 253.44 42.5189 12 /Helvetica STC
(18) 342.72 42.5189 12 /Helvetica STC
(19) 432 42.5189 12 /Helvetica STC
(20) 521.28 42.5189 12 /Helvetica STC
74.8801 47.52 LS
79.3481 47.52 LE
521.28 47.52 LS
516.812 47.52 LE
74.8801 117.936 LS
79.3481 117.936 LE
521.28 117.936 LS
516.812 117.936 LE
74.8801 188.352 LS
79.3481 188.352 LE
521.28 188.352 LS
516.812 188.352 LE
74.8801 258.768 LS
79.3481 258.768 LE
521.28 258.768 LS
516.812 258.768 LE
74.8801 329.184 LS
79.3481 329.184 LE
521.28 329.184 LS
516.812 329.184 LE
74.8801 399.6 LS
79.3481 399.6 LE
521.28 399.6 LS
516.812 399.6 LE
(-1.5) 69.8755 47.52 12 /Helvetica SCR
(-1) 69.8755 117.936 12 /Helvetica SCR
(-0.5) 69.8755 188.352 12 /Helvetica SCR
(0) 69.8755 258.768 12 /Helvetica SCR
(0.5) 69.8755 329.184 12 /Helvetica SCR
(1) 69.8755 399.6 12 /Helvetica SCR
(X) 298.08 28.5189 15 /Helvetica STC
(T(X)) 90 44.8756 223.56 15 /Helvetica SBCR
1 0 0 C
78.9989 352.844 77.3866 350.625 78.5533 351.473 T
78.9989 352.844 75.9445 350.625 77.3866 350.625 T
78.9989 352.844 74.7779 351.473 75.9445 350.625 T
78.9989 352.844 74.3323 352.844 74.7779 351.473 T
78.9989 352.844 74.7779 354.216 74.3323 352.844 T
78.9989 352.844 75.9445 355.063 74.7779 354.216 T
78.9989 352.844 77.3866 355.063 75.9445 355.063 T
78.9989 352.844 78.5533 354.216 77.3866 355.063 T
82.5701 361.831 80.9578 359.611 82.1245 360.459 T
82.5701 361.831 79.5157 359.611 80.9578 359.611 T
82.5701 361.831 78.3491 360.459 79.5157 359.611 T
82.5701 361.831 77.9035 361.831 78.3491 360.459 T
82.5701 361.831 78.3491 363.202 77.9035 361.831 T
82.5701 361.831 79.5157 364.05 78.3491 363.202 T
82.5701 361.831 80.9578 364.05 79.5157 364.05 T
82.5701 361.831 82.1245 363.202 80.9578 364.05 T
86.1413 358.448 84.5291 356.229 85.6957 357.076 T
86.1413 358.448 83.087 356.229 84.5291 356.229 T
86.1413 358.448 81.9203 357.076 83.087 356.229 T
86.1413 358.448 81.4747 358.448 81.9203 357.076 T
86.1413 358.448 81.9203 359.819 81.4747 358.448 T
86.1413 358.448 83.087 360.667 81.9203 359.819 T
86.1413 358.448 84.5291 360.667 83.087 360.667 T
86.1413 358.448 85.6957 359.819 84.5291 360.667 T
89.7126 356.056 88.1003 353.837 89.2669 354.685 T
89.7126 356.056 86.6582 353.837 88.1003 353.837 T
89.7126 356.056 85.4915 354.685 86.6582 353.837 T
89.7126 356.056 85.0459 356.056 85.4915 354.685 T
89.7126 356.056 85.4915 357.427 85.0459 356.056 T
89.7126 356.056 86.6582 358.275 85.4915 357.427 T
89.7126 356.056 88.1003 358.275 86.6582 358.275 T
89.7126 356.056 89.2669 357.427 88.1003 358.275 T
93.2838 340.164 91.6714 337.945 92.8381 338.792 T
93.2838 340.164 90.2294 337.945 91.6714 337.945 T
93.2838 340.164 89.0627 338.792 90.2294 337.945 T
93.2838 340.164 88.6171 340.164 89.0627 338.792 T
93.2838 340.164 89.0627 341.535 88.6171 340.164 T
93.2838 340.164 90.2294 342.383 89.0627 341.535 T
93.2838 340.164 91.6714 342.383 90.2294 342.383 T
93.2838 340.164 92.8381 341.535 91.6714 342.383 T
96.8549 327.811 95.2426 325.592 96.4093 326.439 T
96.8549 327.811 93.8006 325.592 95.2426 325.592 T
96.8549 327.811 92.6339 326.439 93.8006 325.592 T
96.8549 327.811 92.1882 327.811 92.6339 326.439 T
96.8549 327.811 92.6339 329.182 92.1882 327.811 T
96.8549 327.811 93.8006 330.03 92.6339 329.182 T
96.8549 327.811 95.2426 330.03 93.8006 330.03 T
96.8549 327.811 96.4093 329.182 95.2426 330.03 T
100.426 302.368 98.8138 300.148 99.9805 300.996 T
100.426 302.368 97.3718 300.148 98.8138 300.148 T
100.426 302.368 96.2051 300.996 97.3718 300.148 T
100.426 302.368 95.7595 302.368 96.2051 300.996 T
100.426 302.368 96.2051 303.739 95.7595 302.368 T
100.426 302.368 97.3718 304.587 96.2051 303.739 T
100.426 302.368 98.8138 304.587 97.3718 304.587 T
100.426 302.368 99.9805 303.739 98.8138 304.587 T
103.997 283.975 102.385 281.756 103.552 282.604 T
103.997 283.975 100.943 281.756 102.385 281.756 T
103.997 283.975 99.7763 282.604 100.943 281.756 T
103.997 283.975 99.3307 283.975 99.7763 282.604 T
103.997 283.975 99.7763 285.347 99.3307 283.975 T
103.997 283.975 100.943 286.194 99.7763 285.347 T
103.997 283.975 102.385 286.194 100.943 286.194 T
103.997 283.975 103.552 285.347 102.385 286.194 T
107.569 254.072 105.956 251.853 107.123 252.7 T
107.569 254.072 104.514 251.853 105.956 251.853 T
107.569 254.072 103.347 252.7 104.514 251.853 T
107.569 254.072 102.902 254.072 103.347 252.7 T
107.569 254.072 103.347 255.443 102.902 254.072 T
107.569 254.072 104.514 256.291 103.347 255.443 T
107.569 254.072 105.956 256.291 104.514 256.291 T
107.569 254.072 107.123 255.443 105.956 256.291 T
111.14 235.112 109.527 232.893 110.694 233.741 T
111.14 235.112 108.085 232.893 109.527 232.893 T
111.14 235.112 106.919 233.741 108.085 232.893 T
111.14 235.112 106.473 235.112 106.919 233.741 T
111.14 235.112 106.919 236.484 106.473 235.112 T
111.14 235.112 108.085 237.332 106.919 236.484 T
111.14 235.112 109.527 237.332 108.085 237.332 T
111.14 235.112 110.694 236.484 109.527 237.332 T
114.711 206.792 113.099 204.573 114.265 205.42 T
114.711 206.792 111.657 204.573 113.099 204.573 T
114.711 206.792 110.49 205.42 111.657 204.573 T
114.711 206.792 110.044 206.792 110.49 205.42 T
114.711 206.792 110.49 208.163 110.044 206.792 T
114.711 206.792 111.657 209.011 110.49 208.163 T
114.711 206.792 113.099 209.011 111.657 209.011 T
114.711 206.792 114.265 208.163 113.099 209.011 T
118.282 192.967 116.67 190.747 117.837 191.595 T
118.282 192.967 115.228 190.747 116.67 190.747 T
118.282 192.967 114.061 191.595 115.228 190.747 T
118.282 192.967 113.615 192.967 114.061 191.595 T
118.282 192.967 114.061 194.338 113.615 192.967 T
118.282 192.967 115.228 195.186 114.061 194.338 T
118.282 192.967 116.67 195.186 115.228 195.186 T
118.282 192.967 117.837 194.338 116.67 195.186 T
121.853 171.827 120.241 169.608 121.408 170.456 T
121.853 171.827 118.799 169.608 120.241 169.608 T
121.853 171.827 117.632 170.456 118.799 169.608 T
121.853 171.827 117.187 171.827 117.632 170.456 T
121.853 171.827 117.632 173.199 117.187 171.827 T
121.853 171.827 118.799 174.046 117.632 173.199 T
121.853 171.827 120.241 174.046 118.799 174.046 T
121.853 171.827 121.408 173.199 120.241 174.046 T
125.425 167.691 123.812 165.472 124.979 166.319 T
125.425 167.691 122.37 165.472 123.812 165.472 T
125.425 167.691 121.203 166.319 122.37 165.472 T
125.425 167.691 120.758 167.691 121.203 166.319 T
125.425 167.691 121.203 169.062 120.758 167.691 T
125.425 167.691 122.37 169.91 121.203 169.062 T
125.425 167.691 123.812 169.91 122.37 169.91 T
125.425 167.691 124.979 169.062 123.812 169.91 T
128.996 157.601 127.383 155.382 128.55 156.229 T
128.996 157.601 125.941 155.382 127.383 155.382 T
128.996 157.601 124.775 156.229 125.941 155.382 T
128.996 157.601 124.329 157.601 124.775 156.229 T
128.996 157.601 124.775 158.972 124.329 157.601 T
128.996 157.601 125.941 159.82 124.775 158.972 T
128.996 157.601 127.383 159.82 125.941 159.82 T
128.996 157.601 128.55 158.972 127.383 159.82 T
132.567 165.461 130.955 163.242 132.121 164.09 T
132.567 165.461 129.513 163.242 130.955 163.242 T
132.567 165.461 128.346 164.09 129.513 163.242 T
132.567 165.461 127.9 165.461 128.346 164.09 T
132.567 165.461 128.346 166.833 127.9 165.461 T
132.567 165.461 129.513 167.68 128.346 166.833 T
132.567 165.461 130.955 167.68 129.513 167.68 T
132.567 165.461 132.121 166.833 130.955 167.68 T
136.138 167.687 134.526 165.468 135.693 166.315 T
136.138 167.687 133.084 165.468 134.526 165.468 T
136.138 167.687 131.917 166.315 133.084 165.468 T
136.138 167.687 131.471 167.687 131.917 166.315 T
136.138 167.687 131.917 169.058 131.471 167.687 T
136.138 167.687 133.084 169.906 131.917 169.058 T
136.138 167.687 134.526 169.906 133.084 169.906 T
136.138 167.687 135.693 169.058 134.526 169.906 T
139.709 187.03 138.097 184.811 139.264 185.659 T
139.709 187.03 136.655 184.811 138.097 184.811 T
139.709 187.03 135.488 185.659 136.655 184.811 T
139.709 187.03 135.043 187.03 135.488 185.659 T
139.709 187.03 135.488 188.402 135.043 187.03 T
139.709 187.03 136.655 189.249 135.488 188.402 T
139.709 187.03 138.097 189.249 136.655 189.249 T
139.709 187.03 139.264 188.402 138.097 189.249 T
143.281 199.98 141.668 197.761 142.835 198.609 T
143.281 199.98 140.226 197.761 141.668 197.761 T
143.281 199.98 139.059 198.609 140.226 197.761 T
143.281 199.98 138.614 199.98 139.059 198.609 T
143.281 199.98 139.059 201.352 138.614 199.98 T
143.281 199.98 140.226 202.199 139.059 201.352 T
143.281 199.98 141.668 202.199 140.226 202.199 T
143.281 199.98 142.835 201.352 141.668 202.199 T
146.852 227.565 145.239 225.345 146.406 226.193 T
146.852 227.565 143.797 225.345 145.239 225.345 T
146.852 227.565 142.631 226.193 143.797 225.345 T
146.852 227.565 142.185 227.565 142.631 226.193 T
146.852 227.565 142.631 228.936 142.185 227.565 T
146.852 227.565 143.797 229.784 142.631 228.936 T
146.852 227.565 145.239 229.784 143.797 229.784 T
146.852 227.565 146.406 228.936 145.239 229.784 T
150.423 247.201 148.811 244.982 149.977 245.83 T
150.423 247.201 147.369 244.982 148.811 244.982 T
150.423 247.201 146.202 245.83 147.369 244.982 T
150.423 247.201 145.756 247.201 146.202 245.83 T
150.423 247.201 146.202 248.573 145.756 247.201 T
150.423 247.201 147.369 249.42 146.202 248.573 T
150.423 247.201 148.811 249.42 147.369 249.42 T
150.423 247.201 149.977 248.573 148.811 249.42 T
153.994 277.784 152.382 275.565 153.549 276.412 T
153.994 277.784 150.94 275.565 152.382 275.565 T
153.994 277.784 149.773 276.412 150.94 275.565 T
153.994 277.784 149.327 277.784 149.773 276.412 T
153.994 277.784 149.773 279.155 149.327 277.784 T
153.994 277.784 150.94 280.003 149.773 279.155 T
153.994 277.784 152.382 280.003 150.94 280.003 T
153.994 277.784 153.549 279.155 152.382 280.003 T
157.565 298.604 155.953 296.385 157.12 297.232 T
157.565 298.604 154.511 296.385 155.953 296.385 T
157.565 298.604 153.344 297.232 154.511 296.385 T
157.565 298.604 152.899 298.604 153.344 297.232 T
157.565 298.604 153.344 299.975 152.899 298.604 T
157.565 298.604 154.511 300.823 153.344 299.975 T
157.565 298.604 155.953 300.823 154.511 300.823 T
157.565 298.604 157.12 299.975 155.953 300.823 T
161.137 326.129 159.524 323.91 160.691 324.758 T
161.137 326.129 158.082 323.91 159.524 323.91 T
161.137 326.129 156.915 324.758 158.082 323.91 T
161.137 326.129 156.47 326.129 156.915 324.758 T
161.137 326.129 156.915 327.501 156.47 326.129 T
161.137 326.129 158.082 328.349 156.915 327.501 T
161.137 326.129 159.524 328.349 158.082 328.349 T
161.137 326.129 160.691 327.501 159.524 328.349 T
164.708 342.469 163.095 340.25 164.262 341.098 T
164.708 342.469 161.653 340.25 163.095 340.25 T
164.708 342.469 160.487 341.098 161.653 340.25 T
164.708 342.469 160.041 342.469 160.487 341.098 T
164.708 342.469 160.487 343.841 160.041 342.469 T
164.708 342.469 161.653 344.688 160.487 343.841 T
164.708 342.469 163.095 344.688 161.653 344.688 T
164.708 342.469 164.262 343.841 163.095 344.688 T
168.279 361.435 166.667 359.216 167.833 360.063 T
168.279 361.435 165.225 359.216 166.667 359.216 T
168.279 361.435 164.058 360.063 165.225 359.216 T
168.279 361.435 163.612 361.435 164.058 360.063 T
168.279 361.435 164.058 362.806 163.612 361.435 T
168.279 361.435 165.225 363.654 164.058 362.806 T
168.279 361.435 166.667 363.654 165.225 363.654 T
168.279 361.435 167.833 362.806 166.667 363.654 T
171.85 368.793 170.238 366.574 171.405 367.422 T
171.85 368.793 168.796 366.574 170.238 366.574 T
171.85 368.793 167.629 367.422 168.796 366.574 T
171.85 368.793 167.183 368.793 167.629 367.422 T
171.85 368.793 167.629 370.165 167.183 368.793 T
171.85 368.793 168.796 371.012 167.629 370.165 T
171.85 368.793 170.238 371.012 168.796 371.012 T
171.85 368.793 171.405 370.165 170.238 371.012 T
175.421 375.465 173.809 373.245 174.976 374.093 T
175.421 375.465 172.367 373.245 173.809 373.245 T
175.421 375.465 171.2 374.093 172.367 373.245 T
175.421 375.465 170.755 375.465 171.2 374.093 T
175.421 375.465 171.2 376.836 170.755 375.465 T
175.421 375.465 172.367 377.684 171.2 376.836 T
175.421 375.465 173.809 377.684 172.367 377.684 T
175.421 375.465 174.976 376.836 173.809 377.684 T
178.993 371.527 177.38 369.308 178.547 370.155 T
178.993 371.527 175.938 369.308 177.38 369.308 T
178.993 371.527 174.771 370.155 175.938 369.308 T
178.993 371.527 174.326 371.527 174.771 370.155 T
178.993 371.527 174.771 372.898 174.326 371.527 T
178.993 371.527 175.938 373.746 174.771 372.898 T
178.993 371.527 177.38 373.746 175.938 373.746 T
178.993 371.527 178.547 372.898 177.38 373.746 T
182.564 364.725 180.951 362.506 182.118 363.354 T
182.564 364.725 179.509 362.506 180.951 362.506 T
182.564 364.725 178.343 363.354 179.509 362.506 T
182.564 364.725 177.897 364.725 178.343 363.354 T
182.564 364.725 178.343 366.097 177.897 364.725 T
182.564 364.725 179.509 366.945 178.343 366.097 T
182.564 364.725 180.951 366.945 179.509 366.945 T
182.564 364.725 182.118 366.097 180.951 366.945 T
186.135 349.85 184.523 347.631 185.689 348.479 T
186.135 349.85 183.081 347.631 184.523 347.631 T
186.135 349.85 181.914 348.479 183.081 347.631 T
186.135 349.85 181.468 349.85 181.914 348.479 T
186.135 349.85 181.914 351.222 181.468 349.85 T
186.135 349.85 183.081 352.069 181.914 351.222 T
186.135 349.85 184.523 352.069 183.081 352.069 T
186.135 349.85 185.689 351.222 184.523 352.069 T
189.706 331.129 188.094 328.909 189.261 329.757 T
189.706 331.129 186.652 328.909 188.094 328.909 T
189.706 331.129 185.485 329.757 186.652 328.909 T
189.706 331.129 185.039 331.129 185.485 329.757 T
189.706 331.129 185.485 332.5 185.039 331.129 T
189.706 331.129 186.652 333.348 185.485 332.5 T
189.706 331.129 188.094 333.348 186.652 333.348 T
189.706 331.129 189.261 332.5 188.094 333.348 T
193.277 308.194 191.665 305.975 192.832 306.823 T
193.277 308.194 190.223 305.975 191.665 305.975 T
193.277 308.194 189.056 306.823 190.223 305.975 T
193.277 308.194 188.611 308.194 189.056 306.823 T
193.277 308.194 189.056 309.566 188.611 308.194 T
193.277 308.194 190.223 310.414 189.056 309.566 T
193.277 308.194 191.665 310.414 190.223 310.414 T
193.277 308.194 192.832 309.566 191.665 310.414 T
196.849 281.379 195.236 279.16 196.403 280.007 T
196.849 281.379 193.794 279.16 195.236 279.16 T
196.849 281.379 192.628 280.007 193.794 279.16 T
196.849 281.379 192.182 281.379 192.628 280.007 T
196.849 281.379 192.628 282.75 192.182 281.379 T
196.849 281.379 193.794 283.598 192.628 282.75 T
196.849 281.379 195.236 283.598 193.794 283.598 T
196.849 281.379 196.403 282.75 195.236 283.598 T
200.42 255.043 198.807 252.824 199.974 253.672 T
200.42 255.043 197.365 252.824 198.807 252.824 T
200.42 255.043 196.199 253.672 197.365 252.824 T
200.42 255.043 195.753 255.043 196.199 253.672 T
200.42 255.043 196.199 256.415 195.753 255.043 T
200.42 255.043 197.365 257.262 196.199 256.415 T
200.42 255.043 198.807 257.262 197.365 257.262 T
200.42 255.043 199.974 256.415 198.807 257.262 T
203.991 225.266 202.379 223.046 203.545 223.894 T
203.991 225.266 200.937 223.046 202.379 223.046 T
203.991 225.266 199.77 223.894 200.937 223.046 T
203.991 225.266 199.324 225.266 199.77 223.894 T
203.991 225.266 199.77 226.637 199.324 225.266 T
203.991 225.266 200.937 227.485 199.77 226.637 T
203.991 225.266 202.379 227.485 200.937 227.485 T
203.991 225.266 203.545 226.637 202.379 227.485 T
207.562 200.831 205.95 198.612 207.117 199.46 T
207.562 200.831 204.508 198.612 205.95 198.612 T
207.562 200.831 203.341 199.46 204.508 198.612 T
207.562 200.831 202.895 200.831 203.341 199.46 T
207.562 200.831 203.341 202.203 202.895 200.831 T
207.562 200.831 204.508 203.051 203.341 202.203 T
207.562 200.831 205.95 203.051 204.508 203.051 T
207.562 200.831 207.117 202.203 205.95 203.051 T
211.133 173.306 209.521 171.087 210.688 171.935 T
211.133 173.306 208.079 171.087 209.521 171.087 T
211.133 173.306 206.912 171.935 208.079 171.087 T
211.133 173.306 206.467 173.306 206.912 171.935 T
211.133 173.306 206.912 174.678 206.467 173.306 T
211.133 173.306 208.079 175.526 206.912 174.678 T
211.133 173.306 209.521 175.526 208.079 175.526 T
211.133 173.306 210.688 174.678 209.521 175.526 T
214.705 155.483 213.092 153.264 214.259 154.112 T
214.705 155.483 211.65 153.264 213.092 153.264 T
214.705 155.483 210.483 154.112 211.65 153.264 T
214.705 155.483 210.038 155.483 210.483 154.112 T
214.705 155.483 210.483 156.855 210.038 155.483 T
214.705 155.483 211.65 157.703 210.483 156.855 T
214.705 155.483 213.092 157.703 211.65 157.703 T
214.705 155.483 214.259 156.855 213.092 157.703 T
218.276 134.338 216.663 132.119 217.83 132.966 T
218.276 134.338 215.221 132.119 216.663 132.119 T
218.276 134.338 214.055 132.966 215.221 132.119 T
218.276 134.338 213.609 134.338 214.055 132.966 T
218.276 134.338 214.055 135.709 213.609 134.338 T
218.276 134.338 215.221 136.557 214.055 135.709 T
218.276 134.338 216.663 136.557 215.221 136.557 T
218.276 134.338 217.83 135.709 216.663 136.557 T
221.847 126.212 220.235 123.993 221.401 124.84 T
221.847 126.212 218.793 123.993 220.235 123.993 T
221.847 126.212 217.626 124.84 218.793 123.993 T
221.847 126.212 217.18 126.212 217.626 124.84 T
221.847 126.212 217.626 127.583 217.18 126.212 T
221.847 126.212 218.793 128.431 217.626 127.583 T
221.847 126.212 220.235 128.431 218.793 128.431 T
221.847 126.212 221.401 127.583 220.235 128.431 T
225.418 113.652 223.806 111.433 224.973 112.281 T
225.418 113.652 222.364 111.433 223.806 111.433 T
225.418 113.652 221.197 112.281 222.364 111.433 T
225.418 113.652 220.751 113.652 221.197 112.281 T
225.418 113.652 221.197 115.024 220.751 113.652 T
225.418 113.652 222.364 115.871 221.197 115.024 T
225.418 113.652 223.806 115.871 222.364 115.871 T
225.418 113.652 224.973 115.024 223.806 115.871 T
228.989 116.11 227.377 113.89 228.544 114.738 T
228.989 116.11 225.935 113.89 227.377 113.89 T
228.989 116.11 224.768 114.738 225.935 113.89 T
228.989 116.11 224.323 116.11 224.768 114.738 T
228.989 116.11 224.768 117.481 224.323 116.11 T
228.989 116.11 225.935 118.329 224.768 117.481 T
228.989 116.11 227.377 118.329 225.935 118.329 T
228.989 116.11 228.544 117.481 227.377 118.329 T
232.561 112.128 230.948 109.909 232.115 110.757 T
232.561 112.128 229.506 109.909 230.948 109.909 T
232.561 112.128 228.34 110.757 229.506 109.909 T
232.561 112.128 227.894 112.128 228.34 110.757 T
232.561 112.128 228.34 113.5 227.894 112.128 T
232.561 112.128 229.506 114.347 228.34 113.5 T
232.561 112.128 230.948 114.347 229.506 114.347 T
232.561 112.128 232.115 113.5 230.948 114.347 T
236.132 123.859 234.519 121.64 235.686 122.487 T
236.132 123.859 233.077 121.64 234.519 121.64 T
236.132 123.859 231.911 122.487 233.077 121.64 T
236.132 123.859 231.465 123.859 231.911 122.487 T
236.132 123.859 231.911 125.23 231.465 123.859 T
236.132 123.859 233.077 126.078 231.911 125.23 T
236.132 123.859 234.519 126.078 233.077 126.078 T
236.132 123.859 235.686 125.23 234.519 126.078 T
239.703 126.519 238.091 124.3 239.257 125.148 T
239.703 126.519 236.649 124.3 238.091 124.3 T
239.703 126.519 235.482 125.148 236.649 124.3 T
239.703 126.519 235.036 126.519 235.482 125.148 T
239.703 126.519 235.482 127.891 235.036 126.519 T
239.703 126.519 236.649 128.738 235.482 127.891 T
239.703 126.519 238.091 128.738 236.649 128.738 T
239.703 126.519 239.257 127.891 238.091 128.738 T
243.274 144.569 241.662 142.35 242.829 143.198 T
243.274 144.569 240.22 142.35 241.662 142.35 T
243.274 144.569 239.053 143.198 240.22 142.35 T
243.274 144.569 238.607 144.569 239.053 143.198 T
243.274 144.569 239.053 145.941 238.607 144.569 T
243.274 144.569 240.22 146.788 239.053 145.941 T
243.274 144.569 241.662 146.788 240.22 146.788 T
243.274 144.569 242.829 145.941 241.662 146.788 T
246.845 150.765 245.233 148.546 246.4 149.393 T
246.845 150.765 243.791 148.546 245.233 148.546 T
246.845 150.765 242.624 149.393 243.791 148.546 T
246.845 150.765 242.179 150.765 242.624 149.393 T
246.845 150.765 242.624 152.136 242.179 150.765 T
246.845 150.765 243.791 152.984 242.624 152.136 T
246.845 150.765 245.233 152.984 243.791 152.984 T
246.845 150.765 246.4 152.136 245.233 152.984 T
250.417 171.458 248.804 169.239 249.971 170.086 T
250.417 171.458 247.362 169.239 248.804 169.239 T
250.417 171.458 246.195 170.086 247.362 169.239 T
250.417 171.458 245.75 171.458 246.195 170.086 T
250.417 171.458 246.195 172.829 245.75 171.458 T
250.417 171.458 247.362 173.677 246.195 172.829 T
250.417 171.458 248.804 173.677 247.362 173.677 T
250.417 171.458 249.971 172.829 248.804 173.677 T
253.988 177.909 252.375 175.69 253.542 176.537 T
253.988 177.909 250.933 175.69 252.375 175.69 T
253.988 177.909 249.767 176.537 250.933 175.69 T
253.988 177.909 249.321 177.909 249.767 176.537 T
253.988 177.909 249.767 179.28 249.321 177.909 T
253.988 177.909 250.933 180.128 249.767 179.28 T
253.988 177.909 252.375 180.128 250.933 180.128 T
253.988 177.909 253.542 179.28 252.375 180.128 T
257.559 197.859 255.947 195.64 257.113 196.487 T
257.559 197.859 254.505 195.64 255.947 195.64 T
257.559 197.859 253.338 196.487 254.505 195.64 T
257.559 197.859 252.892 197.859 253.338 196.487 T
257.559 197.859 253.338 199.23 252.892 197.859 T
257.559 197.859 254.505 200.078 253.338 199.23 T
257.559 197.859 255.947 200.078 254.505 200.078 T
257.559 197.859 257.113 199.23 255.947 200.078 T
261.13 202.05 259.518 199.83 260.685 200.678 T
261.13 202.05 258.076 199.83 259.518 199.83 T
261.13 202.05 256.909 200.678 258.076 199.83 T
261.13 202.05 256.463 202.05 256.909 200.678 T
261.13 202.05 256.909 203.421 256.463 202.05 T
261.13 202.05 258.076 204.269 256.909 203.421 T
261.13 202.05 259.518 204.269 258.076 204.269 T
261.13 202.05 260.685 203.421 259.518 204.269 T
264.701 218.975 263.089 216.756 264.256 217.604 T
264.701 218.975 261.647 216.756 263.089 216.756 T
264.701 218.975 260.48 217.604 261.647 216.756 T
264.701 218.975 260.035 218.975 260.48 217.604 T
264.701 218.975 260.48 220.347 260.035 218.975 T
264.701 218.975 261.647 221.195 260.48 220.347 T
264.701 218.975 263.089 221.195 261.647 221.195 T
264.701 218.975 264.256 220.347 263.089 221.195 T
268.273 219.767 266.66 217.548 267.827 218.395 T
268.273 219.767 265.218 217.548 266.66 217.548 T
268.273 219.767 264.052 218.395 265.218 217.548 T
268.273 219.767 263.606 219.767 264.052 218.395 T
268.273 219.767 264.052 221.138 263.606 219.767 T
268.273 219.767 265.218 221.986 264.052 221.138 T
268.273 219.767 266.66 221.986 265.218 221.986 T
268.273 219.767 267.827 221.138 266.66 221.986 T
271.844 232.881 270.231 230.662 271.398 231.509 T
271.844 232.881 268.789 230.662 270.231 230.662 T
271.844 232.881 267.623 231.509 268.789 230.662 T
271.844 232.881 267.177 232.881 267.623 231.509 T
271.844 232.881 267.623 234.252 267.177 232.881 T
271.844 232.881 268.789 235.1 267.623 234.252 T
271.844 232.881 270.231 235.1 268.789 235.1 T
271.844 232.881 271.398 234.252 270.231 235.1 T
275.415 230.633 273.803 228.414 274.969 229.261 T
275.415 230.633 272.361 228.414 273.803 228.414 T
275.415 230.633 271.194 229.261 272.361 228.414 T
275.415 230.633 270.748 230.633 271.194 229.261 T
275.415 230.633 271.194 232.004 270.748 230.633 T
275.415 230.633 272.361 232.852 271.194 232.004 T
275.415 230.633 273.803 232.852 272.361 232.852 T
275.415 230.633 274.969 232.004 273.803 232.852 T
278.986 240.522 277.374 238.303 278.541 239.15 T
278.986 240.522 275.932 238.303 277.374 238.303 T
278.986 240.522 274.765 239.15 275.932 238.303 T
278.986 240.522 274.319 240.522 274.765 239.15 T
278.986 240.522 274.765 241.893 274.319 240.522 T
278.986 240.522 275.932 242.741 274.765 241.893 T
278.986 240.522 277.374 242.741 275.932 242.741 T
278.986 240.522 278.541 241.893 277.374 242.741 T
282.557 236.725 280.945 234.506 282.112 235.354 T
282.557 236.725 279.503 234.506 280.945 234.506 T
282.557 236.725 278.336 235.354 279.503 234.506 T
282.557 236.725 277.891 236.725 278.336 235.354 T
282.557 236.725 278.336 238.097 277.891 236.725 T
282.557 236.725 279.503 238.944 278.336 238.097 T
282.557 236.725 280.945 238.944 279.503 238.944 T
282.557 236.725 282.112 238.097 280.945 238.944 T
286.129 244.795 284.516 242.576 285.683 243.424 T
286.129 244.795 283.074 242.576 284.516 242.576 T
286.129 244.795 281.908 243.424 283.074 242.576 T
286.129 244.795 281.462 244.795 281.908 243.424 T
286.129 244.795 281.908 246.167 281.462 244.795 T
286.129 244.795 283.074 247.015 281.908 246.167 T
286.129 244.795 284.516 247.015 283.074 247.015 T
286.129 244.795 285.683 246.167 284.516 247.015 T
289.7 241.365 288.087 239.146 289.254 239.993 T
289.7 241.365 286.645 239.146 288.087 239.146 T
289.7 241.365 285.479 239.993 286.645 239.146 T
289.7 241.365 285.033 241.365 285.479 239.993 T
289.7 241.365 285.479 242.736 285.033 241.365 T
289.7 241.365 286.645 243.584 285.479 242.736 T
289.7 241.365 288.087 243.584 286.645 243.584 T
289.7 241.365 289.254 242.736 288.087 243.584 T
293.271 249.072 291.659 246.852 292.825 247.7 T
293.271 249.072 290.217 246.852 291.659 246.852 T
293.271 249.072 289.05 247.7 290.217 246.852 T
293.271 249.072 288.604 249.072 289.05 247.7 T
293.271 249.072 289.05 250.443 288.604 249.072 T
293.271 249.072 290.217 251.291 289.05 250.443 T
293.271 249.072 291.659 251.291 290.217 251.291 T
293.271 249.072 292.825 250.443 291.659 251.291 T
296.842 247.56 295.23 245.341 296.396 246.188 T
296.842 247.56 293.788 245.341 295.23 245.341 T
296.842 247.56 292.621 246.188 293.788 245.341 T
296.842 247.56 292.175 247.56 292.621 246.188 T
296.842 247.56 292.621 248.931 292.175 247.56 T
296.842 247.56 293.788 249.779 292.621 248.931 T
296.842 247.56 295.23 249.779 293.788 249.779 T
296.842 247.56 296.396 248.931 295.23 249.779 T
300.413 255.703 298.801 253.484 299.968 254.332 T
300.413 255.703 297.359 253.484 298.801 253.484 T
300.413 255.703 296.192 254.332 297.359 253.484 T
300.413 255.703 295.747 255.703 296.192 254.332 T
300.413 255.703 296.192 257.075 295.747 255.703 T
300.413 255.703 297.359 257.923 296.192 257.075 T
300.413 255.703 298.801 257.923 297.359 257.923 T
300.413 255.703 299.968 257.075 298.801 257.923 T
303.985 256.721 302.372 254.502 303.539 255.35 T
303.985 256.721 300.93 254.502 302.372 254.502 T
303.985 256.721 299.764 255.35 300.93 254.502 T
303.985 256.721 299.318 256.721 299.764 255.35 T
303.985 256.721 299.764 258.093 299.318 256.721 T
303.985 256.721 300.93 258.94 299.764 258.093 T
303.985 256.721 302.372 258.94 300.93 258.94 T
303.985 256.721 303.539 258.093 302.372 258.94 T
307.556 265.063 305.943 262.843 307.11 263.691 T
307.556 265.063 304.501 262.843 305.943 262.843 T
307.556 265.063 303.335 263.691 304.501 262.843 T
307.556 265.063 302.889 265.063 303.335 263.691 T
307.556 265.063 303.335 266.434 302.889 265.063 T
307.556 265.063 304.501 267.282 303.335 266.434 T
307.556 265.063 305.943 267.282 304.501 267.282 T
307.556 265.063 307.11 266.434 305.943 267.282 T
311.127 268.103 309.515 265.884 310.681 266.732 T
311.127 268.103 308.073 265.884 309.515 265.884 T
311.127 268.103 306.906 266.732 308.073 265.884 T
311.127 268.103 306.46 268.103 306.906 266.732 T
311.127 268.103 306.906 269.475 306.46 268.103 T
311.127 268.103 308.073 270.323 306.906 269.475 T
311.127 268.103 309.515 270.323 308.073 270.323 T
311.127 268.103 310.681 269.475 309.515 270.323 T
314.698 275.432 313.086 273.213 314.253 274.061 T
314.698 275.432 311.644 273.213 313.086 273.213 T
314.698 275.432 310.477 274.061 311.644 273.213 T
314.698 275.432 310.031 275.432 310.477 274.061 T
314.698 275.432 310.477 276.804 310.031 275.432 T
314.698 275.432 311.644 277.651 310.477 276.804 T
314.698 275.432 313.086 277.651 311.644 277.651 T
314.698 275.432 314.253 276.804 313.086 277.651 T
318.269 279.156 316.657 276.936 317.824 277.784 T
318.269 279.156 315.215 276.936 316.657 276.936 T
318.269 279.156 314.048 277.784 315.215 276.936 T
318.269 279.156 313.603 279.156 314.048 277.784 T
318.269 279.156 314.048 280.527 313.603 279.156 T
318.269 279.156 315.215 281.375 314.048 280.527 T
318.269 279.156 316.657 281.375 315.215 281.375 T
318.269 279.156 317.824 280.527 316.657 281.375 T
321.841 283.773 320.228 281.554 321.395 282.402 T
321.841 283.773 318.786 281.554 320.228 281.554 T
321.841 283.773 317.62 282.402 318.786 281.554 T
321.841 283.773 317.174 283.773 317.62 282.402 T
321.841 283.773 317.62 285.145 317.174 283.773 T
321.841 283.773 318.786 285.993 317.62 285.145 T
321.841 283.773 320.228 285.993 318.786 285.993 T
321.841 283.773 321.395 285.145 320.228 285.993 T
325.412 286.624 323.799 284.405 324.966 285.253 T
325.412 286.624 322.357 284.405 323.799 284.405 T
325.412 286.624 321.191 285.253 322.357 284.405 T
325.412 286.624 320.745 286.624 321.191 285.253 T
325.412 286.624 321.191 287.996 320.745 286.624 T
325.412 286.624 322.357 288.844 321.191 287.996 T
325.412 286.624 323.799 288.844 322.357 288.844 T
325.412 286.624 324.966 287.996 323.799 288.844 T
328.983 287.05 327.371 284.831 328.537 285.679 T
328.983 287.05 325.929 284.831 327.371 284.831 T
328.983 287.05 324.762 285.679 325.929 284.831 T
328.983 287.05 324.316 287.05 324.762 285.679 T
328.983 287.05 324.762 288.422 324.316 287.05 T
328.983 287.05 325.929 289.269 324.762 288.422 T
328.983 287.05 327.371 289.269 325.929 289.269 T
328.983 287.05 328.537 288.422 327.371 289.269 T
332.554 287.963 330.942 285.744 332.109 286.592 T
332.554 287.963 329.5 285.744 330.942 285.744 T
332.554 287.963 328.333 286.592 329.5 285.744 T
332.554 287.963 327.887 287.963 328.333 286.592 T
332.554 287.963 328.333 289.335 327.887 287.963 T
332.554 287.963 329.5 290.183 328.333 289.335 T
332.554 287.963 330.942 290.183 329.5 290.183 T
332.554 287.963 332.109 289.335 330.942 290.183 T
336.125 283.575 334.513 281.356 335.68 282.203 T
336.125 283.575 333.071 281.356 334.513 281.356 T
336.125 283.575 331.904 282.203 333.071 281.356 T
336.125 283.575 331.459 283.575 331.904 282.203 T
336.125 283.575 331.904 284.946 331.459 283.575 T
336.125 283.575 333.071 285.794 331.904 284.946 T
336.125 283.575 334.513 285.794 333.071 285.794 T
336.125 283.575 335.68 284.946 334.513 285.794 T
339.697 282.481 338.084 280.262 339.251 281.109 T
339.697 282.481 336.642 280.262 338.084 280.262 T
339.697 282.481 335.475 281.109 336.642 280.262 T
339.697 282.481 335.03 282.481 335.475 281.109 T
339.697 282.481 335.475 283.852 335.03 282.481 T
339.697 282.481 336.642 284.7 335.475 283.852 T
339.697 282.481 338.084 284.7 336.642 284.7 T
339.697 282.481 339.251 283.852 338.084 284.7 T
343.268 273.837 341.655 271.618 342.822 272.465 T
343.268 273.837 340.213 271.618 341.655 271.618 T
343.268 273.837 339.047 272.465 340.213 271.618 T
343.268 273.837 338.601 273.837 339.047 272.465 T
343.268 273.837 339.047 275.208 338.601 273.837 T
343.268 273.837 340.213 276.056 339.047 275.208 T
343.268 273.837 341.655 276.056 340.213 276.056 T
343.268 273.837 342.822 275.208 341.655 276.056 T
346.839 271.762 345.227 269.543 346.393 270.391 T
346.839 271.762 343.785 269.543 345.227 269.543 T
346.839 271.762 342.618 270.391 343.785 269.543 T
346.839 271.762 342.172 271.762 342.618 270.391 T
346.839 271.762 342.618 273.134 342.172 271.762 T
346.839 271.762 343.785 273.981 342.618 273.134 T
346.839 271.762 345.227 273.981 343.785 273.981 T
346.839 271.762 346.393 273.134 345.227 273.981 T
350.41 260.472 348.798 258.253 349.965 259.1 T
350.41 260.472 347.356 258.253 348.798 258.253 T
350.41 260.472 346.189 259.1 347.356 258.253 T
350.41 260.472 345.743 260.472 346.189 259.1 T
350.41 260.472 346.189 261.843 345.743 260.472 T
350.41 260.472 347.356 262.691 346.189 261.843 T
350.41 260.472 348.798 262.691 347.356 262.691 T
350.41 260.472 349.965 261.843 348.798 262.691 T
353.981 259.189 352.369 256.97 353.536 257.818 T
353.981 259.189 350.927 256.97 352.369 256.97 T
353.981 259.189 349.76 257.818 350.927 256.97 T
353.981 259.189 349.315 259.189 349.76 257.818 T
353.981 259.189 349.76 260.561 349.315 259.189 T
353.981 259.189 350.927 261.409 349.76 260.561 T
353.981 259.189 352.369 261.409 350.927 261.409 T
353.981 259.189 353.536 260.561 352.369 261.409 T
357.553 247.377 355.94 245.157 357.107 246.005 T
357.553 247.377 354.498 245.157 355.94 245.157 T
357.553 247.377 353.331 246.005 354.498 245.157 T
357.553 247.377 352.886 247.377 353.331 246.005 T
357.553 247.377 353.331 248.748 352.886 247.377 T
357.553 247.377 354.498 249.596 353.331 248.748 T
357.553 247.377 355.94 249.596 354.498 249.596 T
357.553 247.377 357.107 248.748 355.94 249.596 T
361.124 248.742 359.511 246.523 360.678 247.371 T
361.124 248.742 358.069 246.523 359.511 246.523 T
361.124 248.742 356.903 247.371 358.069 246.523 T
361.124 248.742 356.457 248.742 356.903 247.371 T
361.124 248.742 356.903 250.114 356.457 248.742 T
361.124 248.742 358.069 250.962 356.903 250.114 T
361.124 248.742 359.511 250.962 358.069 250.962 T
361.124 248.742 360.678 250.114 359.511 250.962 T
364.695 238.316 363.083 236.096 364.249 236.944 T
364.695 238.316 361.641 236.096 363.083 236.096 T
364.695 238.316 360.474 236.944 361.641 236.096 T
364.695 238.316 360.028 238.316 360.474 236.944 T
364.695 238.316 360.474 239.687 360.028 238.316 T
364.695 238.316 361.641 240.535 360.474 239.687 T
364.695 238.316 363.083 240.535 361.641 240.535 T
364.695 238.316 364.249 239.687 363.083 240.535 T
368.266 243.558 366.654 241.339 367.82 242.186 T
368.266 243.558 365.212 241.339 366.654 241.339 T
368.266 243.558 364.045 242.186 365.212 241.339 T
368.266 243.558 363.599 243.558 364.045 242.186 T
368.266 243.558 364.045 244.93 363.599 243.558 T
368.266 243.558 365.212 245.777 364.045 244.93 T
368.266 243.558 366.654 245.777 365.212 245.777 T
368.266 243.558 367.82 244.93 366.654 245.777 T
371.837 235.58 370.225 233.36 371.392 234.208 T
371.837 235.58 368.783 233.36 370.225 233.36 T
371.837 235.58 367.616 234.208 368.783 233.36 T
371.837 235.58 367.171 235.58 367.616 234.208 T
371.837 235.58 367.616 236.951 367.171 235.58 T
371.837 235.58 368.783 237.799 367.616 236.951 T
371.837 235.58 370.225 237.799 368.783 237.799 T
371.837 235.58 371.392 236.951 370.225 237.799 T
375.409 244.824 373.796 242.605 374.963 243.453 T
375.409 244.824 372.354 242.605 373.796 242.605 T
375.409 244.824 371.188 243.453 372.354 242.605 T
375.409 244.824 370.742 244.824 371.188 243.453 T
375.409 244.824 371.188 246.196 370.742 244.824 T
375.409 244.824 372.354 247.044 371.188 246.196 T
375.409 244.824 373.796 247.044 372.354 247.044 T
375.409 244.824 374.963 246.196 373.796 247.044 T
378.98 239.224 377.367 237.005 378.534 237.853 T
378.98 239.224 375.925 237.005 377.367 237.005 T
378.98 239.224 374.759 237.853 375.925 237.005 T
378.98 239.224 374.313 239.224 374.759 237.853 T
378.98 239.224 374.759 240.596 374.313 239.224 T
378.98 239.224 375.925 241.443 374.759 240.596 T
378.98 239.224 377.367 241.443 375.925 241.443 T
378.98 239.224 378.534 240.596 377.367 241.443 T
382.551 251.44 380.939 249.221 382.105 250.069 T
382.551 251.44 379.497 249.221 380.939 249.221 T
382.551 251.44 378.33 250.069 379.497 249.221 T
382.551 251.44 377.884 251.44 378.33 250.069 T
382.551 251.44 378.33 252.812 377.884 251.44 T
382.551 251.44 379.497 253.66 378.33 252.812 T
382.551 251.44 380.939 253.66 379.497 253.66 T
382.551 251.44 382.105 252.812 380.939 253.66 T
386.122 247.179 384.51 244.959 385.677 245.807 T
386.122 247.179 383.068 244.959 384.51 244.959 T
386.122 247.179 381.901 245.807 383.068 244.959 T
386.122 247.179 381.455 247.179 381.901 245.807 T
386.122 247.179 381.901 248.55 381.455 247.179 T
386.122 247.179 383.068 249.398 381.901 248.55 T
386.122 247.179 384.51 249.398 383.068 249.398 T
386.122 247.179 385.677 248.55 384.51 249.398 T
389.693 260.557 388.081 258.337 389.248 259.185 T
389.693 260.557 386.639 258.337 388.081 258.337 T
389.693 260.557 385.472 259.185 386.639 258.337 T
389.693 260.557 385.027 260.557 385.472 259.185 T
389.693 260.557 385.472 261.928 385.027 260.557 T
389.693 260.557 386.639 262.776 385.472 261.928 T
389.693 260.557 388.081 262.776 386.639 262.776 T
389.693 260.557 389.248 261.928 388.081 262.776 T
393.265 256.151 391.652 253.932 392.819 254.779 T
393.265 256.151 390.21 253.932 391.652 253.932 T
393.265 256.151 389.044 254.779 390.21 253.932 T
393.265 256.151 388.598 256.151 389.044 254.779 T
393.265 256.151 389.044 257.522 388.598 256.151 T
393.265 256.151 390.21 258.37 389.044 257.522 T
393.265 256.151 391.652 258.37 390.21 258.37 T
393.265 256.151 392.819 257.522 391.652 258.37 T
396.836 268.746 395.223 266.527 396.39 267.374 T
396.836 268.746 393.781 266.527 395.223 266.527 T
396.836 268.746 392.615 267.374 393.781 266.527 T
396.836 268.746 392.169 268.746 392.615 267.374 T
396.836 268.746 392.615 270.117 392.169 268.746 T
396.836 268.746 393.781 270.965 392.615 270.117 T
396.836 268.746 395.223 270.965 393.781 270.965 T
396.836 268.746 396.39 270.117 395.223 270.965 T
400.407 262.936 398.795 260.717 399.961 261.564 T
400.407 262.936 397.353 260.717 398.795 260.717 T
400.407 262.936 396.186 261.564 397.353 260.717 T
400.407 262.936 395.74 262.936 396.186 261.564 T
400.407 262.936 396.186 264.307 395.74 262.936 T
400.407 262.936 397.353 265.155 396.186 264.307 T
400.407 262.936 398.795 265.155 397.353 265.155 T
400.407 262.936 399.961 264.307 398.795 265.155 T
403.978 273.309 402.366 271.09 403.533 271.938 T
403.978 273.309 400.924 271.09 402.366 271.09 T
403.978 273.309 399.757 271.938 400.924 271.09 T
403.978 273.309 399.311 273.309 399.757 271.938 T
403.978 273.309 399.757 274.681 399.311 273.309 T
403.978 273.309 400.924 275.528 399.757 274.681 T
403.978 273.309 402.366 275.528 400.924 275.528 T
403.978 273.309 403.533 274.681 402.366 275.528 T
407.549 265.583 405.937 263.364 407.104 264.212 T
407.549 265.583 404.495 263.364 405.937 263.364 T
407.549 265.583 403.328 264.212 404.495 263.364 T
407.549 265.583 402.883 265.583 403.328 264.212 T
407.549 265.583 403.328 266.955 402.883 265.583 T
407.549 265.583 404.495 267.802 403.328 266.955 T
407.549 265.583 405.937 267.802 404.495 267.802 T
407.549 265.583 407.104 266.955 405.937 267.802 T
411.121 273.19 409.508 270.971 410.675 271.819 T
411.121 273.19 408.066 270.971 409.508 270.971 T
411.121 273.19 406.899 271.819 408.066 270.971 T
411.121 273.19 406.454 273.19 406.899 271.819 T
411.121 273.19 406.899 274.562 406.454 273.19 T
411.121 273.19 408.066 275.409 406.899 274.562 T
411.121 273.19 409.508 275.409 408.066 275.409 T
411.121 273.19 410.675 274.562 409.508 275.409 T
414.692 263.973 413.079 261.754 414.246 262.602 T
414.692 263.973 411.637 261.754 413.079 261.754 T
414.692 263.973 410.471 262.602 411.637 261.754 T
414.692 263.973 410.025 263.973 410.471 262.602 T
414.692 263.973 410.471 265.345 410.025 263.973 T
414.692 263.973 411.637 266.192 410.471 265.345 T
414.692 263.973 413.079 266.192 411.637 266.192 T
414.692 263.973 414.246 265.345 413.079 266.192 T
418.263 269.165 416.651 266.946 417.817 267.793 T
418.263 269.165 415.209 266.946 416.651 266.946 T
418.263 269.165 414.042 267.793 415.209 266.946 T
418.263 269.165 413.596 269.165 414.042 267.793 T
418.263 269.165 414.042 270.536 413.596 269.165 T
418.263 269.165 415.209 271.384 414.042 270.536 T
418.263 269.165 416.651 271.384 415.209 271.384 T
418.263 269.165 417.817 270.536 416.651 271.384 T
421.834 259.617 420.222 257.398 421.388 258.246 T
421.834 259.617 418.78 257.398 420.222 257.398 T
421.834 259.617 417.613 258.246 418.78 257.398 T
421.834 259.617 417.167 259.617 417.613 258.246 T
421.834 259.617 417.613 260.989 417.167 259.617 T
421.834 259.617 418.78 261.836 417.613 260.989 T
421.834 259.617 420.222 261.836 418.78 261.836 T
421.834 259.617 421.388 260.989 420.222 261.836 T
425.405 263.3 423.793 261.081 424.96 261.928 T
425.405 263.3 422.351 261.081 423.793 261.081 T
425.405 263.3 421.184 261.928 422.351 261.081 T
425.405 263.3 420.739 263.3 421.184 261.928 T
425.405 263.3 421.184 264.671 420.739 263.3 T
425.405 263.3 422.351 265.519 421.184 264.671 T
425.405 263.3 423.793 265.519 422.351 265.519 T
425.405 263.3 424.96 264.671 423.793 265.519 T
428.977 254.85 427.364 252.63 428.531 253.478 T
428.977 254.85 425.922 252.63 427.364 252.63 T
428.977 254.85 424.755 253.478 425.922 252.63 T
428.977 254.85 424.31 254.85 424.755 253.478 T
428.977 254.85 424.755 256.221 424.31 254.85 T
428.977 254.85 425.922 257.069 424.755 256.221 T
428.977 254.85 427.364 257.069 425.922 257.069 T
428.977 254.85 428.531 256.221 427.364 257.069 T
432.548 257.971 430.935 255.752 432.102 256.599 T
432.548 257.971 429.493 255.752 430.935 255.752 T
432.548 257.971 428.327 256.599 429.493 255.752 T
432.548 257.971 427.881 257.971 428.327 256.599 T
432.548 257.971 428.327 259.342 427.881 257.971 T
432.548 257.971 429.493 260.19 428.327 259.342 T
432.548 257.971 430.935 260.19 429.493 260.19 T
432.548 257.971 432.102 259.342 430.935 260.19 T
436.119 251.789 434.507 249.57 435.673 250.418 T
436.119 251.789 433.065 249.57 434.507 249.57 T
436.119 251.789 431.898 250.418 433.065 249.57 T
436.119 251.789 431.452 251.789 431.898 250.418 T
436.119 251.789 431.898 253.161 431.452 251.789 T
436.119 251.789 433.065 254.008 431.898 253.161 T
436.119 251.789 434.507 254.008 433.065 254.008 T
436.119 251.789 435.673 253.161 434.507 254.008 T
439.69 254.888 438.078 252.669 439.245 253.517 T
439.69 254.888 436.636 252.669 438.078 252.669 T
439.69 254.888 435.469 253.517 436.636 252.669 T
439.69 254.888 435.023 254.888 435.469 253.517 T
439.69 254.888 435.469 256.26 435.023 254.888 T
439.69 254.888 436.636 257.108 435.469 256.26 T
439.69 254.888 438.078 257.108 436.636 257.108 T
439.69 254.888 439.245 256.26 438.078 257.108 T
443.261 251.534 441.649 249.315 442.816 250.163 T
443.261 251.534 440.207 249.315 441.649 249.315 T
443.261 251.534 439.04 250.163 440.207 249.315 T
443.261 251.534 438.595 251.534 439.04 250.163 T
443.261 251.534 439.04 252.906 438.595 251.534 T
443.261 251.534 440.207 253.753 439.04 252.906 T
443.261 251.534 441.649 253.753 440.207 253.753 T
443.261 251.534 442.816 252.906 441.649 253.753 T
446.833 254.533 445.22 252.314 446.387 253.162 T
446.833 254.533 443.778 252.314 445.22 252.314 T
446.833 254.533 442.612 253.162 443.778 252.314 T
446.833 254.533 442.166 254.533 442.612 253.162 T
446.833 254.533 442.612 255.905 442.166 254.533 T
446.833 254.533 443.778 256.752 442.612 255.905 T
446.833 254.533 445.22 256.752 443.778 256.752 T
446.833 254.533 446.387 255.905 445.22 256.752 T
450.404 253.883 448.791 251.663 449.958 252.511 T
450.404 253.883 447.349 251.663 448.791 251.663 T
450.404 253.883 446.183 252.511 447.349 251.663 T
450.404 253.883 445.737 253.883 446.183 252.511 T
450.404 253.883 446.183 255.254 445.737 253.883 T
450.404 253.883 447.349 256.102 446.183 255.254 T
450.404 253.883 448.791 256.102 447.349 256.102 T
450.404 253.883 449.958 255.254 448.791 256.102 T
453.975 256.175 452.363 253.956 453.529 254.804 T
453.975 256.175 450.921 253.956 452.363 253.956 T
453.975 256.175 449.754 254.804 450.921 253.956 T
453.975 256.175 449.308 256.175 449.754 254.804 T
453.975 256.175 449.754 257.547 449.308 256.175 T
453.975 256.175 450.921 258.394 449.754 257.547 T
453.975 256.175 452.363 258.394 450.921 258.394 T
453.975 256.175 453.529 257.547 452.363 258.394 T
457.546 257.631 455.934 255.412 457.101 256.259 T
457.546 257.631 454.492 255.412 455.934 255.412 T
457.546 257.631 453.325 256.259 454.492 255.412 T
457.546 257.631 452.879 257.631 453.325 256.259 T
457.546 257.631 453.325 259.002 452.879 257.631 T
457.546 257.631 454.492 259.85 453.325 259.002 T
457.546 257.631 455.934 259.85 454.492 259.85 T
457.546 257.631 457.101 259.002 455.934 259.85 T
461.117 258.394 459.505 256.175 460.672 257.022 T
461.117 258.394 458.063 256.175 459.505 256.175 T
461.117 258.394 456.896 257.022 458.063 256.175 T
461.117 258.394 456.451 258.394 456.896 257.022 T
461.117 258.394 456.896 259.765 456.451 258.394 T
461.117 258.394 458.063 260.613 456.896 259.765 T
461.117 258.394 459.505 260.613 458.063 260.613 T
461.117 258.394 460.672 259.765 459.505 260.613 T
464.689 261.24 463.076 259.021 464.243 259.868 T
464.689 261.24 461.634 259.021 463.076 259.021 T
464.689 261.24 460.467 259.868 461.634 259.021 T
464.689 261.24 460.022 261.24 460.467 259.868 T
464.689 261.24 460.467 262.611 460.022 261.24 T
464.689 261.24 461.634 263.459 460.467 262.611 T
464.689 261.24 463.076 263.459 461.634 263.459 T
464.689 261.24 464.243 262.611 463.076 263.459 T
468.26 259.803 466.647 257.584 467.814 258.431 T
468.26 259.803 465.205 257.584 466.647 257.584 T
468.26 259.803 464.039 258.431 465.205 257.584 T
468.26 259.803 463.593 259.803 464.039 258.431 T
468.26 259.803 464.039 261.174 463.593 259.803 T
468.26 259.803 465.205 262.022 464.039 261.174 T
468.26 259.803 466.647 262.022 465.205 262.022 T
468.26 259.803 467.814 261.174 466.647 262.022 T
471.831 263.537 470.219 261.318 471.385 262.165 T
471.831 263.537 468.777 261.318 470.219 261.318 T
471.831 263.537 467.61 262.165 468.777 261.318 T
471.831 263.537 467.164 263.537 467.61 262.165 T
471.831 263.537 467.61 264.908 467.164 263.537 T
471.831 263.537 468.777 265.756 467.61 264.908 T
471.831 263.537 470.219 265.756 468.777 265.756 T
471.831 263.537 471.385 264.908 470.219 265.756 T
475.402 259.646 473.79 257.427 474.956 258.274 T
475.402 259.646 472.348 257.427 473.79 257.427 T
475.402 259.646 471.181 258.274 472.348 257.427 T
475.402 259.646 470.735 259.646 471.181 258.274 T
475.402 259.646 471.181 261.017 470.735 259.646 T
475.402 259.646 472.348 261.865 471.181 261.017 T
475.402 259.646 473.79 261.865 472.348 261.865 T
475.402 259.646 474.956 261.017 473.79 261.865 T
478.973 264.144 477.361 261.925 478.528 262.772 T
478.973 264.144 475.919 261.925 477.361 261.925 T
478.973 264.144 474.752 262.772 475.919 261.925 T
478.973 264.144 474.307 264.144 474.752 262.772 T
478.973 264.144 474.752 265.516 474.307 264.144 T
478.973 264.144 475.919 266.363 474.752 265.516 T
478.973 264.144 477.361 266.363 475.919 266.363 T
478.973 264.144 478.528 265.516 477.361 266.363 T
482.545 258.018 480.932 255.799 482.099 256.646 T
482.545 258.018 479.49 255.799 480.932 255.799 T
482.545 258.018 478.323 256.646 479.49 255.799 T
482.545 258.018 477.878 258.018 478.323 256.646 T
482.545 258.018 478.323 259.389 477.878 258.018 T
482.545 258.018 479.49 260.237 478.323 259.389 T
482.545 258.018 480.932 260.237 479.49 260.237 T
482.545 258.018 482.099 259.389 480.932 260.237 T
486.116 263.485 484.503 261.266 485.67 262.114 T
486.116 263.485 483.061 261.266 484.503 261.266 T
486.116 263.485 481.895 262.114 483.061 261.266 T
486.116 263.485 481.449 263.485 481.895 262.114 T
486.116 263.485 481.895 264.857 481.449 263.485 T
486.116 263.485 483.061 265.704 481.895 264.857 T
486.116 263.485 484.503 265.704 483.061 265.704 T
486.116 263.485 485.67 264.857 484.503 265.704 T
489.687 255.674 488.075 253.455 489.241 254.303 T
489.687 255.674 486.633 253.455 488.075 253.455 T
489.687 255.674 485.466 254.303 486.633 253.455 T
489.687 255.674 485.02 255.674 485.466 254.303 T
489.687 255.674 485.466 257.046 485.02 255.674 T
489.687 255.674 486.633 257.894 485.466 257.046 T
489.687 255.674 488.075 257.894 486.633 257.894 T
489.687 255.674 489.241 257.046 488.075 257.894 T
493.258 262.438 491.646 260.219 492.812 261.067 T
493.258 262.438 490.204 260.219 491.646 260.219 T
493.258 262.438 489.037 261.067 490.204 260.219 T
493.258 262.438 488.591 262.438 489.037 261.067 T
493.258 262.438 489.037 263.81 488.591 262.438 T
493.258 262.438 490.204 264.657 489.037 263.81 T
493.258 262.438 491.646 264.657 490.204 264.657 T
493.258 262.438 492.812 263.81 491.646 264.657 T
496.829 253.575 495.217 251.356 496.384 252.204 T
496.829 253.575 493.775 251.356 495.217 251.356 T
496.829 253.575 492.608 252.204 493.775 251.356 T
496.829 253.575 492.163 253.575 492.608 252.204 T
496.829 253.575 492.608 254.947 492.163 253.575 T
496.829 253.575 493.775 255.794 492.608 254.947 T
496.829 253.575 495.217 255.794 493.775 255.794 T
496.829 253.575 496.384 254.947 495.217 255.794 T
500.401 261.838 498.788 259.618 499.955 260.466 T
500.401 261.838 497.346 259.618 498.788 259.618 T
500.401 261.838 496.18 260.466 497.346 259.618 T
500.401 261.838 495.734 261.838 496.18 260.466 T
500.401 261.838 496.18 263.209 495.734 261.838 T
500.401 261.838 497.346 264.057 496.18 263.209 T
500.401 261.838 498.788 264.057 497.346 264.057 T
500.401 261.838 499.955 263.209 498.788 264.057 T
503.972 252.41 502.359 250.191 503.526 251.038 T
503.972 252.41 500.917 250.191 502.359 250.191 T
503.972 252.41 499.751 251.038 500.917 250.191 T
503.972 252.41 499.305 252.41 499.751 251.038 T
503.972 252.41 499.751 253.781 499.305 252.41 T
503.972 252.41 500.917 254.629 499.751 253.781 T
503.972 252.41 502.359 254.629 500.917 254.629 T
503.972 252.41 503.526 253.781 502.359 254.629 T
507.543 262.084 505.931 259.865 507.097 260.713 T
507.543 262.084 504.489 259.865 505.931 259.865 T
507.543 262.084 503.322 260.713 504.489 259.865 T
507.543 262.084 502.876 262.084 503.322 260.713 T
507.543 262.084 503.322 263.456 502.876 262.084 T
507.543 262.084 504.489 264.303 503.322 263.456 T
507.543 262.084 505.931 264.303 504.489 264.303 T
507.543 262.084 507.097 263.456 505.931 264.303 T
511.114 252.332 509.502 250.113 510.669 250.96 T
511.114 252.332 508.06 250.113 509.502 250.113 T
511.114 252.332 506.893 250.96 508.06 250.113 T
511.114 252.332 506.447 252.332 506.893 250.96 T
511.114 252.332 506.893 253.703 506.447 252.332 T
511.114 252.332 508.06 254.551 506.893 253.703 T
511.114 252.332 509.502 254.551 508.06 254.551 T
511.114 252.332 510.669 253.703 509.502 254.551 T
514.685 263.028 513.073 260.809 514.24 261.657 T
514.685 263.028 511.631 260.809 513.073 260.809 T
514.685 263.028 510.464 261.657 511.631 260.809 T
514.685 263.028 510.019 263.028 510.464 261.657 T
514.685 263.028 510.464 264.4 510.019 263.028 T
514.685 263.028 511.631 265.247 510.464 264.4 T
514.685 263.028 513.073 265.247 511.631 265.247 T
514.685 263.028 514.24 264.4 513.073 265.247 T
518.257 252.993 516.644 250.774 517.811 251.621 T
518.257 252.993 515.202 250.774 516.644 250.774 T
518.257 252.993 514.036 251.621 515.202 250.774 T
518.257 252.993 513.59 252.993 514.036 251.621 T
518.257 252.993 514.036 254.364 513.59 252.993 T
518.257 252.993 515.202 255.212 514.036 254.364 T
518.257 252.993 516.644 255.212 515.202 255.212 T
518.257 252.993 517.811 254.364 516.644 255.212 T
521.828 264.142 520.215 261.923 521.382 262.771 T
521.828 264.142 518.773 261.923 520.215 261.923 T
521.828 264.142 517.607 262.771 518.773 261.923 T
521.828 264.142 517.161 264.142 517.607 262.771 T
521.828 264.142 517.607 265.514 517.161 264.142 T
521.828 264.142 518.773 266.361 517.607 265.514 T
521.828 264.142 520.215 266.361 518.773 266.361 T
521.828 264.142 521.382 265.514 520.215 266.361 T
1.5 W
[12 4] 0 setdash
0 0 0 C
74.4336 346.918 LS
76.6658 354.124 L
80.2369 360.413 L
83.8081 359.977 L
87.3792 354.233 L
90.9505 341.917 L
94.5217 325.644 L
98.0928 304.327 L
101.664 281.552 L
105.235 256.223 L
108.806 232.535 L
112.378 209.116 L
115.949 190.34 L
119.52 174.29 L
123.091 165.113 L
126.662 160.151 L
130.234 163.012 L
133.805 170.247 L
137.376 184.77 L
140.947 202.455 L
144.518 225.534 L
148.09 249.484 L
151.661 276.01 L
155.232 300.584 L
158.803 324.633 L
162.374 344.049 L
165.946 360.236 L
169.517 369.897 L
173.088 374.595 L
176.659 372.107 L
180.23 364.224 L
183.802 349.893 L
187.373 331.042 L
190.944 307.715 L
194.515 281.754 L
198.086 254.08 L
201.658 226.14 L
205.229 199.433 L
208.8 174.697 L
212.371 153.703 L
215.942 136.231 L
219.514 124.097 L
223.085 116.003 L
226.656 113.702 L
230.227 114.861 L
233.799 121.196 L
237.37 129.535 L
240.941 141.689 L
244.512 153.952 L
248.083 168.409 L
251.654 181.155 L
255.226 194.708 L
258.797 205.254 L
262.368 215.809 L
265.939 222.841 L
269.51 229.803 L
273.082 233.505 L
276.653 237.649 L
280.224 239.335 L
283.795 242.24 L
287.366 243.654 L
290.938 246.934 L
294.509 249.466 L
298.08 254.06 L
301.651 258.178 L
305.222 263.962 L
308.794 269.04 L
312.365 274.898 L
315.936 279.509 L
319.507 283.81 L
323.079 286.349 L
326.65 287.654 L
330.221 287.041 L
333.792 284.739 L
337.363 280.928 L
340.934 275.554 L
344.506 269.628 L
348.077 262.729 L
351.648 256.546 L
355.219 250.145 L
358.791 245.674 L
362.362 241.543 L
365.933 240.151 L
369.504 239.185 L
373.075 241.162 L
376.646 243.099 L
380.218 247.604 L
383.789 251.195 L
387.36 256.628 L
390.931 260.175 L
394.502 264.819 L
398.074 266.84 L
401.645 269.492 L
405.216 269.254 L
408.787 269.604 L
412.359 267.312 L
415.93 265.935 L
419.501 262.539 L
423.072 260.546 L
426.643 257.276 L
430.214 255.795 L
433.786 253.644 L
437.357 253.367 L
440.928 252.747 L
444.499 253.718 L
448.071 254.391 L
451.642 256.092 L
455.213 257.391 L
458.784 259.052 L
462.355 260.232 L
465.926 261.195 L
469.498 261.771 L
473.069 261.753 L
476.64 261.659 L
480.211 260.803 L
483.782 260.345 L
487.354 259.083 L
490.925 258.726 L
494.496 257.529 L
498.067 257.65 L
501.638 256.808 L
505.21 257.527 L
508.781 257.053 L
512.352 258.219 L
515.923 257.902 L
519.494 259.207 LE
1 W
[] 0 setdash
1 0 1 C
76.6656 344.348 LS
74.1656 339.348 L
79.1656 339.348 L
76.6656 344.348 LE
80.2368 376.347 LS
77.7368 371.347 L
82.7368 371.347 L
80.2368 376.347 LE
83.808 347.994 LS
81.308 342.994 L
86.308 342.994 L
83.808 347.994 LE
87.3792 372.566 LS
84.8792 367.566 L
89.8792 367.566 L
87.3792 372.566 LE
90.9504 328.037 LS
88.4504 323.037 L
93.4504 323.037 L
90.9504 328.037 LE
94.5216 345.965 LS
92.0216 340.965 L
97.0216 340.965 L
94.5216 345.965 LE
98.0928 288.899 LS
95.5928 283.899 L
100.593 283.899 L
98.0928 288.899 LE
101.664 303.347 LS
99.164 298.347 L
104.164 298.347 L
101.664 303.347 LE
105.235 239.638 LS
102.735 234.638 L
107.735 234.638 L
105.235 239.638 LE
108.806 255.213 LS
106.306 250.213 L
111.306 250.213 L
108.806 255.213 LE
112.378 191.817 LS
109.878 186.817 L
114.878 186.817 L
112.378 191.817 LE
115.949 213.27 LS
113.449 208.27 L
118.449 208.27 L
115.949 213.27 LE
119.52 156.779 LS
117.02 151.779 L
122.02 151.779 L
119.52 156.779 LE
123.091 187.653 LS
120.591 182.653 L
125.591 182.653 L
123.091 187.653 LE
126.662 142.987 LS
124.162 137.987 L
129.162 137.987 L
126.662 142.987 LE
130.234 184.54 LS
127.734 179.54 L
132.734 179.54 L
130.234 184.54 LE
133.805 154.045 LS
131.305 149.045 L
136.305 149.045 L
133.805 154.045 LE
137.376 204.706 LS
134.876 199.706 L
139.876 199.706 L
137.376 204.706 LE
140.947 187.861 LS
138.447 182.861 L
143.447 182.861 L
140.947 187.861 LE
144.518 243.351 LS
142.018 238.351 L
147.018 238.351 L
144.518 243.351 LE
148.09 237.146 LS
145.59 232.146 L
150.59 232.146 L
148.09 237.146 LE
151.661 291.237 LS
149.161 286.237 L
154.161 286.237 L
151.661 291.237 LE
155.232 291.122 LS
152.732 286.122 L
157.732 286.122 L
155.232 291.122 LE
158.803 336.853 LS
156.303 331.853 L
161.303 331.853 L
158.803 336.853 LE
162.374 338.01 LS
159.874 333.01 L
164.874 333.01 L
162.374 338.01 LE
165.946 369.086 LS
163.446 364.086 L
168.446 364.086 L
165.946 369.086 LE
169.517 367.721 LS
167.017 362.721 L
172.017 362.721 L
169.517 367.721 LE
173.088 379.762 LS
170.588 374.762 L
175.588 374.762 L
173.088 379.762 LE
176.659 374.104 LS
174.159 369.104 L
179.159 369.104 L
176.659 374.104 LE
180.23 365.453 LS
177.73 360.453 L
182.73 360.453 L
180.23 365.453 LE
183.802 356.223 LS
181.302 351.223 L
186.302 351.223 L
183.802 356.223 LE
187.373 328.152 LS
184.873 323.152 L
189.873 323.152 L
187.373 328.152 LE
190.944 318.388 LS
188.444 313.388 L
193.444 313.388 L
190.944 318.388 LE
194.515 274.658 LS
192.015 269.658 L
197.015 269.658 L
194.515 274.658 LE
198.086 268.964 LS
195.586 263.964 L
200.586 263.964 L
198.086 268.964 LE
201.658 214.869 LS
199.158 209.869 L
204.158 209.869 L
201.658 214.869 LE
205.229 218.272 LS
202.729 213.272 L
207.729 213.272 L
205.229 218.272 LE
208.8 159.424 LS
206.3 154.424 L
211.3 154.424 L
208.8 159.424 LE
212.371 176.136 LS
209.871 171.136 L
214.871 171.136 L
212.371 176.136 LE
215.942 117.286 LS
213.442 112.286 L
218.442 112.286 L
215.942 117.286 LE
219.514 149.674 LS
217.014 144.674 L
222.014 144.674 L
219.514 149.674 LE
223.085 93.8761 LS
220.585 88.8761 L
225.585 88.8761 L
223.085 93.8761 LE
226.656 141.896 LS
224.156 136.896 L
229.156 136.896 L
226.656 141.896 LE
230.227 90.1905 LS
227.727 85.1905 L
232.727 85.1905 L
230.227 90.1905 LE
233.798 151.407 LS
231.298 146.407 L
236.298 146.407 L
233.798 151.407 LE
237.37 103.083 LS
234.87 98.0828 L
239.87 98.0828 L
237.37 103.083 LE
240.941 173.243 LS
238.441 168.243 L
243.441 168.243 L
240.941 173.243 LE
244.512 126.569 LS
242.012 121.569 L
247.012 121.569 L
244.512 126.569 LE
248.083 200.556 LS
245.583 195.556 L
250.583 195.556 L
248.083 200.556 LE
251.654 153.74 LS
249.154 148.74 L
254.154 148.74 L
251.654 153.74 LE
255.226 226.623 LS
252.726 221.623 L
257.726 221.623 L
255.226 226.623 LE
258.797 178.715 LS
256.297 173.715 L
261.297 173.715 L
258.797 178.715 LE
262.368 246.609 LS
259.868 241.609 L
264.868 241.609 L
262.368 246.609 LE
265.939 198.068 LS
263.439 193.068 L
268.439 193.068 L
265.939 198.068 LE
269.51 258.566 LS
267.01 253.566 L
272.01 253.566 L
269.51 258.566 LE
273.082 211.344 LS
270.582 206.344 L
275.582 206.344 L
273.082 211.344 LE
276.653 263.454 LS
274.153 258.454 L
279.153 258.454 L
276.653 263.454 LE
280.224 220.579 LS
277.724 215.579 L
282.724 215.579 L
280.224 220.579 LE
283.795 264.214 LS
281.295 259.214 L
286.295 259.214 L
283.795 264.214 LE
287.366 229.035 LS
284.866 224.035 L
289.866 224.035 L
287.366 229.035 LE
290.938 264.295 LS
288.438 259.295 L
293.438 259.295 L
290.938 264.295 LE
294.509 239.648 LS
292.009 234.648 L
297.009 234.648 L
294.509 239.648 LE
298.08 266.16 LS
295.58 261.16 L
300.58 261.16 L
298.08 266.16 LE
301.651 253.742 LS
299.151 248.742 L
304.151 248.742 L
301.651 253.742 LE
305.222 270.311 LS
302.722 265.311 L
307.722 265.311 L
305.222 270.311 LE
308.794 270.459 LS
306.294 265.459 L
311.294 265.459 L
308.794 270.459 LE
312.365 275.18 LS
309.865 270.18 L
314.865 270.18 L
312.365 275.18 LE
315.936 287.114 LS
313.436 282.114 L
318.436 282.114 L
315.936 287.114 LE
319.507 277.881 LS
317.007 272.881 L
322.007 272.881 L
319.507 277.881 LE
323.078 300.296 LS
320.578 295.296 L
325.578 295.296 L
323.078 300.296 LE
326.65 275.531 LS
324.15 270.531 L
329.15 270.531 L
326.65 275.531 LE
330.221 307.28 LS
327.721 302.28 L
332.721 302.28 L
330.221 307.28 LE
333.792 266.597 LS
331.292 261.597 L
336.292 261.597 L
333.792 266.597 LE
337.363 307.187 LS
334.863 302.187 L
339.863 302.187 L
337.363 307.187 LE
340.934 251.725 LS
338.434 246.725 L
343.434 246.725 L
340.934 251.725 LE
344.506 301.417 LS
342.006 296.417 L
347.006 296.417 L
344.506 301.417 LE
348.077 233.707 LS
345.577 228.707 L
350.577 228.707 L
348.077 233.707 LE
351.648 293.179 LS
349.148 288.179 L
354.148 288.179 L
351.648 293.179 LE
355.219 216.599 LS
352.719 211.599 L
357.719 211.599 L
355.219 216.599 LE
358.79 286.299 LS
356.29 281.299 L
361.29 281.299 L
358.79 286.299 LE
362.362 204.325 LS
359.862 199.325 L
364.862 199.325 L
362.362 204.325 LE
365.933 283.788 LS
363.433 278.788 L
368.433 278.788 L
365.933 283.788 LE
369.504 199.321 LS
367.004 194.321 L
372.004 194.321 L
369.504 199.321 LE
373.075 286.728 LS
370.575 281.728 L
375.575 281.728 L
373.075 286.728 LE
376.646 201.768 LS
374.146 196.768 L
379.146 196.768 L
376.646 201.768 LE
380.218 293.937 LS
377.718 288.937 L
382.718 288.937 L
380.218 293.937 LE
383.789 209.687 LS
381.289 204.687 L
386.289 204.687 L
383.789 209.687 LE
387.36 302.503 LS
384.86 297.503 L
389.86 297.503 L
387.36 302.503 LE
390.931 219.837 LS
388.431 214.837 L
393.431 214.837 L
390.931 219.837 LE
394.502 308.957 LS
392.002 303.957 L
397.002 303.957 L
394.502 308.957 LE
398.074 229.023 LS
395.574 224.023 L
400.574 224.023 L
398.074 229.023 LE
401.645 310.588 LS
399.145 305.588 L
404.145 305.588 L
401.645 310.588 LE
405.216 235.262 LS
402.716 230.262 L
407.716 230.262 L
405.216 235.262 LE
408.787 306.36 LS
406.287 301.36 L
411.287 301.36 L
408.787 306.36 LE
412.358 238.368 LS
409.858 233.368 L
414.858 233.368 L
412.358 238.368 LE
415.93 297.109 LS
413.43 292.109 L
418.43 292.109 L
415.93 297.109 LE
419.501 239.758 LS
417.001 234.758 L
422.001 234.758 L
419.501 239.758 LE
423.072 285.009 LS
420.572 280.009 L
425.572 280.009 L
423.072 285.009 LE
426.643 241.643 LS
424.143 236.643 L
429.143 236.643 L
426.643 241.643 LE
430.214 272.583 LS
427.714 267.583 L
432.714 267.583 L
430.214 272.583 LE
433.786 245.993 LS
431.286 240.993 L
436.286 240.993 L
433.786 245.993 LE
437.357 261.727 LS
434.857 256.727 L
439.857 256.727 L
437.357 261.727 LE
440.928 253.731 LS
438.428 248.731 L
443.428 248.731 L
440.928 253.731 LE
444.499 253.133 LS
441.999 248.133 L
446.999 248.133 L
444.499 253.133 LE
448.07 264.447 LS
445.57 259.447 L
450.57 259.447 L
448.07 264.447 LE
451.642 246.3 LS
449.142 241.3 L
454.142 241.3 L
451.642 246.3 LE
455.213 276.707 LS
452.713 271.707 L
457.713 271.707 L
455.213 276.707 LE
458.784 240.049 LS
456.284 235.049 L
461.284 235.049 L
458.784 240.049 LE
462.355 288.72 LS
459.855 283.72 L
464.855 283.72 L
462.355 288.72 LE
465.926 233.24 LS
463.426 228.24 L
468.426 228.24 L
465.926 233.24 LE
469.498 299.049 LS
466.998 294.049 L
471.998 294.049 L
469.498 299.049 LE
473.069 225.365 LS
470.569 220.365 L
475.569 220.365 L
473.069 225.365 LE
476.64 307.052 LS
474.14 302.052 L
479.14 302.052 L
476.64 307.052 LE
480.211 216.766 LS
477.711 211.766 L
482.711 211.766 L
480.211 216.766 LE
483.782 312.902 LS
481.282 307.902 L
486.282 307.902 L
483.782 312.902 LE
487.354 208.439 LS
484.854 203.439 L
489.854 203.439 L
487.354 208.439 LE
490.925 317.244 LS
488.425 312.244 L
493.425 312.244 L
490.925 317.244 LE
494.496 201.57 LS
491.996 196.57 L
496.996 196.57 L
494.496 201.57 LE
498.067 320.707 LS
495.567 315.707 L
500.567 315.707 L
498.067 320.707 LE
501.638 197.049 LS
499.138 192.049 L
504.138 192.049 L
501.638 197.049 LE
505.21 323.519 LS
502.71 318.519 L
507.71 318.519 L
505.21 323.519 LE
508.781 195.199 LS
506.281 190.199 L
511.281 190.199 L
508.781 195.199 LE
512.352 325.39 LS
509.852 320.39 L
514.852 320.39 L
512.352 325.39 LE
515.923 195.795 LS
513.423 190.795 L
518.423 190.795 L
515.923 195.795 LE
519.494 325.692 LS
516.994 320.692 L
521.994 320.692 L
519.494 325.692 LE
[12 4] 0 setdash
0 0 1 C
74.4336 263.181 LS
76.6658 241.117 L
80.2369 206.924 L
83.8081 175.989 L
87.3792 150.255 L
90.9505 131.339 L
94.5217 120.431 L
98.0928 118.214 L
101.664 124.829 L
105.235 139.86 L
108.806 162.362 L
112.378 190.922 L
115.949 223.744 L
119.52 258.768 L
123.091 293.792 L
126.662 326.614 L
130.234 355.174 L
133.805 377.676 L
137.376 392.707 L
140.947 399.322 L
144.518 397.105 L
148.09 386.197 L
151.661 367.281 L
155.232 341.547 L
158.803 310.612 L
162.374 276.419 L
165.946 255.951 L
169.517 250.318 L
173.088 244.685 L
176.659 239.052 L
180.23 233.418 L
183.802 227.785 L
187.373 222.152 L
190.944 216.518 L
194.515 210.885 L
198.086 205.252 L
201.658 199.619 L
205.229 193.985 L
208.8 188.352 L
212.371 182.719 L
215.942 177.085 L
219.514 171.452 L
223.085 165.819 L
226.656 160.186 L
230.227 154.552 L
233.799 148.919 L
237.37 143.286 L
240.941 137.652 L
244.512 132.019 L
248.083 126.386 L
251.654 120.753 L
255.226 258.768 L
258.797 258.768 L
262.368 258.768 L
265.939 258.768 L
269.51 258.768 L
273.082 258.768 L
276.653 258.768 L
280.224 258.768 L
283.795 258.768 L
287.366 258.768 L
290.938 258.768 L
294.509 258.768 L
298.08 258.768 L
301.651 258.768 L
305.222 258.768 L
308.794 258.768 L
312.365 258.768 L
315.936 258.768 L
319.507 258.768 L
323.079 258.768 L
326.65 258.768 L
330.221 258.768 L
333.792 258.768 L
337.363 258.768 L
340.934 258.768 L
344.506 258.768 L
348.077 258.768 L
351.648 258.768 L
355.219 258.768 L
358.791 258.768 L
362.362 258.768 L
365.933 258.768 L
369.504 258.768 L
373.075 258.768 L
376.646 258.768 L
380.218 258.768 L
383.789 258.768 L
387.36 258.768 L
390.931 258.768 L
394.502 258.768 L
398.074 258.768 L
401.645 258.768 L
405.216 258.768 L
408.787 258.768 L
412.359 258.768 L
415.93 258.768 L
419.501 258.768 L
423.072 258.768 L
426.643 258.768 L
430.214 258.768 L
433.786 258.768 L
437.357 258.768 L
440.928 258.768 L
444.499 258.768 L
448.071 258.768 L
451.642 258.768 L
455.213 258.768 L
458.784 258.768 L
462.355 258.768 L
465.926 258.768 L
469.498 258.768 L
473.069 258.768 L
476.64 258.768 L
480.211 258.768 L
483.782 258.768 L
487.354 258.768 L
490.925 258.768 L
494.496 258.768 L
498.067 258.768 L
501.638 258.768 L
505.21 258.768 L
508.781 258.768 L
512.352 258.768 L
515.923 258.768 L
519.494 258.768 LE
1 1 1 C
518.538 50.2617 518.538 135.285 518.538 50.2617 T
518.538 50.2617 518.538 135.285 518.538 135.285 T
402.322 135.285 518.538 135.285 402.322 135.285 T
402.322 135.285 518.538 135.285 518.538 135.285 T
402.322 135.285 518.538 50.2617 402.322 50.2617 T
402.322 135.285 518.538 135.285 518.538 50.2617 T
2 W
[16 0] 0 setdash
0 0 0 C
402.322 50.2617 LS
518.538 50.2617 LE
402.322 135.285 LS
518.538 135.285 LE
402.322 135.285 LS
518.538 135.285 LE
402.322 50.2617 LS
518.538 50.2617 LE
402.322 50.2617 LS
402.322 135.285 LE
518.538 50.2617 LS
518.538 135.285 LE
518.538 50.2617 LS
518.538 135.285 LE
402.322 50.2617 LS
402.322 135.285 L
402.322 135.285 LE
518.538 135.285 LS
518.538 135.285 LE
518.538 50.2617 LS
518.538 50.2617 LE
402.322 50.2617 LS
402.322 50.2617 LE
(CFL=0.504) 428.368 124.657 15 /Helvetica SCL
(CFL=502) 428.368 103.402 15 /Helvetica SCL
(CFL=0.506) 428.368 82.1456 15 /Helvetica SCL
(Exact) 428.368 60.8896 15 /Helvetica SCL
1 0 0 C
417.679 124.657 416.066 122.438 417.233 123.286 T
417.679 124.657 414.624 122.438 416.066 122.438 T
417.679 124.657 413.458 123.286 414.624 122.438 T
417.679 124.657 413.012 124.657 413.458 123.286 T
417.679 124.657 413.458 126.029 413.012 124.657 T
417.679 124.657 414.624 126.877 413.458 126.029 T
417.679 124.657 416.066 126.877 414.624 126.877 T
417.679 124.657 417.233 126.029 416.066 126.877 T
0.5 W
[12 4] 0 setdash
0 0 0 C
405.064 103.402 LS
425.626 103.402 LE
[] 0 setdash
1 0 1 C
415.345 84.6456 LS
412.845 79.6456 L
417.845 79.6456 L
415.345 84.6456 LE
[12 4] 0 setdash
0 0 1 C
405.064 60.8896 LS
425.626 60.8896 LE
grestore
showpage
cleartomark
%%PageTrailer
%%Trailer
end
%%EOF
