%!PS-Adobe-3.0 EPSF-3.0
%%Title: glps_renderer figure
%%Creator: GL2PS 1.3.8, (C) 1999-2012 C. Geuzaine
%%For: Octave
%%CreationDate: Mon Nov  9 08:35:58 2015
%%LanguageLevel: 3
%%DocumentData: Clean7Bit
%%Pages: 1
%%BoundingBox: 0 0 576 432
%%EndComments
%%BeginProlog
/gl2psdict 64 dict def gl2psdict begin
0 setlinecap 0 setlinejoin
/tryPS3shading false def % set to false to force subdivision
/rThreshold 0.064 def % red component subdivision threshold
/gThreshold 0.034 def % green component subdivision threshold
/bThreshold 0.1 def % blue component subdivision threshold
/BD { bind def } bind def
/C  { setrgbcolor } BD
/G  { 0.082 mul exch 0.6094 mul add exch 0.3086 mul add neg 1.0 add setgray } BD
/W  { setlinewidth } BD
/FC { findfont exch /SH exch def SH scalefont setfont } BD
/SW { dup stringwidth pop } BD
/S  { FC moveto show } BD
/SBC{ FC moveto SW -2 div 0 rmoveto show } BD
/SBR{ FC moveto SW neg 0 rmoveto show } BD
/SCL{ FC moveto 0 SH -2 div rmoveto show } BD
/SCC{ FC moveto SW -2 div SH -2 div rmoveto show } BD
/SCR{ FC moveto SW neg SH -2 div rmoveto show } BD
/STL{ FC moveto 0 SH neg rmoveto show } BD
/STC{ FC moveto SW -2 div SH neg rmoveto show } BD
/STR{ FC moveto SW neg SH neg rmoveto show } BD
/FCT { FC translate 0 0 } BD
/SR  { gsave FCT moveto rotate show grestore } BD
/SBCR{ gsave FCT moveto rotate SW -2 div 0 rmoveto show grestore } BD
/SBRR{ gsave FCT moveto rotate SW neg 0 rmoveto show grestore } BD
/SCLR{ gsave FCT moveto rotate 0 SH -2 div rmoveto show grestore} BD
/SCCR{ gsave FCT moveto rotate SW -2 div SH -2 div rmoveto show grestore} BD
/SCRR{ gsave FCT moveto rotate SW neg SH -2 div rmoveto show grestore} BD
/STLR{ gsave FCT moveto rotate 0 SH neg rmoveto show grestore } BD
/STCR{ gsave FCT moveto rotate SW -2 div SH neg rmoveto show grestore } BD
/STRR{ gsave FCT moveto rotate SW neg SH neg rmoveto show grestore } BD
/P  { newpath 0.0 360.0 arc closepath fill } BD
/LS { newpath moveto } BD
/L  { lineto } BD
/LE { lineto stroke } BD
/T  { newpath moveto lineto lineto closepath fill } BD
/STshfill {
      /b1 exch def /g1 exch def /r1 exch def /y1 exch def /x1 exch def
      /b2 exch def /g2 exch def /r2 exch def /y2 exch def /x2 exch def
      /b3 exch def /g3 exch def /r3 exch def /y3 exch def /x3 exch def
      gsave << /ShadingType 4 /ColorSpace [/DeviceRGB]
      /DataSource [ 0 x1 y1 r1 g1 b1 0 x2 y2 r2 g2 b2 0 x3 y3 r3 g3 b3 ] >>
      shfill grestore } BD
/Tm { 3 -1 roll 8 -1 roll 13 -1 roll add add 3 div
      3 -1 roll 7 -1 roll 11 -1 roll add add 3 div
      3 -1 roll 6 -1 roll 9 -1 roll add add 3 div C T } BD
/STsplit {
      4 index 15 index add 0.5 mul
      4 index 15 index add 0.5 mul
      4 index 15 index add 0.5 mul
      4 index 15 index add 0.5 mul
      4 index 15 index add 0.5 mul
      5 copy 5 copy 25 15 roll
      9 index 30 index add 0.5 mul
      9 index 30 index add 0.5 mul
      9 index 30 index add 0.5 mul
      9 index 30 index add 0.5 mul
      9 index 30 index add 0.5 mul
      5 copy 5 copy 35 5 roll 25 5 roll 15 5 roll
      4 index 10 index add 0.5 mul
      4 index 10 index add 0.5 mul
      4 index 10 index add 0.5 mul
      4 index 10 index add 0.5 mul
      4 index 10 index add 0.5 mul
      5 copy 5 copy 40 5 roll 25 5 roll 15 5 roll 25 5 roll
      STnoshfill STnoshfill STnoshfill STnoshfill } BD
/STnoshfill {
      2 index 8 index sub abs rThreshold gt
      { STsplit }
      { 1 index 7 index sub abs gThreshold gt
        { STsplit }
        { dup 6 index sub abs bThreshold gt
          { STsplit }
          { 2 index 13 index sub abs rThreshold gt
            { STsplit }
            { 1 index 12 index sub abs gThreshold gt
              { STsplit }
              { dup 11 index sub abs bThreshold gt
                { STsplit }
                { 7 index 13 index sub abs rThreshold gt
                  { STsplit }
                  { 6 index 12 index sub abs gThreshold gt
                    { STsplit }
                    { 5 index 11 index sub abs bThreshold gt
                      { STsplit }
                      { Tm }
                      ifelse }
                    ifelse }
                  ifelse }
                ifelse }
              ifelse }
            ifelse }
          ifelse }
        ifelse }
      ifelse } BD
tryPS3shading
{ /shfill where
  { /ST { STshfill } BD }
  { /ST { STnoshfill } BD }
  ifelse }
{ /ST { STnoshfill } BD }
ifelse
end
%%EndProlog
%%BeginSetup
/DeviceRGB setcolorspace
gl2psdict begin
%%EndSetup
%%Page: 1 1
%%BeginPageSetup
%%EndPageSetup
mark
gsave
1.0 1.0 scale
1 1 1 C
521.28 47.52 521.28 399.6 521.28 47.52 T
521.28 47.52 521.28 399.6 521.28 399.6 T
74.88 399.6 521.28 399.6 74.88 399.6 T
74.88 399.6 521.28 399.6 521.28 399.6 T
74.88 399.6 521.28 47.52 74.88 47.52 T
74.88 399.6 521.28 399.6 521.28 47.52 T
0.5 W
[16 0] 0 setdash
0 0 0 C
74.88 47.52 LS
521.28 47.52 LE
74.88 399.6 LS
521.28 399.6 LE
74.88 399.6 LS
521.28 399.6 LE
74.88 47.52 LS
521.28 47.52 LE
74.88 47.52 LS
74.88 399.6 LE
521.28 47.52 LS
521.28 399.6 LE
521.28 47.52 LS
521.28 399.6 LE
74.88 47.52 LS
74.88 399.6 L
74.88 399.6 LE
521.28 399.6 LS
521.28 399.6 LE
521.28 47.52 LS
521.28 47.52 LE
74.88 47.52 LS
74.88 47.52 L
74.88 51.985 LE
74.88 399.6 LS
74.88 395.135 LE
134.4 47.52 LS
134.4 51.985 LE
134.4 399.6 LS
134.4 395.135 LE
193.92 47.52 LS
193.92 51.985 LE
193.92 399.6 LS
193.92 395.135 LE
253.44 47.52 LS
253.44 51.985 LE
253.44 399.6 LS
253.44 395.135 LE
312.96 47.52 LS
312.96 51.985 LE
312.96 399.6 LS
312.96 395.135 LE
372.48 47.52 LS
372.48 51.985 LE
372.48 399.6 LS
372.48 395.135 LE
432 47.52 LS
432 51.985 LE
432 399.6 LS
432 395.135 LE
491.52 47.52 LS
491.52 51.985 LE
491.52 399.6 LS
491.52 395.135 LE
(0) 74.88 42.5189 12 /Helvetica STC
(0.002) 134.4 42.5189 12 /Helvetica STC
(0.004) 193.92 42.5189 12 /Helvetica STC
(0.006) 253.44 42.5189 12 /Helvetica STC
(0.008) 312.96 42.5189 12 /Helvetica STC
(0.01) 372.48 42.5189 12 /Helvetica STC
(0.012) 432 42.5189 12 /Helvetica STC
(0.014) 491.52 42.5189 12 /Helvetica STC
74.88 47.52 LS
79.348 47.52 LE
521.28 47.52 LS
516.812 47.52 LE
74.88 106.2 LS
79.348 106.2 LE
521.28 106.2 LS
516.812 106.2 LE
74.88 164.88 LS
79.348 164.88 LE
521.28 164.88 LS
516.812 164.88 LE
74.88 223.56 LS
79.348 223.56 LE
521.28 223.56 LS
516.812 223.56 LE
74.88 282.24 LS
79.348 282.24 LE
521.28 282.24 LS
516.812 282.24 LE
74.88 340.92 LS
79.348 340.92 LE
521.28 340.92 LS
516.812 340.92 LE
(0) 69.8755 47.52 12 /Helvetica SCR
(5e-05) 69.8755 106.2 12 /Helvetica SCR
(0.0001) 69.8755 164.88 12 /Helvetica SCR
(0.00015) 69.8755 223.56 12 /Helvetica SCR
(0.0002) 69.8755 282.24 12 /Helvetica SCR
(0.00025) 69.8755 340.92 12 /Helvetica SCR
(t) 298.08 28.5189 15 /Helvetica STC
(L_2   norm) 90 20.8755 223.56 15 /Helvetica SBCR
2 W
[] 0 setdash
0 0 1 C
149.28 104.49 LS
223.68 160.854 L
298.08 216.708 L
372.48 272.111 L
446.88 327.108 L
521.28 381.737 L
521.726 382.062 LE
1 0 0 C
149.28 75.2275 LS
186.48 102.769 L
223.68 130.163 L
260.88 157.433 L
298.08 184.587 L
335.28 211.631 L
372.48 238.572 L
409.68 265.415 L
446.88 292.164 L
484.08 318.824 L
521.28 345.398 L
521.726 345.716 LE
0 1 0 C
112.08 151.883 LS
149.28 160.806 L
186.48 174.881 L
223.68 192.721 L
260.88 213.048 L
298.08 235.002 L
335.28 258.033 L
372.48 281.789 L
409.68 306.04 L
446.88 330.633 L
484.08 355.464 L
521.28 380.459 L
521.726 380.76 LE
1 0 1 C
112.08 74.4595 LS
149.28 102.055 L
186.48 129.505 L
223.68 156.82 L
260.88 184.01 L
298.08 211.084 L
335.28 238.048 L
372.48 264.908 L
409.68 291.67 L
446.88 318.337 L
484.08 344.915 L
521.28 371.407 L
521.726 371.724 LE
1 1 1 C
518.538 50.2617 518.538 135.285 518.538 50.2617 T
518.538 50.2617 518.538 135.285 518.538 135.285 T
397.18 135.285 518.538 135.285 397.18 135.285 T
397.18 135.285 518.538 135.285 518.538 135.285 T
397.18 135.285 518.538 50.2617 397.18 50.2617 T
397.18 135.285 518.538 135.285 518.538 50.2617 T
[16 0] 0 setdash
0 0 0 C
397.18 50.2617 LS
518.538 50.2617 LE
397.18 135.285 LS
518.538 135.285 LE
397.18 135.285 LS
518.538 135.285 LE
397.18 50.2617 LS
518.538 50.2617 LE
397.18 50.2617 LS
397.18 135.285 LE
518.538 50.2617 LS
518.538 135.285 LE
518.538 50.2617 LS
518.538 135.285 LE
397.18 50.2617 LS
397.18 135.285 L
397.18 135.285 LE
518.538 135.285 LS
518.538 135.285 LE
518.538 50.2617 LS
518.538 50.2617 LE
397.18 50.2617 LS
397.18 50.2617 LE
(RK2) 423.225 124.657 15 /Helvetica SCL
(AB2+EXACT) 423.225 103.402 15 /Helvetica SCL
(AB2+EULER) 423.225 82.1456 15 /Helvetica SCL
(AB2+RK2) 423.225 60.8896 15 /Helvetica SCL
0.5 W
[] 0 setdash
0 0 1 C
399.921 124.657 LS
420.484 124.657 LE
1 0 0 C
399.921 103.402 LS
420.484 103.402 LE
0 1 0 C
399.921 82.1456 LS
420.484 82.1456 LE
1 0 1 C
399.921 60.8896 LS
420.484 60.8896 LE
grestore
showpage
cleartomark
%%PageTrailer
%%Trailer
end
%%EOF
