%!PS-Adobe-3.0 EPSF-3.0
%%Title: glps_renderer figure
%%Creator: GL2PS 1.3.8, (C) 1999-2012 C. Geuzaine
%%For: Octave
%%CreationDate: Mon Nov  9 08:36:00 2015
%%LanguageLevel: 3
%%DocumentData: Clean7Bit
%%Pages: 1
%%BoundingBox: 0 0 560 420
%%EndComments
%%BeginProlog
/gl2psdict 64 dict def gl2psdict begin
0 setlinecap 0 setlinejoin
/tryPS3shading false def % set to false to force subdivision
/rThreshold 0.064 def % red component subdivision threshold
/gThreshold 0.034 def % green component subdivision threshold
/bThreshold 0.1 def % blue component subdivision threshold
/BD { bind def } bind def
/C  { setrgbcolor } BD
/G  { 0.082 mul exch 0.6094 mul add exch 0.3086 mul add neg 1.0 add setgray } BD
/W  { setlinewidth } BD
/FC { findfont exch /SH exch def SH scalefont setfont } BD
/SW { dup stringwidth pop } BD
/S  { FC moveto show } BD
/SBC{ FC moveto SW -2 div 0 rmoveto show } BD
/SBR{ FC moveto SW neg 0 rmoveto show } BD
/SCL{ FC moveto 0 SH -2 div rmoveto show } BD
/SCC{ FC moveto SW -2 div SH -2 div rmoveto show } BD
/SCR{ FC moveto SW neg SH -2 div rmoveto show } BD
/STL{ FC moveto 0 SH neg rmoveto show } BD
/STC{ FC moveto SW -2 div SH neg rmoveto show } BD
/STR{ FC moveto SW neg SH neg rmoveto show } BD
/FCT { FC translate 0 0 } BD
/SR  { gsave FCT moveto rotate show grestore } BD
/SBCR{ gsave FCT moveto rotate SW -2 div 0 rmoveto show grestore } BD
/SBRR{ gsave FCT moveto rotate SW neg 0 rmoveto show grestore } BD
/SCLR{ gsave FCT moveto rotate 0 SH -2 div rmoveto show grestore} BD
/SCCR{ gsave FCT moveto rotate SW -2 div SH -2 div rmoveto show grestore} BD
/SCRR{ gsave FCT moveto rotate SW neg SH -2 div rmoveto show grestore} BD
/STLR{ gsave FCT moveto rotate 0 SH neg rmoveto show grestore } BD
/STCR{ gsave FCT moveto rotate SW -2 div SH neg rmoveto show grestore } BD
/STRR{ gsave FCT moveto rotate SW neg SH neg rmoveto show grestore } BD
/P  { newpath 0.0 360.0 arc closepath fill } BD
/LS { newpath moveto } BD
/L  { lineto } BD
/LE { lineto stroke } BD
/T  { newpath moveto lineto lineto closepath fill } BD
/STshfill {
      /b1 exch def /g1 exch def /r1 exch def /y1 exch def /x1 exch def
      /b2 exch def /g2 exch def /r2 exch def /y2 exch def /x2 exch def
      /b3 exch def /g3 exch def /r3 exch def /y3 exch def /x3 exch def
      gsave << /ShadingType 4 /ColorSpace [/DeviceRGB]
      /DataSource [ 0 x1 y1 r1 g1 b1 0 x2 y2 r2 g2 b2 0 x3 y3 r3 g3 b3 ] >>
      shfill grestore } BD
/Tm { 3 -1 roll 8 -1 roll 13 -1 roll add add 3 div
      3 -1 roll 7 -1 roll 11 -1 roll add add 3 div
      3 -1 roll 6 -1 roll 9 -1 roll add add 3 div C T } BD
/STsplit {
      4 index 15 index add 0.5 mul
      4 index 15 index add 0.5 mul
      4 index 15 index add 0.5 mul
      4 index 15 index add 0.5 mul
      4 index 15 index add 0.5 mul
      5 copy 5 copy 25 15 roll
      9 index 30 index add 0.5 mul
      9 index 30 index add 0.5 mul
      9 index 30 index add 0.5 mul
      9 index 30 index add 0.5 mul
      9 index 30 index add 0.5 mul
      5 copy 5 copy 35 5 roll 25 5 roll 15 5 roll
      4 index 10 index add 0.5 mul
      4 index 10 index add 0.5 mul
      4 index 10 index add 0.5 mul
      4 index 10 index add 0.5 mul
      4 index 10 index add 0.5 mul
      5 copy 5 copy 40 5 roll 25 5 roll 15 5 roll 25 5 roll
      STnoshfill STnoshfill STnoshfill STnoshfill } BD
/STnoshfill {
      2 index 8 index sub abs rThreshold gt
      { STsplit }
      { 1 index 7 index sub abs gThreshold gt
        { STsplit }
        { dup 6 index sub abs bThreshold gt
          { STsplit }
          { 2 index 13 index sub abs rThreshold gt
            { STsplit }
            { 1 index 12 index sub abs gThreshold gt
              { STsplit }
              { dup 11 index sub abs bThreshold gt
                { STsplit }
                { 7 index 13 index sub abs rThreshold gt
                  { STsplit }
                  { 6 index 12 index sub abs gThreshold gt
                    { STsplit }
                    { 5 index 11 index sub abs bThreshold gt
                      { STsplit }
                      { Tm }
                      ifelse }
                    ifelse }
                  ifelse }
                ifelse }
              ifelse }
            ifelse }
          ifelse }
        ifelse }
      ifelse } BD
tryPS3shading
{ /shfill where
  { /ST { STshfill } BD }
  { /ST { STnoshfill } BD }
  ifelse }
{ /ST { STnoshfill } BD }
ifelse
end
%%EndProlog
%%BeginSetup
/DeviceRGB setcolorspace
gl2psdict begin
%%EndSetup
%%Page: 1 1
%%BeginPageSetup
%%EndPageSetup
mark
gsave
1.0 1.0 scale
1 1 1 C
506.8 46.2 506.8 388.5 506.8 46.2 T
506.8 46.2 506.8 388.5 506.8 388.5 T
72.8 388.5 506.8 388.5 72.8 388.5 T
72.8 388.5 506.8 388.5 506.8 388.5 T
72.8 388.5 506.8 46.2 72.8 46.2 T
72.8 388.5 506.8 388.5 506.8 46.2 T
0.5 W
[16 0] 0 setdash
0 0 0 C
72.8 46.2 LS
506.8 46.2 LE
72.8 388.5 LS
506.8 388.5 LE
72.8 388.5 LS
506.8 388.5 LE
72.8 46.2 LS
506.8 46.2 LE
72.8 46.2 LS
72.8 388.5 LE
506.8 46.2 LS
506.8 388.5 LE
506.8 46.2 LS
506.8 388.5 LE
72.8 46.2 LS
72.8 388.5 L
72.8 388.5 LE
506.8 388.5 LS
506.8 388.5 LE
506.8 46.2 LS
506.8 46.2 LE
72.8 46.2 LS
72.8 46.2 L
72.8 50.5438 LE
72.8 388.5 LS
72.8 384.156 LE
217.467 46.2 LS
217.467 50.5438 LE
217.467 388.5 LS
217.467 384.156 LE
362.133 46.2 LS
362.133 50.5438 LE
362.133 388.5 LS
362.133 384.156 LE
506.8 46.2 LS
506.8 50.5438 LE
506.8 388.5 LS
506.8 384.156 LE
(10) 72.8 41.1956 15 /Helvetica STC
(100) 217.467 41.1956 15 /Helvetica STC
(1000) 362.133 41.1956 15 /Helvetica STC
(10000) 506.8 41.1956 15 /Helvetica STC
72.8 46.2 LS
77.14 46.2 LE
506.8 46.2 LS
502.46 46.2 LE
72.8 114.66 LS
77.14 114.66 LE
506.8 114.66 LS
502.46 114.66 LE
72.8 183.12 LS
77.14 183.12 LE
506.8 183.12 LS
502.46 183.12 LE
72.8 251.58 LS
77.14 251.58 LE
506.8 251.58 LS
502.46 251.58 LE
72.8 320.04 LS
77.14 320.04 LE
506.8 320.04 LS
502.46 320.04 LE
72.8 388.5 LS
77.14 388.5 LE
506.8 388.5 LS
502.46 388.5 LE
(1e-5) 67.8 46.2 15 /Helvetica SCR
(1e-4) 67.8 114.66 15 /Helvetica SCR
(1e-3) 67.8 183.12 15 /Helvetica SCR
(1e-2) 67.8 251.58 15 /Helvetica SCR
(1e-1) 67.8 320.04 15 /Helvetica SCR
(1e+0) 67.8 388.5 15 /Helvetica SCR
(N) 289.8 23.1956 15 /Helvetica STC
(Error Norm) 90 30.8 217.35 15 /Helvetica SBCR
2 W
[] 0 setdash
1 0 0 C
116.349 304.106 LS
159.898 267.675 L
203.447 228.143 L
246.996 187.604 L
290.545 146.67 L
334.094 105.582 L
377.643 64.4259 LE
[12 4] 0 setdash
116.349 310.283 LS
159.898 273.827 L
203.447 234.346 L
246.996 193.789 L
290.545 152.846 L
334.094 111.753 L
377.643 70.5936 LE
[4 5 1 6] 0 setdash
116.349 332.532 LS
159.898 298.847 L
203.447 260.021 L
246.996 219.648 L
290.545 178.767 L
334.094 137.698 L
377.643 96.5499 LE
[] 0 setdash
1 0 1 C
116.349 303.014 LS
159.898 266.663 L
203.447 227.172 L
246.996 186.661 L
290.545 145.74 L
334.094 104.659 L
377.643 63.5066 LE
[12 4] 0 setdash
116.349 309.293 LS
159.898 272.874 L
203.447 233.428 L
246.996 192.893 L
290.545 151.963 L
334.094 110.876 L
377.643 69.7201 LE
[4 5 1 6] 0 setdash
116.349 331.567 LS
159.898 297.953 L
203.447 259.157 L
246.996 218.797 L
290.545 177.923 L
334.094 136.857 L
377.643 95.7107 LE
[] 0 setdash
0 0 1 C
116.349 303.014 LS
159.898 266.663 L
203.447 227.172 L
246.996 186.661 L
290.545 145.74 L
334.094 104.659 L
377.643 63.5066 LE
[12 4] 0 setdash
116.349 309.293 LS
159.898 272.874 L
203.447 233.428 L
246.996 192.893 L
290.545 151.963 L
334.094 110.876 L
377.643 69.7201 LE
[4 5 1 6] 0 setdash
116.349 331.567 LS
159.898 297.953 L
203.447 259.157 L
246.996 218.797 L
290.545 177.923 L
334.094 136.857 L
377.643 95.7107 LE
[] 0 setdash
0 1 0 C
116.349 303.014 LS
159.898 266.663 L
203.447 227.172 L
246.996 186.661 L
290.545 145.74 L
334.094 104.659 L
377.643 63.5066 LE
[12 4] 0 setdash
116.349 309.293 LS
159.898 272.874 L
203.447 233.428 L
246.996 192.893 L
290.545 151.963 L
334.094 110.876 L
377.643 69.7201 LE
[4 5 1 6] 0 setdash
116.349 331.567 LS
159.898 297.953 L
203.447 259.157 L
246.996 218.797 L
290.545 177.923 L
334.094 136.857 L
377.643 95.7107 LE
1 1 1 C
504.135 149.848 504.135 385.834 504.135 149.848 T
504.135 149.848 504.135 385.834 504.135 385.834 T
376.147 385.834 504.135 385.834 376.147 385.834 T
376.147 385.834 504.135 385.834 504.135 385.834 T
376.147 385.834 504.135 149.848 376.147 149.848 T
376.147 385.834 504.135 385.834 504.135 149.848 T
[16 0] 0 setdash
0 0 0 C
376.147 149.848 LS
504.135 149.848 LE
376.147 385.834 LS
504.135 385.834 LE
376.147 385.834 LS
504.135 385.834 LE
376.147 149.848 LS
504.135 149.848 LE
376.147 149.848 LS
376.147 385.834 LE
504.135 149.848 LS
504.135 385.834 LE
504.135 149.848 LS
504.135 385.834 LE
376.147 149.848 LS
376.147 385.834 L
376.147 385.834 LE
504.135 385.834 LS
504.135 385.834 LE
504.135 149.848 LS
504.135 149.848 LE
376.147 149.848 LS
376.147 149.848 LE
(RK2 l1) 401.469 376.002 13 /Helvetica SCL
(RK2 l2) 401.469 356.336 13 /Helvetica SCL
(RK2 linf) 401.469 336.671 13 /Helvetica SCL
(AB2+EXACT l1) 401.469 317.005 13 /Helvetica SCL
(AB2+EXACT l2) 401.469 297.34 13 /Helvetica SCL
(AB2+EXACT linf) 401.469 277.674 13 /Helvetica SCL
(AB2+EULER l1) 401.469 258.009 13 /Helvetica SCL
(AB2+EULER l2) 401.469 238.343 13 /Helvetica SCL
(AB2+EULER linf) 401.469 218.678 13 /Helvetica SCL
(AB2+RK2 l1) 401.469 199.012 13 /Helvetica SCL
(AB2+RK2 l2) 401.469 179.347 13 /Helvetica SCL
(AB2+RK2 linf) 401.469 159.681 13 /Helvetica SCL
0.5 W
[] 0 setdash
1 0 0 C
378.812 376.002 LS
398.803 376.002 LE
[12 4] 0 setdash
378.812 356.336 LS
398.803 356.336 LE
[4 5 1 6] 0 setdash
378.812 336.671 LS
398.803 336.671 LE
[] 0 setdash
1 0 1 C
378.812 317.005 LS
398.803 317.005 LE
[12 4] 0 setdash
378.812 297.34 LS
398.803 297.34 LE
[4 5 1 6] 0 setdash
378.812 277.674 LS
398.803 277.674 LE
[] 0 setdash
0 0 1 C
378.812 258.009 LS
398.803 258.009 LE
[12 4] 0 setdash
378.812 238.343 LS
398.803 238.343 LE
[4 5 1 6] 0 setdash
378.812 218.678 LS
398.803 218.678 LE
[] 0 setdash
0 1 0 C
378.812 199.012 LS
398.803 199.012 LE
[12 4] 0 setdash
378.812 179.347 LS
398.803 179.347 LE
[4 5 1 6] 0 setdash
378.812 159.681 LS
398.803 159.681 LE
grestore
showpage
cleartomark
%%PageTrailer
%%Trailer
end
%%EOF
