%!PS-Adobe-3.0 EPSF-3.0
%%Title: glps_renderer figure
%%Creator: GL2PS 1.3.8, (C) 1999-2012 C. Geuzaine
%%For: Octave
%%CreationDate: Mon Nov  9 08:40:03 2015
%%LanguageLevel: 3
%%DocumentData: Clean7Bit
%%Pages: 1
%%BoundingBox: 0 0 560 420
%%EndComments
%%BeginProlog
/gl2psdict 64 dict def gl2psdict begin
0 setlinecap 0 setlinejoin
/tryPS3shading false def % set to false to force subdivision
/rThreshold 0.064 def % red component subdivision threshold
/gThreshold 0.034 def % green component subdivision threshold
/bThreshold 0.1 def % blue component subdivision threshold
/BD { bind def } bind def
/C  { setrgbcolor } BD
/G  { 0.082 mul exch 0.6094 mul add exch 0.3086 mul add neg 1.0 add setgray } BD
/W  { setlinewidth } BD
/FC { findfont exch /SH exch def SH scalefont setfont } BD
/SW { dup stringwidth pop } BD
/S  { FC moveto show } BD
/SBC{ FC moveto SW -2 div 0 rmoveto show } BD
/SBR{ FC moveto SW neg 0 rmoveto show } BD
/SCL{ FC moveto 0 SH -2 div rmoveto show } BD
/SCC{ FC moveto SW -2 div SH -2 div rmoveto show } BD
/SCR{ FC moveto SW neg SH -2 div rmoveto show } BD
/STL{ FC moveto 0 SH neg rmoveto show } BD
/STC{ FC moveto SW -2 div SH neg rmoveto show } BD
/STR{ FC moveto SW neg SH neg rmoveto show } BD
/FCT { FC translate 0 0 } BD
/SR  { gsave FCT moveto rotate show grestore } BD
/SBCR{ gsave FCT moveto rotate SW -2 div 0 rmoveto show grestore } BD
/SBRR{ gsave FCT moveto rotate SW neg 0 rmoveto show grestore } BD
/SCLR{ gsave FCT moveto rotate 0 SH -2 div rmoveto show grestore} BD
/SCCR{ gsave FCT moveto rotate SW -2 div SH -2 div rmoveto show grestore} BD
/SCRR{ gsave FCT moveto rotate SW neg SH -2 div rmoveto show grestore} BD
/STLR{ gsave FCT moveto rotate 0 SH neg rmoveto show grestore } BD
/STCR{ gsave FCT moveto rotate SW -2 div SH neg rmoveto show grestore } BD
/STRR{ gsave FCT moveto rotate SW neg SH neg rmoveto show grestore } BD
/P  { newpath 0.0 360.0 arc closepath fill } BD
/LS { newpath moveto } BD
/L  { lineto } BD
/LE { lineto stroke } BD
/T  { newpath moveto lineto lineto closepath fill } BD
/STshfill {
      /b1 exch def /g1 exch def /r1 exch def /y1 exch def /x1 exch def
      /b2 exch def /g2 exch def /r2 exch def /y2 exch def /x2 exch def
      /b3 exch def /g3 exch def /r3 exch def /y3 exch def /x3 exch def
      gsave << /ShadingType 4 /ColorSpace [/DeviceRGB]
      /DataSource [ 0 x1 y1 r1 g1 b1 0 x2 y2 r2 g2 b2 0 x3 y3 r3 g3 b3 ] >>
      shfill grestore } BD
/Tm { 3 -1 roll 8 -1 roll 13 -1 roll add add 3 div
      3 -1 roll 7 -1 roll 11 -1 roll add add 3 div
      3 -1 roll 6 -1 roll 9 -1 roll add add 3 div C T } BD
/STsplit {
      4 index 15 index add 0.5 mul
      4 index 15 index add 0.5 mul
      4 index 15 index add 0.5 mul
      4 index 15 index add 0.5 mul
      4 index 15 index add 0.5 mul
      5 copy 5 copy 25 15 roll
      9 index 30 index add 0.5 mul
      9 index 30 index add 0.5 mul
      9 index 30 index add 0.5 mul
      9 index 30 index add 0.5 mul
      9 index 30 index add 0.5 mul
      5 copy 5 copy 35 5 roll 25 5 roll 15 5 roll
      4 index 10 index add 0.5 mul
      4 index 10 index add 0.5 mul
      4 index 10 index add 0.5 mul
      4 index 10 index add 0.5 mul
      4 index 10 index add 0.5 mul
      5 copy 5 copy 40 5 roll 25 5 roll 15 5 roll 25 5 roll
      STnoshfill STnoshfill STnoshfill STnoshfill } BD
/STnoshfill {
      2 index 8 index sub abs rThreshold gt
      { STsplit }
      { 1 index 7 index sub abs gThreshold gt
        { STsplit }
        { dup 6 index sub abs bThreshold gt
          { STsplit }
          { 2 index 13 index sub abs rThreshold gt
            { STsplit }
            { 1 index 12 index sub abs gThreshold gt
              { STsplit }
              { dup 11 index sub abs bThreshold gt
                { STsplit }
                { 7 index 13 index sub abs rThreshold gt
                  { STsplit }
                  { 6 index 12 index sub abs gThreshold gt
                    { STsplit }
                    { 5 index 11 index sub abs bThreshold gt
                      { STsplit }
                      { Tm }
                      ifelse }
                    ifelse }
                  ifelse }
                ifelse }
              ifelse }
            ifelse }
          ifelse }
        ifelse }
      ifelse } BD
tryPS3shading
{ /shfill where
  { /ST { STshfill } BD }
  { /ST { STnoshfill } BD }
  ifelse }
{ /ST { STnoshfill } BD }
ifelse
end
%%EndProlog
%%BeginSetup
/DeviceRGB setcolorspace
gl2psdict begin
%%EndSetup
%%Page: 1 1
%%BeginPageSetup
%%EndPageSetup
mark
gsave
1.0 1.0 scale
1 1 1 C
460.95 46.2 460.95 388.5 460.95 46.2 T
460.95 46.2 460.95 388.5 460.95 388.5 T
118.65 388.5 460.95 388.5 118.65 388.5 T
118.65 388.5 460.95 388.5 460.95 388.5 T
118.65 388.5 460.95 46.2 118.65 46.2 T
118.65 388.5 460.95 388.5 460.95 46.2 T
0.5 W
[16 0] 0 setdash
0 0 0 C
118.65 46.2 LS
460.95 46.2 LE
118.65 388.5 LS
460.95 388.5 LE
118.65 388.5 LS
460.95 388.5 LE
118.65 46.2 LS
460.95 46.2 LE
118.65 46.2 LS
118.65 388.5 LE
460.95 46.2 LS
460.95 388.5 LE
460.95 46.2 LS
460.95 388.5 LE
118.65 46.2 LS
118.65 388.5 L
118.65 388.5 LE
460.95 388.5 LS
460.95 388.5 LE
460.95 46.2 LS
460.95 46.2 LE
118.65 46.2 LS
118.65 46.2 LE
[0 3 1 3 1 3 1 3 1 0] 0 setdash
118.65 46.2 LS
118.65 388.5 LE
175.7 46.2 LS
175.7 388.5 LE
232.75 46.2 LS
232.75 388.5 LE
289.8 46.2 LS
289.8 388.5 LE
346.85 46.2 LS
346.85 388.5 LE
403.9 46.2 LS
403.9 388.5 LE
460.95 46.2 LS
460.95 388.5 LE
[16 0] 0 setdash
118.65 46.2 LS
118.65 50.5438 LE
118.65 388.5 LS
118.65 384.156 LE
175.7 46.2 LS
175.7 50.5438 LE
175.7 388.5 LS
175.7 384.156 LE
232.75 46.2 LS
232.75 50.5438 LE
232.75 388.5 LS
232.75 384.156 LE
289.8 46.2 LS
289.8 50.5438 LE
289.8 388.5 LS
289.8 384.156 LE
346.85 46.2 LS
346.85 50.5438 LE
346.85 388.5 LS
346.85 384.156 LE
403.9 46.2 LS
403.9 50.5438 LE
403.9 388.5 LS
403.9 384.156 LE
460.95 46.2 LS
460.95 50.5438 LE
460.95 388.5 LS
460.95 384.156 LE
(-2.5) 118.65 41.1956 15 /Helvetica STC
(-2) 175.7 41.1956 15 /Helvetica STC
(-1.5) 232.75 41.1956 15 /Helvetica STC
(-1) 289.8 41.1956 15 /Helvetica STC
(-0.5) 346.85 41.1956 15 /Helvetica STC
(0) 403.9 41.1956 15 /Helvetica STC
(0.5) 460.95 41.1956 15 /Helvetica STC
[0 3 1 3 1 3 1 3 1 0] 0 setdash
118.65 70.65 LS
460.95 70.65 LE
118.65 119.55 LS
460.95 119.55 LE
118.65 168.45 LS
460.95 168.45 LE
118.65 217.35 LS
460.95 217.35 LE
118.65 266.25 LS
460.95 266.25 LE
118.65 315.15 LS
460.95 315.15 LE
118.65 364.05 LS
460.95 364.05 LE
[16 0] 0 setdash
118.65 70.65 LS
122.994 70.65 LE
460.95 70.65 LS
456.606 70.65 LE
118.65 119.55 LS
122.994 119.55 LE
460.95 119.55 LS
456.606 119.55 LE
118.65 168.45 LS
122.994 168.45 LE
460.95 168.45 LS
456.606 168.45 LE
118.65 217.35 LS
122.994 217.35 LE
460.95 217.35 LS
456.606 217.35 LE
118.65 266.25 LS
122.994 266.25 LE
460.95 266.25 LS
456.606 266.25 LE
118.65 315.15 LS
122.994 315.15 LE
460.95 315.15 LS
456.606 315.15 LE
118.65 364.05 LS
122.994 364.05 LE
460.95 364.05 LS
456.606 364.05 LE
(-1.5) 113.646 70.65 15 /Helvetica SCR
(-1) 113.646 119.55 15 /Helvetica SCR
(-0.5) 113.646 168.45 15 /Helvetica SCR
(0) 113.646 217.35 15 /Helvetica SCR
(0.5) 113.646 266.25 15 /Helvetica SCR
(1) 113.646 315.15 15 /Helvetica SCR
(1.5) 113.646 364.05 15 /Helvetica SCR
(Re) 289.8 23.1956 15 /Helvetica STC
(Im) 90 84.6456 217.35 15 /Helvetica SBCR
(Finding CFL(MAX), RK2) 289.8 398.5 15 /Helvetica SBC
1 W
[] 0 setdash
118.308 217.35 LS
461.292 217.35 LE
0.5 W
403.9 45.8577 LS
403.9 388.842 LE
2 W
0 0 1 C
403.9 217.35 LS
403.9 219.306 L
403.9 221.261 L
403.9 223.214 L
403.899 225.166 L
403.899 227.114 L
403.897 229.058 L
403.895 230.998 L
403.891 232.933 L
403.886 234.861 L
403.878 236.784 L
403.868 238.699 L
403.856 240.606 L
403.84 242.506 L
403.82 244.397 L
403.795 246.278 L
403.766 248.151 L
403.732 250.013 L
403.691 251.866 L
403.645 253.707 L
403.591 255.538 L
403.53 257.359 L
403.462 259.168 L
403.385 260.965 L
403.299 262.751 L
403.204 264.525 L
403.1 266.288 L
402.986 268.039 L
402.861 269.777 L
402.726 271.504 L
402.58 273.218 L
402.423 274.921 L
402.254 276.611 L
402.073 278.289 L
401.88 279.954 L
401.675 281.608 L
401.457 283.249 L
401.226 284.878 L
400.983 286.494 L
400.726 288.099 L
400.456 289.691 L
400.173 291.271 L
399.876 292.839 L
399.565 294.394 L
399.241 295.938 L
398.903 297.469 L
398.551 298.988 L
398.185 300.494 L
397.804 301.989 L
397.41 303.471 L
397.002 304.942 L
396.58 306.4 L
396.143 307.846 L
395.692 309.28 L
395.227 310.702 L
394.748 312.111 L
394.255 313.509 L
393.748 314.894 L
393.227 316.267 L
392.691 317.628 L
392.142 318.977 L
391.579 320.313 L
391.001 321.638 L
390.41 322.95 L
389.805 324.25 L
389.187 325.537 L
388.555 326.813 L
387.909 328.076 L
387.249 329.327 L
386.577 330.565 L
385.89 331.791 L
385.191 333.004 L
384.478 334.206 L
383.753 335.394 L
383.014 336.57 L
382.263 337.734 L
381.499 338.885 L
380.722 340.023 L
379.932 341.149 L
379.13 342.262 L
378.316 343.362 L
377.49 344.45 L
376.651 345.525 L
375.801 346.587 L
374.938 347.636 L
374.064 348.672 L
373.178 349.695 L
372.281 350.705 L
371.373 351.703 L
370.453 352.687 L
369.522 353.658 L
368.58 354.615 L
367.628 355.56 L
366.665 356.491 L
365.691 357.409 L
364.707 358.314 L
363.712 359.205 L
362.708 360.083 L
361.693 360.948 L
360.669 361.799 L
359.635 362.636 L
358.592 363.46 L
357.539 364.27 L
356.477 365.066 L
355.405 365.849 L
354.325 366.618 L
353.237 367.373 L
352.139 368.114 L
351.033 368.842 L
349.919 369.555 L
348.797 370.254 L
347.667 370.94 L
346.528 371.611 L
345.383 372.269 L
344.229 372.912 L
343.069 373.541 L
341.901 374.155 L
340.726 374.756 L
339.545 375.342 L
338.356 375.914 L
337.161 376.471 L
335.96 377.015 L
334.753 377.543 L
333.539 378.058 L
332.32 378.557 L
331.095 379.043 L
329.864 379.513 L
328.628 379.969 L
327.387 380.411 L
326.141 380.838 L
324.89 381.25 L
323.634 381.647 L
322.374 382.03 L
321.11 382.398 L
319.841 382.751 L
318.568 383.089 L
317.292 383.413 L
316.012 383.722 L
314.728 384.016 L
313.441 384.294 L
312.151 384.559 L
310.858 384.808 L
309.562 385.042 L
308.263 385.261 L
306.962 385.465 L
305.659 385.655 L
304.353 385.829 L
303.046 385.988 L
301.737 386.133 L
300.426 386.262 L
299.114 386.376 L
297.801 386.475 L
296.487 386.559 L
295.171 386.628 L
293.855 386.682 L
292.539 386.721 L
291.222 386.745 L
289.905 386.754 L
288.588 386.747 L
287.271 386.726 L
285.954 386.689 L
284.638 386.638 L
283.323 386.571 L
282.008 386.489 L
280.695 386.393 L
279.383 386.281 L
278.072 386.154 L
276.762 386.012 L
275.455 385.855 L
274.149 385.683 L
272.845 385.497 L
271.544 385.295 L
270.245 385.078 L
268.949 384.846 L
267.655 384.599 L
266.364 384.338 L
265.077 384.061 L
263.793 383.769 L
262.512 383.463 L
261.235 383.142 L
259.961 382.806 L
258.692 382.455 L
257.427 382.089 L
256.166 381.709 L
254.91 381.314 L
253.658 380.904 L
252.411 380.48 L
251.169 380.041 L
249.932 379.587 L
248.701 379.118 L
247.475 378.636 L
246.255 378.138 L
245.04 377.626 L
243.832 377.1 L
242.63 376.559 L
241.434 376.004 L
240.244 375.434 L
239.061 374.85 L
237.886 374.252 L
236.717 373.639 L
235.555 373.013 L
234.4 372.372 L
233.253 371.717 L
232.114 371.048 L
230.983 370.365 L
229.859 369.667 L
228.744 368.956 L
227.636 368.231 L
226.538 367.492 L
225.447 366.739 L
224.366 365.972 L
223.293 365.192 L
222.23 364.398 L
221.176 363.59 L
220.131 362.768 L
219.095 361.933 L
218.069 361.084 L
217.053 360.222 L
216.047 359.346 L
215.051 358.457 L
214.065 357.554 L
213.09 356.638 L
212.125 355.709 L
211.171 354.767 L
210.227 353.811 L
209.295 352.842 L
208.373 351.86 L
207.463 350.865 L
206.564 349.857 L
205.676 348.836 L
204.8 347.802 L
203.936 346.755 L
203.084 345.695 L
202.243 344.622 L
201.415 343.536 L
200.599 342.438 L
199.795 341.327 L
199.003 340.203 L
198.224 339.067 L
197.458 337.918 L
196.705 336.756 L
195.964 335.582 L
195.236 334.396 L
194.522 333.197 L
193.82 331.985 L
193.132 330.761 L
192.457 329.525 L
191.795 328.276 L
191.147 327.015 L
190.513 325.741 L
189.892 324.456 L
189.285 323.158 L
188.692 321.848 L
188.112 320.525 L
187.547 319.19 L
186.995 317.844 L
186.458 316.485 L
185.934 315.113 L
185.424 313.73 L
184.929 312.335 L
184.448 310.927 L
183.981 309.507 L
183.528 308.075 L
183.089 306.631 L
182.664 305.175 L
182.254 303.706 L
181.857 302.226 L
181.475 300.733 L
181.107 299.228 L
180.752 297.711 L
180.412 296.182 L
180.086 294.641 L
179.773 293.087 L
179.474 291.521 L
179.188 289.943 L
178.916 288.353 L
178.657 286.751 L
178.412 285.136 L
178.179 283.509 L
177.959 281.87 L
177.752 280.218 L
177.557 278.555 L
177.374 276.879 L
177.203 275.191 L
177.044 273.49 L
176.896 271.778 L
176.759 270.053 L
176.633 268.316 L
176.517 266.568 L
176.412 264.807 L
176.315 263.034 L
176.228 261.25 L
176.15 259.455 L
176.08 257.647 L
176.018 255.829 L
175.963 254 L
175.916 252.16 L
175.874 250.309 L
175.839 248.448 L
175.809 246.577 L
175.784 244.697 L
175.763 242.808 L
175.747 240.909 L
175.733 239.003 L
175.723 237.089 L
175.715 235.168 L
175.71 233.24 L
175.706 231.306 L
175.703 229.367 L
175.702 227.424 L
175.701 225.476 L
175.7 223.525 L
175.7 221.572 L
175.7 219.617 L
175.7 217.662 L
175.7 215.706 L
175.7 213.75 L
175.7 211.796 L
175.7 209.845 L
175.701 207.896 L
175.703 205.951 L
175.705 204.011 L
175.708 202.075 L
175.713 200.145 L
175.72 198.222 L
175.73 196.306 L
175.742 194.397 L
175.758 192.496 L
175.777 190.604 L
175.801 188.721 L
175.829 186.847 L
175.862 184.983 L
175.902 183.129 L
175.947 181.285 L
176 179.452 L
176.06 177.631 L
176.127 175.82 L
176.203 174.02 L
176.287 172.233 L
176.38 170.456 L
176.483 168.692 L
176.595 166.939 L
176.718 165.199 L
176.852 163.47 L
176.996 161.754 L
177.151 160.05 L
177.319 158.358 L
177.497 156.678 L
177.688 155.01 L
177.892 153.355 L
178.108 151.712 L
178.336 150.081 L
178.578 148.462 L
178.832 146.856 L
179.1 145.262 L
179.381 143.68 L
179.676 142.11 L
179.984 140.553 L
180.307 139.007 L
180.643 137.474 L
180.992 135.953 L
181.356 134.445 L
181.734 132.948 L
182.126 131.464 L
182.532 129.992 L
182.952 128.531 L
183.387 127.084 L
183.835 125.648 L
184.298 124.224 L
184.774 122.813 L
185.265 121.413 L
185.77 120.026 L
186.289 118.651 L
186.822 117.288 L
187.37 115.937 L
187.931 114.599 L
188.506 113.272 L
189.095 111.958 L
189.697 110.656 L
190.314 109.367 L
190.944 108.089 L
191.587 106.824 L
192.245 105.572 L
192.915 104.331 L
193.599 103.104 L
194.297 101.888 L
195.007 100.685 L
195.731 99.4943 L
196.467 98.3162 L
197.217 97.1506 L
197.979 95.9976 L
198.754 94.8572 L
199.541 93.7295 L
200.341 92.6144 L
201.153 91.512 L
201.978 90.4224 L
202.815 89.3456 L
203.663 88.2816 L
204.524 87.2304 L
205.396 86.1922 L
206.28 85.1669 L
207.175 84.1546 L
208.082 83.1554 L
209 82.1692 L
209.929 81.1962 L
210.869 80.2362 L
211.82 79.2896 L
212.781 78.3561 L
213.753 77.4359 L
214.736 76.5291 L
215.729 75.6357 L
216.732 74.7556 L
217.745 73.889 L
218.767 73.036 L
219.8 72.1965 L
220.842 71.3705 L
221.893 70.5583 L
222.954 69.7596 L
224.023 68.9748 L
225.102 68.2036 L
226.189 67.4463 L
227.285 66.7029 L
228.39 65.9733 L
229.503 65.2576 L
230.624 64.556 L
231.753 63.8683 L
232.89 63.1947 L
234.034 62.5352 L
235.186 61.8898 L
236.346 61.2586 L
237.512 60.6416 L
238.686 60.0388 L
239.867 59.4503 L
241.054 58.8761 L
242.248 58.3163 L
243.448 57.7709 L
244.655 57.2399 L
245.867 56.7233 L
247.086 56.2213 L
248.31 55.7337 L
249.539 55.2608 L
250.774 54.8024 L
252.015 54.3586 L
253.26 53.9294 L
254.51 53.5149 L
255.765 53.1151 L
257.025 52.7301 L
258.289 52.3598 L
259.557 52.0042 L
260.829 51.6635 L
262.105 51.3376 L
263.384 51.0265 L
264.667 50.7303 L
265.954 50.4489 L
267.244 50.1825 L
268.536 49.931 L
269.832 49.6944 L
271.13 49.4728 L
272.431 49.2661 L
273.733 49.0744 L
275.039 48.8978 L
276.346 48.7361 L
277.654 48.5895 L
278.965 48.4578 L
280.277 48.3413 L
281.59 48.2397 L
282.904 48.1532 L
284.219 48.0818 L
285.535 48.0255 L
286.851 47.9842 L
288.168 47.958 L
289.485 47.9468 L
290.802 47.9508 L
292.119 47.9698 L
293.436 48.0039 L
294.752 48.053 L
296.068 48.1172 L
297.382 48.1965 L
298.696 48.2909 L
300.009 48.4003 L
301.32 48.5247 L
302.629 48.6642 L
303.937 48.8186 L
305.243 48.9882 L
306.547 49.1727 L
307.849 49.3722 L
309.148 49.5866 L
310.445 49.8161 L
311.739 50.0605 L
313.03 50.3198 L
314.318 50.594 L
315.603 50.8831 L
316.884 51.1871 L
318.162 51.5059 L
319.436 51.8396 L
320.706 52.188 L
321.972 52.5513 L
323.234 52.9293 L
324.491 53.3221 L
325.743 53.7295 L
326.991 54.1517 L
328.234 54.5885 L
329.471 55.0399 L
330.703 55.5059 L
331.93 55.9865 L
333.151 56.4816 L
334.367 56.9913 L
335.576 57.5154 L
336.779 58.0539 L
337.976 58.6069 L
339.167 59.1742 L
340.351 59.7558 L
341.528 60.3518 L
342.698 60.962 L
343.861 61.5864 L
345.016 62.225 L
346.164 62.8778 L
347.305 63.5447 L
348.438 64.2256 L
349.563 64.9206 L
350.679 65.6296 L
351.788 66.3525 L
352.888 67.0894 L
353.98 67.8401 L
355.062 68.6046 L
356.136 69.3829 L
357.201 70.175 L
358.257 70.9807 L
359.304 71.8002 L
360.341 72.6332 L
361.368 73.4798 L
362.386 74.3399 L
363.393 75.2135 L
364.391 76.1005 L
365.378 77.001 L
366.356 77.9148 L
367.322 78.8419 L
368.278 79.7823 L
369.223 80.7359 L
370.158 81.7027 L
371.081 82.6826 L
371.993 83.6756 L
372.894 84.6816 L
373.783 85.7007 L
374.661 86.7328 L
375.527 87.7777 L
376.381 88.8356 L
377.224 89.9063 L
378.054 90.9898 L
378.872 92.0861 L
379.678 93.1951 L
380.471 94.3168 L
381.252 95.4512 L
382.021 96.5982 L
382.776 97.7577 L
383.519 98.9299 L
384.249 100.115 L
384.965 101.312 L
385.669 102.521 L
386.359 103.743 L
387.037 104.978 L
387.7 106.224 L
388.35 107.484 L
388.987 108.755 L
389.61 110.039 L
390.219 111.335 L
390.815 112.643 L
391.396 113.963 L
391.964 115.296 L
392.518 116.641 L
393.058 117.998 L
393.584 119.367 L
394.095 120.749 L
394.593 122.142 L
395.076 123.548 L
395.546 124.966 L
396.001 126.396 L
396.442 127.838 L
396.869 129.292 L
397.282 130.759 L
397.68 132.237 L
398.065 133.728 L
398.435 135.231 L
398.792 136.746 L
399.135 138.273 L
399.463 139.813 L
399.778 141.364 L
400.08 142.928 L
400.367 144.504 L
400.641 146.093 L
400.902 147.693 L
401.15 149.306 L
401.385 150.931 L
401.607 152.568 L
401.816 154.218 L
402.013 155.879 L
402.197 157.553 L
402.37 159.24 L
402.531 160.938 L
402.681 162.649 L
402.819 164.371 L
402.947 166.106 L
403.065 167.853 L
403.172 169.612 L
403.27 171.382 L
403.358 173.165 L
403.438 174.959 L
403.509 176.764 L
403.573 178.581 L
403.628 180.408 L
403.677 182.247 L
403.719 184.096 L
403.756 185.955 L
403.787 187.824 L
403.812 189.703 L
403.834 191.591 L
403.851 193.488 L
403.865 195.393 L
403.875 197.306 L
403.883 199.226 L
403.889 201.152 L
403.894 203.085 L
403.896 205.023 L
403.898 206.966 L
403.899 208.913 L
403.9 210.864 L
403.9 212.817 L
403.9 214.771 L
403.9 216.727 LE
1 0 0 C
403.9 217.35 LS
403.9 216.763 L
403.9 216.176 L
403.9 215.589 L
403.9 215.002 L
403.9 214.414 L
403.9 213.825 L
403.9 213.236 L
403.899 212.646 L
403.899 212.055 L
403.898 211.462 L
403.897 210.869 L
403.896 210.275 L
403.895 209.679 L
403.893 209.081 L
403.891 208.482 L
403.889 207.882 L
403.886 207.279 L
403.882 206.675 L
403.878 206.068 L
403.873 205.46 L
403.867 204.849 L
403.86 204.236 L
403.853 203.62 L
403.844 203.002 L
403.834 202.381 L
403.823 201.757 L
403.81 201.131 L
403.796 200.502 L
403.781 199.87 L
403.763 199.234 L
403.744 198.596 L
403.724 197.954 L
403.701 197.309 L
403.676 196.661 L
403.648 196.009 L
403.619 195.353 L
403.586 194.694 L
403.552 194.032 L
403.514 193.365 L
403.473 192.695 L
403.43 192.021 L
403.383 191.343 L
403.333 190.661 L
403.279 189.975 L
403.221 189.285 L
403.16 188.591 L
403.095 187.893 L
403.026 187.191 L
402.952 186.484 L
402.874 185.773 L
402.791 185.058 L
402.704 184.339 L
402.611 183.616 L
402.514 182.888 L
402.411 182.155 L
402.303 181.419 L
402.189 180.678 L
402.069 179.933 L
401.943 179.183 L
401.811 178.43 L
401.673 177.671 L
401.528 176.909 L
401.377 176.142 L
401.219 175.371 L
401.053 174.596 L
400.881 173.817 L
400.701 173.033 L
400.513 172.245 L
400.318 171.454 L
400.114 170.658 L
399.903 169.858 L
399.683 169.054 L
399.454 168.246 L
399.217 167.435 L
398.971 166.619 L
398.717 165.8 L
398.452 164.978 L
398.179 164.151 L
397.896 163.322 L
397.603 162.489 L
397.3 161.652 L
396.987 160.812 L
396.663 159.97 L
396.33 159.124 L
395.985 158.275 L
395.63 157.424 L
395.264 156.569 L
394.887 155.712 L
394.498 154.853 L
394.098 153.991 L
393.686 153.127 L
393.263 152.261 L
392.827 151.393 L
392.38 150.524 L
391.92 149.652 L
391.448 148.779 L
390.963 147.904 L
390.466 147.029 L
389.956 146.152 L
389.433 145.274 L
388.897 144.395 L
388.347 143.516 L
387.784 142.636 L
387.208 141.756 L
386.618 140.876 L
386.015 139.996 L
385.397 139.116 L
384.766 138.236 L
384.12 137.357 L
383.461 136.479 L
382.787 135.602 L
382.099 134.726 L
381.396 133.851 L
380.679 132.978 L
379.947 132.107 L
379.2 131.238 L
378.439 130.37 L
377.662 129.506 L
376.871 128.643 L
376.065 127.784 L
375.244 126.928 L
374.407 126.074 L
373.556 125.225 L
372.689 124.379 L
371.807 123.536 L
370.91 122.698 L
369.997 121.865 L
369.069 121.035 L
368.126 120.211 L
367.167 119.392 L
366.193 118.578 L
365.204 117.769 L
364.199 116.966 L
363.178 116.169 L
362.143 115.378 L
361.092 114.594 L
360.025 113.817 L
358.944 113.046 L
357.846 112.282 L
356.734 111.526 L
355.607 110.778 L
354.464 110.037 L
353.306 109.304 L
352.133 108.58 L
350.945 107.865 L
349.742 107.158 L
348.524 106.46 L
347.292 105.772 L
346.045 105.093 L
344.783 104.424 L
343.506 103.766 L
342.216 103.117 L
340.91 102.479 L
339.591 101.852 L
338.258 101.235 L
336.91 100.63 L
335.549 100.037 L
334.174 99.4549 L
332.786 98.885 L
331.384 98.3273 L
329.968 97.7821 L
328.54 97.2494 L
327.099 96.7296 L
325.645 96.223 L
324.178 95.7297 L
322.699 95.2499 L
321.208 94.7839 L
319.704 94.3318 L
318.189 93.894 L
316.662 93.4706 L
315.124 93.0619 L
313.574 92.668 L
312.013 92.2891 L
310.442 91.9255 L
308.859 91.5774 L
307.267 91.245 L
305.664 90.9284 L
304.052 90.6278 L
302.429 90.3435 L
300.798 90.0757 L
299.157 89.8245 L
297.507 89.59 L
295.848 89.3726 L
294.182 89.1723 L
292.507 88.9893 L
290.824 88.8239 L
289.134 88.6761 L
287.436 88.5461 L
285.731 88.4341 L
284.02 88.3403 L
282.302 88.2647 L
280.578 88.2076 L
278.849 88.1691 L
277.114 88.1492 L
275.374 88.1482 L
273.628 88.1662 L
271.879 88.2033 L
270.125 88.2596 L
268.367 88.3352 L
266.605 88.4303 L
264.841 88.5449 L
263.073 88.6792 L
261.303 88.8332 L
259.53 89.0071 L
257.756 89.2009 L
255.98 89.4147 L
254.203 89.6487 L
252.425 89.9027 L
250.647 90.1771 L
248.868 90.4717 L
247.09 90.7867 L
245.312 91.1221 L
243.535 91.478 L
241.759 91.8543 L
239.985 92.2512 L
238.213 92.6687 L
236.443 93.1068 L
234.677 93.5655 L
232.913 94.0449 L
231.152 94.5448 L
229.396 95.0655 L
227.644 95.6068 L
225.896 96.1688 L
224.153 96.7514 L
222.416 97.3546 L
220.684 97.9784 L
218.959 98.6228 L
217.24 99.2878 L
215.527 99.9732 L
213.822 100.679 L
212.125 101.405 L
210.436 102.152 L
208.754 102.919 L
207.082 103.706 L
205.419 104.514 L
203.765 105.341 L
202.121 106.189 L
200.487 107.056 L
198.863 107.943 L
197.251 108.85 L
195.65 109.777 L
194.06 110.723 L
192.483 111.688 L
190.918 112.673 L
189.366 113.677 L
187.826 114.7 L
186.301 115.741 L
184.789 116.802 L
183.291 117.881 L
181.808 118.978 L
180.339 120.094 L
178.886 121.228 L
177.448 122.38 L
176.026 123.55 L
174.621 124.737 L
173.232 125.941 L
171.86 127.163 L
170.505 128.402 L
169.167 129.658 L
167.847 130.93 L
166.546 132.219 L
165.263 133.524 L
163.999 134.845 L
162.753 136.182 L
161.528 137.534 L
160.321 138.901 L
159.135 140.284 L
157.969 141.681 L
156.824 143.093 L
155.699 144.52 L
154.595 145.96 L
153.513 147.415 L
152.452 148.882 L
151.413 150.364 L
150.397 151.858 L
149.402 153.365 L
148.431 154.884 L
147.482 156.416 L
146.556 157.959 L
145.653 159.514 L
144.774 161.081 L
143.919 162.658 L
143.088 164.247 L
142.28 165.846 L
141.498 167.454 L
140.739 169.073 L
140.006 170.701 L
139.297 172.339 L
138.613 173.985 L
137.955 175.64 L
137.322 177.303 L
136.715 178.975 L
136.133 180.653 L
135.577 182.339 L
135.048 184.032 L
134.544 185.732 L
134.067 187.438 L
133.616 189.15 L
133.191 190.867 L
132.794 192.59 L
132.422 194.318 L
132.078 196.05 L
131.761 197.787 L
131.47 199.527 L
131.207 201.271 L
130.97 203.018 L
130.761 204.768 L
130.579 206.521 L
130.424 208.276 L
130.297 210.032 L
130.197 211.79 L
130.124 213.549 L
130.078 215.309 L
130.06 217.07 L
130.07 218.83 L
130.106 220.59 L
130.17 222.349 L
130.262 224.108 L
130.381 225.865 L
130.527 227.62 L
130.7 229.374 L
130.901 231.125 L
131.128 232.873 L
131.383 234.618 L
131.665 236.359 L
131.974 238.097 L
132.31 239.831 L
132.672 241.56 L
133.062 243.284 L
133.478 245.004 L
133.92 246.717 L
134.389 248.425 L
134.884 250.127 L
135.406 251.822 L
135.953 253.51 L
136.527 255.191 L
137.126 256.865 L
137.751 258.531 L
138.401 260.188 L
139.077 261.838 L
139.777 263.478 L
140.503 265.109 L
141.253 266.731 L
142.028 268.343 L
142.828 269.945 L
143.652 271.537 L
144.499 273.118 L
145.371 274.688 L
146.266 276.247 L
147.184 277.794 L
148.126 279.329 L
149.09 280.853 L
150.078 282.364 L
151.087 283.862 L
152.119 285.347 L
153.173 286.819 L
154.248 288.278 L
155.345 289.723 L
156.463 291.154 L
157.602 292.57 L
158.761 293.973 L
159.941 295.36 L
161.141 296.732 L
162.361 298.089 L
163.6 299.431 L
164.858 300.757 L
166.135 302.067 L
167.431 303.361 L
168.745 304.639 L
170.077 305.9 L
171.426 307.144 L
172.793 308.371 L
174.177 309.581 L
175.577 310.774 L
176.994 311.949 L
178.426 313.107 L
179.875 314.247 L
181.338 315.368 L
182.817 316.471 L
184.31 317.556 L
185.818 318.623 L
187.339 319.671 L
188.874 320.699 L
190.422 321.709 L
191.983 322.7 L
193.557 323.672 L
195.142 324.624 L
196.74 325.557 L
198.349 326.47 L
199.968 327.363 L
201.599 328.237 L
203.24 329.091 L
204.891 329.925 L
206.551 330.739 L
208.221 331.532 L
209.899 332.306 L
211.586 333.059 L
213.281 333.792 L
214.984 334.504 L
216.694 335.196 L
218.411 335.868 L
220.134 336.519 L
221.864 337.149 L
223.599 337.759 L
225.34 338.348 L
227.087 338.916 L
228.837 339.464 L
230.592 339.992 L
232.352 340.498 L
234.114 340.984 L
235.88 341.449 L
237.649 341.894 L
239.42 342.318 L
241.194 342.721 L
242.969 343.104 L
244.746 343.467 L
246.523 343.809 L
248.302 344.13 L
250.08 344.431 L
251.859 344.712 L
253.637 344.973 L
255.414 345.213 L
257.191 345.433 L
258.965 345.633 L
260.739 345.814 L
262.509 345.974 L
264.278 346.114 L
266.044 346.235 L
267.806 346.337 L
269.565 346.418 L
271.32 346.481 L
273.071 346.524 L
274.818 346.548 L
276.56 346.553 L
278.297 346.539 L
280.028 346.507 L
281.754 346.455 L
283.474 346.386 L
285.187 346.298 L
286.894 346.191 L
288.594 346.067 L
290.286 345.925 L
291.971 345.765 L
293.649 345.588 L
295.318 345.393 L
296.979 345.181 L
298.632 344.952 L
300.276 344.706 L
301.91 344.444 L
303.536 344.164 L
305.152 343.869 L
306.757 343.558 L
308.353 343.23 L
309.939 342.887 L
311.514 342.528 L
313.078 342.154 L
314.631 341.765 L
316.173 341.361 L
317.704 340.942 L
319.223 340.509 L
320.73 340.062 L
322.225 339.6 L
323.708 339.125 L
325.179 338.636 L
326.637 338.133 L
328.082 337.618 L
329.515 337.089 L
330.934 336.548 L
332.34 335.994 L
333.733 335.428 L
335.112 334.85 L
336.478 334.26 L
337.83 333.659 L
339.168 333.046 L
340.492 332.422 L
341.801 331.787 L
343.097 331.142 L
344.378 330.487 L
345.644 329.821 L
346.896 329.145 L
348.133 328.46 L
349.356 327.765 L
350.564 327.061 L
351.756 326.349 L
352.934 325.627 L
354.097 324.897 L
355.244 324.159 L
356.377 323.413 L
357.494 322.659 L
358.596 321.898 L
359.682 321.13 L
360.754 320.354 L
361.81 319.572 L
362.85 318.783 L
363.875 317.988 L
364.885 317.187 L
365.88 316.381 L
366.859 315.568 L
367.822 314.751 L
368.77 313.928 L
369.703 313.1 L
370.621 312.268 L
371.523 311.431 L
372.41 310.59 L
373.281 309.745 L
374.138 308.897 L
374.979 308.045 L
375.805 307.189 L
376.616 306.331 L
377.412 305.469 L
378.193 304.605 L
378.959 303.739 L
379.711 302.87 L
380.447 301.999 L
381.169 301.127 L
381.876 300.253 L
382.569 299.377 L
383.248 298.5 L
383.912 297.622 L
384.562 296.744 L
385.198 295.864 L
385.82 294.985 L
386.428 294.105 L
387.022 293.224 L
387.602 292.344 L
388.169 291.464 L
388.723 290.585 L
389.264 289.706 L
389.791 288.828 L
390.305 287.951 L
390.806 287.074 L
391.295 286.2 L
391.771 285.326 L
392.235 284.454 L
392.686 283.583 L
393.125 282.715 L
393.553 281.848 L
393.968 280.984 L
394.372 280.121 L
394.764 279.261 L
395.145 278.403 L
395.515 277.548 L
395.873 276.696 L
396.221 275.846 L
396.558 274.999 L
396.885 274.156 L
397.201 273.315 L
397.507 272.477 L
397.803 271.643 L
398.09 270.812 L
398.366 269.985 L
398.633 269.161 L
398.891 268.341 L
399.14 267.525 L
399.38 266.712 L
399.611 265.903 L
399.834 265.098 L
400.048 264.297 L
400.254 263.499 L
400.452 262.706 L
400.642 261.917 L
400.824 261.132 L
400.999 260.352 L
401.167 259.575 L
401.327 258.803 L
401.481 258.035 L
401.628 257.271 L
401.768 256.511 L
401.902 255.756 L
402.03 255.005 L
402.151 254.259 L
402.267 253.517 L
402.377 252.779 L
402.482 252.045 L
402.581 251.316 L
402.675 250.591 L
402.764 249.87 L
402.848 249.154 L
402.928 248.442 L
403.003 247.734 L
403.073 247.03 L
403.14 246.331 L
403.202 245.635 L
403.261 244.944 L
403.316 244.257 L
403.367 243.574 L
403.415 242.895 L
403.46 242.219 L
403.501 241.548 L
403.54 240.88 L
403.576 240.216 L
403.609 239.556 L
403.639 238.9 L
403.667 238.247 L
403.693 237.597 L
403.716 236.951 L
403.738 236.308 L
403.758 235.669 L
403.775 235.032 L
403.791 234.399 L
403.806 233.769 L
403.819 233.142 L
403.83 232.517 L
403.841 231.896 L
403.85 231.277 L
403.858 230.66 L
403.865 230.046 L
403.871 229.435 L
403.876 228.825 L
403.881 228.218 L
403.885 227.613 L
403.888 227.01 L
403.891 226.409 L
403.893 225.809 L
403.895 225.211 L
403.896 224.615 L
403.897 224.02 L
403.898 223.426 L
403.899 222.834 L
403.899 222.243 L
403.9 221.652 L
403.9 221.063 L
403.9 220.474 L
403.9 219.886 L
403.9 219.298 L
403.9 218.711 L
403.9 218.124 L
403.9 217.537 LE
0 1 0 C
403.9 217.35 LS
403.9 216.861 L
403.9 216.372 L
403.9 215.883 L
403.9 215.393 L
403.9 214.903 L
403.9 214.412 L
403.9 213.921 L
403.899 213.43 L
403.899 212.937 L
403.899 212.444 L
403.898 211.949 L
403.897 211.454 L
403.896 210.957 L
403.895 210.46 L
403.893 209.96 L
403.891 209.46 L
403.888 208.958 L
403.885 208.454 L
403.882 207.949 L
403.877 207.441 L
403.872 206.932 L
403.867 206.421 L
403.86 205.908 L
403.853 205.393 L
403.845 204.876 L
403.836 204.356 L
403.825 203.834 L
403.813 203.31 L
403.801 202.783 L
403.786 202.254 L
403.77 201.722 L
403.753 201.187 L
403.734 200.649 L
403.713 200.109 L
403.69 199.566 L
403.666 199.02 L
403.639 198.47 L
403.61 197.918 L
403.578 197.363 L
403.544 196.804 L
403.508 196.243 L
403.469 195.678 L
403.427 195.109 L
403.382 194.538 L
403.335 193.963 L
403.284 193.384 L
403.229 192.803 L
403.171 192.217 L
403.11 191.628 L
403.045 191.036 L
402.976 190.44 L
402.903 189.841 L
402.826 189.238 L
402.745 188.631 L
402.659 188.021 L
402.569 187.407 L
402.474 186.79 L
402.374 186.169 L
402.269 185.544 L
402.16 184.916 L
402.044 184.285 L
401.924 183.649 L
401.798 183.01 L
401.666 182.368 L
401.528 181.722 L
401.384 181.072 L
401.234 180.419 L
401.078 179.763 L
400.915 179.103 L
400.745 178.44 L
400.569 177.773 L
400.386 177.103 L
400.195 176.43 L
399.998 175.754 L
399.793 175.074 L
399.58 174.392 L
399.36 173.706 L
399.132 173.018 L
398.896 172.326 L
398.652 171.632 L
398.4 170.935 L
398.139 170.235 L
397.869 169.533 L
397.591 168.828 L
397.304 168.121 L
397.008 167.411 L
396.703 166.699 L
396.389 165.985 L
396.065 165.269 L
395.732 164.551 L
395.389 163.831 L
395.036 163.11 L
394.673 162.386 L
394.3 161.661 L
393.917 160.935 L
393.523 160.207 L
393.12 159.479 L
392.705 158.749 L
392.28 158.018 L
391.844 157.286 L
391.397 156.554 L
390.939 155.821 L
390.47 155.088 L
389.99 154.355 L
389.499 153.621 L
388.996 152.888 L
388.481 152.155 L
387.955 151.422 L
387.417 150.689 L
386.867 149.958 L
386.306 149.227 L
385.732 148.497 L
385.147 147.768 L
384.549 147.04 L
383.939 146.314 L
383.317 145.59 L
382.682 144.867 L
382.035 144.146 L
381.376 143.428 L
380.704 142.712 L
380.02 141.998 L
379.323 141.287 L
378.613 140.579 L
377.891 139.874 L
377.156 139.172 L
376.408 138.474 L
375.648 137.779 L
374.874 137.088 L
374.088 136.401 L
373.289 135.718 L
372.478 135.04 L
371.653 134.366 L
370.816 133.697 L
369.965 133.033 L
369.102 132.374 L
368.226 131.72 L
367.338 131.072 L
366.436 130.43 L
365.522 129.794 L
364.595 129.163 L
363.656 128.54 L
362.703 127.923 L
361.738 127.312 L
360.761 126.709 L
359.771 126.112 L
358.769 125.523 L
357.754 124.942 L
356.727 124.368 L
355.687 123.803 L
354.636 123.245 L
353.572 122.696 L
352.496 122.156 L
351.409 121.624 L
350.309 121.101 L
349.198 120.588 L
348.075 120.084 L
346.941 119.589 L
345.795 119.104 L
344.638 118.629 L
343.47 118.164 L
342.29 117.71 L
341.1 117.266 L
339.899 116.833 L
338.687 116.411 L
337.465 116 L
336.233 115.6 L
334.99 115.212 L
333.737 114.835 L
332.474 114.47 L
331.202 114.117 L
329.92 113.777 L
328.628 113.448 L
327.328 113.133 L
326.018 112.83 L
324.7 112.54 L
323.372 112.262 L
322.037 111.999 L
320.693 111.748 L
319.341 111.511 L
317.981 111.288 L
316.614 111.079 L
315.239 110.883 L
313.857 110.702 L
312.468 110.535 L
311.072 110.383 L
309.67 110.245 L
308.261 110.122 L
306.847 110.013 L
305.426 109.92 L
304 109.842 L
302.569 109.779 L
301.132 109.731 L
299.691 109.699 L
298.245 109.683 L
296.795 109.682 L
295.34 109.697 L
293.882 109.728 L
292.421 109.775 L
290.956 109.838 L
289.488 109.917 L
288.017 110.012 L
286.544 110.124 L
285.069 110.253 L
283.592 110.398 L
282.113 110.559 L
280.634 110.737 L
279.153 110.932 L
277.671 111.144 L
276.189 111.373 L
274.707 111.618 L
273.225 111.881 L
271.743 112.16 L
270.262 112.457 L
268.783 112.77 L
267.304 113.101 L
265.828 113.449 L
264.353 113.814 L
262.88 114.196 L
261.411 114.596 L
259.944 115.012 L
258.48 115.446 L
257.02 115.897 L
255.563 116.366 L
254.111 116.851 L
252.663 117.354 L
251.22 117.874 L
249.782 118.411 L
248.35 118.965 L
246.923 119.536 L
245.502 120.124 L
244.088 120.73 L
242.68 121.352 L
241.279 121.991 L
239.885 122.647 L
238.499 123.32 L
237.121 124.009 L
235.75 124.716 L
234.389 125.438 L
233.036 126.178 L
231.692 126.933 L
230.358 127.706 L
229.034 128.494 L
227.719 129.298 L
226.415 130.119 L
225.121 130.956 L
223.839 131.808 L
222.567 132.676 L
221.307 133.56 L
220.059 134.459 L
218.823 135.374 L
217.599 136.304 L
216.388 137.248 L
215.19 138.208 L
214.005 139.183 L
212.834 140.172 L
211.677 141.176 L
210.533 142.194 L
209.404 143.227 L
208.289 144.273 L
207.19 145.333 L
206.105 146.407 L
205.036 147.495 L
203.982 148.596 L
202.944 149.71 L
201.923 150.836 L
200.918 151.976 L
199.929 153.128 L
198.958 154.293 L
198.003 155.469 L
197.066 156.658 L
196.146 157.859 L
195.244 159.07 L
194.36 160.294 L
193.495 161.528 L
192.647 162.773 L
191.819 164.029 L
191.009 165.295 L
190.218 166.571 L
189.447 167.858 L
188.694 169.154 L
187.962 170.459 L
187.249 171.774 L
186.556 173.097 L
185.884 174.43 L
185.231 175.77 L
184.599 177.119 L
183.988 178.476 L
183.397 179.841 L
182.828 181.213 L
182.279 182.592 L
181.752 183.978 L
181.246 185.371 L
180.761 186.77 L
180.298 188.175 L
179.856 189.585 L
179.437 191.002 L
179.039 192.423 L
178.663 193.85 L
178.31 195.281 L
177.978 196.717 L
177.669 198.156 L
177.382 199.6 L
177.117 201.047 L
176.875 202.498 L
176.656 203.951 L
176.459 205.407 L
176.284 206.865 L
176.132 208.326 L
176.004 209.788 L
175.897 211.252 L
175.814 212.717 L
175.753 214.183 L
175.715 215.649 L
175.7 217.116 L
175.708 218.583 L
175.739 220.05 L
175.792 221.516 L
175.868 222.982 L
175.967 224.446 L
176.089 225.909 L
176.233 227.37 L
176.401 228.829 L
176.59 230.286 L
176.803 231.74 L
177.038 233.191 L
177.295 234.639 L
177.575 236.084 L
177.877 237.525 L
178.202 238.962 L
178.548 240.395 L
178.917 241.823 L
179.308 243.246 L
179.72 244.664 L
180.155 246.077 L
180.611 247.484 L
181.089 248.885 L
181.588 250.279 L
182.109 251.667 L
182.651 253.049 L
183.214 254.423 L
183.798 255.79 L
184.402 257.149 L
185.028 258.501 L
185.674 259.844 L
186.34 261.179 L
187.026 262.506 L
187.733 263.823 L
188.459 265.132 L
189.205 266.431 L
189.97 267.72 L
190.755 268.999 L
191.559 270.269 L
192.381 271.528 L
193.223 272.777 L
194.083 274.014 L
194.961 275.241 L
195.857 276.457 L
196.771 277.661 L
197.703 278.853 L
198.652 280.034 L
199.618 281.202 L
200.601 282.358 L
201.601 283.502 L
202.617 284.633 L
203.65 285.751 L
204.698 286.856 L
205.763 287.948 L
206.842 289.026 L
207.937 290.091 L
209.047 291.141 L
210.172 292.178 L
211.311 293.201 L
212.464 294.209 L
213.631 295.203 L
214.811 296.183 L
216.005 297.147 L
217.212 298.097 L
218.432 299.032 L
219.664 299.951 L
220.908 300.855 L
222.165 301.744 L
223.432 302.617 L
224.712 303.475 L
226.002 304.316 L
227.303 305.142 L
228.614 305.952 L
229.935 306.745 L
231.266 307.522 L
232.607 308.283 L
233.957 309.028 L
235.316 309.756 L
236.683 310.468 L
238.059 311.162 L
239.443 311.841 L
240.834 312.502 L
242.233 313.146 L
243.638 313.774 L
245.051 314.385 L
246.47 314.978 L
247.895 315.555 L
249.325 316.115 L
250.762 316.657 L
252.203 317.182 L
253.649 317.691 L
255.1 318.182 L
256.555 318.655 L
258.014 319.112 L
259.477 319.551 L
260.943 319.973 L
262.412 320.378 L
263.884 320.766 L
265.358 321.137 L
266.834 321.49 L
268.312 321.826 L
269.791 322.145 L
271.271 322.447 L
272.753 322.732 L
274.235 323 L
275.717 323.251 L
277.199 323.485 L
278.681 323.702 L
280.162 323.902 L
281.642 324.086 L
283.121 324.253 L
284.599 324.403 L
286.075 324.537 L
287.548 324.654 L
289.02 324.754 L
290.488 324.839 L
291.954 324.907 L
293.417 324.959 L
294.876 324.995 L
296.332 325.015 L
297.783 325.019 L
299.231 325.008 L
300.673 324.981 L
302.112 324.938 L
303.545 324.88 L
304.972 324.806 L
306.395 324.718 L
307.811 324.614 L
309.222 324.496 L
310.626 324.363 L
312.024 324.215 L
313.415 324.053 L
314.8 323.876 L
316.177 323.685 L
317.547 323.48 L
318.909 323.261 L
320.263 323.029 L
321.61 322.783 L
322.948 322.523 L
324.278 322.25 L
325.599 321.964 L
326.911 321.665 L
328.215 321.354 L
329.509 321.029 L
330.794 320.693 L
332.07 320.344 L
333.336 319.983 L
334.592 319.61 L
335.838 319.225 L
337.074 318.829 L
338.299 318.421 L
339.514 318.003 L
340.719 317.573 L
341.912 317.133 L
343.095 316.681 L
344.267 316.22 L
345.428 315.748 L
346.577 315.267 L
347.715 314.775 L
348.842 314.274 L
349.957 313.763 L
351.06 313.243 L
352.151 312.715 L
353.231 312.177 L
354.298 311.63 L
355.354 311.076 L
356.397 310.513 L
357.428 309.942 L
358.447 309.363 L
359.453 308.776 L
360.447 308.182 L
361.428 307.581 L
362.397 306.973 L
363.354 306.358 L
364.297 305.736 L
365.228 305.108 L
366.146 304.473 L
367.052 303.833 L
367.945 303.187 L
368.825 302.535 L
369.692 301.878 L
370.546 301.215 L
371.388 300.548 L
372.216 299.876 L
373.032 299.199 L
373.835 298.517 L
374.625 297.831 L
375.403 297.142 L
376.167 296.448 L
376.919 295.751 L
377.658 295.05 L
378.384 294.346 L
379.098 293.639 L
379.799 292.929 L
380.488 292.216 L
381.163 291.501 L
381.827 290.783 L
382.478 290.063 L
383.116 289.341 L
383.742 288.617 L
384.356 287.891 L
384.958 287.164 L
385.547 286.436 L
386.124 285.706 L
386.69 284.975 L
387.243 284.244 L
387.785 283.512 L
388.315 282.779 L
388.833 282.046 L
389.34 281.312 L
389.835 280.579 L
390.319 279.845 L
390.791 279.112 L
391.253 278.379 L
391.703 277.647 L
392.142 276.915 L
392.571 276.184 L
392.989 275.454 L
393.396 274.725 L
393.793 273.997 L
394.179 273.27 L
394.555 272.545 L
394.921 271.821 L
395.277 271.098 L
395.623 270.378 L
395.96 269.659 L
396.287 268.942 L
396.604 268.228 L
396.912 267.515 L
397.211 266.805 L
397.501 266.097 L
397.782 265.391 L
398.054 264.688 L
398.318 263.987 L
398.573 263.29 L
398.819 262.594 L
399.058 261.902 L
399.289 261.213 L
399.511 260.526 L
399.726 259.843 L
399.933 259.162 L
400.133 258.485 L
400.326 257.811 L
400.511 257.14 L
400.69 256.472 L
400.861 255.808 L
401.026 255.147 L
401.185 254.489 L
401.337 253.835 L
401.483 253.185 L
401.622 252.538 L
401.756 251.894 L
401.884 251.254 L
402.007 250.617 L
402.123 249.985 L
402.235 249.355 L
402.341 248.729 L
402.443 248.107 L
402.539 247.489 L
402.631 246.874 L
402.718 246.263 L
402.801 245.655 L
402.879 245.051 L
402.953 244.45 L
403.023 243.853 L
403.09 243.26 L
403.152 242.67 L
403.211 242.084 L
403.267 241.501 L
403.319 240.921 L
403.368 240.345 L
403.413 239.772 L
403.456 239.203 L
403.496 238.637 L
403.533 238.074 L
403.568 237.515 L
403.6 236.958 L
403.63 236.405 L
403.657 235.855 L
403.683 235.308 L
403.706 234.764 L
403.727 234.223 L
403.747 233.684 L
403.765 233.148 L
403.781 232.616 L
403.796 232.085 L
403.809 231.558 L
403.822 231.032 L
403.832 230.51 L
403.842 229.989 L
403.851 229.471 L
403.858 228.956 L
403.865 228.442 L
403.871 227.93 L
403.876 227.421 L
403.88 226.913 L
403.884 226.407 L
403.887 225.903 L
403.89 225.4 L
403.892 224.899 L
403.894 224.399 L
403.896 223.901 L
403.897 223.404 L
403.898 222.908 L
403.898 222.414 L
403.899 221.92 L
403.899 221.427 L
403.9 220.935 L
403.9 220.444 L
403.9 219.953 L
403.9 219.463 L
403.9 218.973 L
403.9 218.484 L
403.9 217.995 L
403.9 217.506 LE
1 0 1 C
403.9 217.35 LS
403.9 216.959 L
403.9 216.567 L
403.9 216.176 L
403.9 215.784 L
403.9 215.392 L
403.9 215 L
403.9 214.607 L
403.9 214.214 L
403.899 213.82 L
403.899 213.425 L
403.898 213.03 L
403.898 212.633 L
403.897 212.236 L
403.896 211.838 L
403.894 211.438 L
403.893 211.038 L
403.891 210.636 L
403.888 210.233 L
403.885 209.829 L
403.882 209.423 L
403.878 209.016 L
403.873 208.607 L
403.868 208.197 L
403.862 207.785 L
403.856 207.371 L
403.848 206.955 L
403.84 206.537 L
403.831 206.118 L
403.82 205.696 L
403.809 205.273 L
403.796 204.847 L
403.782 204.419 L
403.767 203.989 L
403.75 203.557 L
403.732 203.123 L
403.712 202.686 L
403.691 202.246 L
403.668 201.804 L
403.643 201.36 L
403.616 200.913 L
403.586 200.464 L
403.555 200.012 L
403.522 199.557 L
403.486 199.1 L
403.448 198.64 L
403.407 198.177 L
403.363 197.712 L
403.317 197.244 L
403.268 196.773 L
403.216 196.299 L
403.161 195.822 L
403.103 195.343 L
403.041 194.86 L
402.976 194.375 L
402.907 193.887 L
402.835 193.396 L
402.759 192.902 L
402.679 192.405 L
402.596 191.906 L
402.508 191.403 L
402.415 190.898 L
402.319 190.389 L
402.218 189.878 L
402.112 189.364 L
402.002 188.847 L
401.887 188.328 L
401.767 187.805 L
401.642 187.28 L
401.512 186.752 L
401.376 186.222 L
401.235 185.689 L
401.089 185.153 L
400.936 184.614 L
400.778 184.073 L
400.614 183.53 L
400.444 182.984 L
400.268 182.435 L
400.086 181.884 L
399.897 181.331 L
399.702 180.776 L
399.5 180.218 L
399.291 179.658 L
399.076 179.096 L
398.853 178.533 L
398.623 177.967 L
398.387 177.399 L
398.143 176.83 L
397.891 176.258 L
397.632 175.685 L
397.365 175.111 L
397.091 174.535 L
396.809 173.958 L
396.518 173.379 L
396.22 172.799 L
395.913 172.218 L
395.599 171.636 L
395.276 171.053 L
394.944 170.469 L
394.604 169.884 L
394.255 169.299 L
393.898 168.713 L
393.531 168.127 L
393.156 167.541 L
392.772 166.954 L
392.379 166.367 L
391.976 165.78 L
391.565 165.194 L
391.144 164.607 L
390.714 164.022 L
390.274 163.436 L
389.825 162.851 L
389.366 162.267 L
388.897 161.684 L
388.419 161.102 L
387.931 160.521 L
387.433 159.942 L
386.926 159.364 L
386.408 158.787 L
385.881 158.212 L
385.343 157.639 L
384.796 157.068 L
384.238 156.5 L
383.671 155.933 L
383.093 155.369 L
382.505 154.808 L
381.907 154.249 L
381.298 153.693 L
380.68 153.14 L
380.051 152.591 L
379.411 152.044 L
378.762 151.502 L
378.102 150.963 L
377.432 150.427 L
376.752 149.896 L
376.062 149.369 L
375.361 148.846 L
374.65 148.328 L
373.929 147.814 L
373.198 147.305 L
372.456 146.801 L
371.704 146.302 L
370.943 145.808 L
370.171 145.32 L
369.389 144.837 L
368.597 144.36 L
367.795 143.889 L
366.983 143.424 L
366.161 142.965 L
365.33 142.512 L
364.489 142.066 L
363.638 141.627 L
362.777 141.195 L
361.907 140.769 L
361.027 140.351 L
360.138 139.94 L
359.24 139.537 L
358.333 139.141 L
357.416 138.753 L
356.49 138.373 L
355.556 138.002 L
354.612 137.638 L
353.66 137.283 L
352.699 136.936 L
351.73 136.599 L
350.752 136.27 L
349.766 135.95 L
348.772 135.639 L
347.77 135.338 L
346.759 135.046 L
345.741 134.764 L
344.716 134.491 L
343.683 134.229 L
342.642 133.976 L
341.594 133.734 L
340.54 133.502 L
339.478 133.28 L
338.409 133.069 L
337.334 132.869 L
336.253 132.679 L
335.165 132.5 L
334.071 132.333 L
332.971 132.177 L
331.866 132.032 L
330.754 131.898 L
329.638 131.776 L
328.516 131.666 L
327.389 131.567 L
326.257 131.481 L
325.121 131.406 L
323.98 131.344 L
322.835 131.293 L
321.686 131.255 L
320.533 131.229 L
319.376 131.216 L
318.216 131.215 L
317.052 131.227 L
315.886 131.252 L
314.716 131.29 L
313.545 131.34 L
312.37 131.404 L
311.194 131.48 L
310.015 131.569 L
308.835 131.672 L
307.654 131.788 L
306.471 131.917 L
305.287 132.06 L
304.102 132.216 L
302.917 132.385 L
301.731 132.568 L
300.545 132.764 L
299.36 132.974 L
298.175 133.198 L
296.99 133.435 L
295.806 133.686 L
294.623 133.951 L
293.442 134.229 L
292.262 134.521 L
291.084 134.827 L
289.909 135.147 L
288.735 135.48 L
287.564 135.827 L
286.396 136.188 L
285.231 136.562 L
284.069 136.951 L
282.911 137.353 L
281.756 137.769 L
280.606 138.199 L
279.46 138.642 L
278.318 139.099 L
277.182 139.569 L
276.05 140.054 L
274.924 140.551 L
273.803 141.063 L
272.688 141.588 L
271.579 142.126 L
270.476 142.677 L
269.38 143.242 L
268.291 143.821 L
267.209 144.412 L
266.134 145.017 L
265.067 145.634 L
264.007 146.265 L
262.955 146.909 L
261.912 147.565 L
260.877 148.234 L
259.851 148.916 L
258.834 149.611 L
257.826 150.318 L
256.827 151.037 L
255.838 151.769 L
254.859 152.513 L
253.891 153.269 L
252.932 154.037 L
251.984 154.816 L
251.047 155.608 L
250.121 156.411 L
249.206 157.226 L
248.303 158.051 L
247.411 158.889 L
246.532 159.737 L
245.664 160.596 L
244.809 161.466 L
243.966 162.347 L
243.136 163.238 L
242.318 164.139 L
241.514 165.051 L
240.723 165.973 L
239.946 166.904 L
239.182 167.846 L
238.433 168.797 L
237.697 169.757 L
236.975 170.726 L
236.268 171.705 L
235.576 172.692 L
234.898 173.688 L
234.235 174.693 L
233.587 175.706 L
232.954 176.727 L
232.337 177.756 L
231.736 178.793 L
231.149 179.837 L
230.579 180.889 L
230.025 181.948 L
229.487 183.014 L
228.965 184.086 L
228.459 185.165 L
227.97 186.251 L
227.498 187.343 L
227.042 188.44 L
226.603 189.544 L
226.181 190.652 L
225.777 191.766 L
225.389 192.886 L
225.018 194.01 L
224.665 195.138 L
224.329 196.271 L
224.011 197.409 L
223.711 198.55 L
223.428 199.695 L
223.162 200.843 L
222.915 201.995 L
222.685 203.15 L
222.474 204.308 L
222.28 205.468 L
222.104 206.631 L
221.947 207.796 L
221.807 208.962 L
221.686 210.131 L
221.583 211.3 L
221.498 212.471 L
221.431 213.644 L
221.383 214.816 L
221.352 215.99 L
221.34 217.163 L
221.346 218.337 L
221.371 219.51 L
221.414 220.683 L
221.475 221.855 L
221.554 223.027 L
221.651 224.197 L
221.767 225.366 L
221.9 226.533 L
222.052 227.698 L
222.222 228.862 L
222.41 230.023 L
222.616 231.181 L
222.84 232.337 L
223.082 233.49 L
223.341 234.64 L
223.619 235.786 L
223.914 236.928 L
224.226 238.067 L
224.556 239.201 L
224.904 240.331 L
225.269 241.457 L
225.651 242.578 L
226.051 243.693 L
226.467 244.804 L
226.901 245.909 L
227.351 247.008 L
227.818 248.102 L
228.302 249.189 L
228.802 250.271 L
229.319 251.345 L
229.852 252.413 L
230.401 253.474 L
230.966 254.528 L
231.547 255.575 L
232.144 256.614 L
232.756 257.646 L
233.384 258.67 L
234.027 259.685 L
234.685 260.692 L
235.358 261.691 L
236.046 262.682 L
236.749 263.663 L
237.465 264.635 L
238.197 265.599 L
238.942 266.553 L
239.701 267.497 L
240.474 268.432 L
241.261 269.357 L
242.061 270.272 L
242.874 271.176 L
243.7 272.071 L
244.539 272.955 L
245.39 273.828 L
246.254 274.691 L
247.13 275.542 L
248.018 276.383 L
248.917 277.213 L
249.829 278.031 L
250.751 278.838 L
251.685 279.633 L
252.629 280.416 L
253.584 281.188 L
254.55 281.948 L
255.526 282.695 L
256.511 283.431 L
257.507 284.154 L
258.512 284.865 L
259.526 285.564 L
260.549 286.25 L
261.581 286.923 L
262.622 287.583 L
263.671 288.231 L
264.728 288.866 L
265.793 289.488 L
266.866 290.097 L
267.946 290.692 L
269.033 291.275 L
270.127 291.844 L
271.227 292.4 L
272.334 292.942 L
273.447 293.472 L
274.566 293.987 L
275.691 294.489 L
276.821 294.978 L
277.956 295.453 L
279.096 295.914 L
280.24 296.362 L
281.389 296.796 L
282.543 297.216 L
283.7 297.622 L
284.86 298.015 L
286.024 298.394 L
287.192 298.76 L
288.362 299.111 L
289.534 299.449 L
290.71 299.773 L
291.887 300.083 L
293.066 300.379 L
294.247 300.662 L
295.429 300.931 L
296.613 301.186 L
297.797 301.428 L
298.982 301.656 L
300.168 301.87 L
301.353 302.071 L
302.539 302.258 L
303.725 302.432 L
304.91 302.592 L
306.094 302.739 L
307.277 302.872 L
308.459 302.992 L
309.64 303.099 L
310.819 303.193 L
311.996 303.274 L
313.171 303.341 L
314.343 303.396 L
315.514 303.437 L
316.681 303.466 L
317.845 303.482 L
319.007 303.485 L
320.165 303.476 L
321.319 303.454 L
322.469 303.42 L
323.616 303.374 L
324.758 303.315 L
325.896 303.244 L
327.029 303.161 L
328.158 303.067 L
329.281 302.96 L
330.399 302.842 L
331.512 302.712 L
332.62 302.571 L
333.721 302.418 L
334.817 302.254 L
335.907 302.079 L
336.991 301.893 L
338.068 301.696 L
339.138 301.488 L
340.202 301.27 L
341.259 301.041 L
342.309 300.802 L
343.352 300.553 L
344.388 300.293 L
345.416 300.024 L
346.436 299.745 L
347.449 299.456 L
348.453 299.158 L
349.45 298.85 L
350.439 298.533 L
351.419 298.207 L
352.391 297.872 L
353.355 297.528 L
354.31 297.176 L
355.256 296.815 L
356.194 296.446 L
357.122 296.069 L
358.042 295.683 L
358.952 295.29 L
359.853 294.889 L
360.745 294.481 L
361.628 294.065 L
362.501 293.642 L
363.365 293.211 L
364.219 292.774 L
365.063 292.331 L
365.897 291.88 L
366.722 291.423 L
367.537 290.96 L
368.342 290.491 L
369.138 290.016 L
369.923 289.535 L
370.698 289.048 L
371.463 288.556 L
372.218 288.059 L
372.963 287.556 L
373.697 287.049 L
374.422 286.536 L
375.136 286.02 L
375.84 285.498 L
376.533 284.972 L
377.217 284.442 L
377.89 283.908 L
378.553 283.37 L
379.206 282.829 L
379.848 282.284 L
380.48 281.735 L
381.102 281.183 L
381.714 280.629 L
382.315 280.071 L
382.907 279.51 L
383.488 278.947 L
384.059 278.381 L
384.619 277.813 L
385.17 277.243 L
385.711 276.67 L
386.241 276.096 L
386.762 275.52 L
387.273 274.943 L
387.774 274.363 L
388.265 273.783 L
388.746 273.201 L
389.218 272.618 L
389.679 272.035 L
390.132 271.45 L
390.575 270.865 L
391.008 270.279 L
391.432 269.693 L
391.846 269.106 L
392.252 268.52 L
392.648 267.933 L
393.035 267.346 L
393.413 266.76 L
393.782 266.173 L
394.142 265.587 L
394.494 265.002 L
394.837 264.417 L
395.171 263.833 L
395.497 263.25 L
395.814 262.667 L
396.123 262.086 L
396.424 261.506 L
396.717 260.927 L
397.002 260.349 L
397.279 259.772 L
397.548 259.197 L
397.809 258.624 L
398.063 258.052 L
398.31 257.482 L
398.549 256.914 L
398.781 256.347 L
399.005 255.783 L
399.223 255.22 L
399.434 254.66 L
399.638 254.102 L
399.836 253.546 L
400.026 252.992 L
400.211 252.44 L
400.389 251.891 L
400.561 251.344 L
400.727 250.8 L
400.887 250.258 L
401.041 249.719 L
401.189 249.182 L
401.332 248.648 L
401.469 248.116 L
401.601 247.588 L
401.728 247.062 L
401.849 246.538 L
401.966 246.018 L
402.078 245.5 L
402.185 244.985 L
402.287 244.473 L
402.385 243.964 L
402.479 243.458 L
402.568 242.954 L
402.653 242.454 L
402.734 241.956 L
402.811 241.461 L
402.885 240.969 L
402.954 240.48 L
403.021 239.994 L
403.083 239.511 L
403.143 239.03 L
403.199 238.553 L
403.252 238.078 L
403.302 237.606 L
403.349 237.137 L
403.393 236.67 L
403.435 236.207 L
403.474 235.746 L
403.511 235.288 L
403.545 234.832 L
403.577 234.38 L
403.607 233.929 L
403.634 233.482 L
403.66 233.037 L
403.684 232.594 L
403.706 232.154 L
403.726 231.716 L
403.745 231.281 L
403.762 230.848 L
403.778 230.417 L
403.792 229.989 L
403.805 229.562 L
403.817 229.138 L
403.828 228.716 L
403.837 228.296 L
403.846 227.878 L
403.854 227.462 L
403.86 227.047 L
403.867 226.634 L
403.872 226.223 L
403.877 225.814 L
403.881 225.406 L
403.884 225 L
403.887 224.595 L
403.89 224.192 L
403.892 223.79 L
403.894 223.389 L
403.895 222.989 L
403.896 222.591 L
403.897 222.193 L
403.898 221.797 L
403.899 221.401 L
403.899 221.006 L
403.899 220.612 L
403.9 220.218 L
403.9 219.825 L
403.9 219.433 L
403.9 219.04 L
403.9 218.649 L
403.9 218.257 L
403.9 217.866 L
403.9 217.475 LE
1 1 1 C
299.453 48.8655 299.453 155.527 299.453 48.8655 T
299.453 48.8655 299.453 155.527 299.453 155.527 T
75.4655 155.527 299.453 155.527 75.4655 155.527 T
75.4655 155.527 299.453 155.527 299.453 155.527 T
75.4655 155.527 299.453 48.8655 75.4655 48.8655 T
75.4655 155.527 299.453 155.527 299.453 48.8655 T
[16 0] 0 setdash
0 0 0 C
75.4655 48.8655 LS
299.453 48.8655 LE
75.4655 155.527 LS
299.453 155.527 LE
75.4655 155.527 LS
299.453 155.527 LE
75.4655 48.8655 LS
299.453 48.8655 LE
75.4655 48.8655 LS
75.4655 155.527 LE
299.453 48.8655 LS
299.453 155.527 LE
299.453 48.8655 LS
299.453 155.527 LE
75.4655 48.8655 LS
75.4655 155.527 L
75.4655 155.527 LE
299.453 155.527 LS
299.453 155.527 LE
299.453 48.8655 LS
299.453 48.8655 LE
75.4655 48.8655 LS
75.4655 48.8655 LE
(RK2 stability region) 100.788 142.195 20 /Helvetica SCL
(0.6L.dx/u) 100.788 115.529 20 /Helvetica SCL
(0.5L.dx/u) 100.788 88.8637 20 /Helvetica SCL
(0.4L.dx/u) 100.788 62.1983 20 /Helvetica SCL
0.5 W
[] 0 setdash
0 0 1 C
78.131 142.195 LS
98.1223 142.195 LE
1 0 0 C
78.131 115.529 LS
98.1223 115.529 LE
0 1 0 C
78.131 88.8637 LS
98.1223 88.8637 LE
1 0 1 C
78.131 62.1983 LS
98.1223 62.1983 LE
grestore
showpage
cleartomark
%%PageTrailer
%%Trailer
end
%%EOF
