%!PS-Adobe-3.0 EPSF-3.0
%%BoundingBox: 22 4 522 423
%%HiResBoundingBox: 22.326 4.038 521.530 422.646
%%Title: glps_renderer figure
%%Creator: GL2PS 1.3.8, (C) 1999-2012 C. Geuzaine
%%For: Octave
%%CreationDate: Tue Oct  6 12:10:45 2015
%%LanguageLevel: 3
%%DocumentData: Clean7Bit
%%Pages: 1
%%EndComments
%%BeginProlog
/gl2psdict 64 dict def gl2psdict begin
0 setlinecap 0 setlinejoin
/tryPS3shading false def % set to false to force subdivision
/rThreshold 0.064 def % red component subdivision threshold
/gThreshold 0.034 def % green component subdivision threshold
/bThreshold 0.1 def % blue component subdivision threshold
/BD { bind def } bind def
/C  { setrgbcolor } BD
/G  { 0.082 mul exch 0.6094 mul add exch 0.3086 mul add neg 1.0 add setgray } BD
/W  { setlinewidth } BD
/FC { findfont exch /SH exch def SH scalefont setfont } BD
/SW { dup stringwidth pop } BD
/S  { FC moveto show } BD
/SBC{ FC moveto SW -2 div 0 rmoveto show } BD
/SBR{ FC moveto SW neg 0 rmoveto show } BD
/SCL{ FC moveto 0 SH -2 div rmoveto show } BD
/SCC{ FC moveto SW -2 div SH -2 div rmoveto show } BD
/SCR{ FC moveto SW neg SH -2 div rmoveto show } BD
/STL{ FC moveto 0 SH neg rmoveto show } BD
/STC{ FC moveto SW -2 div SH neg rmoveto show } BD
/STR{ FC moveto SW neg SH neg rmoveto show } BD
/FCT { FC translate 0 0 } BD
/SR  { gsave FCT moveto rotate show grestore } BD
/SBCR{ gsave FCT moveto rotate SW -2 div 0 rmoveto show grestore } BD
/SBRR{ gsave FCT moveto rotate SW neg 0 rmoveto show grestore } BD
/SCLR{ gsave FCT moveto rotate 0 SH -2 div rmoveto show grestore} BD
/SCCR{ gsave FCT moveto rotate SW -2 div SH -2 div rmoveto show grestore} BD
/SCRR{ gsave FCT moveto rotate SW neg SH -2 div rmoveto show grestore} BD
/STLR{ gsave FCT moveto rotate 0 SH neg rmoveto show grestore } BD
/STCR{ gsave FCT moveto rotate SW -2 div SH neg rmoveto show grestore } BD
/STRR{ gsave FCT moveto rotate SW neg SH neg rmoveto show grestore } BD
/P  { newpath 0.0 360.0 arc closepath fill } BD
/LS { newpath moveto } BD
/L  { lineto } BD
/LE { lineto stroke } BD
/T  { newpath moveto lineto lineto closepath fill } BD
/STshfill {
      /b1 exch def /g1 exch def /r1 exch def /y1 exch def /x1 exch def
      /b2 exch def /g2 exch def /r2 exch def /y2 exch def /x2 exch def
      /b3 exch def /g3 exch def /r3 exch def /y3 exch def /x3 exch def
      gsave << /ShadingType 4 /ColorSpace [/DeviceRGB]
      /DataSource [ 0 x1 y1 r1 g1 b1 0 x2 y2 r2 g2 b2 0 x3 y3 r3 g3 b3 ] >>
      shfill grestore } BD
/Tm { 3 -1 roll 8 -1 roll 13 -1 roll add add 3 div
      3 -1 roll 7 -1 roll 11 -1 roll add add 3 div
      3 -1 roll 6 -1 roll 9 -1 roll add add 3 div C T } BD
/STsplit {
      4 index 15 index add 0.5 mul
      4 index 15 index add 0.5 mul
      4 index 15 index add 0.5 mul
      4 index 15 index add 0.5 mul
      4 index 15 index add 0.5 mul
      5 copy 5 copy 25 15 roll
      9 index 30 index add 0.5 mul
      9 index 30 index add 0.5 mul
      9 index 30 index add 0.5 mul
      9 index 30 index add 0.5 mul
      9 index 30 index add 0.5 mul
      5 copy 5 copy 35 5 roll 25 5 roll 15 5 roll
      4 index 10 index add 0.5 mul
      4 index 10 index add 0.5 mul
      4 index 10 index add 0.5 mul
      4 index 10 index add 0.5 mul
      4 index 10 index add 0.5 mul
      5 copy 5 copy 40 5 roll 25 5 roll 15 5 roll 25 5 roll
      STnoshfill STnoshfill STnoshfill STnoshfill } BD
/STnoshfill {
      2 index 8 index sub abs rThreshold gt
      { STsplit }
      { 1 index 7 index sub abs gThreshold gt
        { STsplit }
        { dup 6 index sub abs bThreshold gt
          { STsplit }
          { 2 index 13 index sub abs rThreshold gt
            { STsplit }
            { 1 index 12 index sub abs gThreshold gt
              { STsplit }
              { dup 11 index sub abs bThreshold gt
                { STsplit }
                { 7 index 13 index sub abs rThreshold gt
                  { STsplit }
                  { 6 index 12 index sub abs gThreshold gt
                    { STsplit }
                    { 5 index 11 index sub abs bThreshold gt
                      { STsplit }
                      { Tm }
                      ifelse }
                    ifelse }
                  ifelse }
                ifelse }
              ifelse }
            ifelse }
          ifelse }
        ifelse }
      ifelse } BD
tryPS3shading
{ /shfill where
  { /ST { STshfill } BD }
  { /ST { STnoshfill } BD }
  ifelse }
{ /ST { STnoshfill } BD }
ifelse
end
%%EndProlog
%%BeginSetup
/DeviceRGB setcolorspace
gl2psdict begin
%%EndSetup
%%Page: 1 1
%%BeginPageSetup
%%EndPageSetup
mark
gsave
1.0 1.0 scale
1 1 1 C
521.28 47.52 521.28 398 521.28 47.52 T
521.28 47.52 521.28 398 521.28 398 T
74.88 398 521.28 398 74.88 398 T
74.88 398 521.28 398 521.28 398 T
74.88 398 521.28 47.52 74.88 47.52 T
74.88 398 521.28 398 521.28 47.52 T
0.5 W
[16 0] 0 setdash
0 0 0 C
74.88 47.52 LS
521.28 47.52 LE
74.88 398 LS
521.28 398 LE
74.88 398 LS
521.28 398 LE
74.88 47.52 LS
521.28 47.52 LE
74.88 47.52 LS
74.88 398 LE
521.28 47.52 LS
521.28 398 LE
521.28 47.52 LS
521.28 398 LE
74.88 47.52 LS
74.88 398 L
74.88 398 LE
521.28 398 LS
521.28 398 LE
521.28 47.52 LS
521.28 47.52 LE
74.88 47.52 LS
74.88 47.52 L
74.88 51.9901 LE
74.88 398 LS
74.88 393.53 LE
372.48 47.52 LS
372.48 51.9901 LE
372.48 398 LS
372.48 393.53 LE
(1e+1) 74.88 42.513 15 /Helvetica STC
(1e+2) 372.48 42.513 15 /Helvetica STC
74.88 97.5885 LS
79.348 97.5885 LE
521.28 97.5885 LS
516.812 97.5885 LE
74.88 197.726 LS
79.348 197.726 LE
521.28 197.726 LS
516.812 197.726 LE
74.88 297.863 LS
79.348 297.863 LE
521.28 297.863 LS
516.812 297.863 LE
74.88 398 LS
79.348 398 LE
521.28 398 LS
516.812 398 LE
(1e-5) 69.8755 97.5885 15 /Helvetica SCR
(1e-4) 69.8755 197.726 15 /Helvetica SCR
(1e-3) 69.8755 297.863 15 /Helvetica SCR
(1e-2) 69.8755 398 15 /Helvetica SCR
(N cells) 298.08 24.5131 20 /Helvetica STC
(Error norm) 90 36.8755 222.76 20 /Helvetica SBCR
(Effect of dx in convergence) 298.08 408 20 /Helvetica SBC
2 W
[] 0 setdash
74.88 307.557 LS
164.467 248.364 L
254.053 188.399 L
343.64 128.204 L
433.226 71.4371 LE
[12 4] 0 setdash
74.88 336.957 LS
164.467 278.36 L
254.053 218.496 L
343.64 158.314 L
433.226 98.3644 LE
[4 5 1 6] 0 setdash
74.88 393.878 LS
164.467 340.703 L
254.053 283.605 L
343.64 224.821 L
433.226 165.249 LE
1 1 1 C
518.538 333.091 518.538 396.858 518.538 333.091 T
518.538 333.091 518.538 396.858 518.538 396.858 T
464.037 396.858 518.538 396.858 464.037 396.858 T
464.037 396.858 518.538 396.858 518.538 396.858 T
464.037 396.858 518.538 333.091 464.037 333.091 T
464.037 396.858 518.538 396.858 518.538 333.091 T
0.5 W
[16 0] 0 setdash
0 0 0 C
464.037 333.091 LS
518.538 333.091 LE
464.037 396.858 LS
518.538 396.858 LE
464.037 396.858 LS
518.538 396.858 LE
464.037 333.091 LS
518.538 333.091 LE
464.037 333.091 LS
464.037 396.858 LE
518.538 333.091 LS
518.538 396.858 LE
518.538 333.091 LS
518.538 396.858 LE
464.037 333.091 LS
464.037 396.858 L
464.037 396.858 LE
518.538 396.858 LS
518.538 396.858 LE
518.538 333.091 LS
518.538 333.091 LE
464.037 333.091 LS
464.037 333.091 LE
(L1) 490.082 386.23 15 /Helvetica SCL
(L2) 490.082 364.974 15 /Helvetica SCL
(Linf) 490.082 343.718 15 /Helvetica SCL
[] 0 setdash
466.778 386.23 LS
487.341 386.23 LE
[12 4] 0 setdash
466.778 364.974 LS
487.341 364.974 LE
[4 5 1 6] 0 setdash
466.778 343.718 LS
487.341 343.718 LE
grestore
showpage
cleartomark
%%PageTrailer
%%Trailer
end
%%EOF
