%!PS-Adobe-3.0 EPSF-3.0
%%Title: glps_renderer figure
%%Creator: GL2PS 1.3.8, (C) 1999-2012 C. Geuzaine
%%For: Octave
%%CreationDate: Wed Dec 16 11:02:57 2015
%%LanguageLevel: 3
%%DocumentData: Clean7Bit
%%Pages: 1
%%BoundingBox: 0 0 576 432
%%EndComments
%%BeginProlog
/gl2psdict 64 dict def gl2psdict begin
0 setlinecap 0 setlinejoin
/tryPS3shading false def % set to false to force subdivision
/rThreshold 0.064 def % red component subdivision threshold
/gThreshold 0.034 def % green component subdivision threshold
/bThreshold 0.1 def % blue component subdivision threshold
/BD { bind def } bind def
/C  { setrgbcolor } BD
/G  { 0.082 mul exch 0.6094 mul add exch 0.3086 mul add neg 1.0 add setgray } BD
/W  { setlinewidth } BD
/FC { findfont exch /SH exch def SH scalefont setfont } BD
/SW { dup stringwidth pop } BD
/S  { FC moveto show } BD
/SBC{ FC moveto SW -2 div 0 rmoveto show } BD
/SBR{ FC moveto SW neg 0 rmoveto show } BD
/SCL{ FC moveto 0 SH -2 div rmoveto show } BD
/SCC{ FC moveto SW -2 div SH -2 div rmoveto show } BD
/SCR{ FC moveto SW neg SH -2 div rmoveto show } BD
/STL{ FC moveto 0 SH neg rmoveto show } BD
/STC{ FC moveto SW -2 div SH neg rmoveto show } BD
/STR{ FC moveto SW neg SH neg rmoveto show } BD
/FCT { FC translate 0 0 } BD
/SR  { gsave FCT moveto rotate show grestore } BD
/SBCR{ gsave FCT moveto rotate SW -2 div 0 rmoveto show grestore } BD
/SBRR{ gsave FCT moveto rotate SW neg 0 rmoveto show grestore } BD
/SCLR{ gsave FCT moveto rotate 0 SH -2 div rmoveto show grestore} BD
/SCCR{ gsave FCT moveto rotate SW -2 div SH -2 div rmoveto show grestore} BD
/SCRR{ gsave FCT moveto rotate SW neg SH -2 div rmoveto show grestore} BD
/STLR{ gsave FCT moveto rotate 0 SH neg rmoveto show grestore } BD
/STCR{ gsave FCT moveto rotate SW -2 div SH neg rmoveto show grestore } BD
/STRR{ gsave FCT moveto rotate SW neg SH neg rmoveto show grestore } BD
/P  { newpath 0.0 360.0 arc closepath fill } BD
/LS { newpath moveto } BD
/L  { lineto } BD
/LE { lineto stroke } BD
/T  { newpath moveto lineto lineto closepath fill } BD
/STshfill {
      /b1 exch def /g1 exch def /r1 exch def /y1 exch def /x1 exch def
      /b2 exch def /g2 exch def /r2 exch def /y2 exch def /x2 exch def
      /b3 exch def /g3 exch def /r3 exch def /y3 exch def /x3 exch def
      gsave << /ShadingType 4 /ColorSpace [/DeviceRGB]
      /DataSource [ 0 x1 y1 r1 g1 b1 0 x2 y2 r2 g2 b2 0 x3 y3 r3 g3 b3 ] >>
      shfill grestore } BD
/Tm { 3 -1 roll 8 -1 roll 13 -1 roll add add 3 div
      3 -1 roll 7 -1 roll 11 -1 roll add add 3 div
      3 -1 roll 6 -1 roll 9 -1 roll add add 3 div C T } BD
/STsplit {
      4 index 15 index add 0.5 mul
      4 index 15 index add 0.5 mul
      4 index 15 index add 0.5 mul
      4 index 15 index add 0.5 mul
      4 index 15 index add 0.5 mul
      5 copy 5 copy 25 15 roll
      9 index 30 index add 0.5 mul
      9 index 30 index add 0.5 mul
      9 index 30 index add 0.5 mul
      9 index 30 index add 0.5 mul
      9 index 30 index add 0.5 mul
      5 copy 5 copy 35 5 roll 25 5 roll 15 5 roll
      4 index 10 index add 0.5 mul
      4 index 10 index add 0.5 mul
      4 index 10 index add 0.5 mul
      4 index 10 index add 0.5 mul
      4 index 10 index add 0.5 mul
      5 copy 5 copy 40 5 roll 25 5 roll 15 5 roll 25 5 roll
      STnoshfill STnoshfill STnoshfill STnoshfill } BD
/STnoshfill {
      2 index 8 index sub abs rThreshold gt
      { STsplit }
      { 1 index 7 index sub abs gThreshold gt
        { STsplit }
        { dup 6 index sub abs bThreshold gt
          { STsplit }
          { 2 index 13 index sub abs rThreshold gt
            { STsplit }
            { 1 index 12 index sub abs gThreshold gt
              { STsplit }
              { dup 11 index sub abs bThreshold gt
                { STsplit }
                { 7 index 13 index sub abs rThreshold gt
                  { STsplit }
                  { 6 index 12 index sub abs gThreshold gt
                    { STsplit }
                    { 5 index 11 index sub abs bThreshold gt
                      { STsplit }
                      { Tm }
                      ifelse }
                    ifelse }
                  ifelse }
                ifelse }
              ifelse }
            ifelse }
          ifelse }
        ifelse }
      ifelse } BD
tryPS3shading
{ /shfill where
  { /ST { STshfill } BD }
  { /ST { STnoshfill } BD }
  ifelse }
{ /ST { STnoshfill } BD }
ifelse
end
%%EndProlog
%%BeginSetup
/DeviceRGB setcolorspace
gl2psdict begin
%%EndSetup
%%Page: 1 1
%%BeginPageSetup
%%EndPageSetup
mark
gsave
1.0 1.0 scale
1 1 1 C
521.28 47.52 521.28 399.6 521.28 47.52 T
521.28 47.52 521.28 399.6 521.28 399.6 T
74.88 399.6 521.28 399.6 74.88 399.6 T
74.88 399.6 521.28 399.6 521.28 399.6 T
74.88 399.6 521.28 47.52 74.88 47.52 T
74.88 399.6 521.28 399.6 521.28 47.52 T
0.5 W
[16 0] 0 setdash
0 0 0 C
74.88 47.52 LS
521.28 47.52 LE
74.88 399.6 LS
521.28 399.6 LE
74.88 399.6 LS
521.28 399.6 LE
74.88 47.52 LS
521.28 47.52 LE
74.88 47.52 LS
74.88 399.6 LE
521.28 47.52 LS
521.28 399.6 LE
521.28 47.52 LS
521.28 399.6 LE
74.88 47.52 LS
74.88 399.6 L
74.88 399.6 LE
521.28 399.6 LS
521.28 399.6 LE
521.28 47.52 LS
521.28 47.52 LE
74.88 47.52 LS
74.88 47.52 L
74.88 51.985 LE
74.88 399.6 LS
74.88 395.135 LE
164.16 47.52 LS
164.16 51.985 LE
164.16 399.6 LS
164.16 395.135 LE
253.44 47.52 LS
253.44 51.985 LE
253.44 399.6 LS
253.44 395.135 LE
342.72 47.52 LS
342.72 51.985 LE
342.72 399.6 LS
342.72 395.135 LE
432 47.52 LS
432 51.985 LE
432 399.6 LS
432 395.135 LE
521.28 47.52 LS
521.28 51.985 LE
521.28 399.6 LS
521.28 395.135 LE
(0) 74.88 42.5189 15 /Helvetica STC
(0.2) 164.16 42.5189 15 /Helvetica STC
(0.4) 253.44 42.5189 15 /Helvetica STC
(0.6) 342.72 42.5189 15 /Helvetica STC
(0.8) 432 42.5189 15 /Helvetica STC
(1) 521.28 42.5189 15 /Helvetica STC
74.88 47.52 LS
79.348 47.52 LE
521.28 47.52 LS
516.812 47.52 LE
74.88 135.54 LS
79.348 135.54 LE
521.28 135.54 LS
516.812 135.54 LE
74.88 223.56 LS
79.348 223.56 LE
521.28 223.56 LS
516.812 223.56 LE
74.88 311.58 LS
79.348 311.58 LE
521.28 311.58 LS
516.812 311.58 LE
74.88 399.6 LS
79.348 399.6 LE
521.28 399.6 LS
516.812 399.6 LE
(1000) 69.8755 47.52 15 /Helvetica SCR
(1500) 69.8755 135.54 15 /Helvetica SCR
(2000) 69.8755 223.56 15 /Helvetica SCR
(2500) 69.8755 311.58 15 /Helvetica SCR
(3000) 69.8755 399.6 15 /Helvetica SCR
(A) 298.08 24.5189 15 /Helvetica STC
(Number of iterations) 90 33.8755 223.56 15 /Helvetica SBCR
(Effect of A in convergence) 298.08 409.6 15 /Helvetica SBC
2 W
[] 0 setdash
74.88 339.218 LS
119.52 73.5739 L
342.72 73.3979 L
521.28 71.9896 LE
71.88 342.218 LS
71.88 336.218 L
77.88 336.218 L
77.88 342.218 L
71.88 342.218 LE
116.52 76.5739 LS
116.52 70.5739 L
122.52 70.5739 L
122.52 76.5739 L
116.52 76.5739 LE
339.72 76.3979 LS
339.72 70.3979 L
345.72 70.3979 L
345.72 76.3979 L
339.72 76.3979 LE
518.28 74.9896 LS
518.28 68.9895 L
524.28 68.9895 L
524.28 74.9896 L
518.28 74.9896 LE
grestore
showpage
cleartomark
%%PageTrailer
%%Trailer
end
%%EOF
