%!PS-Adobe-3.0 EPSF-3.0
%%Title: ParaView GL2PS Export
%%Creator: GL2PS 1.3.8, (C) 1999-2012 C. Geuzaine
%%For: VTK
%%CreationDate: Wed Dec 16 10:07:17 2015
%%LanguageLevel: 3
%%DocumentData: Clean7Bit
%%Pages: 1
%%BoundingBox: 0 0 854 801
%%EndComments
%%BeginProlog
/gl2psdict 64 dict def gl2psdict begin
0 setlinecap 0 setlinejoin
/tryPS3shading true def % set to false to force subdivision
/rThreshold 0.064 def % red component subdivision threshold
/gThreshold 0.034 def % green component subdivision threshold
/bThreshold 0.1 def % blue component subdivision threshold
/BD { bind def } bind def
/C  { setrgbcolor } BD
/G  { 0.082 mul exch 0.6094 mul add exch 0.3086 mul add neg 1.0 add setgray } BD
/W  { setlinewidth } BD
/FC { findfont exch /SH exch def SH scalefont setfont } BD
/SW { dup stringwidth pop } BD
/S  { FC moveto show } BD
/SBC{ FC moveto SW -2 div 0 rmoveto show } BD
/SBR{ FC moveto SW neg 0 rmoveto show } BD
/SCL{ FC moveto 0 SH -2 div rmoveto show } BD
/SCC{ FC moveto SW -2 div SH -2 div rmoveto show } BD
/SCR{ FC moveto SW neg SH -2 div rmoveto show } BD
/STL{ FC moveto 0 SH neg rmoveto show } BD
/STC{ FC moveto SW -2 div SH neg rmoveto show } BD
/STR{ FC moveto SW neg SH neg rmoveto show } BD
/FCT { FC translate 0 0 } BD
/SR  { gsave FCT moveto rotate show grestore } BD
/SBCR{ gsave FCT moveto rotate SW -2 div 0 rmoveto show grestore } BD
/SBRR{ gsave FCT moveto rotate SW neg 0 rmoveto show grestore } BD
/SCLR{ gsave FCT moveto rotate 0 SH -2 div rmoveto show grestore} BD
/SCCR{ gsave FCT moveto rotate SW -2 div SH -2 div rmoveto show grestore} BD
/SCRR{ gsave FCT moveto rotate SW neg SH -2 div rmoveto show grestore} BD
/STLR{ gsave FCT moveto rotate 0 SH neg rmoveto show grestore } BD
/STCR{ gsave FCT moveto rotate SW -2 div SH neg rmoveto show grestore } BD
/STRR{ gsave FCT moveto rotate SW neg SH neg rmoveto show grestore } BD
/P  { newpath 0.0 360.0 arc closepath fill } BD
/LS { newpath moveto } BD
/L  { lineto } BD
/LE { lineto stroke } BD
/T  { newpath moveto lineto lineto closepath fill } BD
/STshfill {
      /b1 exch def /g1 exch def /r1 exch def /y1 exch def /x1 exch def
      /b2 exch def /g2 exch def /r2 exch def /y2 exch def /x2 exch def
      /b3 exch def /g3 exch def /r3 exch def /y3 exch def /x3 exch def
      gsave << /ShadingType 4 /ColorSpace [/DeviceRGB]
      /DataSource [ 0 x1 y1 r1 g1 b1 0 x2 y2 r2 g2 b2 0 x3 y3 r3 g3 b3 ] >>
      shfill grestore } BD
/Tm { 3 -1 roll 8 -1 roll 13 -1 roll add add 3 div
      3 -1 roll 7 -1 roll 11 -1 roll add add 3 div
      3 -1 roll 6 -1 roll 9 -1 roll add add 3 div C T } BD
/STsplit {
      4 index 15 index add 0.5 mul
      4 index 15 index add 0.5 mul
      4 index 15 index add 0.5 mul
      4 index 15 index add 0.5 mul
      4 index 15 index add 0.5 mul
      5 copy 5 copy 25 15 roll
      9 index 30 index add 0.5 mul
      9 index 30 index add 0.5 mul
      9 index 30 index add 0.5 mul
      9 index 30 index add 0.5 mul
      9 index 30 index add 0.5 mul
      5 copy 5 copy 35 5 roll 25 5 roll 15 5 roll
      4 index 10 index add 0.5 mul
      4 index 10 index add 0.5 mul
      4 index 10 index add 0.5 mul
      4 index 10 index add 0.5 mul
      4 index 10 index add 0.5 mul
      5 copy 5 copy 40 5 roll 25 5 roll 15 5 roll 25 5 roll
      STnoshfill STnoshfill STnoshfill STnoshfill } BD
/STnoshfill {
      2 index 8 index sub abs rThreshold gt
      { STsplit }
      { 1 index 7 index sub abs gThreshold gt
        { STsplit }
        { dup 6 index sub abs bThreshold gt
          { STsplit }
          { 2 index 13 index sub abs rThreshold gt
            { STsplit }
            { 1 index 12 index sub abs gThreshold gt
              { STsplit }
              { dup 11 index sub abs bThreshold gt
                { STsplit }
                { 7 index 13 index sub abs rThreshold gt
                  { STsplit }
                  { 6 index 12 index sub abs gThreshold gt
                    { STsplit }
                    { 5 index 11 index sub abs bThreshold gt
                      { STsplit }
                      { Tm }
                      ifelse }
                    ifelse }
                  ifelse }
                ifelse }
              ifelse }
            ifelse }
          ifelse }
        ifelse }
      ifelse } BD
tryPS3shading
{ /shfill where
  { /ST { STshfill } BD }
  { /ST { STnoshfill } BD }
  ifelse }
{ /ST { STnoshfill } BD }
ifelse
end
%%EndProlog
%%BeginSetup
/DeviceRGB setcolorspace
gl2psdict begin
%%EndSetup
%%Page: 1 1
%%BeginPageSetup
%%EndPageSetup
mark
gsave
1.0 1.0 scale
1 1 1 C
newpath 0 0 moveto 854 0 lineto 854 801 lineto 0 801 lineto
closepath fill
0.714 W
0.94902 0.94902 0.94902 C
55.5651 38.5481 LS
55.5651 781.476 LE
132.655 38.5481 LS
132.655 781.476 LE
210.747 38.5481 LS
210.747 781.476 LE
288.838 38.5481 LS
288.838 781.476 LE
366.93 38.5481 LS
366.93 781.476 LE
445.021 38.5481 LS
445.021 781.476 LE
522.111 38.5481 LS
522.111 781.476 LE
600.203 38.5481 LS
600.203 781.476 LE
678.294 38.5481 LS
678.294 781.476 LE
756.386 38.5481 LS
756.386 781.476 LE
834.477 38.5481 LS
834.477 781.476 LE
55.5651 71.5894 LS
834.477 71.5894 LE
55.5651 105.632 LS
834.477 105.632 LE
55.5651 139.674 LS
834.477 139.674 LE
55.5651 172.716 LS
834.477 172.716 LE
55.5651 206.758 LS
834.477 206.758 LE
55.5651 240.801 LS
834.477 240.801 LE
55.5651 274.843 LS
834.477 274.843 LE
55.5651 307.884 LS
834.477 307.884 LE
55.5651 341.927 LS
834.477 341.927 LE
55.5651 375.969 LS
834.477 375.969 LE
55.5651 410.012 LS
834.477 410.012 LE
55.5651 443.053 LS
834.477 443.053 LE
55.5651 477.096 LS
834.477 477.096 LE
55.5651 511.138 LS
834.477 511.138 LE
55.5651 544.179 LS
834.477 544.179 LE
55.5651 578.222 LS
834.477 578.222 LE
55.5651 612.264 LS
834.477 612.264 LE
55.5651 646.307 LS
834.477 646.307 LE
55.5651 679.348 LS
834.477 679.348 LE
55.5651 713.391 LS
834.477 713.391 LE
55.5651 747.433 LS
834.477 747.433 LE
1.428 W
0 1 0 C
63.3542 35.7651 LS
71.1433 35.7651 L
78.9324 136.299 L
86.7216 136.299 L
94.5107 136.299 L
102.3 107.082 L
110.089 107.082 L
117.878 197.126 L
125.667 197.126 L
133.456 197.126 L
141.245 166.057 L
149.035 166.057 L
156.824 225.975 L
164.613 225.975 L
172.402 225.975 L
180.191 197.405 L
187.98 197.405 L
195.769 238.587 L
203.558 238.587 L
211.347 238.587 L
219.137 212.235 L
226.926 212.235 L
234.715 242.677 L
242.504 242.677 L
250.293 242.677 L
258.082 217.677 L
265.871 217.677 L
273.66 241.773 L
281.45 241.773 L
289.239 241.773 L
297.028 217.442 L
304.817 217.442 L
312.606 237.736 L
320.395 237.736 L
328.184 237.736 L
335.973 213.647 L
343.763 213.647 L
351.552 231.829 L
359.341 231.829 L
367.13 231.829 L
374.919 207.774 L
382.708 207.774 L
390.497 225.17 L
398.286 225.17 L
406.076 225.17 L
413.865 201.115 L
421.654 201.115 L
429.443 218.946 L
437.232 218.946 L
445.021 218.946 L
452.81 195.003 L
460.599 195.003 L
468.388 214.541 L
476.178 214.541 L
483.967 214.541 L
491.756 190.931 L
499.545 190.931 L
507.334 213.608 L
515.123 213.608 L
522.912 213.608 L
530.701 190.618 L
538.491 190.618 L
546.28 218.125 L
554.069 218.125 L
561.858 218.125 L
569.647 196.041 L
577.436 196.041 L
585.225 230.455 L
593.014 230.455 L
600.803 230.455 L
608.593 209.465 L
616.382 209.465 L
624.171 253.475 L
631.96 253.475 L
639.749 253.475 L
647.538 233.57 L
655.327 233.57 L
663.116 290.959 L
670.906 290.959 L
678.695 290.959 L
686.484 271.945 L
694.273 271.945 L
702.062 348.601 L
709.851 348.601 L
717.64 348.601 L
725.429 330.648 L
733.219 330.648 L
741.008 436.115 L
748.797 436.115 L
756.586 436.115 L
764.375 422.074 L
772.164 422.074 L
779.953 567.216 L
787.742 567.216 L
795.531 567.216 L
803.321 568.394 L
811.11 568.394 L
818.899 716.375 L
826.688 716.375 LE
[8 8] 0 setdash
0.886275 0.0980392 0.109804 C
63.3542 39.194 LS
71.1433 39.194 L
78.9324 133.068 L
86.7216 133.068 L
94.5107 133.068 L
102.3 113.247 L
110.089 113.247 L
117.878 190.925 L
125.667 190.925 L
133.456 190.925 L
141.245 172.9 L
149.035 172.9 L
156.824 218.644 L
164.613 218.644 L
172.402 218.644 L
180.191 204.48 L
187.98 204.48 L
195.769 230.802 L
203.558 230.802 L
211.347 230.802 L
219.137 219.445 L
226.926 219.445 L
234.715 234.685 L
242.504 234.685 L
250.293 234.685 L
258.082 224.997 L
265.871 224.997 L
273.66 233.666 L
281.45 233.666 L
289.239 233.666 L
297.028 224.87 L
304.817 224.87 L
312.606 229.545 L
320.395 229.545 L
328.184 229.545 L
335.973 221.198 L
343.763 221.198 L
351.552 223.555 L
359.341 223.555 L
367.13 223.555 L
374.919 215.469 L
382.708 215.469 L
390.497 216.797 L
398.286 216.797 L
406.076 216.797 L
413.865 208.98 L
421.654 208.98 L
429.443 210.452 L
437.232 210.452 L
445.021 210.452 L
452.81 203.062 L
460.599 203.062 L
468.388 205.896 L
476.178 205.896 L
483.967 205.896 L
491.756 199.204 L
499.545 199.204 L
507.334 204.782 L
515.123 204.782 L
522.912 204.782 L
530.701 199.111 L
538.491 199.111 L
546.28 209.091 L
554.069 209.091 L
561.858 209.091 L
569.647 204.738 L
577.436 204.738 L
585.225 221.195 L
593.014 221.195 L
600.803 221.195 L
608.593 218.312 L
616.382 218.312 L
624.171 243.991 L
631.96 243.991 L
639.749 243.991 L
647.538 242.456 L
655.327 242.456 L
663.116 281.292 L
670.906 281.292 L
678.695 281.292 L
686.484 280.645 L
694.273 280.645 L
702.062 338.881 L
709.851 338.881 L
717.64 338.881 L
725.429 338.707 L
733.219 338.707 L
741.008 426.703 L
748.797 426.703 L
756.586 426.703 L
764.375 428.48 L
772.164 428.48 L
779.953 559.114 L
787.742 559.114 L
795.531 559.114 L
803.321 570.818 L
811.11 570.818 L
818.899 711.494 L
826.688 711.494 LE
[] 0 setdash
0 0.329412 1 C
63.3542 50.0237 LS
71.1433 50.0237 L
78.9324 126.643 L
86.7216 126.643 L
94.5107 126.643 L
102.3 126.191 L
110.089 126.191 L
117.878 180.518 L
125.667 180.518 L
133.456 180.518 L
141.245 182.491 L
149.035 182.491 L
156.824 209.26 L
164.613 209.26 L
172.402 209.26 L
180.191 211.116 L
187.98 211.116 L
195.769 223.341 L
203.558 223.341 L
211.347 223.341 L
219.137 224.057 L
226.926 224.057 L
234.715 228.924 L
242.504 228.924 L
250.293 228.924 L
258.082 228.286 L
265.871 228.286 L
273.66 229.193 L
281.45 229.193 L
289.239 229.193 L
297.028 227.332 L
304.817 227.332 L
312.606 225.984 L
320.395 225.984 L
328.184 225.984 L
335.973 223.195 L
343.763 223.195 L
351.552 220.603 L
359.341 220.603 L
367.13 220.603 L
374.919 217.284 L
382.708 217.284 L
390.497 214.207 L
398.286 214.207 L
406.076 214.207 L
413.865 210.85 L
421.654 210.85 L
429.443 208.006 L
437.232 208.006 L
445.021 208.006 L
452.81 205.203 L
460.599 205.203 L
468.388 203.384 L
476.178 203.384 L
483.967 203.384 L
491.756 201.827 L
499.545 201.827 L
507.334 201.969 L
515.123 201.969 L
522.912 201.969 L
530.701 202.442 L
538.491 202.442 L
546.28 205.693 L
554.069 205.693 L
561.858 205.693 L
569.647 209.028 L
577.436 209.028 L
585.225 216.847 L
593.014 216.847 L
600.803 216.847 L
608.593 223.848 L
616.382 223.848 L
624.171 238.215 L
631.96 238.215 L
639.749 238.215 L
647.538 249.544 L
655.327 249.544 L
663.116 273.471 L
670.906 273.471 L
678.695 273.471 L
686.484 289.534 L
694.273 289.534 L
702.062 328.274 L
709.851 328.274 L
717.64 328.274 L
725.429 349.262 L
733.219 349.262 L
741.008 412.741 L
748.797 412.741 L
756.586 412.741 L
764.375 439.077 L
772.164 439.077 L
779.953 542.742 L
787.742 542.742 L
795.531 542.742 L
803.321 574.973 L
811.11 574.973 L
818.899 697.458 L
826.688 697.458 LE
[1 7 1 7] 0 setdash
0 0 0 C
63.3542 55.6812 LS
71.1433 55.6812 L
78.9324 124.017 L
86.7216 124.017 L
94.5107 124.017 L
102.3 131.224 L
110.089 131.224 L
117.878 176.894 L
125.667 176.894 L
133.456 176.894 L
141.245 185.038 L
149.035 185.038 L
156.824 206.588 L
164.613 206.588 L
172.402 206.588 L
180.191 212.178 L
187.98 212.178 L
195.769 221.626 L
203.558 221.626 L
211.347 221.626 L
219.137 224.395 L
226.926 224.395 L
234.715 227.85 L
242.504 227.85 L
250.293 227.85 L
258.082 228.299 L
265.871 228.299 L
273.66 228.507 L
281.45 228.507 L
289.239 228.507 L
297.028 227.22 L
304.817 227.22 L
312.606 225.531 L
320.395 225.531 L
328.184 225.531 L
335.973 223.059 L
343.763 223.059 L
351.552 220.298 L
359.341 220.298 L
367.13 220.298 L
374.919 217.18 L
382.708 217.18 L
390.497 214.006 L
398.286 214.006 L
406.076 214.006 L
413.865 210.814 L
421.654 210.814 L
429.443 207.882 L
437.232 207.882 L
445.021 207.882 L
452.81 205.263 L
460.599 205.263 L
468.388 203.312 L
476.178 203.312 L
483.967 203.312 L
491.756 202.015 L
499.545 202.015 L
507.334 201.916 L
515.123 201.916 L
522.912 201.916 L
530.701 202.795 L
538.491 202.795 L
546.28 205.598 L
554.069 205.598 L
561.858 205.598 L
569.647 209.606 L
577.436 209.606 L
585.225 216.606 L
593.014 216.606 L
600.803 216.606 L
608.593 224.747 L
616.382 224.747 L
624.171 237.652 L
631.96 237.652 L
639.749 237.652 L
647.538 250.922 L
655.327 250.922 L
663.116 272.285 L
670.906 272.285 L
678.695 272.285 L
686.484 291.616 L
694.273 291.616 L
702.062 325.971 L
709.851 325.971 L
717.64 325.971 L
725.429 352.255 L
733.219 352.255 L
741.008 408.616 L
748.797 408.616 L
756.586 408.616 L
764.375 442.664 L
772.164 442.664 L
779.953 536.387 L
787.742 536.387 L
795.531 536.387 L
803.321 576.256 L
811.11 576.256 L
818.899 690.437 L
826.688 690.437 LE
0.357 W
[] 0 setdash
59.3495 55.6812 LS
67.3589 55.6812 LE
63.3542 51.6762 LS
63.3542 59.6862 LE
67.1386 55.6812 LS
75.148 55.6812 LE
71.1433 51.6762 LS
71.1433 59.6862 LE
74.9277 124.017 LS
82.9371 124.017 LE
78.9324 120.012 LS
78.9324 128.022 LE
82.7169 124.017 LS
90.7262 124.017 LE
86.7216 120.012 LS
86.7216 128.022 LE
90.506 124.017 LS
98.5154 124.017 LE
94.5107 120.012 LS
94.5107 128.022 LE
98.2951 131.224 LS
106.304 131.224 LE
102.3 127.219 LS
102.3 135.229 LE
106.084 131.224 LS
114.094 131.224 LE
110.089 127.219 LS
110.089 135.229 LE
113.873 176.894 LS
121.883 176.894 LE
117.878 172.889 LS
117.878 180.899 LE
121.662 176.894 LS
129.672 176.894 LE
125.667 172.889 LS
125.667 180.899 LE
129.452 176.894 LS
137.461 176.894 LE
133.456 172.889 LS
133.456 180.899 LE
137.241 185.038 LS
145.25 185.038 LE
141.245 181.033 LS
141.245 189.043 LE
145.03 185.038 LS
153.039 185.038 LE
149.035 181.033 LS
149.035 189.043 LE
152.819 206.588 LS
160.828 206.588 LE
156.824 202.583 LS
156.824 210.593 LE
160.608 206.588 LS
168.617 206.588 LE
164.613 202.583 LS
164.613 210.593 LE
168.397 206.588 LS
176.407 206.588 LE
172.402 202.583 LS
172.402 210.593 LE
176.186 212.178 LS
184.196 212.178 LE
180.191 208.173 LS
180.191 216.183 LE
183.975 212.178 LS
191.985 212.178 LE
187.98 208.173 LS
187.98 216.183 LE
191.765 221.626 LS
199.774 221.626 LE
195.769 217.621 LS
195.769 225.631 LE
199.554 221.626 LS
207.563 221.626 LE
203.558 217.621 LS
203.558 225.631 LE
207.343 221.626 LS
215.352 221.626 LE
211.347 217.621 LS
211.347 225.631 LE
215.132 224.395 LS
223.141 224.395 LE
219.137 220.39 LS
219.137 228.4 LE
222.921 224.395 LS
230.93 224.395 LE
226.926 220.39 LS
226.926 228.4 LE
230.71 227.85 LS
238.72 227.85 LE
234.715 223.845 LS
234.715 231.855 LE
238.499 227.85 LS
246.509 227.85 LE
242.504 223.845 LS
242.504 231.855 LE
246.288 227.85 LS
254.298 227.85 LE
250.293 223.845 LS
250.293 231.855 LE
254.078 228.299 LS
262.087 228.299 LE
258.082 224.294 LS
258.082 232.304 LE
261.867 228.299 LS
269.876 228.299 LE
265.871 224.294 LS
265.871 232.304 LE
269.656 228.507 LS
277.665 228.507 LE
273.66 224.502 LS
273.66 232.512 LE
277.445 228.507 LS
285.454 228.507 LE
281.45 224.502 LS
281.45 232.512 LE
285.234 228.507 LS
293.243 228.507 LE
289.239 224.502 LS
289.239 232.512 LE
293.023 227.22 LS
301.033 227.22 LE
297.028 223.215 LS
297.028 231.225 LE
300.812 227.22 LS
308.822 227.22 LE
304.817 223.215 LS
304.817 231.225 LE
308.601 225.531 LS
316.611 225.531 LE
312.606 221.526 LS
312.606 229.536 LE
316.39 225.531 LS
324.4 225.531 LE
320.395 221.526 LS
320.395 229.536 LE
324.18 225.531 LS
332.189 225.531 LE
328.184 221.526 LS
328.184 229.536 LE
331.969 223.059 LS
339.978 223.059 LE
335.973 219.054 LS
335.973 227.064 LE
339.758 223.059 LS
347.767 223.059 LE
343.763 219.054 LS
343.763 227.064 LE
347.547 220.298 LS
355.556 220.298 LE
351.552 216.293 LS
351.552 224.303 LE
355.336 220.298 LS
363.345 220.298 LE
359.341 216.293 LS
359.341 224.303 LE
363.125 220.298 LS
371.135 220.298 LE
367.13 216.293 LS
367.13 224.303 LE
370.914 217.18 LS
378.924 217.18 LE
374.919 213.175 LS
374.919 221.185 LE
378.703 217.18 LS
386.713 217.18 LE
382.708 213.175 LS
382.708 221.185 LE
386.493 214.006 LS
394.502 214.006 LE
390.497 210.001 LS
390.497 218.011 LE
394.282 214.006 LS
402.291 214.006 LE
398.286 210.001 LS
398.286 218.011 LE
402.071 214.006 LS
410.08 214.006 LE
406.076 210.001 LS
406.076 218.011 LE
409.86 210.814 LS
417.869 210.814 LE
413.865 206.809 LS
413.865 214.819 LE
417.649 210.814 LS
425.658 210.814 LE
421.654 206.809 LS
421.654 214.819 LE
425.438 207.882 LS
433.448 207.882 LE
429.443 203.877 LS
429.443 211.887 LE
433.227 207.882 LS
441.237 207.882 LE
437.232 203.877 LS
437.232 211.887 LE
441.016 207.882 LS
449.026 207.882 LE
445.021 203.877 LS
445.021 211.887 LE
448.806 205.263 LS
456.815 205.263 LE
452.81 201.258 LS
452.81 209.268 LE
456.595 205.263 LS
464.604 205.263 LE
460.599 201.258 LS
460.599 209.268 LE
464.384 203.312 LS
472.393 203.312 LE
468.388 199.307 LS
468.388 207.317 LE
472.173 203.312 LS
480.182 203.312 LE
476.178 199.307 LS
476.178 207.317 LE
479.962 203.312 LS
487.971 203.312 LE
483.967 199.307 LS
483.967 207.317 LE
487.751 202.015 LS
495.76 202.015 LE
491.756 198.01 LS
491.756 206.02 LE
495.54 202.015 LS
503.55 202.015 LE
499.545 198.01 LS
499.545 206.02 LE
503.329 201.916 LS
511.339 201.916 LE
507.334 197.911 LS
507.334 205.921 LE
511.118 201.916 LS
519.128 201.916 LE
515.123 197.911 LS
515.123 205.921 LE
518.908 201.916 LS
526.917 201.916 LE
522.912 197.911 LS
522.912 205.921 LE
526.697 202.795 LS
534.706 202.795 LE
530.701 198.79 LS
530.701 206.8 LE
534.486 202.795 LS
542.495 202.795 LE
538.491 198.79 LS
538.491 206.8 LE
542.275 205.598 LS
550.284 205.598 LE
546.28 201.593 LS
546.28 209.603 LE
550.064 205.598 LS
558.073 205.598 LE
554.069 201.593 LS
554.069 209.603 LE
557.853 205.598 LS
565.863 205.598 LE
561.858 201.593 LS
561.858 209.603 LE
565.642 209.606 LS
573.652 209.606 LE
569.647 205.601 LS
569.647 213.611 LE
573.431 209.606 LS
581.441 209.606 LE
577.436 205.601 LS
577.436 213.611 LE
581.221 216.606 LS
589.23 216.606 LE
585.225 212.601 LS
585.225 220.611 LE
589.01 216.606 LS
597.019 216.606 LE
593.014 212.601 LS
593.014 220.611 LE
596.799 216.606 LS
604.808 216.606 LE
600.803 212.601 LS
600.803 220.611 LE
604.588 224.747 LS
612.597 224.747 LE
608.593 220.742 LS
608.593 228.752 LE
612.377 224.747 LS
620.386 224.747 LE
616.382 220.742 LS
616.382 228.752 LE
620.166 237.652 LS
628.176 237.652 LE
624.171 233.647 LS
624.171 241.657 LE
627.955 237.652 LS
635.965 237.652 LE
631.96 233.647 LS
631.96 241.657 LE
635.744 237.652 LS
643.754 237.652 LE
639.749 233.647 LS
639.749 241.657 LE
643.534 250.922 LS
651.543 250.922 LE
647.538 246.917 LS
647.538 254.927 LE
651.323 250.922 LS
659.332 250.922 LE
655.327 246.917 LS
655.327 254.927 LE
659.112 272.285 LS
667.121 272.285 LE
663.116 268.28 LS
663.116 276.29 LE
666.901 272.285 LS
674.91 272.285 LE
670.906 268.28 LS
670.906 276.29 LE
674.69 272.285 LS
682.699 272.285 LE
678.695 268.28 LS
678.695 276.29 LE
682.479 291.616 LS
690.489 291.616 LE
686.484 287.611 LS
686.484 295.621 LE
690.268 291.616 LS
698.278 291.616 LE
694.273 287.611 LS
694.273 295.621 LE
698.057 325.971 LS
706.067 325.971 LE
702.062 321.966 LS
702.062 329.976 LE
705.846 325.971 LS
713.856 325.971 LE
709.851 321.966 LS
709.851 329.976 LE
713.636 325.971 LS
721.645 325.971 LE
717.64 321.966 LS
717.64 329.976 LE
721.425 352.255 LS
729.434 352.255 LE
725.429 348.25 LS
725.429 356.26 LE
729.214 352.255 LS
737.223 352.255 LE
733.219 348.25 LS
733.219 356.26 LE
737.003 408.616 LS
745.012 408.616 LE
741.008 404.611 LS
741.008 412.621 LE
744.792 408.616 LS
752.801 408.616 LE
748.797 404.611 LS
748.797 412.621 LE
752.581 408.616 LS
760.591 408.616 LE
756.586 404.611 LS
756.586 412.621 LE
760.37 442.664 LS
768.38 442.664 LE
764.375 438.659 LS
764.375 446.669 LE
768.159 442.664 LS
776.169 442.664 LE
772.164 438.659 LS
772.164 446.669 LE
775.949 536.387 LS
783.958 536.387 LE
779.953 532.382 LS
779.953 540.392 LE
783.738 536.387 LS
791.747 536.387 LE
787.742 532.382 LS
787.742 540.392 LE
791.527 536.387 LS
799.536 536.387 LE
795.531 532.382 LS
795.531 540.392 LE
799.316 576.256 LS
807.325 576.256 LE
803.321 572.251 LS
803.321 580.261 LE
807.105 576.256 LS
815.115 576.256 LE
811.11 572.251 LS
811.11 580.261 LE
814.894 690.437 LS
822.904 690.437 LE
818.899 686.432 LS
818.899 694.442 LE
822.683 690.437 LS
830.693 690.437 LE
826.688 686.432 LS
826.688 694.442 LE
0.714 W
55.5651 38.5481 LS
55.5651 781.476 LE
(P(X,0.95)) 90 17.5205 410.012 12 /Helvetica-Bold SBCR
50.5592 71.5894 LS
55.5651 71.5894 LE
(-0.25) 48.5569 71.5894 12 /Helvetica SCR
50.5592 105.632 LS
55.5651 105.632 LE
(-0.2) 48.5569 105.632 12 /Helvetica SCR
50.5592 139.674 LS
55.5651 139.674 LE
(-0.15) 48.5569 139.674 12 /Helvetica SCR
50.5592 172.716 LS
55.5651 172.716 LE
(-0.1) 48.5569 172.716 12 /Helvetica SCR
50.5592 206.758 LS
55.5651 206.758 LE
(-0.05) 48.5569 206.758 12 /Helvetica SCR
50.5592 240.801 LS
55.5651 240.801 LE
(0) 48.5569 240.801 12 /Helvetica SCR
50.5592 274.843 LS
55.5651 274.843 LE
(0.05) 48.5569 274.843 12 /Helvetica SCR
50.5592 307.884 LS
55.5651 307.884 LE
(0.1) 48.5569 307.884 12 /Helvetica SCR
50.5592 341.927 LS
55.5651 341.927 LE
(0.15) 48.5569 341.927 12 /Helvetica SCR
50.5592 375.969 LS
55.5651 375.969 LE
(0.2) 48.5569 375.969 12 /Helvetica SCR
50.5592 410.012 LS
55.5651 410.012 LE
(0.25) 48.5569 410.012 12 /Helvetica SCR
50.5592 443.053 LS
55.5651 443.053 LE
(0.3) 48.5569 443.053 12 /Helvetica SCR
50.5592 477.096 LS
55.5651 477.096 LE
(0.35) 48.5569 477.096 12 /Helvetica SCR
50.5592 511.138 LS
55.5651 511.138 LE
(0.4) 48.5569 511.138 12 /Helvetica SCR
50.5592 544.179 LS
55.5651 544.179 LE
(0.45) 48.5569 544.179 12 /Helvetica SCR
50.5592 578.222 LS
55.5651 578.222 LE
(0.5) 48.5569 578.222 12 /Helvetica SCR
50.5592 612.264 LS
55.5651 612.264 LE
(0.55) 48.5569 612.264 12 /Helvetica SCR
50.5592 646.307 LS
55.5651 646.307 LE
(0.6) 48.5569 646.307 12 /Helvetica SCR
50.5592 679.348 LS
55.5651 679.348 LE
(0.65) 48.5569 679.348 12 /Helvetica SCR
50.5592 713.391 LS
55.5651 713.391 LE
(0.7) 48.5569 713.391 12 /Helvetica SCR
50.5592 747.433 LS
55.5651 747.433 LE
(0.75) 48.5569 747.433 12 /Helvetica SCR
55.5651 38.5481 LS
834.477 38.5481 LE
(X) 445.021 16.5206 12 /Helvetica-Bold STC
55.5651 33.5419 LS
55.5651 38.5481 LE
(0) 55.5651 31.5394 12 /Helvetica STC
132.655 33.5419 LS
132.655 38.5481 LE
(0.1) 132.655 31.5394 12 /Helvetica STC
210.747 33.5419 LS
210.747 38.5481 LE
(0.2) 210.747 31.5394 12 /Helvetica STC
288.838 33.5419 LS
288.838 38.5481 LE
(0.3) 288.838 31.5394 12 /Helvetica STC
366.93 33.5419 LS
366.93 38.5481 LE
(0.4) 366.93 31.5394 12 /Helvetica STC
445.021 33.5419 LS
445.021 38.5481 LE
(0.5) 445.021 31.5394 12 /Helvetica STC
522.111 33.5419 LS
522.111 38.5481 LE
(0.6) 522.111 31.5394 12 /Helvetica STC
600.203 33.5419 LS
600.203 38.5481 LE
(0.7) 600.203 31.5394 12 /Helvetica STC
678.294 33.5419 LS
678.294 38.5481 LE
(0.8) 678.294 31.5394 12 /Helvetica STC
756.386 33.5419 LS
756.386 38.5481 LE
(0.9) 756.386 31.5394 12 /Helvetica STC
834.477 33.5419 LS
834.477 38.5481 LE
(1) 834.477 31.5394 12 /Helvetica STC
1 1 1 C
766.397 781.476 834.477 708.384 766.397 708.384 T
766.397 781.476 834.477 781.476 834.477 708.384 T
0 0 0 C
766.397 708.384 LS
834.477 708.384 L
834.477 781.476 L
766.397 781.476 L
766.397 708.384 LE
(A=0.0) 796.433 764.454 12 /Helvetica S
1.428 W
0 1 0 C
771.403 770.462 LS
793.429 770.462 LE
0 0 0 C
(A=0.1) 796.433 747.433 12 /Helvetica S
[8 8] 0 setdash
0.886275 0.0980392 0.109804 C
771.403 753.441 LS
793.429 753.441 LE
0 0 0 C
(A=0.6) 796.433 730.412 12 /Helvetica S
[] 0 setdash
0 0.329412 1 C
771.403 736.419 LS
793.429 736.419 LE
0 0 0 C
(A=1.0) 796.433 713.391 12 /Helvetica S
[1 7 1 7] 0 setdash
771.403 719.398 LS
793.429 719.398 LE
0.357 W
[] 0 setdash
778.411 719.398 LS
786.421 719.398 LE
782.416 715.393 LS
782.416 723.403 LE
grestore
showpage
cleartomark
%%PageTrailer
%%Trailer
end
%%EOF
