%!PS-Adobe-3.0 EPSF-3.0
%%Title: A on y=0.5
%%Creator: GL2PS 1.3.8, (C) 1999-2012 C. Geuzaine
%%For: VTK
%%CreationDate: Wed Dec 16 10:25:29 2015
%%LanguageLevel: 3
%%DocumentData: Clean7Bit
%%Pages: 1
%%BoundingBox: 0 0 994 801
%%EndComments
%%BeginProlog
/gl2psdict 64 dict def gl2psdict begin
0 setlinecap 0 setlinejoin
/tryPS3shading true def % set to false to force subdivision
/rThreshold 0.064 def % red component subdivision threshold
/gThreshold 0.034 def % green component subdivision threshold
/bThreshold 0.1 def % blue component subdivision threshold
/BD { bind def } bind def
/C  { setrgbcolor } BD
/G  { 0.082 mul exch 0.6094 mul add exch 0.3086 mul add neg 1.0 add setgray } BD
/W  { setlinewidth } BD
/FC { findfont exch /SH exch def SH scalefont setfont } BD
/SW { dup stringwidth pop } BD
/S  { FC moveto show } BD
/SBC{ FC moveto SW -2 div 0 rmoveto show } BD
/SBR{ FC moveto SW neg 0 rmoveto show } BD
/SCL{ FC moveto 0 SH -2 div rmoveto show } BD
/SCC{ FC moveto SW -2 div SH -2 div rmoveto show } BD
/SCR{ FC moveto SW neg SH -2 div rmoveto show } BD
/STL{ FC moveto 0 SH neg rmoveto show } BD
/STC{ FC moveto SW -2 div SH neg rmoveto show } BD
/STR{ FC moveto SW neg SH neg rmoveto show } BD
/FCT { FC translate 0 0 } BD
/SR  { gsave FCT moveto rotate show grestore } BD
/SBCR{ gsave FCT moveto rotate SW -2 div 0 rmoveto show grestore } BD
/SBRR{ gsave FCT moveto rotate SW neg 0 rmoveto show grestore } BD
/SCLR{ gsave FCT moveto rotate 0 SH -2 div rmoveto show grestore} BD
/SCCR{ gsave FCT moveto rotate SW -2 div SH -2 div rmoveto show grestore} BD
/SCRR{ gsave FCT moveto rotate SW neg SH -2 div rmoveto show grestore} BD
/STLR{ gsave FCT moveto rotate 0 SH neg rmoveto show grestore } BD
/STCR{ gsave FCT moveto rotate SW -2 div SH neg rmoveto show grestore } BD
/STRR{ gsave FCT moveto rotate SW neg SH neg rmoveto show grestore } BD
/P  { newpath 0.0 360.0 arc closepath fill } BD
/LS { newpath moveto } BD
/L  { lineto } BD
/LE { lineto stroke } BD
/T  { newpath moveto lineto lineto closepath fill } BD
/STshfill {
      /b1 exch def /g1 exch def /r1 exch def /y1 exch def /x1 exch def
      /b2 exch def /g2 exch def /r2 exch def /y2 exch def /x2 exch def
      /b3 exch def /g3 exch def /r3 exch def /y3 exch def /x3 exch def
      gsave << /ShadingType 4 /ColorSpace [/DeviceRGB]
      /DataSource [ 0 x1 y1 r1 g1 b1 0 x2 y2 r2 g2 b2 0 x3 y3 r3 g3 b3 ] >>
      shfill grestore } BD
/Tm { 3 -1 roll 8 -1 roll 13 -1 roll add add 3 div
      3 -1 roll 7 -1 roll 11 -1 roll add add 3 div
      3 -1 roll 6 -1 roll 9 -1 roll add add 3 div C T } BD
/STsplit {
      4 index 15 index add 0.5 mul
      4 index 15 index add 0.5 mul
      4 index 15 index add 0.5 mul
      4 index 15 index add 0.5 mul
      4 index 15 index add 0.5 mul
      5 copy 5 copy 25 15 roll
      9 index 30 index add 0.5 mul
      9 index 30 index add 0.5 mul
      9 index 30 index add 0.5 mul
      9 index 30 index add 0.5 mul
      9 index 30 index add 0.5 mul
      5 copy 5 copy 35 5 roll 25 5 roll 15 5 roll
      4 index 10 index add 0.5 mul
      4 index 10 index add 0.5 mul
      4 index 10 index add 0.5 mul
      4 index 10 index add 0.5 mul
      4 index 10 index add 0.5 mul
      5 copy 5 copy 40 5 roll 25 5 roll 15 5 roll 25 5 roll
      STnoshfill STnoshfill STnoshfill STnoshfill } BD
/STnoshfill {
      2 index 8 index sub abs rThreshold gt
      { STsplit }
      { 1 index 7 index sub abs gThreshold gt
        { STsplit }
        { dup 6 index sub abs bThreshold gt
          { STsplit }
          { 2 index 13 index sub abs rThreshold gt
            { STsplit }
            { 1 index 12 index sub abs gThreshold gt
              { STsplit }
              { dup 11 index sub abs bThreshold gt
                { STsplit }
                { 7 index 13 index sub abs rThreshold gt
                  { STsplit }
                  { 6 index 12 index sub abs gThreshold gt
                    { STsplit }
                    { 5 index 11 index sub abs bThreshold gt
                      { STsplit }
                      { Tm }
                      ifelse }
                    ifelse }
                  ifelse }
                ifelse }
              ifelse }
            ifelse }
          ifelse }
        ifelse }
      ifelse } BD
tryPS3shading
{ /shfill where
  { /ST { STshfill } BD }
  { /ST { STnoshfill } BD }
  ifelse }
{ /ST { STnoshfill } BD }
ifelse
end
%%EndProlog
%%BeginSetup
/DeviceRGB setcolorspace
gl2psdict begin
%%EndSetup
%%Page: 1 1
%%BeginPageSetup
%%EndPageSetup
mark
gsave
1.0 1.0 scale
1 1 1 C
newpath 0 0 moveto 994 0 lineto 994 801 lineto 0 801 lineto
closepath fill
0.714 W
0.94902 0.94902 0.94902 C
62.5629 38.5481 LS
62.5629 781.476 LE
107.608 38.5481 LS
107.608 781.476 LE
153.655 38.5481 LS
153.655 781.476 LE
198.7 38.5481 LS
198.7 781.476 LE
244.746 38.5481 LS
244.746 781.476 LE
289.792 38.5481 LS
289.792 781.476 LE
335.838 38.5481 LS
335.838 781.476 LE
380.883 38.5481 LS
380.883 781.476 LE
426.93 38.5481 LS
426.93 781.476 LE
471.975 38.5481 LS
471.975 781.476 LE
518.021 38.5481 LS
518.021 781.476 LE
564.067 38.5481 LS
564.067 781.476 LE
609.113 38.5481 LS
609.113 781.476 LE
655.159 38.5481 LS
655.159 781.476 LE
700.204 38.5481 LS
700.204 781.476 LE
746.251 38.5481 LS
746.251 781.476 LE
791.296 38.5481 LS
791.296 781.476 LE
837.342 38.5481 LS
837.342 781.476 LE
882.388 38.5481 LS
882.388 781.476 LE
928.434 38.5481 LS
928.434 781.476 LE
974.48 38.5481 LS
974.48 781.476 LE
62.5629 38.5481 LS
974.48 38.5481 LE
62.5629 73.5919 LS
974.48 73.5919 LE
62.5629 108.636 LS
974.48 108.636 LE
62.5629 144.681 LS
974.48 144.681 LE
62.5629 179.724 LS
974.48 179.724 LE
62.5629 214.768 LS
974.48 214.768 LE
62.5629 250.813 LS
974.48 250.813 LE
62.5629 285.857 LS
974.48 285.857 LE
62.5629 320.901 LS
974.48 320.901 LE
62.5629 356.946 LS
974.48 356.946 LE
62.5629 391.989 LS
974.48 391.989 LE
62.5629 427.033 LS
974.48 427.033 LE
62.5629 463.078 LS
974.48 463.078 LE
62.5629 498.122 LS
974.48 498.122 LE
62.5629 533.166 LS
974.48 533.166 LE
62.5629 569.211 LS
974.48 569.211 LE
62.5629 604.254 LS
974.48 604.254 LE
62.5629 639.298 LS
974.48 639.298 LE
62.5629 675.343 LS
974.48 675.343 LE
62.5629 710.387 LS
974.48 710.387 LE
62.5629 745.431 LS
974.48 745.431 LE
62.5629 781.476 LS
974.48 781.476 LE
1.428 W
0 1 0 C
71.6821 528.143 LS
80.8013 528.143 L
89.9204 503.507 L
99.0396 503.507 L
108.159 503.507 L
117.278 470.068 L
126.397 470.068 L
135.516 493.401 L
144.635 493.401 L
153.755 493.401 L
162.874 424.016 L
171.993 424.016 L
181.112 487.722 L
190.231 487.722 L
199.351 487.722 L
208.47 381.639 L
217.589 381.639 L
226.708 477.909 L
235.827 477.909 L
244.946 477.909 L
254.066 337.071 L
263.185 337.071 L
272.304 459.029 L
281.423 459.029 L
290.542 459.029 L
299.661 287.626 L
308.781 287.626 L
317.9 429.741 L
327.019 429.741 L
336.138 429.741 L
345.257 233.542 L
354.376 233.542 L
363.496 391.815 L
372.615 391.815 L
381.734 391.815 L
390.853 177.746 L
399.972 177.746 L
409.092 349.779 L
418.211 349.779 L
427.33 349.779 L
436.449 125.777 L
445.568 125.777 L
454.687 310.696 L
463.807 310.696 L
472.926 310.696 L
482.045 85.6516 L
491.164 85.6516 L
500.283 283.768 L
509.402 283.768 L
518.522 283.768 L
527.641 67.3011 L
536.76 67.3011 L
545.879 279.347 L
554.998 279.347 L
564.117 279.347 L
573.237 81.1704 L
582.356 81.1704 L
591.475 306.982 L
600.594 306.982 L
609.713 306.982 L
618.833 135.64 L
627.952 135.64 L
637.071 372.213 L
646.19 372.213 L
655.309 372.213 L
664.428 233.153 L
673.548 233.153 L
682.667 472.277 L
691.786 472.277 L
700.905 472.277 L
710.024 365.631 L
719.143 365.631 L
728.263 591.93 L
737.382 591.93 L
746.501 591.93 L
755.62 511.221 L
764.739 511.221 L
773.859 702.382 L
782.978 702.382 L
792.097 702.382 L
801.216 636.324 L
810.335 636.324 L
819.454 767.828 L
828.573 767.828 L
837.693 767.828 L
846.812 706.871 L
855.931 706.871 L
865.05 761.432 L
874.169 761.432 L
883.289 761.432 L
892.408 706.507 L
901.527 706.507 L
910.646 682.555 L
919.765 682.555 L
928.885 682.555 L
938.004 647.327 L
947.123 647.327 L
956.242 557.172 L
965.361 557.172 LE
[8 8] 0 setdash
0.886275 0.0980392 0.109804 C
71.6821 524.955 LS
80.8013 524.955 L
89.9204 485.024 L
99.0396 485.024 L
108.159 485.024 L
117.278 482.113 L
126.397 482.113 L
135.516 458.968 L
144.635 458.968 L
153.755 458.968 L
162.874 450.672 L
171.993 450.672 L
181.112 437.613 L
190.231 437.613 L
199.351 437.613 L
208.47 421.619 L
217.589 421.619 L
226.708 413.156 L
235.827 413.156 L
244.946 413.156 L
254.066 388.653 L
263.185 388.653 L
272.304 381.202 L
281.423 381.202 L
290.542 381.202 L
299.661 348.851 L
308.781 348.851 L
317.9 340.737 L
327.019 340.737 L
336.138 340.737 L
345.257 302.363 L
354.376 302.363 L
363.496 293.684 L
372.615 293.684 L
381.734 293.684 L
390.853 252.099 L
399.972 252.099 L
409.092 244.613 L
418.211 244.613 L
427.33 244.613 L
436.449 203.599 L
445.568 203.599 L
454.687 200.57 L
463.807 200.57 L
472.926 200.57 L
482.045 164.861 L
491.164 164.861 L
500.283 170.726 L
509.402 170.726 L
518.522 170.726 L
527.641 145.759 L
536.76 145.759 L
545.879 165.407 L
554.998 165.407 L
564.117 165.407 L
573.237 156.645 L
582.356 156.645 L
591.475 194.159 L
600.594 194.159 L
609.713 194.159 L
618.833 205.8 L
627.952 205.8 L
637.071 262.533 L
646.19 262.533 L
655.309 262.533 L
664.428 295.599 L
673.548 295.599 L
682.667 367.777 L
691.786 367.777 L
700.905 367.777 L
710.024 417.984 L
719.143 417.984 L
728.263 494.637 L
737.382 494.637 L
746.501 494.637 L
755.62 551.266 L
764.739 551.266 L
773.859 614.278 L
782.978 614.278 L
792.097 614.278 L
801.216 662.185 L
810.335 662.185 L
819.454 690.785 L
828.573 690.785 L
837.693 690.785 L
846.812 717.208 L
855.931 717.208 L
865.05 697.109 L
874.169 697.109 L
883.289 697.109 L
892.408 700.709 L
901.527 700.709 L
910.646 632.182 L
919.765 632.182 L
928.885 632.182 L
938.004 625.716 L
947.123 625.716 L
956.242 521.183 L
965.361 521.183 LE
[] 0 setdash
0 0.329412 1 C
71.6821 524.234 LS
80.8013 524.234 L
89.9204 485.318 L
99.0396 485.318 L
108.159 485.318 L
117.278 481.62 L
126.397 481.62 L
135.516 457.728 L
144.635 457.728 L
153.755 457.728 L
162.874 451.57 L
171.993 451.57 L
181.112 433.923 L
190.231 433.923 L
199.351 433.923 L
208.47 424.072 L
217.589 424.072 L
226.708 406.997 L
235.827 406.997 L
244.946 406.997 L
254.066 392.421 L
263.185 392.421 L
272.304 372.991 L
281.423 372.991 L
290.542 372.991 L
299.661 353.61 L
308.781 353.61 L
317.9 331.039 L
327.019 331.039 L
336.138 331.039 L
345.257 307.855 L
354.376 307.855 L
363.496 283.042 L
372.615 283.042 L
381.734 283.042 L
390.853 258.171 L
399.972 258.171 L
409.092 233.467 L
418.211 233.467 L
427.33 233.467 L
436.449 210.17 L
445.568 210.17 L
454.687 189.232 L
463.807 189.232 L
472.926 189.232 L
482.045 171.856 L
491.164 171.856 L
500.283 159.38 L
509.402 159.38 L
518.522 159.38 L
527.641 153.025 L
536.76 153.025 L
545.879 154.149 L
554.998 154.149 L
564.117 154.149 L
573.237 163.873 L
582.356 163.873 L
591.475 183.038 L
600.594 183.038 L
609.713 183.038 L
618.833 212.467 L
627.952 212.467 L
637.071 251.624 L
646.19 251.624 L
655.309 251.624 L
664.428 300.963 L
673.548 300.963 L
682.667 357.266 L
691.786 357.266 L
700.905 357.266 L
710.024 421.147 L
719.143 421.147 L
728.263 484.892 L
737.382 484.892 L
746.501 484.892 L
755.62 551.317 L
764.739 551.317 L
773.859 605.847 L
782.978 605.847 L
792.097 605.847 L
801.216 658.437 L
810.335 658.437 L
819.454 684.245 L
828.573 684.245 L
837.693 684.245 L
846.812 709.515 L
855.931 709.515 L
865.05 692.668 L
874.169 692.668 L
883.289 692.668 L
892.408 689.949 L
901.527 689.949 L
910.646 628.929 L
919.765 628.929 L
928.885 628.929 L
938.004 614.618 L
947.123 614.618 L
956.242 515.798 L
965.361 515.798 LE
[1 7 1 7] 0 setdash
0 0 0 C
71.6821 523.13 LS
80.8013 523.13 L
89.9204 485.789 L
99.0396 485.789 L
108.159 485.789 L
117.278 479.93 L
126.397 479.93 L
135.516 458.242 L
144.635 458.242 L
153.755 458.242 L
162.874 450.066 L
171.993 450.066 L
181.112 434.116 L
190.231 434.116 L
199.351 434.116 L
208.47 422.891 L
217.589 422.891 L
226.708 406.891 L
235.827 406.891 L
244.946 406.891 L
254.066 391.525 L
263.185 391.525 L
272.304 372.711 L
281.423 372.711 L
290.542 372.711 L
299.661 352.948 L
308.781 352.948 L
317.9 330.715 L
327.019 330.715 L
336.138 330.715 L
345.257 307.407 L
354.376 307.407 L
363.496 282.786 L
372.615 282.786 L
381.734 282.786 L
390.853 257.941 L
399.972 257.941 L
409.092 233.364 L
418.211 233.364 L
427.33 233.364 L
436.449 210.177 L
445.568 210.177 L
454.687 189.337 L
463.807 189.337 L
472.926 189.337 L
482.045 172.107 L
491.164 172.107 L
500.283 159.711 L
509.402 159.711 L
518.522 159.711 L
527.641 153.491 L
536.76 153.491 L
545.879 154.679 L
554.998 154.679 L
564.117 154.679 L
573.237 164.47 L
582.356 164.47 L
591.475 183.694 L
600.594 183.694 L
609.713 183.694 L
618.833 213.044 L
627.952 213.044 L
637.071 252.313 L
646.19 252.313 L
655.309 252.313 L
664.428 301.307 L
673.548 301.307 L
682.667 357.922 L
691.786 357.922 L
700.905 357.922 L
710.024 421.012 L
719.143 421.012 L
728.263 485.548 L
737.382 485.548 L
746.501 485.548 L
755.62 550.467 L
764.739 550.467 L
773.859 606.685 L
782.978 606.685 L
792.097 606.685 L
801.216 656.689 L
810.335 656.689 L
819.454 685.575 L
828.573 685.575 L
837.693 685.575 L
846.812 706.808 L
855.931 706.808 L
865.05 694.74 L
874.169 694.74 L
883.289 694.74 L
892.408 686.529 L
901.527 686.529 L
910.646 631.459 L
919.765 631.459 L
928.885 631.459 L
938.004 611.606 L
947.123 611.606 L
956.242 516.859 L
965.361 516.859 LE
0.357 W
[] 0 setdash
67.6781 523.13 LS
75.6861 523.13 LE
71.6821 519.125 LS
71.6821 527.135 LE
76.7973 523.13 LS
84.8053 523.13 LE
80.8013 519.125 LS
80.8013 527.135 LE
85.9164 485.789 LS
93.9245 485.789 LE
89.9204 481.784 LS
89.9204 489.794 LE
95.0356 485.789 LS
103.044 485.789 LE
99.0396 481.784 LS
99.0396 489.794 LE
104.155 485.789 LS
112.163 485.789 LE
108.159 481.784 LS
108.159 489.794 LE
113.274 479.93 LS
121.282 479.93 LE
117.278 475.925 LS
117.278 483.935 LE
122.393 479.93 LS
130.401 479.93 LE
126.397 475.925 LS
126.397 483.935 LE
131.512 458.242 LS
139.52 458.242 LE
135.516 454.237 LS
135.516 462.247 LE
140.631 458.242 LS
148.639 458.242 LE
144.635 454.237 LS
144.635 462.247 LE
149.751 458.242 LS
157.759 458.242 LE
153.755 454.237 LS
153.755 462.247 LE
158.87 450.066 LS
166.878 450.066 LE
162.874 446.061 LS
162.874 454.071 LE
167.989 450.066 LS
175.997 450.066 LE
171.993 446.061 LS
171.993 454.071 LE
177.108 434.116 LS
185.116 434.116 LE
181.112 430.111 LS
181.112 438.121 LE
186.227 434.116 LS
194.235 434.116 LE
190.231 430.111 LS
190.231 438.121 LE
195.346 434.116 LS
203.355 434.116 LE
199.351 430.111 LS
199.351 438.121 LE
204.466 422.891 LS
212.474 422.891 LE
208.47 418.886 LS
208.47 426.896 LE
213.585 422.891 LS
221.593 422.891 LE
217.589 418.886 LS
217.589 426.896 LE
222.704 406.891 LS
230.712 406.891 LE
226.708 402.886 LS
226.708 410.896 LE
231.823 406.891 LS
239.831 406.891 LE
235.827 402.886 LS
235.827 410.896 LE
240.942 406.891 LS
248.95 406.891 LE
244.946 402.886 LS
244.946 410.896 LE
250.062 391.525 LS
258.07 391.525 LE
254.066 387.52 LS
254.066 395.53 LE
259.181 391.525 LS
267.189 391.525 LE
263.185 387.52 LS
263.185 395.53 LE
268.3 372.711 LS
276.308 372.711 LE
272.304 368.706 LS
272.304 376.716 LE
277.419 372.711 LS
285.427 372.711 LE
281.423 368.706 LS
281.423 376.716 LE
286.538 372.711 LS
294.546 372.711 LE
290.542 368.706 LS
290.542 376.716 LE
295.657 352.948 LS
303.665 352.948 LE
299.661 348.943 LS
299.661 356.953 LE
304.777 352.948 LS
312.785 352.948 LE
308.781 348.943 LS
308.781 356.953 LE
313.896 330.715 LS
321.904 330.715 LE
317.9 326.71 LS
317.9 334.72 LE
323.015 330.715 LS
331.023 330.715 LE
327.019 326.71 LS
327.019 334.72 LE
332.134 330.715 LS
340.142 330.715 LE
336.138 326.71 LS
336.138 334.72 LE
341.253 307.407 LS
349.261 307.407 LE
345.257 303.402 LS
345.257 311.412 LE
350.372 307.407 LS
358.381 307.407 LE
354.376 303.402 LS
354.376 311.412 LE
359.492 282.786 LS
367.5 282.786 LE
363.496 278.781 LS
363.496 286.791 LE
368.611 282.786 LS
376.619 282.786 LE
372.615 278.781 LS
372.615 286.791 LE
377.73 282.786 LS
385.738 282.786 LE
381.734 278.781 LS
381.734 286.791 LE
386.849 257.941 LS
394.857 257.941 LE
390.853 253.936 LS
390.853 261.946 LE
395.968 257.941 LS
403.976 257.941 LE
399.972 253.936 LS
399.972 261.946 LE
405.087 233.364 LS
413.096 233.364 LE
409.092 229.359 LS
409.092 237.369 LE
414.207 233.364 LS
422.215 233.364 LE
418.211 229.359 LS
418.211 237.369 LE
423.326 233.364 LS
431.334 233.364 LE
427.33 229.359 LS
427.33 237.369 LE
432.445 210.177 LS
440.453 210.177 LE
436.449 206.172 LS
436.449 214.182 LE
441.564 210.177 LS
449.572 210.177 LE
445.568 206.172 LS
445.568 214.182 LE
450.683 189.337 LS
458.691 189.337 LE
454.687 185.332 LS
454.687 193.342 LE
459.803 189.337 LS
467.811 189.337 LE
463.807 185.332 LS
463.807 193.342 LE
468.922 189.337 LS
476.93 189.337 LE
472.926 185.332 LS
472.926 193.342 LE
478.041 172.107 LS
486.049 172.107 LE
482.045 168.102 LS
482.045 176.112 LE
487.16 172.107 LS
495.168 172.107 LE
491.164 168.102 LS
491.164 176.112 LE
496.279 159.711 LS
504.287 159.711 LE
500.283 155.706 LS
500.283 163.716 LE
505.398 159.711 LS
513.406 159.711 LE
509.402 155.706 LS
509.402 163.716 LE
514.518 159.711 LS
522.526 159.711 LE
518.522 155.706 LS
518.522 163.716 LE
523.637 153.491 LS
531.645 153.491 LE
527.641 149.486 LS
527.641 157.496 LE
532.756 153.491 LS
540.764 153.491 LE
536.76 149.486 LS
536.76 157.496 LE
541.875 154.679 LS
549.883 154.679 LE
545.879 150.674 LS
545.879 158.684 LE
550.994 154.679 LS
559.002 154.679 LE
554.998 150.674 LS
554.998 158.684 LE
560.114 154.679 LS
568.122 154.679 LE
564.117 150.674 LS
564.117 158.684 LE
569.233 164.47 LS
577.241 164.47 LE
573.237 160.465 LS
573.237 168.475 LE
578.352 164.47 LS
586.36 164.47 LE
582.356 160.465 LS
582.356 168.475 LE
587.471 183.694 LS
595.479 183.694 LE
591.475 179.689 LS
591.475 187.699 LE
596.59 183.694 LS
604.598 183.694 LE
600.594 179.689 LS
600.594 187.699 LE
605.709 183.694 LS
613.717 183.694 LE
609.713 179.689 LS
609.713 187.699 LE
614.829 213.044 LS
622.837 213.044 LE
618.833 209.039 LS
618.833 217.049 LE
623.948 213.044 LS
631.956 213.044 LE
627.952 209.039 LS
627.952 217.049 LE
633.067 252.313 LS
641.075 252.313 LE
637.071 248.308 LS
637.071 256.318 LE
642.186 252.313 LS
650.194 252.313 LE
646.19 248.308 LS
646.19 256.318 LE
651.305 252.313 LS
659.313 252.313 LE
655.309 248.308 LS
655.309 256.318 LE
660.424 301.307 LS
668.432 301.307 LE
664.428 297.302 LS
664.428 305.312 LE
669.544 301.307 LS
677.552 301.307 LE
673.548 297.302 LS
673.548 305.312 LE
678.663 357.922 LS
686.671 357.922 LE
682.667 353.917 LS
682.667 361.927 LE
687.782 357.922 LS
695.79 357.922 LE
691.786 353.917 LS
691.786 361.927 LE
696.901 357.922 LS
704.909 357.922 LE
700.905 353.917 LS
700.905 361.927 LE
706.02 421.012 LS
714.028 421.012 LE
710.024 417.007 LS
710.024 425.017 LE
715.139 421.012 LS
723.147 421.012 LE
719.143 417.007 LS
719.143 425.017 LE
724.259 485.548 LS
732.267 485.548 LE
728.263 481.543 LS
728.263 489.553 LE
733.378 485.548 LS
741.386 485.548 LE
737.382 481.543 LS
737.382 489.553 LE
742.497 485.548 LS
750.505 485.548 LE
746.501 481.543 LS
746.501 489.553 LE
751.616 550.467 LS
759.624 550.467 LE
755.62 546.462 LS
755.62 554.472 LE
760.735 550.467 LS
768.743 550.467 LE
764.739 546.462 LS
764.739 554.472 LE
769.854 606.685 LS
777.863 606.685 LE
773.859 602.68 LS
773.859 610.69 LE
778.974 606.685 LS
786.982 606.685 LE
782.978 602.68 LS
782.978 610.69 LE
788.093 606.685 LS
796.101 606.685 LE
792.097 602.68 LS
792.097 610.69 LE
797.212 656.689 LS
805.22 656.689 LE
801.216 652.684 LS
801.216 660.694 LE
806.331 656.689 LS
814.339 656.689 LE
810.335 652.684 LS
810.335 660.694 LE
815.45 685.575 LS
823.458 685.575 LE
819.454 681.57 LS
819.454 689.58 LE
824.569 685.575 LS
832.578 685.575 LE
828.573 681.57 LS
828.573 689.58 LE
833.689 685.575 LS
841.697 685.575 LE
837.693 681.57 LS
837.693 689.58 LE
842.808 706.808 LS
850.816 706.808 LE
846.812 702.803 LS
846.812 710.813 LE
851.927 706.808 LS
859.935 706.808 LE
855.931 702.803 LS
855.931 710.813 LE
861.046 694.74 LS
869.054 694.74 LE
865.05 690.735 LS
865.05 698.745 LE
870.165 694.74 LS
878.173 694.74 LE
874.169 690.735 LS
874.169 698.745 LE
879.285 694.74 LS
887.293 694.74 LE
883.289 690.735 LS
883.289 698.745 LE
888.404 686.529 LS
896.412 686.529 LE
892.408 682.524 LS
892.408 690.534 LE
897.523 686.529 LS
905.531 686.529 LE
901.527 682.524 LS
901.527 690.534 LE
906.642 631.459 LS
914.65 631.459 LE
910.646 627.454 LS
910.646 635.464 LE
915.761 631.459 LS
923.769 631.459 LE
919.765 627.454 LS
919.765 635.464 LE
924.88 631.459 LS
932.888 631.459 LE
928.885 627.454 LS
928.885 635.464 LE
934 611.606 LS
942.008 611.606 LE
938.004 607.601 LS
938.004 615.611 LE
943.119 611.606 LS
951.127 611.606 LE
947.123 607.601 LS
947.123 615.611 LE
952.238 516.859 LS
960.246 516.859 LE
956.242 512.854 LS
956.242 520.864 LE
961.357 516.859 LS
969.365 516.859 LE
965.361 512.854 LS
965.361 520.864 LE
0.714 W
62.5629 38.5481 LS
62.5629 781.476 LE
(P(X,0.5)) 90 17.5176 410.012 12 /Helvetica-Bold SBCR
57.5579 38.5481 LS
62.5629 38.5481 LE
(-0.024) 55.5559 38.5481 12 /Helvetica SCR
57.5579 73.5919 LS
62.5629 73.5919 LE
(-0.022) 55.5559 73.5919 12 /Helvetica SCR
57.5579 108.636 LS
62.5629 108.636 LE
(-0.02) 55.5559 108.636 12 /Helvetica SCR
57.5579 144.681 LS
62.5629 144.681 LE
(-0.018) 55.5559 144.681 12 /Helvetica SCR
57.5579 179.724 LS
62.5629 179.724 LE
(-0.016) 55.5559 179.724 12 /Helvetica SCR
57.5579 214.768 LS
62.5629 214.768 LE
(-0.014) 55.5559 214.768 12 /Helvetica SCR
57.5579 250.813 LS
62.5629 250.813 LE
(-0.012) 55.5559 250.813 12 /Helvetica SCR
57.5579 285.857 LS
62.5629 285.857 LE
(-0.01) 55.5559 285.857 12 /Helvetica SCR
57.5579 320.901 LS
62.5629 320.901 LE
(-0.008) 55.5559 320.901 12 /Helvetica SCR
57.5579 356.946 LS
62.5629 356.946 LE
(-0.006) 55.5559 356.946 12 /Helvetica SCR
57.5579 391.989 LS
62.5629 391.989 LE
(-0.004) 55.5559 391.989 12 /Helvetica SCR
57.5579 427.033 LS
62.5629 427.033 LE
(-0.002) 55.5559 427.033 12 /Helvetica SCR
57.5579 463.078 LS
62.5629 463.078 LE
(0) 55.5559 463.078 12 /Helvetica SCR
57.5579 498.122 LS
62.5629 498.122 LE
(0.002) 55.5559 498.122 12 /Helvetica SCR
57.5579 533.166 LS
62.5629 533.166 LE
(0.004) 55.5559 533.166 12 /Helvetica SCR
57.5579 569.211 LS
62.5629 569.211 LE
(0.006) 55.5559 569.211 12 /Helvetica SCR
57.5579 604.254 LS
62.5629 604.254 LE
(0.008) 55.5559 604.254 12 /Helvetica SCR
57.5579 639.298 LS
62.5629 639.298 LE
(0.01) 55.5559 639.298 12 /Helvetica SCR
57.5579 675.343 LS
62.5629 675.343 LE
(0.012) 55.5559 675.343 12 /Helvetica SCR
57.5579 710.387 LS
62.5629 710.387 LE
(0.014) 55.5559 710.387 12 /Helvetica SCR
57.5579 745.431 LS
62.5629 745.431 LE
(0.016) 55.5559 745.431 12 /Helvetica SCR
57.5579 781.476 LS
62.5629 781.476 LE
(0.018) 55.5559 781.476 12 /Helvetica SCR
62.5629 38.5481 LS
974.48 38.5481 LE
(X) 518.021 16.5206 12 /Helvetica-Bold STC
62.5629 33.5419 LS
62.5629 38.5481 LE
(0) 62.5629 31.5394 12 /Helvetica STC
107.608 33.5419 LS
107.608 38.5481 LE
(0.05) 107.608 31.5394 12 /Helvetica STC
153.655 33.5419 LS
153.655 38.5481 LE
(0.1) 153.655 31.5394 12 /Helvetica STC
198.7 33.5419 LS
198.7 38.5481 LE
(0.15) 198.7 31.5394 12 /Helvetica STC
244.746 33.5419 LS
244.746 38.5481 LE
(0.2) 244.746 31.5394 12 /Helvetica STC
289.792 33.5419 LS
289.792 38.5481 LE
(0.25) 289.792 31.5394 12 /Helvetica STC
335.838 33.5419 LS
335.838 38.5481 LE
(0.3) 335.838 31.5394 12 /Helvetica STC
380.883 33.5419 LS
380.883 38.5481 LE
(0.35) 380.883 31.5394 12 /Helvetica STC
426.93 33.5419 LS
426.93 38.5481 LE
(0.4) 426.93 31.5394 12 /Helvetica STC
471.975 33.5419 LS
471.975 38.5481 LE
(0.45) 471.975 31.5394 12 /Helvetica STC
518.021 33.5419 LS
518.021 38.5481 LE
(0.5) 518.021 31.5394 12 /Helvetica STC
564.067 33.5419 LS
564.067 38.5481 LE
(0.55) 564.067 31.5394 12 /Helvetica STC
609.113 33.5419 LS
609.113 38.5481 LE
(0.6) 609.113 31.5394 12 /Helvetica STC
655.159 33.5419 LS
655.159 38.5481 LE
(0.65) 655.159 31.5394 12 /Helvetica STC
700.204 33.5419 LS
700.204 38.5481 LE
(0.7) 700.204 31.5394 12 /Helvetica STC
746.251 33.5419 LS
746.251 38.5481 LE
(0.75) 746.251 31.5394 12 /Helvetica STC
791.296 33.5419 LS
791.296 38.5481 LE
(0.8) 791.296 31.5394 12 /Helvetica STC
837.342 33.5419 LS
837.342 38.5481 LE
(0.85) 837.342 31.5394 12 /Helvetica STC
882.388 33.5419 LS
882.388 38.5481 LE
(0.9) 882.388 31.5394 12 /Helvetica STC
928.434 33.5419 LS
928.434 38.5481 LE
(0.95) 928.434 31.5394 12 /Helvetica STC
974.48 33.5419 LS
974.48 38.5481 LE
(1) 974.48 31.5394 12 /Helvetica STC
1 1 1 C
906.412 781.476 974.48 708.384 906.412 708.384 T
906.412 781.476 974.48 781.476 974.48 708.384 T
0 0 0 C
906.412 708.384 LS
974.48 708.384 L
974.48 781.476 L
906.412 781.476 L
906.412 708.384 LE
(A=0.0) 936.442 764.454 12 /Helvetica S
1.428 W
0 1 0 C
911.417 770.462 LS
933.439 770.462 LE
0 0 0 C
(A=0.1) 936.442 747.433 12 /Helvetica S
[8 8] 0 setdash
0.886275 0.0980392 0.109804 C
911.417 753.441 LS
933.439 753.441 LE
0 0 0 C
(A=0.6) 936.442 730.412 12 /Helvetica S
[] 0 setdash
0 0.329412 1 C
911.417 736.419 LS
933.439 736.419 LE
0 0 0 C
(A=1) 936.442 713.391 12 /Helvetica S
[1 7 1 7] 0 setdash
911.417 719.398 LS
933.439 719.398 LE
0.357 W
[] 0 setdash
918.424 719.398 LS
926.432 719.398 LE
922.428 715.393 LS
922.428 723.403 LE
grestore
showpage
cleartomark
%%PageTrailer
%%Trailer
end
%%EOF
