%!PS-Adobe-3.0 EPSF-3.0
%%Title: P on X=0.5
%%Creator: GL2PS 1.3.8, (C) 1999-2012 C. Geuzaine
%%For: VTK
%%CreationDate: Wed Dec 16 10:29:22 2015
%%LanguageLevel: 3
%%DocumentData: Clean7Bit
%%Pages: 1
%%BoundingBox: 0 0 994 801
%%EndComments
%%BeginProlog
/gl2psdict 64 dict def gl2psdict begin
0 setlinecap 0 setlinejoin
/tryPS3shading true def % set to false to force subdivision
/rThreshold 0.064 def % red component subdivision threshold
/gThreshold 0.034 def % green component subdivision threshold
/bThreshold 0.1 def % blue component subdivision threshold
/BD { bind def } bind def
/C  { setrgbcolor } BD
/G  { 0.082 mul exch 0.6094 mul add exch 0.3086 mul add neg 1.0 add setgray } BD
/W  { setlinewidth } BD
/FC { findfont exch /SH exch def SH scalefont setfont } BD
/SW { dup stringwidth pop } BD
/S  { FC moveto show } BD
/SBC{ FC moveto SW -2 div 0 rmoveto show } BD
/SBR{ FC moveto SW neg 0 rmoveto show } BD
/SCL{ FC moveto 0 SH -2 div rmoveto show } BD
/SCC{ FC moveto SW -2 div SH -2 div rmoveto show } BD
/SCR{ FC moveto SW neg SH -2 div rmoveto show } BD
/STL{ FC moveto 0 SH neg rmoveto show } BD
/STC{ FC moveto SW -2 div SH neg rmoveto show } BD
/STR{ FC moveto SW neg SH neg rmoveto show } BD
/FCT { FC translate 0 0 } BD
/SR  { gsave FCT moveto rotate show grestore } BD
/SBCR{ gsave FCT moveto rotate SW -2 div 0 rmoveto show grestore } BD
/SBRR{ gsave FCT moveto rotate SW neg 0 rmoveto show grestore } BD
/SCLR{ gsave FCT moveto rotate 0 SH -2 div rmoveto show grestore} BD
/SCCR{ gsave FCT moveto rotate SW -2 div SH -2 div rmoveto show grestore} BD
/SCRR{ gsave FCT moveto rotate SW neg SH -2 div rmoveto show grestore} BD
/STLR{ gsave FCT moveto rotate 0 SH neg rmoveto show grestore } BD
/STCR{ gsave FCT moveto rotate SW -2 div SH neg rmoveto show grestore } BD
/STRR{ gsave FCT moveto rotate SW neg SH neg rmoveto show grestore } BD
/P  { newpath 0.0 360.0 arc closepath fill } BD
/LS { newpath moveto } BD
/L  { lineto } BD
/LE { lineto stroke } BD
/T  { newpath moveto lineto lineto closepath fill } BD
/STshfill {
      /b1 exch def /g1 exch def /r1 exch def /y1 exch def /x1 exch def
      /b2 exch def /g2 exch def /r2 exch def /y2 exch def /x2 exch def
      /b3 exch def /g3 exch def /r3 exch def /y3 exch def /x3 exch def
      gsave << /ShadingType 4 /ColorSpace [/DeviceRGB]
      /DataSource [ 0 x1 y1 r1 g1 b1 0 x2 y2 r2 g2 b2 0 x3 y3 r3 g3 b3 ] >>
      shfill grestore } BD
/Tm { 3 -1 roll 8 -1 roll 13 -1 roll add add 3 div
      3 -1 roll 7 -1 roll 11 -1 roll add add 3 div
      3 -1 roll 6 -1 roll 9 -1 roll add add 3 div C T } BD
/STsplit {
      4 index 15 index add 0.5 mul
      4 index 15 index add 0.5 mul
      4 index 15 index add 0.5 mul
      4 index 15 index add 0.5 mul
      4 index 15 index add 0.5 mul
      5 copy 5 copy 25 15 roll
      9 index 30 index add 0.5 mul
      9 index 30 index add 0.5 mul
      9 index 30 index add 0.5 mul
      9 index 30 index add 0.5 mul
      9 index 30 index add 0.5 mul
      5 copy 5 copy 35 5 roll 25 5 roll 15 5 roll
      4 index 10 index add 0.5 mul
      4 index 10 index add 0.5 mul
      4 index 10 index add 0.5 mul
      4 index 10 index add 0.5 mul
      4 index 10 index add 0.5 mul
      5 copy 5 copy 40 5 roll 25 5 roll 15 5 roll 25 5 roll
      STnoshfill STnoshfill STnoshfill STnoshfill } BD
/STnoshfill {
      2 index 8 index sub abs rThreshold gt
      { STsplit }
      { 1 index 7 index sub abs gThreshold gt
        { STsplit }
        { dup 6 index sub abs bThreshold gt
          { STsplit }
          { 2 index 13 index sub abs rThreshold gt
            { STsplit }
            { 1 index 12 index sub abs gThreshold gt
              { STsplit }
              { dup 11 index sub abs bThreshold gt
                { STsplit }
                { 7 index 13 index sub abs rThreshold gt
                  { STsplit }
                  { 6 index 12 index sub abs gThreshold gt
                    { STsplit }
                    { 5 index 11 index sub abs bThreshold gt
                      { STsplit }
                      { Tm }
                      ifelse }
                    ifelse }
                  ifelse }
                ifelse }
              ifelse }
            ifelse }
          ifelse }
        ifelse }
      ifelse } BD
tryPS3shading
{ /shfill where
  { /ST { STshfill } BD }
  { /ST { STnoshfill } BD }
  ifelse }
{ /ST { STnoshfill } BD }
ifelse
end
%%EndProlog
%%BeginSetup
/DeviceRGB setcolorspace
gl2psdict begin
%%EndSetup
%%Page: 1 1
%%BeginPageSetup
%%EndPageSetup
mark
gsave
1.0 1.0 scale
1 1 1 C
newpath 0 0 moveto 994 0 lineto 994 801 lineto 0 801 lineto
closepath fill
0.714 W
0.94902 0.94902 0.94902 C
62.5629 38.5481 LS
62.5629 781.476 LE
107.608 38.5481 LS
107.608 781.476 LE
153.655 38.5481 LS
153.655 781.476 LE
198.7 38.5481 LS
198.7 781.476 LE
244.746 38.5481 LS
244.746 781.476 LE
289.792 38.5481 LS
289.792 781.476 LE
335.838 38.5481 LS
335.838 781.476 LE
380.883 38.5481 LS
380.883 781.476 LE
426.93 38.5481 LS
426.93 781.476 LE
471.975 38.5481 LS
471.975 781.476 LE
518.021 38.5481 LS
518.021 781.476 LE
564.067 38.5481 LS
564.067 781.476 LE
609.113 38.5481 LS
609.113 781.476 LE
655.159 38.5481 LS
655.159 781.476 LE
700.204 38.5481 LS
700.204 781.476 LE
746.251 38.5481 LS
746.251 781.476 LE
791.296 38.5481 LS
791.296 781.476 LE
837.342 38.5481 LS
837.342 781.476 LE
882.388 38.5481 LS
882.388 781.476 LE
928.434 38.5481 LS
928.434 781.476 LE
62.5629 38.5481 LS
974.48 38.5481 LE
62.5629 77.5969 LS
974.48 77.5969 LE
62.5629 116.646 LS
974.48 116.646 LE
62.5629 155.694 LS
974.48 155.694 LE
62.5629 194.743 LS
974.48 194.743 LE
62.5629 233.792 LS
974.48 233.792 LE
62.5629 272.841 LS
974.48 272.841 LE
62.5629 311.889 LS
974.48 311.889 LE
62.5629 350.938 LS
974.48 350.938 LE
62.5629 389.987 LS
974.48 389.987 LE
62.5629 429.036 LS
974.48 429.036 LE
62.5629 468.084 LS
974.48 468.084 LE
62.5629 507.133 LS
974.48 507.133 LE
62.5629 546.182 LS
974.48 546.182 LE
62.5629 585.231 LS
974.48 585.231 LE
62.5629 624.279 LS
974.48 624.279 LE
62.5629 663.328 LS
974.48 663.328 LE
62.5629 702.377 LS
974.48 702.377 LE
62.5629 741.426 LS
974.48 741.426 LE
62.5629 781.476 LS
974.48 781.476 LE
1.428 W
0 1 0 C
71.6821 741.284 LS
80.8013 741.284 L
89.9204 743.18 L
99.0396 743.18 L
108.159 743.18 L
117.278 741.013 L
126.397 741.013 L
135.516 744.383 L
144.635 744.383 L
153.755 744.383 L
162.874 739.565 L
171.993 739.565 L
181.112 743.944 L
190.231 743.944 L
199.351 743.944 L
208.47 735.702 L
217.589 735.702 L
226.708 740.274 L
235.827 740.274 L
244.946 740.274 L
254.066 727.554 L
263.185 727.554 L
272.304 731.167 L
281.423 731.167 L
290.542 731.167 L
299.661 712.612 L
308.781 712.612 L
317.9 713.795 L
327.019 713.795 L
336.138 713.795 L
345.257 687.8 L
354.376 687.8 L
363.496 684.907 L
372.615 684.907 L
381.734 684.907 L
390.853 649.858 L
399.972 649.858 L
409.092 641.442 L
418.211 641.442 L
427.33 641.442 L
436.449 596.233 L
445.568 596.233 L
454.687 581.676 L
463.807 581.676 L
472.926 581.676 L
482.045 526.434 L
491.164 526.434 L
500.283 506.694 L
509.402 506.694 L
518.522 506.694 L
527.641 443.468 L
536.76 443.468 L
545.879 421.571 L
554.998 421.571 L
564.117 421.571 L
573.237 354.546 L
582.356 354.546 L
591.475 335.376 L
600.594 335.376 L
609.713 335.376 L
618.833 270.263 L
627.952 270.263 L
637.071 259.497 L
646.19 259.497 L
655.309 259.497 L
664.428 202.167 L
673.548 202.167 L
682.667 204.68 L
691.786 204.68 L
700.905 204.68 L
710.024 159.627 L
719.143 159.627 L
728.263 178.092 L
737.382 178.092 L
746.501 178.092 L
755.62 147.451 L
764.739 147.451 L
773.859 181.77 L
782.978 181.77 L
792.097 181.77 L
801.216 165.261 L
810.335 165.261 L
819.454 212.903 L
828.573 212.903 L
837.693 212.903 L
846.812 208.436 L
855.931 208.436 L
865.05 265.129 L
874.169 265.129 L
883.289 265.129 L
892.408 269.096 L
901.527 269.096 L
910.646 328.703 L
919.765 328.703 L
928.885 328.703 L
938.004 334.907 L
947.123 334.907 L
956.242 388.656 L
965.361 388.656 LE
[8 8] 0 setdash
0.886275 0.0980392 0.109804 C
71.6821 723.786 LS
80.8013 723.786 L
89.9204 724.632 L
99.0396 724.632 L
108.159 724.632 L
117.278 724.269 L
126.397 724.269 L
135.516 724.349 L
144.635 724.349 L
153.755 724.349 L
162.874 723.113 L
171.993 723.113 L
181.112 721.976 L
190.231 721.976 L
199.351 721.976 L
208.47 719.063 L
217.589 719.063 L
226.708 715.904 L
235.827 715.904 L
244.946 715.904 L
254.066 710.227 L
263.185 710.227 L
272.304 703.906 L
281.423 703.906 L
290.542 703.906 L
299.661 694.061 L
308.781 694.061 L
317.9 683.127 L
327.019 683.127 L
336.138 683.127 L
345.257 667.445 L
354.376 667.445 L
363.496 650.284 L
372.615 650.284 L
381.734 650.284 L
390.853 627.075 L
399.972 627.075 L
409.092 602.291 L
418.211 602.291 L
427.33 602.291 L
436.449 570.346 L
445.568 570.346 L
454.687 537.406 L
463.807 537.406 L
472.926 537.406 L
482.045 496.727 L
491.164 496.727 L
500.283 456.718 L
509.402 456.718 L
518.522 456.718 L
527.641 409.194 L
536.76 409.194 L
545.879 365.335 L
554.998 365.335 L
564.117 365.335 L
573.237 314.95 L
582.356 314.95 L
591.475 272.413 L
600.594 272.413 L
609.713 272.413 L
618.833 224.62 L
627.952 224.62 L
637.071 189.497 L
646.19 189.497 L
655.309 189.497 L
664.428 149.834 L
673.548 149.834 L
682.667 127.58 L
691.786 127.58 L
700.905 127.58 L
710.024 100.116 L
719.143 100.116 L
728.263 94.19 L
737.382 94.19 L
746.501 94.19 L
755.62 80.5085 L
764.739 80.5085 L
773.859 91.8241 L
782.978 91.8241 L
792.097 91.8241 L
801.216 90.937 L
810.335 90.937 L
819.454 118.205 L
828.573 118.205 L
837.693 118.205 L
846.812 127.13 L
855.931 127.13 L
865.05 167.491 L
874.169 167.491 L
883.289 167.491 L
892.408 181.542 L
901.527 181.542 L
910.646 230.342 L
919.765 230.342 L
928.885 230.342 L
938.004 242.136 L
947.123 242.136 L
956.242 292.013 L
965.361 292.013 LE
[] 0 setdash
0 0.329412 1 C
71.6821 723.274 LS
80.8013 723.274 L
89.9204 724.007 L
99.0396 724.007 L
108.159 724.007 L
117.278 723.802 L
126.397 723.802 L
135.516 723.617 L
144.635 723.617 L
153.755 723.617 L
162.874 722.631 L
171.993 722.631 L
181.112 721.099 L
190.231 721.099 L
199.351 721.099 L
208.47 718.524 L
217.589 718.524 L
226.708 714.822 L
235.827 714.822 L
244.946 714.822 L
254.066 709.583 L
263.185 709.583 L
272.304 702.537 L
281.423 702.537 L
290.542 702.537 L
299.661 693.257 L
308.781 693.257 L
317.9 681.367 L
327.019 681.367 L
336.138 681.367 L
345.257 666.411 L
354.376 666.411 L
363.496 648.001 L
372.615 648.001 L
381.734 648.001 L
390.853 625.724 L
399.972 625.724 L
409.092 599.321 L
418.211 599.321 L
427.33 599.321 L
436.449 568.568 L
445.568 568.568 L
454.687 533.545 L
463.807 533.545 L
472.926 533.545 L
482.045 494.38 L
491.164 494.38 L
500.283 451.702 L
509.402 451.702 L
518.522 451.702 L
527.641 406.085 L
536.76 406.085 L
545.879 358.819 L
554.998 358.819 L
564.117 358.819 L
573.237 310.808 L
582.356 310.808 L
591.475 263.949 L
600.594 263.949 L
609.713 263.949 L
618.833 219.08 L
627.952 219.08 L
637.071 178.536 L
646.19 178.536 L
655.309 178.536 L
664.428 142.453 L
673.548 142.453 L
682.667 113.535 L
691.786 113.535 L
700.905 113.535 L
710.024 90.438 L
719.143 90.438 L
728.263 76.5652 L
737.382 76.5652 L
746.501 76.5652 L
755.62 68.1732 L
764.739 68.1732 L
773.859 70.4016 L
782.978 70.4016 L
792.097 70.4016 L
801.216 75.7855 L
810.335 75.7855 L
819.454 93.2564 L
828.573 93.2564 L
837.693 93.2564 L
846.812 109.234 L
855.931 109.234 L
865.05 139.971 L
874.169 139.971 L
883.289 139.971 L
892.408 161.072 L
901.527 161.072 L
910.646 202.029 L
919.765 202.029 L
928.885 202.029 L
938.004 219.035 L
947.123 219.035 L
956.242 265.607 L
965.361 265.607 LE
[1 7 1 7] 0 setdash
0 0 0 C
71.6821 722.966 LS
80.8013 722.966 L
89.9204 723.668 L
99.0396 723.668 L
108.159 723.668 L
117.278 723.498 L
126.397 723.498 L
135.516 723.278 L
144.635 723.278 L
153.755 723.278 L
162.874 722.321 L
171.993 722.321 L
181.112 720.767 L
190.231 720.767 L
199.351 720.767 L
208.47 718.211 L
217.589 718.211 L
226.708 714.5 L
235.827 714.5 L
244.946 714.5 L
254.066 709.276 L
263.185 709.276 L
272.304 702.232 L
281.423 702.232 L
290.542 702.232 L
299.661 692.969 L
308.781 692.969 L
317.9 681.089 L
327.019 681.089 L
336.138 681.089 L
345.257 666.162 L
354.376 666.162 L
363.496 647.773 L
372.615 647.773 L
381.734 647.773 L
390.853 625.542 L
399.972 625.542 L
409.092 599.175 L
418.211 599.175 L
427.33 599.175 L
436.449 568.497 L
445.568 568.497 L
454.687 533.523 L
463.807 533.523 L
472.926 533.523 L
482.045 494.471 L
491.164 494.471 L
500.283 451.848 L
509.402 451.848 L
518.522 451.848 L
527.641 406.387 L
536.76 406.387 L
545.879 359.158 L
554.998 359.158 L
564.117 359.158 L
573.237 311.346 L
582.356 311.346 L
591.475 264.462 L
600.594 264.462 L
609.713 264.462 L
618.833 219.835 L
627.952 219.835 L
637.071 179.137 L
646.19 179.137 L
655.309 179.137 L
664.428 143.356 L
673.548 143.356 L
682.667 114.071 L
691.786 114.071 L
700.905 114.071 L
710.024 91.3904 L
719.143 91.3904 L
728.263 76.8467 L
737.382 76.8467 L
746.501 76.8467 L
755.62 69.0963 L
764.739 69.0963 L
773.859 70.2509 L
782.978 70.2509 L
792.097 70.2509 L
801.216 76.6656 L
810.335 76.6656 L
819.454 92.5629 L
828.573 92.5629 L
837.693 92.5629 L
846.812 110.125 L
855.931 110.125 L
865.05 138.759 L
874.169 138.759 L
883.289 138.759 L
892.408 161.994 L
901.527 161.994 L
910.646 200.591 L
919.765 200.591 L
928.885 200.591 L
938.004 219.676 L
947.123 219.676 L
956.242 264.83 L
965.361 264.83 LE
0.357 W
[] 0 setdash
67.6781 722.966 LS
75.6861 722.966 LE
71.6821 718.961 LS
71.6821 726.971 LE
76.7973 722.966 LS
84.8053 722.966 LE
80.8013 718.961 LS
80.8013 726.971 LE
85.9164 723.668 LS
93.9245 723.668 LE
89.9204 719.663 LS
89.9204 727.673 LE
95.0356 723.668 LS
103.044 723.668 LE
99.0396 719.663 LS
99.0396 727.673 LE
104.155 723.668 LS
112.163 723.668 LE
108.159 719.663 LS
108.159 727.673 LE
113.274 723.498 LS
121.282 723.498 LE
117.278 719.493 LS
117.278 727.503 LE
122.393 723.498 LS
130.401 723.498 LE
126.397 719.493 LS
126.397 727.503 LE
131.512 723.278 LS
139.52 723.278 LE
135.516 719.273 LS
135.516 727.283 LE
140.631 723.278 LS
148.639 723.278 LE
144.635 719.273 LS
144.635 727.283 LE
149.751 723.278 LS
157.759 723.278 LE
153.755 719.273 LS
153.755 727.283 LE
158.87 722.321 LS
166.878 722.321 LE
162.874 718.316 LS
162.874 726.326 LE
167.989 722.321 LS
175.997 722.321 LE
171.993 718.316 LS
171.993 726.326 LE
177.108 720.767 LS
185.116 720.767 LE
181.112 716.762 LS
181.112 724.772 LE
186.227 720.767 LS
194.235 720.767 LE
190.231 716.762 LS
190.231 724.772 LE
195.346 720.767 LS
203.355 720.767 LE
199.351 716.762 LS
199.351 724.772 LE
204.466 718.211 LS
212.474 718.211 LE
208.47 714.206 LS
208.47 722.216 LE
213.585 718.211 LS
221.593 718.211 LE
217.589 714.206 LS
217.589 722.216 LE
222.704 714.5 LS
230.712 714.5 LE
226.708 710.495 LS
226.708 718.505 LE
231.823 714.5 LS
239.831 714.5 LE
235.827 710.495 LS
235.827 718.505 LE
240.942 714.5 LS
248.95 714.5 LE
244.946 710.495 LS
244.946 718.505 LE
250.062 709.276 LS
258.07 709.276 LE
254.066 705.271 LS
254.066 713.281 LE
259.181 709.276 LS
267.189 709.276 LE
263.185 705.271 LS
263.185 713.281 LE
268.3 702.232 LS
276.308 702.232 LE
272.304 698.227 LS
272.304 706.237 LE
277.419 702.232 LS
285.427 702.232 LE
281.423 698.227 LS
281.423 706.237 LE
286.538 702.232 LS
294.546 702.232 LE
290.542 698.227 LS
290.542 706.237 LE
295.657 692.969 LS
303.665 692.969 LE
299.661 688.964 LS
299.661 696.974 LE
304.777 692.969 LS
312.785 692.969 LE
308.781 688.964 LS
308.781 696.974 LE
313.896 681.089 LS
321.904 681.089 LE
317.9 677.084 LS
317.9 685.094 LE
323.015 681.089 LS
331.023 681.089 LE
327.019 677.084 LS
327.019 685.094 LE
332.134 681.089 LS
340.142 681.089 LE
336.138 677.084 LS
336.138 685.094 LE
341.253 666.162 LS
349.261 666.162 LE
345.257 662.157 LS
345.257 670.167 LE
350.372 666.162 LS
358.381 666.162 LE
354.376 662.157 LS
354.376 670.167 LE
359.492 647.773 LS
367.5 647.773 LE
363.496 643.768 LS
363.496 651.778 LE
368.611 647.773 LS
376.619 647.773 LE
372.615 643.768 LS
372.615 651.778 LE
377.73 647.773 LS
385.738 647.773 LE
381.734 643.768 LS
381.734 651.778 LE
386.849 625.542 LS
394.857 625.542 LE
390.853 621.537 LS
390.853 629.547 LE
395.968 625.542 LS
403.976 625.542 LE
399.972 621.537 LS
399.972 629.547 LE
405.087 599.175 LS
413.096 599.175 LE
409.092 595.17 LS
409.092 603.18 LE
414.207 599.175 LS
422.215 599.175 LE
418.211 595.17 LS
418.211 603.18 LE
423.326 599.175 LS
431.334 599.175 LE
427.33 595.17 LS
427.33 603.18 LE
432.445 568.497 LS
440.453 568.497 LE
436.449 564.492 LS
436.449 572.502 LE
441.564 568.497 LS
449.572 568.497 LE
445.568 564.492 LS
445.568 572.502 LE
450.683 533.523 LS
458.691 533.523 LE
454.687 529.518 LS
454.687 537.528 LE
459.803 533.523 LS
467.811 533.523 LE
463.807 529.518 LS
463.807 537.528 LE
468.922 533.523 LS
476.93 533.523 LE
472.926 529.518 LS
472.926 537.528 LE
478.041 494.471 LS
486.049 494.471 LE
482.045 490.466 LS
482.045 498.476 LE
487.16 494.471 LS
495.168 494.471 LE
491.164 490.466 LS
491.164 498.476 LE
496.279 451.848 LS
504.287 451.848 LE
500.283 447.843 LS
500.283 455.853 LE
505.398 451.848 LS
513.406 451.848 LE
509.402 447.843 LS
509.402 455.853 LE
514.518 451.848 LS
522.526 451.848 LE
518.522 447.843 LS
518.522 455.853 LE
523.637 406.387 LS
531.645 406.387 LE
527.641 402.382 LS
527.641 410.392 LE
532.756 406.387 LS
540.764 406.387 LE
536.76 402.382 LS
536.76 410.392 LE
541.875 359.158 LS
549.883 359.158 LE
545.879 355.153 LS
545.879 363.163 LE
550.994 359.158 LS
559.002 359.158 LE
554.998 355.153 LS
554.998 363.163 LE
560.114 359.158 LS
568.122 359.158 LE
564.117 355.153 LS
564.117 363.163 LE
569.233 311.346 LS
577.241 311.346 LE
573.237 307.341 LS
573.237 315.351 LE
578.352 311.346 LS
586.36 311.346 LE
582.356 307.341 LS
582.356 315.351 LE
587.471 264.462 LS
595.479 264.462 LE
591.475 260.457 LS
591.475 268.467 LE
596.59 264.462 LS
604.598 264.462 LE
600.594 260.457 LS
600.594 268.467 LE
605.709 264.462 LS
613.717 264.462 LE
609.713 260.457 LS
609.713 268.467 LE
614.829 219.835 LS
622.837 219.835 LE
618.833 215.83 LS
618.833 223.84 LE
623.948 219.835 LS
631.956 219.835 LE
627.952 215.83 LS
627.952 223.84 LE
633.067 179.137 LS
641.075 179.137 LE
637.071 175.132 LS
637.071 183.142 LE
642.186 179.137 LS
650.194 179.137 LE
646.19 175.132 LS
646.19 183.142 LE
651.305 179.137 LS
659.313 179.137 LE
655.309 175.132 LS
655.309 183.142 LE
660.424 143.356 LS
668.432 143.356 LE
664.428 139.351 LS
664.428 147.361 LE
669.544 143.356 LS
677.552 143.356 LE
673.548 139.351 LS
673.548 147.361 LE
678.663 114.071 LS
686.671 114.071 LE
682.667 110.066 LS
682.667 118.076 LE
687.782 114.071 LS
695.79 114.071 LE
691.786 110.066 LS
691.786 118.076 LE
696.901 114.071 LS
704.909 114.071 LE
700.905 110.066 LS
700.905 118.076 LE
706.02 91.3904 LS
714.028 91.3904 LE
710.024 87.3855 LS
710.024 95.3954 LE
715.139 91.3904 LS
723.147 91.3904 LE
719.143 87.3855 LS
719.143 95.3954 LE
724.259 76.8467 LS
732.267 76.8467 LE
728.263 72.8417 LS
728.263 80.8517 LE
733.378 76.8467 LS
741.386 76.8467 LE
737.382 72.8417 LS
737.382 80.8517 LE
742.497 76.8467 LS
750.505 76.8467 LE
746.501 72.8417 LS
746.501 80.8517 LE
751.616 69.0963 LS
759.624 69.0963 LE
755.62 65.0913 LS
755.62 73.1013 LE
760.735 69.0963 LS
768.743 69.0963 LE
764.739 65.0913 LS
764.739 73.1013 LE
769.854 70.2509 LS
777.863 70.2509 LE
773.859 66.2458 LS
773.859 74.2559 LE
778.974 70.2509 LS
786.982 70.2509 LE
782.978 66.2458 LS
782.978 74.2559 LE
788.093 70.2509 LS
796.101 70.2509 LE
792.097 66.2458 LS
792.097 74.2559 LE
797.212 76.6656 LS
805.22 76.6656 LE
801.216 72.6605 LS
801.216 80.6706 LE
806.331 76.6656 LS
814.339 76.6656 LE
810.335 72.6605 LS
810.335 80.6706 LE
815.45 92.5629 LS
823.458 92.5629 LE
819.454 88.558 LS
819.454 96.5679 LE
824.569 92.5629 LS
832.578 92.5629 LE
828.573 88.558 LS
828.573 96.5679 LE
833.689 92.5629 LS
841.697 92.5629 LE
837.693 88.558 LS
837.693 96.5679 LE
842.808 110.125 LS
850.816 110.125 LE
846.812 106.12 LS
846.812 114.13 LE
851.927 110.125 LS
859.935 110.125 LE
855.931 106.12 LS
855.931 114.13 LE
861.046 138.759 LS
869.054 138.759 LE
865.05 134.754 LS
865.05 142.764 LE
870.165 138.759 LS
878.173 138.759 LE
874.169 134.754 LS
874.169 142.764 LE
879.285 138.759 LS
887.293 138.759 LE
883.289 134.754 LS
883.289 142.764 LE
888.404 161.994 LS
896.412 161.994 LE
892.408 157.989 LS
892.408 165.999 LE
897.523 161.994 LS
905.531 161.994 LE
901.527 157.989 LS
901.527 165.999 LE
906.642 200.591 LS
914.65 200.591 LE
910.646 196.586 LS
910.646 204.596 LE
915.761 200.591 LS
923.769 200.591 LE
919.765 196.586 LS
919.765 204.596 LE
924.88 200.591 LS
932.888 200.591 LE
928.885 196.586 LS
928.885 204.596 LE
934 219.676 LS
942.008 219.676 LE
938.004 215.671 LS
938.004 223.681 LE
943.119 219.676 LS
951.127 219.676 LE
947.123 215.671 LS
947.123 223.681 LE
952.238 264.83 LS
960.246 264.83 LE
956.242 260.825 LS
956.242 268.835 LE
961.357 264.83 LS
969.365 264.83 LE
965.361 260.825 LS
965.361 268.835 LE
0.714 W
62.5629 38.5481 LS
62.5629 781.476 LE
(P(0.5,Y)) 90 17.5176 410.012 12 /Helvetica-Bold SBCR
57.5579 38.5481 LS
62.5629 38.5481 LE
(-0.07) 55.5559 38.5481 12 /Helvetica SCR
57.5579 77.5969 LS
62.5629 77.5969 LE
(-0.065) 55.5559 77.5969 12 /Helvetica SCR
57.5579 116.646 LS
62.5629 116.646 LE
(-0.06) 55.5559 116.646 12 /Helvetica SCR
57.5579 155.694 LS
62.5629 155.694 LE
(-0.055) 55.5559 155.694 12 /Helvetica SCR
57.5579 194.743 LS
62.5629 194.743 LE
(-0.05) 55.5559 194.743 12 /Helvetica SCR
57.5579 233.792 LS
62.5629 233.792 LE
(-0.045) 55.5559 233.792 12 /Helvetica SCR
57.5579 272.841 LS
62.5629 272.841 LE
(-0.04) 55.5559 272.841 12 /Helvetica SCR
57.5579 311.889 LS
62.5629 311.889 LE
(-0.035) 55.5559 311.889 12 /Helvetica SCR
57.5579 350.938 LS
62.5629 350.938 LE
(-0.03) 55.5559 350.938 12 /Helvetica SCR
57.5579 389.987 LS
62.5629 389.987 LE
(-0.025) 55.5559 389.987 12 /Helvetica SCR
57.5579 429.036 LS
62.5629 429.036 LE
(-0.02) 55.5559 429.036 12 /Helvetica SCR
57.5579 468.084 LS
62.5629 468.084 LE
(-0.015) 55.5559 468.084 12 /Helvetica SCR
57.5579 507.133 LS
62.5629 507.133 LE
(-0.01) 55.5559 507.133 12 /Helvetica SCR
57.5579 546.182 LS
62.5629 546.182 LE
(-0.005) 55.5559 546.182 12 /Helvetica SCR
57.5579 585.231 LS
62.5629 585.231 LE
(0) 55.5559 585.231 12 /Helvetica SCR
57.5579 624.279 LS
62.5629 624.279 LE
(0.005) 55.5559 624.279 12 /Helvetica SCR
57.5579 663.328 LS
62.5629 663.328 LE
(0.01) 55.5559 663.328 12 /Helvetica SCR
57.5579 702.377 LS
62.5629 702.377 LE
(0.015) 55.5559 702.377 12 /Helvetica SCR
57.5579 741.426 LS
62.5629 741.426 LE
(0.02) 55.5559 741.426 12 /Helvetica SCR
57.5579 781.476 LS
62.5629 781.476 LE
(0.025) 55.5559 781.476 12 /Helvetica SCR
62.5629 38.5481 LS
974.48 38.5481 LE
(Y) 518.021 16.5206 12 /Helvetica-Bold STC
62.5629 33.5419 LS
62.5629 38.5481 LE
(0) 62.5629 31.5394 12 /Helvetica STC
107.608 33.5419 LS
107.608 38.5481 LE
(0.05) 107.608 31.5394 12 /Helvetica STC
153.655 33.5419 LS
153.655 38.5481 LE
(0.1) 153.655 31.5394 12 /Helvetica STC
198.7 33.5419 LS
198.7 38.5481 LE
(0.15) 198.7 31.5394 12 /Helvetica STC
244.746 33.5419 LS
244.746 38.5481 LE
(0.2) 244.746 31.5394 12 /Helvetica STC
289.792 33.5419 LS
289.792 38.5481 LE
(0.25) 289.792 31.5394 12 /Helvetica STC
335.838 33.5419 LS
335.838 38.5481 LE
(0.3) 335.838 31.5394 12 /Helvetica STC
380.883 33.5419 LS
380.883 38.5481 LE
(0.35) 380.883 31.5394 12 /Helvetica STC
426.93 33.5419 LS
426.93 38.5481 LE
(0.4) 426.93 31.5394 12 /Helvetica STC
471.975 33.5419 LS
471.975 38.5481 LE
(0.45) 471.975 31.5394 12 /Helvetica STC
518.021 33.5419 LS
518.021 38.5481 LE
(0.5) 518.021 31.5394 12 /Helvetica STC
564.067 33.5419 LS
564.067 38.5481 LE
(0.55) 564.067 31.5394 12 /Helvetica STC
609.113 33.5419 LS
609.113 38.5481 LE
(0.6) 609.113 31.5394 12 /Helvetica STC
655.159 33.5419 LS
655.159 38.5481 LE
(0.65) 655.159 31.5394 12 /Helvetica STC
700.204 33.5419 LS
700.204 38.5481 LE
(0.7) 700.204 31.5394 12 /Helvetica STC
746.251 33.5419 LS
746.251 38.5481 LE
(0.75) 746.251 31.5394 12 /Helvetica STC
791.296 33.5419 LS
791.296 38.5481 LE
(0.8) 791.296 31.5394 12 /Helvetica STC
837.342 33.5419 LS
837.342 38.5481 LE
(0.85) 837.342 31.5394 12 /Helvetica STC
882.388 33.5419 LS
882.388 38.5481 LE
(0.9) 882.388 31.5394 12 /Helvetica STC
928.434 33.5419 LS
928.434 38.5481 LE
(0.95) 928.434 31.5394 12 /Helvetica STC
1 1 1 C
906.412 781.476 974.48 708.384 906.412 708.384 T
906.412 781.476 974.48 781.476 974.48 708.384 T
0 0 0 C
906.412 708.384 LS
974.48 708.384 L
974.48 781.476 L
906.412 781.476 L
906.412 708.384 LE
(A=0.0) 936.442 764.454 12 /Helvetica S
1.428 W
0 1 0 C
911.417 770.462 LS
933.439 770.462 LE
0 0 0 C
(A=0.1) 936.442 747.433 12 /Helvetica S
[8 8] 0 setdash
0.886275 0.0980392 0.109804 C
911.417 753.441 LS
933.439 753.441 LE
0 0 0 C
(A=0.6) 936.442 730.412 12 /Helvetica S
[] 0 setdash
0 0.329412 1 C
911.417 736.419 LS
933.439 736.419 LE
0 0 0 C
(A=1) 936.442 713.391 12 /Helvetica S
[1 7 1 7] 0 setdash
911.417 719.398 LS
933.439 719.398 LE
0.357 W
[] 0 setdash
918.424 719.398 LS
926.432 719.398 LE
922.428 715.393 LS
922.428 723.403 LE
grestore
showpage
cleartomark
%%PageTrailer
%%Trailer
end
%%EOF
