%!PS-Adobe-3.0 EPSF-3.0
%%Title: glps_renderer figure
%%Creator: GL2PS 1.3.8, (C) 1999-2012 C. Geuzaine
%%For: Octave
%%CreationDate: Wed Dec 16 11:02:57 2015
%%LanguageLevel: 3
%%DocumentData: Clean7Bit
%%Pages: 1
%%BoundingBox: 0 0 560 420
%%EndComments
%%BeginProlog
/gl2psdict 64 dict def gl2psdict begin
0 setlinecap 0 setlinejoin
/tryPS3shading false def % set to false to force subdivision
/rThreshold 0.064 def % red component subdivision threshold
/gThreshold 0.034 def % green component subdivision threshold
/bThreshold 0.1 def % blue component subdivision threshold
/BD { bind def } bind def
/C  { setrgbcolor } BD
/G  { 0.082 mul exch 0.6094 mul add exch 0.3086 mul add neg 1.0 add setgray } BD
/W  { setlinewidth } BD
/FC { findfont exch /SH exch def SH scalefont setfont } BD
/SW { dup stringwidth pop } BD
/S  { FC moveto show } BD
/SBC{ FC moveto SW -2 div 0 rmoveto show } BD
/SBR{ FC moveto SW neg 0 rmoveto show } BD
/SCL{ FC moveto 0 SH -2 div rmoveto show } BD
/SCC{ FC moveto SW -2 div SH -2 div rmoveto show } BD
/SCR{ FC moveto SW neg SH -2 div rmoveto show } BD
/STL{ FC moveto 0 SH neg rmoveto show } BD
/STC{ FC moveto SW -2 div SH neg rmoveto show } BD
/STR{ FC moveto SW neg SH neg rmoveto show } BD
/FCT { FC translate 0 0 } BD
/SR  { gsave FCT moveto rotate show grestore } BD
/SBCR{ gsave FCT moveto rotate SW -2 div 0 rmoveto show grestore } BD
/SBRR{ gsave FCT moveto rotate SW neg 0 rmoveto show grestore } BD
/SCLR{ gsave FCT moveto rotate 0 SH -2 div rmoveto show grestore} BD
/SCCR{ gsave FCT moveto rotate SW -2 div SH -2 div rmoveto show grestore} BD
/SCRR{ gsave FCT moveto rotate SW neg SH -2 div rmoveto show grestore} BD
/STLR{ gsave FCT moveto rotate 0 SH neg rmoveto show grestore } BD
/STCR{ gsave FCT moveto rotate SW -2 div SH neg rmoveto show grestore } BD
/STRR{ gsave FCT moveto rotate SW neg SH neg rmoveto show grestore } BD
/P  { newpath 0.0 360.0 arc closepath fill } BD
/LS { newpath moveto } BD
/L  { lineto } BD
/LE { lineto stroke } BD
/T  { newpath moveto lineto lineto closepath fill } BD
/STshfill {
      /b1 exch def /g1 exch def /r1 exch def /y1 exch def /x1 exch def
      /b2 exch def /g2 exch def /r2 exch def /y2 exch def /x2 exch def
      /b3 exch def /g3 exch def /r3 exch def /y3 exch def /x3 exch def
      gsave << /ShadingType 4 /ColorSpace [/DeviceRGB]
      /DataSource [ 0 x1 y1 r1 g1 b1 0 x2 y2 r2 g2 b2 0 x3 y3 r3 g3 b3 ] >>
      shfill grestore } BD
/Tm { 3 -1 roll 8 -1 roll 13 -1 roll add add 3 div
      3 -1 roll 7 -1 roll 11 -1 roll add add 3 div
      3 -1 roll 6 -1 roll 9 -1 roll add add 3 div C T } BD
/STsplit {
      4 index 15 index add 0.5 mul
      4 index 15 index add 0.5 mul
      4 index 15 index add 0.5 mul
      4 index 15 index add 0.5 mul
      4 index 15 index add 0.5 mul
      5 copy 5 copy 25 15 roll
      9 index 30 index add 0.5 mul
      9 index 30 index add 0.5 mul
      9 index 30 index add 0.5 mul
      9 index 30 index add 0.5 mul
      9 index 30 index add 0.5 mul
      5 copy 5 copy 35 5 roll 25 5 roll 15 5 roll
      4 index 10 index add 0.5 mul
      4 index 10 index add 0.5 mul
      4 index 10 index add 0.5 mul
      4 index 10 index add 0.5 mul
      4 index 10 index add 0.5 mul
      5 copy 5 copy 40 5 roll 25 5 roll 15 5 roll 25 5 roll
      STnoshfill STnoshfill STnoshfill STnoshfill } BD
/STnoshfill {
      2 index 8 index sub abs rThreshold gt
      { STsplit }
      { 1 index 7 index sub abs gThreshold gt
        { STsplit }
        { dup 6 index sub abs bThreshold gt
          { STsplit }
          { 2 index 13 index sub abs rThreshold gt
            { STsplit }
            { 1 index 12 index sub abs gThreshold gt
              { STsplit }
              { dup 11 index sub abs bThreshold gt
                { STsplit }
                { 7 index 13 index sub abs rThreshold gt
                  { STsplit }
                  { 6 index 12 index sub abs gThreshold gt
                    { STsplit }
                    { 5 index 11 index sub abs bThreshold gt
                      { STsplit }
                      { Tm }
                      ifelse }
                    ifelse }
                  ifelse }
                ifelse }
              ifelse }
            ifelse }
          ifelse }
        ifelse }
      ifelse } BD
tryPS3shading
{ /shfill where
  { /ST { STshfill } BD }
  { /ST { STnoshfill } BD }
  ifelse }
{ /ST { STnoshfill } BD }
ifelse
end
%%EndProlog
%%BeginSetup
/DeviceRGB setcolorspace
gl2psdict begin
%%EndSetup
%%Page: 1 1
%%BeginPageSetup
%%EndPageSetup
mark
gsave
1.0 1.0 scale
1 1 1 C
506.8 46.2 506.8 388.5 506.8 46.2 T
506.8 46.2 506.8 388.5 506.8 388.5 T
72.8 388.5 506.8 388.5 72.8 388.5 T
72.8 388.5 506.8 388.5 506.8 388.5 T
72.8 388.5 506.8 46.2 72.8 46.2 T
72.8 388.5 506.8 388.5 506.8 46.2 T
0.5 W
[16 0] 0 setdash
0 0 0 C
72.8 46.2 LS
506.8 46.2 LE
72.8 388.5 LS
506.8 388.5 LE
72.8 388.5 LS
506.8 388.5 LE
72.8 46.2 LS
506.8 46.2 LE
72.8 46.2 LS
72.8 388.5 LE
506.8 46.2 LS
506.8 388.5 LE
506.8 46.2 LS
506.8 388.5 LE
72.8 46.2 LS
72.8 388.5 L
72.8 388.5 LE
506.8 388.5 LS
506.8 388.5 LE
506.8 46.2 LS
506.8 46.2 LE
72.8 46.2 LS
72.8 46.2 L
72.8 50.5438 LE
72.8 388.5 LS
72.8 384.156 LE
181.3 46.2 LS
181.3 50.5438 LE
181.3 388.5 LS
181.3 384.156 LE
289.8 46.2 LS
289.8 50.5438 LE
289.8 388.5 LS
289.8 384.156 LE
398.3 46.2 LS
398.3 50.5438 LE
398.3 388.5 LS
398.3 384.156 LE
506.8 46.2 LS
506.8 50.5438 LE
506.8 388.5 LS
506.8 384.156 LE
(0) 72.8 41.1956 15 /Helvetica STC
(0.5) 181.3 41.1956 15 /Helvetica STC
(1) 289.8 41.1956 15 /Helvetica STC
(1.5) 398.3 41.1956 15 /Helvetica STC
(2) 506.8 41.1956 15 /Helvetica STC
72.8 46.2 LS
77.14 46.2 LE
506.8 46.2 LS
502.46 46.2 LE
72.8 114.66 LS
77.14 114.66 LE
506.8 114.66 LS
502.46 114.66 LE
72.8 183.12 LS
77.14 183.12 LE
506.8 183.12 LS
502.46 183.12 LE
72.8 251.58 LS
77.14 251.58 LE
506.8 251.58 LS
502.46 251.58 LE
72.8 320.04 LS
77.14 320.04 LE
506.8 320.04 LS
502.46 320.04 LE
72.8 388.5 LS
77.14 388.5 LE
506.8 388.5 LS
502.46 388.5 LE
(800) 67.8 46.2 15 /Helvetica SCR
(1000) 67.8 114.66 15 /Helvetica SCR
(1200) 67.8 183.12 15 /Helvetica SCR
(1400) 67.8 251.58 15 /Helvetica SCR
(1600) 67.8 320.04 15 /Helvetica SCR
(1800) 67.8 388.5 15 /Helvetica SCR
(B) 289.8 23.1956 15 /Helvetica STC
(Number of iterations) 90 31.8 217.35 15 /Helvetica SBCR
(Effect of B in convergence) 289.8 398.5 15 /Helvetica SBC
2 W
[] 0 setdash
94.5 128.01 LS
116.2 106.787 L
137.9 100.283 L
159.6 97.545 L
181.3 95.8335 L
203 95.1489 L
224.7 96.1758 L
246.4 115.002 L
268.1 141.702 L
289.8 164.978 L
311.5 194.416 L
333.2 206.396 L
354.9 224.538 L
376.6 245.419 L
398.3 262.191 L
420 278.279 L
441.7 289.233 L
463.4 297.106 L
485.1 318.329 L
506.8 332.02 LE
91.5 131.01 LS
91.5 125.01 L
97.5 125.01 L
97.5 131.01 L
91.5 131.01 LE
113.2 109.787 LS
113.2 103.787 L
119.2 103.787 L
119.2 109.787 L
113.2 109.787 LE
134.9 103.283 LS
134.9 97.2834 L
140.9 97.2834 L
140.9 103.283 L
134.9 103.283 LE
156.6 100.545 LS
156.6 94.545 L
162.6 94.545 L
162.6 100.545 L
156.6 100.545 LE
178.3 98.8335 LS
178.3 92.8335 L
184.3 92.8335 L
184.3 98.8335 L
178.3 98.8335 LE
200 98.1489 LS
200 92.1489 L
206 92.1489 L
206 98.1489 L
200 98.1489 LE
221.7 99.1758 LS
221.7 93.1758 L
227.7 93.1758 L
227.7 99.1758 L
221.7 99.1758 LE
243.4 118.002 LS
243.4 112.002 L
249.4 112.002 L
249.4 118.002 L
243.4 118.002 LE
265.1 144.702 LS
265.1 138.702 L
271.1 138.702 L
271.1 144.702 L
265.1 144.702 LE
286.8 167.978 LS
286.8 161.978 L
292.8 161.978 L
292.8 167.978 L
286.8 167.978 LE
308.5 197.416 LS
308.5 191.416 L
314.5 191.416 L
314.5 197.416 L
308.5 197.416 LE
330.2 209.396 LS
330.2 203.396 L
336.2 203.396 L
336.2 209.396 L
330.2 209.396 LE
351.9 227.538 LS
351.9 221.538 L
357.9 221.538 L
357.9 227.538 L
351.9 227.538 LE
373.6 248.419 LS
373.6 242.419 L
379.6 242.419 L
379.6 248.419 L
373.6 248.419 LE
395.3 265.191 LS
395.3 259.191 L
401.3 259.191 L
401.3 265.191 L
395.3 265.191 LE
417 281.279 LS
417 275.279 L
423 275.279 L
423 281.279 L
417 281.279 LE
438.7 292.233 LS
438.7 286.233 L
444.7 286.233 L
444.7 292.233 L
438.7 292.233 LE
460.4 300.106 LS
460.4 294.106 L
466.4 294.106 L
466.4 300.106 L
460.4 300.106 LE
482.1 321.328 LS
482.1 315.328 L
488.1 315.328 L
488.1 321.328 L
482.1 321.328 LE
503.8 335.021 LS
503.8 329.021 L
509.8 329.021 L
509.8 335.021 L
503.8 335.021 LE
grestore
showpage
cleartomark
%%PageTrailer
%%Trailer
end
%%EOF
