%!PS-Adobe-3.0 EPSF-3.0
%%Title: glps_renderer figure
%%Creator: GL2PS 1.3.8, (C) 1999-2012 C. Geuzaine
%%For: Octave
%%CreationDate: Tue Dec 15 13:14:21 2015
%%LanguageLevel: 3
%%DocumentData: Clean7Bit
%%Pages: 1
%%BoundingBox: 0 0 560 420
%%EndComments
%%BeginProlog
/gl2psdict 64 dict def gl2psdict begin
0 setlinecap 0 setlinejoin
/tryPS3shading false def % set to false to force subdivision
/rThreshold 0.064 def % red component subdivision threshold
/gThreshold 0.034 def % green component subdivision threshold
/bThreshold 0.1 def % blue component subdivision threshold
/BD { bind def } bind def
/C  { setrgbcolor } BD
/G  { 0.082 mul exch 0.6094 mul add exch 0.3086 mul add neg 1.0 add setgray } BD
/W  { setlinewidth } BD
/FC { findfont exch /SH exch def SH scalefont setfont } BD
/SW { dup stringwidth pop } BD
/S  { FC moveto show } BD
/SBC{ FC moveto SW -2 div 0 rmoveto show } BD
/SBR{ FC moveto SW neg 0 rmoveto show } BD
/SCL{ FC moveto 0 SH -2 div rmoveto show } BD
/SCC{ FC moveto SW -2 div SH -2 div rmoveto show } BD
/SCR{ FC moveto SW neg SH -2 div rmoveto show } BD
/STL{ FC moveto 0 SH neg rmoveto show } BD
/STC{ FC moveto SW -2 div SH neg rmoveto show } BD
/STR{ FC moveto SW neg SH neg rmoveto show } BD
/FCT { FC translate 0 0 } BD
/SR  { gsave FCT moveto rotate show grestore } BD
/SBCR{ gsave FCT moveto rotate SW -2 div 0 rmoveto show grestore } BD
/SBRR{ gsave FCT moveto rotate SW neg 0 rmoveto show grestore } BD
/SCLR{ gsave FCT moveto rotate 0 SH -2 div rmoveto show grestore} BD
/SCCR{ gsave FCT moveto rotate SW -2 div SH -2 div rmoveto show grestore} BD
/SCRR{ gsave FCT moveto rotate SW neg SH -2 div rmoveto show grestore} BD
/STLR{ gsave FCT moveto rotate 0 SH neg rmoveto show grestore } BD
/STCR{ gsave FCT moveto rotate SW -2 div SH neg rmoveto show grestore } BD
/STRR{ gsave FCT moveto rotate SW neg SH neg rmoveto show grestore } BD
/P  { newpath 0.0 360.0 arc closepath fill } BD
/LS { newpath moveto } BD
/L  { lineto } BD
/LE { lineto stroke } BD
/T  { newpath moveto lineto lineto closepath fill } BD
/STshfill {
      /b1 exch def /g1 exch def /r1 exch def /y1 exch def /x1 exch def
      /b2 exch def /g2 exch def /r2 exch def /y2 exch def /x2 exch def
      /b3 exch def /g3 exch def /r3 exch def /y3 exch def /x3 exch def
      gsave << /ShadingType 4 /ColorSpace [/DeviceRGB]
      /DataSource [ 0 x1 y1 r1 g1 b1 0 x2 y2 r2 g2 b2 0 x3 y3 r3 g3 b3 ] >>
      shfill grestore } BD
/Tm { 3 -1 roll 8 -1 roll 13 -1 roll add add 3 div
      3 -1 roll 7 -1 roll 11 -1 roll add add 3 div
      3 -1 roll 6 -1 roll 9 -1 roll add add 3 div C T } BD
/STsplit {
      4 index 15 index add 0.5 mul
      4 index 15 index add 0.5 mul
      4 index 15 index add 0.5 mul
      4 index 15 index add 0.5 mul
      4 index 15 index add 0.5 mul
      5 copy 5 copy 25 15 roll
      9 index 30 index add 0.5 mul
      9 index 30 index add 0.5 mul
      9 index 30 index add 0.5 mul
      9 index 30 index add 0.5 mul
      9 index 30 index add 0.5 mul
      5 copy 5 copy 35 5 roll 25 5 roll 15 5 roll
      4 index 10 index add 0.5 mul
      4 index 10 index add 0.5 mul
      4 index 10 index add 0.5 mul
      4 index 10 index add 0.5 mul
      4 index 10 index add 0.5 mul
      5 copy 5 copy 40 5 roll 25 5 roll 15 5 roll 25 5 roll
      STnoshfill STnoshfill STnoshfill STnoshfill } BD
/STnoshfill {
      2 index 8 index sub abs rThreshold gt
      { STsplit }
      { 1 index 7 index sub abs gThreshold gt
        { STsplit }
        { dup 6 index sub abs bThreshold gt
          { STsplit }
          { 2 index 13 index sub abs rThreshold gt
            { STsplit }
            { 1 index 12 index sub abs gThreshold gt
              { STsplit }
              { dup 11 index sub abs bThreshold gt
                { STsplit }
                { 7 index 13 index sub abs rThreshold gt
                  { STsplit }
                  { 6 index 12 index sub abs gThreshold gt
                    { STsplit }
                    { 5 index 11 index sub abs bThreshold gt
                      { STsplit }
                      { Tm }
                      ifelse }
                    ifelse }
                  ifelse }
                ifelse }
              ifelse }
            ifelse }
          ifelse }
        ifelse }
      ifelse } BD
tryPS3shading
{ /shfill where
  { /ST { STshfill } BD }
  { /ST { STnoshfill } BD }
  ifelse }
{ /ST { STnoshfill } BD }
ifelse
end
%%EndProlog
%%BeginSetup
/DeviceRGB setcolorspace
gl2psdict begin
%%EndSetup
%%Page: 1 1
%%BeginPageSetup
%%EndPageSetup
mark
gsave
1.0 1.0 scale
1 1 1 C
506.8 46.2 506.8 388.5 506.8 46.2 T
506.8 46.2 506.8 388.5 506.8 388.5 T
72.8 388.5 506.8 388.5 72.8 388.5 T
72.8 388.5 506.8 388.5 506.8 388.5 T
72.8 388.5 506.8 46.2 72.8 46.2 T
72.8 388.5 506.8 388.5 506.8 46.2 T
0.5 W
[16 0] 0 setdash
0 0 0 C
72.8 46.2 LS
506.8 46.2 LE
72.8 388.5 LS
506.8 388.5 LE
72.8 388.5 LS
506.8 388.5 LE
72.8 46.2 LS
506.8 46.2 LE
72.8 46.2 LS
72.8 388.5 LE
506.8 46.2 LS
506.8 388.5 LE
506.8 46.2 LS
506.8 388.5 LE
72.8 46.2 LS
72.8 388.5 L
72.8 388.5 LE
506.8 388.5 LS
506.8 388.5 LE
506.8 46.2 LS
506.8 46.2 LE
72.8 46.2 LS
72.8 46.2 LE
[0 3 1 3 1 3 1 3 1 0] 0 setdash
72.8 46.2 LS
72.8 388.5 LE
134.8 46.2 LS
134.8 388.5 LE
196.8 46.2 LS
196.8 388.5 LE
258.8 46.2 LS
258.8 388.5 LE
320.8 46.2 LS
320.8 388.5 LE
382.8 46.2 LS
382.8 388.5 LE
444.8 46.2 LS
444.8 388.5 LE
506.8 46.2 LS
506.8 388.5 LE
[16 0] 0 setdash
72.8 46.2 LS
72.8 50.5438 LE
72.8 388.5 LS
72.8 384.156 LE
134.8 46.2 LS
134.8 50.5438 LE
134.8 388.5 LS
134.8 384.156 LE
196.8 46.2 LS
196.8 50.5438 LE
196.8 388.5 LS
196.8 384.156 LE
258.8 46.2 LS
258.8 50.5438 LE
258.8 388.5 LS
258.8 384.156 LE
320.8 46.2 LS
320.8 50.5438 LE
320.8 388.5 LS
320.8 384.156 LE
382.8 46.2 LS
382.8 50.5438 LE
382.8 388.5 LS
382.8 384.156 LE
444.8 46.2 LS
444.8 50.5438 LE
444.8 388.5 LS
444.8 384.156 LE
506.8 46.2 LS
506.8 50.5438 LE
506.8 388.5 LS
506.8 384.156 LE
(-0.4) 72.8 41.1956 15 /Helvetica STC
(-0.2) 134.8 41.1956 15 /Helvetica STC
(0) 196.8 41.1956 15 /Helvetica STC
(0.2) 258.8 41.1956 15 /Helvetica STC
(0.4) 320.8 41.1956 15 /Helvetica STC
(0.6) 382.8 41.1956 15 /Helvetica STC
(0.8) 444.8 41.1956 15 /Helvetica STC
(1) 506.8 41.1956 15 /Helvetica STC
[0 3 1 3 1 3 1 3 1 0] 0 setdash
72.8 46.2 LS
506.8 46.2 LE
72.8 114.66 LS
506.8 114.66 LE
72.8 183.12 LS
506.8 183.12 LE
72.8 251.58 LS
506.8 251.58 LE
72.8 320.04 LS
506.8 320.04 LE
72.8 388.5 LS
506.8 388.5 LE
[16 0] 0 setdash
72.8 46.2 LS
77.14 46.2 LE
506.8 46.2 LS
502.46 46.2 LE
72.8 114.66 LS
77.14 114.66 LE
506.8 114.66 LS
502.46 114.66 LE
72.8 183.12 LS
77.14 183.12 LE
506.8 183.12 LS
502.46 183.12 LE
72.8 251.58 LS
77.14 251.58 LE
506.8 251.58 LS
502.46 251.58 LE
72.8 320.04 LS
77.14 320.04 LE
506.8 320.04 LS
502.46 320.04 LE
72.8 388.5 LS
77.14 388.5 LE
506.8 388.5 LS
502.46 388.5 LE
(0) 67.8 46.2 15 /Helvetica SCR
(0.2) 67.8 114.66 15 /Helvetica SCR
(0.4) 67.8 183.12 15 /Helvetica SCR
(0.6) 67.8 251.58 15 /Helvetica SCR
(0.8) 67.8 320.04 15 /Helvetica SCR
(1) 67.8 388.5 15 /Helvetica SCR
(Velocity U) 289.8 23.1956 15 /Helvetica STC
(Y) 90 43.8 217.35 15 /Helvetica SBCR
(Velocity U along vertical line of symmetry) 289.8 398.5 15 /Helvetica SBC
2 W
[] 0 setdash
0 0 1 C
196.8 46.2 LS
191.133 54.7575 L
182.072 71.8725 L
173.953 88.9875 L
166.396 106.102 L
158.874 123.217 L
151.397 140.332 L
144.131 157.447 L
137.701 174.562 L
133.005 191.678 L
131.188 208.792 L
133.375 225.907 L
140.396 243.022 L
152.533 260.137 L
169.548 277.253 L
190.91 294.367 L
217.042 311.482 L
249.882 328.597 L
295.755 345.712 L
361.894 362.828 L
455.037 379.943 L
506.8 388.5 LE
193.8 49.2 LS
193.8 43.2 L
199.8 43.2 L
199.8 49.2 L
193.8 49.2 LE
188.133 57.7575 LS
188.133 51.7575 L
194.133 51.7575 L
194.133 57.7575 L
188.133 57.7575 LE
179.072 74.8725 LS
179.072 68.8725 L
185.072 68.8725 L
185.072 74.8725 L
179.072 74.8725 LE
170.953 91.9875 LS
170.953 85.9875 L
176.953 85.9875 L
176.953 91.9875 L
170.953 91.9875 LE
163.396 109.102 LS
163.396 103.102 L
169.396 103.102 L
169.396 109.102 L
163.396 109.102 LE
155.874 126.217 LS
155.874 120.217 L
161.874 120.217 L
161.874 126.217 L
155.874 126.217 LE
148.397 143.332 LS
148.397 137.332 L
154.397 137.332 L
154.397 143.332 L
148.397 143.332 LE
141.131 160.448 LS
141.131 154.448 L
147.131 154.448 L
147.131 160.448 L
141.131 160.448 LE
134.701 177.562 LS
134.701 171.562 L
140.701 171.562 L
140.701 177.562 L
134.701 177.562 LE
130.005 194.678 LS
130.005 188.678 L
136.005 188.678 L
136.005 194.678 L
130.005 194.678 LE
128.188 211.792 LS
128.188 205.792 L
134.188 205.792 L
134.188 211.792 L
128.188 211.792 LE
130.375 228.908 LS
130.375 222.908 L
136.375 222.908 L
136.375 228.908 L
130.375 228.908 LE
137.396 246.022 LS
137.396 240.022 L
143.396 240.022 L
143.396 246.022 L
137.396 246.022 LE
149.533 263.138 LS
149.533 257.138 L
155.533 257.138 L
155.533 263.138 L
149.533 263.138 LE
166.548 280.253 LS
166.548 274.253 L
172.548 274.253 L
172.548 280.253 L
166.548 280.253 LE
187.91 297.367 LS
187.91 291.367 L
193.91 291.367 L
193.91 297.367 L
187.91 297.367 LE
214.042 314.482 LS
214.042 308.482 L
220.042 308.482 L
220.042 314.482 L
214.042 314.482 LE
246.882 331.598 LS
246.882 325.597 L
252.882 325.597 L
252.882 331.598 L
246.882 331.598 LE
292.755 348.713 LS
292.755 342.712 L
298.755 342.712 L
298.755 348.713 L
292.755 348.713 LE
358.894 365.828 LS
358.894 359.827 L
364.894 359.827 L
364.894 365.828 L
358.894 365.828 LE
452.037 382.943 LS
452.037 376.943 L
458.037 376.943 L
458.037 382.943 L
452.037 382.943 LE
503.8 391.5 LS
503.8 385.5 L
509.8 385.5 L
509.8 391.5 L
503.8 391.5 LE
grestore
showpage
cleartomark
%%PageTrailer
%%Trailer
end
%%EOF
