%!PS-Adobe-3.0 EPSF-3.0
%%Title: glps_renderer figure
%%Creator: GL2PS 1.3.8, (C) 1999-2012 C. Geuzaine
%%For: Octave
%%CreationDate: Tue Dec 15 13:14:21 2015
%%LanguageLevel: 3
%%DocumentData: Clean7Bit
%%Pages: 1
%%BoundingBox: 0 0 576 432
%%EndComments
%%BeginProlog
/gl2psdict 64 dict def gl2psdict begin
0 setlinecap 0 setlinejoin
/tryPS3shading false def % set to false to force subdivision
/rThreshold 0.064 def % red component subdivision threshold
/gThreshold 0.034 def % green component subdivision threshold
/bThreshold 0.1 def % blue component subdivision threshold
/BD { bind def } bind def
/C  { setrgbcolor } BD
/G  { 0.082 mul exch 0.6094 mul add exch 0.3086 mul add neg 1.0 add setgray } BD
/W  { setlinewidth } BD
/FC { findfont exch /SH exch def SH scalefont setfont } BD
/SW { dup stringwidth pop } BD
/S  { FC moveto show } BD
/SBC{ FC moveto SW -2 div 0 rmoveto show } BD
/SBR{ FC moveto SW neg 0 rmoveto show } BD
/SCL{ FC moveto 0 SH -2 div rmoveto show } BD
/SCC{ FC moveto SW -2 div SH -2 div rmoveto show } BD
/SCR{ FC moveto SW neg SH -2 div rmoveto show } BD
/STL{ FC moveto 0 SH neg rmoveto show } BD
/STC{ FC moveto SW -2 div SH neg rmoveto show } BD
/STR{ FC moveto SW neg SH neg rmoveto show } BD
/FCT { FC translate 0 0 } BD
/SR  { gsave FCT moveto rotate show grestore } BD
/SBCR{ gsave FCT moveto rotate SW -2 div 0 rmoveto show grestore } BD
/SBRR{ gsave FCT moveto rotate SW neg 0 rmoveto show grestore } BD
/SCLR{ gsave FCT moveto rotate 0 SH -2 div rmoveto show grestore} BD
/SCCR{ gsave FCT moveto rotate SW -2 div SH -2 div rmoveto show grestore} BD
/SCRR{ gsave FCT moveto rotate SW neg SH -2 div rmoveto show grestore} BD
/STLR{ gsave FCT moveto rotate 0 SH neg rmoveto show grestore } BD
/STCR{ gsave FCT moveto rotate SW -2 div SH neg rmoveto show grestore } BD
/STRR{ gsave FCT moveto rotate SW neg SH neg rmoveto show grestore } BD
/P  { newpath 0.0 360.0 arc closepath fill } BD
/LS { newpath moveto } BD
/L  { lineto } BD
/LE { lineto stroke } BD
/T  { newpath moveto lineto lineto closepath fill } BD
/STshfill {
      /b1 exch def /g1 exch def /r1 exch def /y1 exch def /x1 exch def
      /b2 exch def /g2 exch def /r2 exch def /y2 exch def /x2 exch def
      /b3 exch def /g3 exch def /r3 exch def /y3 exch def /x3 exch def
      gsave << /ShadingType 4 /ColorSpace [/DeviceRGB]
      /DataSource [ 0 x1 y1 r1 g1 b1 0 x2 y2 r2 g2 b2 0 x3 y3 r3 g3 b3 ] >>
      shfill grestore } BD
/Tm { 3 -1 roll 8 -1 roll 13 -1 roll add add 3 div
      3 -1 roll 7 -1 roll 11 -1 roll add add 3 div
      3 -1 roll 6 -1 roll 9 -1 roll add add 3 div C T } BD
/STsplit {
      4 index 15 index add 0.5 mul
      4 index 15 index add 0.5 mul
      4 index 15 index add 0.5 mul
      4 index 15 index add 0.5 mul
      4 index 15 index add 0.5 mul
      5 copy 5 copy 25 15 roll
      9 index 30 index add 0.5 mul
      9 index 30 index add 0.5 mul
      9 index 30 index add 0.5 mul
      9 index 30 index add 0.5 mul
      9 index 30 index add 0.5 mul
      5 copy 5 copy 35 5 roll 25 5 roll 15 5 roll
      4 index 10 index add 0.5 mul
      4 index 10 index add 0.5 mul
      4 index 10 index add 0.5 mul
      4 index 10 index add 0.5 mul
      4 index 10 index add 0.5 mul
      5 copy 5 copy 40 5 roll 25 5 roll 15 5 roll 25 5 roll
      STnoshfill STnoshfill STnoshfill STnoshfill } BD
/STnoshfill {
      2 index 8 index sub abs rThreshold gt
      { STsplit }
      { 1 index 7 index sub abs gThreshold gt
        { STsplit }
        { dup 6 index sub abs bThreshold gt
          { STsplit }
          { 2 index 13 index sub abs rThreshold gt
            { STsplit }
            { 1 index 12 index sub abs gThreshold gt
              { STsplit }
              { dup 11 index sub abs bThreshold gt
                { STsplit }
                { 7 index 13 index sub abs rThreshold gt
                  { STsplit }
                  { 6 index 12 index sub abs gThreshold gt
                    { STsplit }
                    { 5 index 11 index sub abs bThreshold gt
                      { STsplit }
                      { Tm }
                      ifelse }
                    ifelse }
                  ifelse }
                ifelse }
              ifelse }
            ifelse }
          ifelse }
        ifelse }
      ifelse } BD
tryPS3shading
{ /shfill where
  { /ST { STshfill } BD }
  { /ST { STnoshfill } BD }
  ifelse }
{ /ST { STnoshfill } BD }
ifelse
end
%%EndProlog
%%BeginSetup
/DeviceRGB setcolorspace
gl2psdict begin
%%EndSetup
%%Page: 1 1
%%BeginPageSetup
%%EndPageSetup
mark
gsave
1.0 1.0 scale
1 1 1 C
521.28 47.52 521.28 399.6 521.28 47.52 T
521.28 47.52 521.28 399.6 521.28 399.6 T
74.88 399.6 521.28 399.6 74.88 399.6 T
74.88 399.6 521.28 399.6 521.28 399.6 T
74.88 399.6 521.28 47.52 74.88 47.52 T
74.88 399.6 521.28 399.6 521.28 47.52 T
0.5 W
[16 0] 0 setdash
0 0 0 C
74.88 47.52 LS
521.28 47.52 LE
74.88 399.6 LS
521.28 399.6 LE
74.88 399.6 LS
521.28 399.6 LE
74.88 47.52 LS
521.28 47.52 LE
74.88 47.52 LS
74.88 399.6 LE
521.28 47.52 LS
521.28 399.6 LE
521.28 47.52 LS
521.28 399.6 LE
74.88 47.52 LS
74.88 399.6 L
74.88 399.6 LE
521.28 399.6 LS
521.28 399.6 LE
521.28 47.52 LS
521.28 47.52 LE
74.88 47.52 LS
74.88 47.52 L
74.88 51.985 LE
74.88 399.6 LS
74.88 395.135 LE
186.48 47.52 LS
186.48 51.985 LE
186.48 399.6 LS
186.48 395.135 LE
298.08 47.52 LS
298.08 51.985 LE
298.08 399.6 LS
298.08 395.135 LE
409.68 47.52 LS
409.68 51.985 LE
409.68 399.6 LS
409.68 395.135 LE
521.28 47.52 LS
521.28 51.985 LE
521.28 399.6 LS
521.28 395.135 LE
(0) 74.88 42.5189 15 /Helvetica STC
(20) 186.48 42.5189 15 /Helvetica STC
(40) 298.08 42.5189 15 /Helvetica STC
(60) 409.68 42.5189 15 /Helvetica STC
(80) 521.28 42.5189 15 /Helvetica STC
74.88 47.52 LS
79.348 47.52 LE
521.28 47.52 LS
516.812 47.52 LE
74.88 117.936 LS
79.348 117.936 LE
521.28 117.936 LS
516.812 117.936 LE
74.88 188.352 LS
79.348 188.352 LE
521.28 188.352 LS
516.812 188.352 LE
74.88 258.768 LS
79.348 258.768 LE
521.28 258.768 LS
516.812 258.768 LE
74.88 329.184 LS
79.348 329.184 LE
521.28 329.184 LS
516.812 329.184 LE
74.88 399.6 LS
79.348 399.6 LE
521.28 399.6 LS
516.812 399.6 LE
(1e-6) 69.8755 47.52 15 /Helvetica SCR
(1e-5) 69.8755 117.936 15 /Helvetica SCR
(1e-4) 69.8755 188.352 15 /Helvetica SCR
(1e-3) 69.8755 258.768 15 /Helvetica SCR
(1e-2) 69.8755 329.184 15 /Helvetica SCR
(1e-1) 69.8755 399.6 15 /Helvetica SCR
(N) 298.08 24.5189 15 /Helvetica STC
(Norm) 90 36.8755 223.56 15 /Helvetica SBCR
(L2 norm of change per iteration) 298.08 409.6 15 /Helvetica SBC
2 W
[] 0 setdash
0 0 1 C
80.46 397.448 LS
86.04 372.125 L
91.62 372.256 L
97.2 370.623 L
102.78 345.364 L
108.36 327.402 L
113.94 337.362 L
119.52 322.192 L
125.1 279.612 L
130.68 302.004 L
136.26 301.679 L
141.84 282.426 L
147.42 253.101 L
153 262.392 L
158.58 259.318 L
164.16 246.861 L
169.74 244.264 L
175.32 244.894 L
180.9 238.985 L
186.48 229.996 L
192.06 224.492 L
197.64 221.751 L
203.22 218.734 L
208.8 215.785 L
214.38 212.922 L
219.96 209.381 L
225.54 205.209 L
231.12 201.082 L
236.7 197.355 L
242.28 193.897 L
247.86 190.515 L
253.44 187.075 L
259.02 183.486 L
264.6 179.744 L
270.18 175.935 L
275.76 172.152 L
281.34 168.426 L
286.92 164.738 L
292.5 161.048 L
298.08 157.324 L
303.66 153.558 L
309.24 149.761 L
314.82 145.956 L
320.4 142.158 L
325.98 138.368 L
331.56 134.581 L
337.14 130.79 L
342.72 126.989 L
348.3 123.18 L
353.88 119.366 L
359.46 115.553 L
365.04 111.743 L
370.62 107.936 L
376.2 104.13 L
381.78 100.325 L
387.36 96.5193 L
392.94 92.7143 L
398.52 88.911 L
404.1 85.1102 L
409.68 81.3122 L
415.26 77.5168 L
420.84 73.7236 L
426.42 69.9323 L
432 66.1428 L
437.58 62.3553 L
443.16 58.5698 L
448.74 54.7863 L
454.32 51.0047 L
459.9 47.2248 L
459.984 47.1679 LE
1 0 0 C
80.46 397.446 LS
86.04 391.264 L
91.62 376.966 L
97.2 360.686 L
102.78 361.984 L
108.36 350.406 L
113.94 324.293 L
119.52 323.937 L
125.1 324.465 L
130.68 311.627 L
136.26 300.715 L
141.84 301.015 L
147.42 297.329 L
153 290.257 L
158.58 285.624 L
164.16 282.89 L
169.74 279.179 L
175.32 275.112 L
180.9 271.688 L
186.48 268.406 L
192.06 264.833 L
197.64 261.211 L
203.22 257.709 L
208.8 254.216 L
214.38 250.666 L
219.96 247.095 L
225.54 243.509 L
231.12 239.887 L
236.7 236.229 L
242.28 232.555 L
247.86 228.868 L
253.44 225.167 L
259.02 221.447 L
264.6 217.711 L
270.18 213.96 L
275.76 210.195 L
281.34 206.421 L
286.92 202.64 L
292.5 198.854 L
298.08 195.063 L
303.66 191.268 L
309.24 187.468 L
314.82 183.665 L
320.4 179.86 L
325.98 176.054 L
331.56 172.247 L
337.14 168.442 L
342.72 164.637 L
348.3 160.835 L
353.88 157.034 L
359.46 153.235 L
365.04 149.438 L
370.62 145.645 L
376.2 141.854 L
381.78 138.065 L
387.36 134.28 L
392.94 130.498 L
398.52 126.718 L
404.1 122.941 L
409.68 119.166 L
415.26 115.394 L
420.84 111.623 L
426.42 107.854 L
432 104.087 L
437.58 100.321 L
443.16 96.5569 L
448.74 92.7934 L
454.32 89.0308 L
459.9 85.2688 L
465.48 81.5074 L
471.06 77.7464 L
476.64 73.9856 L
482.22 70.2249 L
487.8 66.4643 L
493.38 62.7037 L
498.96 58.9429 L
504.54 55.182 L
510.12 51.4207 L
515.7 47.6593 L
516.429 47.1679 LE
0 1 0 C
80.46 393.028 LS
86.04 371.73 L
91.62 352.763 L
97.2 339.053 L
102.78 324.299 L
108.36 326.422 L
113.94 320.15 L
119.52 311.859 L
125.1 305.599 L
130.68 300.543 L
136.26 295.684 L
141.84 291.384 L
147.42 287.575 L
153 283.713 L
158.58 279.903 L
164.16 276.393 L
169.74 273.056 L
175.32 269.673 L
180.9 266.183 L
186.48 262.64 L
192.06 259.137 L
197.64 255.733 L
203.22 252.416 L
208.8 249.115 L
214.38 245.762 L
219.96 242.324 L
225.54 238.819 L
231.12 235.286 L
236.7 231.753 L
242.28 228.228 L
247.86 224.696 L
253.44 221.136 L
259.02 217.537 L
264.6 213.9 L
270.18 210.235 L
275.76 206.555 L
281.34 202.865 L
286.92 199.168 L
292.5 195.459 L
298.08 191.736 L
303.66 187.999 L
309.24 184.251 L
314.82 180.494 L
320.4 176.734 L
325.98 172.97 L
331.56 169.204 L
337.14 165.436 L
342.72 161.665 L
348.3 157.892 L
353.88 154.119 L
359.46 150.345 L
365.04 146.572 L
370.62 142.8 L
376.2 139.03 L
381.78 135.261 L
387.36 131.492 L
392.94 127.725 L
398.52 123.959 L
404.1 120.195 L
409.68 116.432 L
415.26 112.67 L
420.84 108.909 L
426.42 105.149 L
432 101.39 L
437.58 97.6315 L
443.16 93.8736 L
448.74 90.1162 L
454.32 86.3592 L
459.9 82.6024 L
465.48 78.8457 L
471.06 75.089 L
476.64 71.3323 L
482.22 67.5753 L
487.8 63.8182 L
493.38 60.0608 L
498.96 56.3031 L
504.54 52.545 L
510.12 48.7865 L
512.523 47.1679 LE
1 0 1 C
80.46 396.111 LS
86.04 381.312 L
91.62 370.303 L
97.2 361.472 L
102.78 350.572 L
108.36 339.082 L
113.94 329.119 L
119.52 320.177 L
125.1 312.191 L
130.68 305.559 L
136.26 299.576 L
141.84 293.45 L
147.42 287.562 L
153 282.56 L
158.58 278.371 L
164.16 274.636 L
169.74 271.128 L
175.32 267.632 L
180.9 264.008 L
186.48 260.312 L
192.06 256.683 L
197.64 253.183 L
203.22 249.775 L
208.8 246.383 L
214.38 242.943 L
219.96 239.427 L
225.54 235.847 L
231.12 232.238 L
236.7 228.628 L
242.28 225.024 L
247.86 221.415 L
253.44 217.784 L
259.02 214.12 L
264.6 210.425 L
270.18 206.708 L
275.76 202.978 L
281.34 199.241 L
286.92 195.5 L
292.5 191.751 L
298.08 187.992 L
303.66 184.223 L
309.24 180.445 L
314.82 176.662 L
320.4 172.876 L
325.98 169.089 L
331.56 165.301 L
337.14 161.512 L
342.72 157.722 L
348.3 153.932 L
353.88 150.142 L
359.46 146.354 L
365.04 142.567 L
370.62 138.782 L
376.2 134.999 L
381.78 131.219 L
387.36 127.44 L
392.94 123.663 L
398.52 119.888 L
404.1 116.116 L
409.68 112.345 L
415.26 108.576 L
420.84 104.809 L
426.42 101.043 L
432 97.2782 L
437.58 93.5147 L
443.16 89.7522 L
448.74 85.9905 L
454.32 82.2295 L
459.9 78.4691 L
465.48 74.709 L
471.06 70.9491 L
476.64 67.1895 L
482.22 63.4299 L
487.8 59.6702 L
493.38 55.9105 L
498.96 52.1506 L
504.54 48.3904 L
506.354 47.1679 LE
1 1 1 C
518.538 287.149 518.538 396.858 518.538 287.149 T
518.538 287.149 518.538 396.858 518.538 396.858 T
402.322 396.858 518.538 396.858 402.322 396.858 T
402.322 396.858 518.538 396.858 518.538 396.858 T
402.322 396.858 518.538 287.149 402.322 287.149 T
402.322 396.858 518.538 396.858 518.538 287.149 T
[16 0] 0 setdash
0 0 0 C
402.322 287.149 LS
518.538 287.149 LE
402.322 396.858 LS
518.538 396.858 LE
402.322 396.858 LS
518.538 396.858 LE
402.322 287.149 LS
518.538 287.149 LE
402.322 287.149 LS
402.322 396.858 LE
518.538 287.149 LS
518.538 396.858 LE
518.538 287.149 LS
518.538 396.858 LE
402.322 287.149 LS
402.322 396.858 L
402.322 396.858 LE
518.538 396.858 LS
518.538 396.858 LE
518.538 287.149 LS
518.538 287.149 LE
402.322 287.149 LS
402.322 287.149 LE
(Pressure) 428.368 383.145 20 /Helvetica SCL
(U) 428.368 355.717 20 /Helvetica SCL
(V) 428.368 328.29 20 /Helvetica SCL
(Total) 428.368 300.863 20 /Helvetica SCL
0.5 W
[] 0 setdash
0 0 1 C
405.064 383.145 LS
425.626 383.145 LE
1 0 0 C
405.064 355.717 LS
425.626 355.717 LE
0 1 0 C
405.064 328.29 LS
425.626 328.29 LE
1 0 1 C
405.064 300.863 LS
425.626 300.863 LE
grestore
showpage
cleartomark
%%PageTrailer
%%Trailer
end
%%EOF
