%!PS-Adobe-3.0 EPSF-3.0
%%Title: glps_renderer figure
%%Creator: GL2PS 1.3.8, (C) 1999-2012 C. Geuzaine
%%For: Octave
%%CreationDate: Tue Dec 15 13:14:26 2015
%%LanguageLevel: 3
%%DocumentData: Clean7Bit
%%Pages: 1
%%BoundingBox: 0 0 560 420
%%EndComments
%%BeginProlog
/gl2psdict 64 dict def gl2psdict begin
0 setlinecap 0 setlinejoin
/tryPS3shading false def % set to false to force subdivision
/rThreshold 0.064 def % red component subdivision threshold
/gThreshold 0.034 def % green component subdivision threshold
/bThreshold 0.1 def % blue component subdivision threshold
/BD { bind def } bind def
/C  { setrgbcolor } BD
/G  { 0.082 mul exch 0.6094 mul add exch 0.3086 mul add neg 1.0 add setgray } BD
/W  { setlinewidth } BD
/FC { findfont exch /SH exch def SH scalefont setfont } BD
/SW { dup stringwidth pop } BD
/S  { FC moveto show } BD
/SBC{ FC moveto SW -2 div 0 rmoveto show } BD
/SBR{ FC moveto SW neg 0 rmoveto show } BD
/SCL{ FC moveto 0 SH -2 div rmoveto show } BD
/SCC{ FC moveto SW -2 div SH -2 div rmoveto show } BD
/SCR{ FC moveto SW neg SH -2 div rmoveto show } BD
/STL{ FC moveto 0 SH neg rmoveto show } BD
/STC{ FC moveto SW -2 div SH neg rmoveto show } BD
/STR{ FC moveto SW neg SH neg rmoveto show } BD
/FCT { FC translate 0 0 } BD
/SR  { gsave FCT moveto rotate show grestore } BD
/SBCR{ gsave FCT moveto rotate SW -2 div 0 rmoveto show grestore } BD
/SBRR{ gsave FCT moveto rotate SW neg 0 rmoveto show grestore } BD
/SCLR{ gsave FCT moveto rotate 0 SH -2 div rmoveto show grestore} BD
/SCCR{ gsave FCT moveto rotate SW -2 div SH -2 div rmoveto show grestore} BD
/SCRR{ gsave FCT moveto rotate SW neg SH -2 div rmoveto show grestore} BD
/STLR{ gsave FCT moveto rotate 0 SH neg rmoveto show grestore } BD
/STCR{ gsave FCT moveto rotate SW -2 div SH neg rmoveto show grestore } BD
/STRR{ gsave FCT moveto rotate SW neg SH neg rmoveto show grestore } BD
/P  { newpath 0.0 360.0 arc closepath fill } BD
/LS { newpath moveto } BD
/L  { lineto } BD
/LE { lineto stroke } BD
/T  { newpath moveto lineto lineto closepath fill } BD
/STshfill {
      /b1 exch def /g1 exch def /r1 exch def /y1 exch def /x1 exch def
      /b2 exch def /g2 exch def /r2 exch def /y2 exch def /x2 exch def
      /b3 exch def /g3 exch def /r3 exch def /y3 exch def /x3 exch def
      gsave << /ShadingType 4 /ColorSpace [/DeviceRGB]
      /DataSource [ 0 x1 y1 r1 g1 b1 0 x2 y2 r2 g2 b2 0 x3 y3 r3 g3 b3 ] >>
      shfill grestore } BD
/Tm { 3 -1 roll 8 -1 roll 13 -1 roll add add 3 div
      3 -1 roll 7 -1 roll 11 -1 roll add add 3 div
      3 -1 roll 6 -1 roll 9 -1 roll add add 3 div C T } BD
/STsplit {
      4 index 15 index add 0.5 mul
      4 index 15 index add 0.5 mul
      4 index 15 index add 0.5 mul
      4 index 15 index add 0.5 mul
      4 index 15 index add 0.5 mul
      5 copy 5 copy 25 15 roll
      9 index 30 index add 0.5 mul
      9 index 30 index add 0.5 mul
      9 index 30 index add 0.5 mul
      9 index 30 index add 0.5 mul
      9 index 30 index add 0.5 mul
      5 copy 5 copy 35 5 roll 25 5 roll 15 5 roll
      4 index 10 index add 0.5 mul
      4 index 10 index add 0.5 mul
      4 index 10 index add 0.5 mul
      4 index 10 index add 0.5 mul
      4 index 10 index add 0.5 mul
      5 copy 5 copy 40 5 roll 25 5 roll 15 5 roll 25 5 roll
      STnoshfill STnoshfill STnoshfill STnoshfill } BD
/STnoshfill {
      2 index 8 index sub abs rThreshold gt
      { STsplit }
      { 1 index 7 index sub abs gThreshold gt
        { STsplit }
        { dup 6 index sub abs bThreshold gt
          { STsplit }
          { 2 index 13 index sub abs rThreshold gt
            { STsplit }
            { 1 index 12 index sub abs gThreshold gt
              { STsplit }
              { dup 11 index sub abs bThreshold gt
                { STsplit }
                { 7 index 13 index sub abs rThreshold gt
                  { STsplit }
                  { 6 index 12 index sub abs gThreshold gt
                    { STsplit }
                    { 5 index 11 index sub abs bThreshold gt
                      { STsplit }
                      { Tm }
                      ifelse }
                    ifelse }
                  ifelse }
                ifelse }
              ifelse }
            ifelse }
          ifelse }
        ifelse }
      ifelse } BD
tryPS3shading
{ /shfill where
  { /ST { STshfill } BD }
  { /ST { STnoshfill } BD }
  ifelse }
{ /ST { STnoshfill } BD }
ifelse
end
%%EndProlog
%%BeginSetup
/DeviceRGB setcolorspace
gl2psdict begin
%%EndSetup
%%Page: 1 1
%%BeginPageSetup
%%EndPageSetup
mark
gsave
1.0 1.0 scale
1 1 1 C
506.8 46.2 506.8 388.5 506.8 46.2 T
506.8 46.2 506.8 388.5 506.8 388.5 T
72.8 388.5 506.8 388.5 72.8 388.5 T
72.8 388.5 506.8 388.5 506.8 388.5 T
72.8 388.5 506.8 46.2 72.8 46.2 T
72.8 388.5 506.8 388.5 506.8 46.2 T
0.5 W
[16 0] 0 setdash
0 0 0 C
72.8 46.2 LS
506.8 46.2 LE
72.8 388.5 LS
506.8 388.5 LE
72.8 388.5 LS
506.8 388.5 LE
72.8 46.2 LS
506.8 46.2 LE
72.8 46.2 LS
72.8 388.5 LE
506.8 46.2 LS
506.8 388.5 LE
506.8 46.2 LS
506.8 388.5 LE
72.8 46.2 LS
72.8 388.5 L
72.8 388.5 LE
506.8 388.5 LS
506.8 388.5 LE
506.8 46.2 LS
506.8 46.2 LE
72.8 46.2 LS
72.8 46.2 L
72.8 50.5438 LE
72.8 388.5 LS
72.8 384.156 LE
506.8 46.2 LS
506.8 50.5438 LE
506.8 388.5 LS
506.8 384.156 LE
(10) 72.8 41.1956 15 /Helvetica STC
(100) 506.8 41.1956 15 /Helvetica STC
72.8 46.2 LS
77.14 46.2 LE
506.8 46.2 LS
502.46 46.2 LE
72.8 217.35 LS
77.14 217.35 LE
506.8 217.35 LS
502.46 217.35 LE
72.8 388.5 LS
77.14 388.5 LE
506.8 388.5 LS
502.46 388.5 LE
(1e-3) 67.8 46.2 15 /Helvetica SCR
(1e-2) 67.8 217.35 15 /Helvetica SCR
(1e-1) 67.8 388.5 15 /Helvetica SCR
(N) 289.8 23.1956 15 /Helvetica STC
(L2 norm) 90 34.8 217.35 15 /Helvetica SBCR
(L2 norm of change in u(x=0.5,y) with respect to coarser mesh) 289.8 398.5 15 /Helvetica SBC
2 W
[] 0 setdash
0 0 1 C
203.447 242.755 LS
334.094 167.557 L
464.741 69.169 LE
206.447 242.755 LS
205.874 240.992 L
204.374 239.902 L
202.52 239.902 L
201.02 240.992 L
200.447 242.755 L
201.02 244.518 L
202.52 245.608 L
204.374 245.608 L
205.874 244.518 L
206.447 242.755 LE
337.094 167.557 LS
336.521 165.794 L
335.021 164.704 L
333.167 164.704 L
331.667 165.794 L
331.094 167.557 L
331.667 169.32 L
333.167 170.41 L
335.021 170.41 L
336.521 169.32 L
337.094 167.557 LE
467.741 69.1689 LS
467.168 67.4056 L
465.668 66.3158 L
463.814 66.3158 L
462.314 67.4056 L
461.741 69.1689 L
462.314 70.9323 L
463.814 72.0221 L
465.668 72.0221 L
467.168 70.9323 L
467.741 69.1689 LE
1 0 0 C
203.447 262.899 LS
334.094 175.063 L
464.741 83.3761 LE
200.447 265.899 LS
200.447 259.899 L
206.447 259.899 L
206.447 265.899 L
200.447 265.899 LE
331.094 178.063 LS
331.094 172.063 L
337.094 172.063 L
337.094 178.063 L
331.094 178.063 LE
461.741 86.3761 LS
461.741 80.3761 L
467.741 80.3761 L
467.741 86.3761 L
461.741 86.3761 LE
0 1 0 C
203.447 329.12 LS
334.094 203.859 L
464.741 130.979 LE
203.447 332.12 LS
200.447 326.12 L
206.447 326.12 L
203.447 332.12 LE
334.094 206.859 LS
331.094 200.859 L
337.094 200.859 L
334.094 206.859 LE
464.741 133.979 LS
461.741 127.979 L
467.741 127.979 L
464.741 133.979 LE
1 1 1 C
504.135 305.838 504.135 385.834 504.135 305.838 T
504.135 305.838 504.135 385.834 504.135 385.834 T
439.147 385.834 504.135 385.834 439.147 385.834 T
439.147 385.834 504.135 385.834 504.135 385.834 T
439.147 385.834 504.135 305.838 439.147 305.838 T
439.147 385.834 504.135 385.834 504.135 305.838 T
[16 0] 0 setdash
0 0 0 C
439.147 305.838 LS
504.135 305.838 LE
439.147 385.834 LS
504.135 385.834 LE
439.147 385.834 LS
504.135 385.834 LE
439.147 305.838 LS
504.135 305.838 LE
439.147 305.838 LS
439.147 385.834 LE
504.135 305.838 LS
504.135 385.834 LE
504.135 305.838 LS
504.135 385.834 LE
439.147 305.838 LS
439.147 385.834 L
439.147 385.834 LE
504.135 385.834 LS
504.135 385.834 LE
504.135 305.838 LS
504.135 305.838 LE
439.147 305.838 LS
439.147 305.838 LE
(L1) 464.469 372.502 20 /Helvetica SCL
(L2) 464.469 345.836 20 /Helvetica SCL
(Linf) 464.469 319.171 20 /Helvetica SCL
0.5 W
[] 0 setdash
0 0 1 C
441.812 372.502 LS
461.804 372.502 LE
454.808 372.502 LS
454.235 370.738 L
452.735 369.649 L
450.881 369.649 L
449.381 370.738 L
448.808 372.502 L
449.381 374.265 L
450.881 375.355 L
452.735 375.355 L
454.235 374.265 L
454.808 372.502 LE
1 0 0 C
441.812 345.836 LS
461.804 345.836 LE
448.808 348.836 LS
448.808 342.836 L
454.808 342.836 L
454.808 348.836 L
448.808 348.836 LE
0 1 0 C
441.812 319.171 LS
461.804 319.171 LE
451.808 322.171 LS
448.808 316.171 L
454.808 316.171 L
451.808 322.171 LE
grestore
showpage
cleartomark
%%PageTrailer
%%Trailer
end
%%EOF
