%!PS-Adobe-3.0 EPSF-3.0
%%Title: glps_renderer figure
%%Creator: GL2PS 1.3.8, (C) 1999-2012 C. Geuzaine
%%For: Octave
%%CreationDate: Tue Dec 15 13:14:25 2015
%%LanguageLevel: 3
%%DocumentData: Clean7Bit
%%Pages: 1
%%BoundingBox: 0 0 576 432
%%EndComments
%%BeginProlog
/gl2psdict 64 dict def gl2psdict begin
0 setlinecap 0 setlinejoin
/tryPS3shading false def % set to false to force subdivision
/rThreshold 0.064 def % red component subdivision threshold
/gThreshold 0.034 def % green component subdivision threshold
/bThreshold 0.1 def % blue component subdivision threshold
/BD { bind def } bind def
/C  { setrgbcolor } BD
/G  { 0.082 mul exch 0.6094 mul add exch 0.3086 mul add neg 1.0 add setgray } BD
/W  { setlinewidth } BD
/FC { findfont exch /SH exch def SH scalefont setfont } BD
/SW { dup stringwidth pop } BD
/S  { FC moveto show } BD
/SBC{ FC moveto SW -2 div 0 rmoveto show } BD
/SBR{ FC moveto SW neg 0 rmoveto show } BD
/SCL{ FC moveto 0 SH -2 div rmoveto show } BD
/SCC{ FC moveto SW -2 div SH -2 div rmoveto show } BD
/SCR{ FC moveto SW neg SH -2 div rmoveto show } BD
/STL{ FC moveto 0 SH neg rmoveto show } BD
/STC{ FC moveto SW -2 div SH neg rmoveto show } BD
/STR{ FC moveto SW neg SH neg rmoveto show } BD
/FCT { FC translate 0 0 } BD
/SR  { gsave FCT moveto rotate show grestore } BD
/SBCR{ gsave FCT moveto rotate SW -2 div 0 rmoveto show grestore } BD
/SBRR{ gsave FCT moveto rotate SW neg 0 rmoveto show grestore } BD
/SCLR{ gsave FCT moveto rotate 0 SH -2 div rmoveto show grestore} BD
/SCCR{ gsave FCT moveto rotate SW -2 div SH -2 div rmoveto show grestore} BD
/SCRR{ gsave FCT moveto rotate SW neg SH -2 div rmoveto show grestore} BD
/STLR{ gsave FCT moveto rotate 0 SH neg rmoveto show grestore } BD
/STCR{ gsave FCT moveto rotate SW -2 div SH neg rmoveto show grestore } BD
/STRR{ gsave FCT moveto rotate SW neg SH neg rmoveto show grestore } BD
/P  { newpath 0.0 360.0 arc closepath fill } BD
/LS { newpath moveto } BD
/L  { lineto } BD
/LE { lineto stroke } BD
/T  { newpath moveto lineto lineto closepath fill } BD
/STshfill {
      /b1 exch def /g1 exch def /r1 exch def /y1 exch def /x1 exch def
      /b2 exch def /g2 exch def /r2 exch def /y2 exch def /x2 exch def
      /b3 exch def /g3 exch def /r3 exch def /y3 exch def /x3 exch def
      gsave << /ShadingType 4 /ColorSpace [/DeviceRGB]
      /DataSource [ 0 x1 y1 r1 g1 b1 0 x2 y2 r2 g2 b2 0 x3 y3 r3 g3 b3 ] >>
      shfill grestore } BD
/Tm { 3 -1 roll 8 -1 roll 13 -1 roll add add 3 div
      3 -1 roll 7 -1 roll 11 -1 roll add add 3 div
      3 -1 roll 6 -1 roll 9 -1 roll add add 3 div C T } BD
/STsplit {
      4 index 15 index add 0.5 mul
      4 index 15 index add 0.5 mul
      4 index 15 index add 0.5 mul
      4 index 15 index add 0.5 mul
      4 index 15 index add 0.5 mul
      5 copy 5 copy 25 15 roll
      9 index 30 index add 0.5 mul
      9 index 30 index add 0.5 mul
      9 index 30 index add 0.5 mul
      9 index 30 index add 0.5 mul
      9 index 30 index add 0.5 mul
      5 copy 5 copy 35 5 roll 25 5 roll 15 5 roll
      4 index 10 index add 0.5 mul
      4 index 10 index add 0.5 mul
      4 index 10 index add 0.5 mul
      4 index 10 index add 0.5 mul
      4 index 10 index add 0.5 mul
      5 copy 5 copy 40 5 roll 25 5 roll 15 5 roll 25 5 roll
      STnoshfill STnoshfill STnoshfill STnoshfill } BD
/STnoshfill {
      2 index 8 index sub abs rThreshold gt
      { STsplit }
      { 1 index 7 index sub abs gThreshold gt
        { STsplit }
        { dup 6 index sub abs bThreshold gt
          { STsplit }
          { 2 index 13 index sub abs rThreshold gt
            { STsplit }
            { 1 index 12 index sub abs gThreshold gt
              { STsplit }
              { dup 11 index sub abs bThreshold gt
                { STsplit }
                { 7 index 13 index sub abs rThreshold gt
                  { STsplit }
                  { 6 index 12 index sub abs gThreshold gt
                    { STsplit }
                    { 5 index 11 index sub abs bThreshold gt
                      { STsplit }
                      { Tm }
                      ifelse }
                    ifelse }
                  ifelse }
                ifelse }
              ifelse }
            ifelse }
          ifelse }
        ifelse }
      ifelse } BD
tryPS3shading
{ /shfill where
  { /ST { STshfill } BD }
  { /ST { STnoshfill } BD }
  ifelse }
{ /ST { STnoshfill } BD }
ifelse
end
%%EndProlog
%%BeginSetup
/DeviceRGB setcolorspace
gl2psdict begin
%%EndSetup
%%Page: 1 1
%%BeginPageSetup
%%EndPageSetup
mark
gsave
1.0 1.0 scale
1 1 1 C
521.28 47.52 521.28 399.6 521.28 47.52 T
521.28 47.52 521.28 399.6 521.28 399.6 T
74.88 399.6 521.28 399.6 74.88 399.6 T
74.88 399.6 521.28 399.6 521.28 399.6 T
74.88 399.6 521.28 47.52 74.88 47.52 T
74.88 399.6 521.28 399.6 521.28 47.52 T
0.5 W
[16 0] 0 setdash
0 0 0 C
74.88 47.52 LS
521.28 47.52 LE
74.88 399.6 LS
521.28 399.6 LE
74.88 399.6 LS
521.28 399.6 LE
74.88 47.52 LS
521.28 47.52 LE
74.88 47.52 LS
74.88 399.6 LE
521.28 47.52 LS
521.28 399.6 LE
521.28 47.52 LS
521.28 399.6 LE
74.88 47.52 LS
74.88 399.6 L
74.88 399.6 LE
521.28 399.6 LS
521.28 399.6 LE
521.28 47.52 LS
521.28 47.52 LE
74.88 47.52 LS
74.88 47.52 LE
[0 3 1 3 1 3 1 3 1 0] 0 setdash
74.88 47.52 LS
74.88 399.6 LE
138.651 47.52 LS
138.651 399.6 LE
202.423 47.52 LS
202.423 399.6 LE
266.194 47.52 LS
266.194 399.6 LE
329.966 47.52 LS
329.966 399.6 LE
393.737 47.52 LS
393.737 399.6 LE
457.509 47.52 LS
457.509 399.6 LE
521.28 47.52 LS
521.28 399.6 LE
[16 0] 0 setdash
74.88 47.52 LS
74.88 51.985 LE
74.88 399.6 LS
74.88 395.135 LE
138.651 47.52 LS
138.651 51.985 LE
138.651 399.6 LS
138.651 395.135 LE
202.423 47.52 LS
202.423 51.985 LE
202.423 399.6 LS
202.423 395.135 LE
266.194 47.52 LS
266.194 51.985 LE
266.194 399.6 LS
266.194 395.135 LE
329.966 47.52 LS
329.966 51.985 LE
329.966 399.6 LS
329.966 395.135 LE
393.737 47.52 LS
393.737 51.985 LE
393.737 399.6 LS
393.737 395.135 LE
457.509 47.52 LS
457.509 51.985 LE
457.509 399.6 LS
457.509 395.135 LE
521.28 47.52 LS
521.28 51.985 LE
521.28 399.6 LS
521.28 395.135 LE
(-0.4) 74.88 42.5189 15 /Helvetica STC
(-0.2) 138.651 42.5189 15 /Helvetica STC
(0) 202.423 42.5189 15 /Helvetica STC
(0.2) 266.194 42.5189 15 /Helvetica STC
(0.4) 329.966 42.5189 15 /Helvetica STC
(0.6) 393.737 42.5189 15 /Helvetica STC
(0.8) 457.509 42.5189 15 /Helvetica STC
(1) 521.28 42.5189 15 /Helvetica STC
[0 3 1 3 1 3 1 3 1 0] 0 setdash
74.88 47.52 LS
521.28 47.52 LE
74.88 117.936 LS
521.28 117.936 LE
74.88 188.352 LS
521.28 188.352 LE
74.88 258.768 LS
521.28 258.768 LE
74.88 329.184 LS
521.28 329.184 LE
74.88 399.6 LS
521.28 399.6 LE
[16 0] 0 setdash
74.88 47.52 LS
79.348 47.52 LE
521.28 47.52 LS
516.812 47.52 LE
74.88 117.936 LS
79.348 117.936 LE
521.28 117.936 LS
516.812 117.936 LE
74.88 188.352 LS
79.348 188.352 LE
521.28 188.352 LS
516.812 188.352 LE
74.88 258.768 LS
79.348 258.768 LE
521.28 258.768 LS
516.812 258.768 LE
74.88 329.184 LS
79.348 329.184 LE
521.28 329.184 LS
516.812 329.184 LE
74.88 399.6 LS
79.348 399.6 LE
521.28 399.6 LS
516.812 399.6 LE
(0) 69.8755 47.52 15 /Helvetica SCR
(0.2) 69.8755 117.936 15 /Helvetica SCR
(0.4) 69.8755 188.352 15 /Helvetica SCR
(0.6) 69.8755 258.768 15 /Helvetica SCR
(0.8) 69.8755 329.184 15 /Helvetica SCR
(1) 69.8755 399.6 15 /Helvetica SCR
(Velocity U) 298.08 24.5188 15 /Helvetica STC
(Y) 90 45.8755 223.56 15 /Helvetica SBCR
(Velocity U along vertical line of symmetry) 298.08 409.6 15 /Helvetica SBC
2 W
[] 0 setdash
0 1 0 C
205.423 47.52 LS
204.85 45.7566 L
203.35 44.6668 L
201.496 44.6668 L
199.996 45.7566 L
199.423 47.52 L
199.996 49.2833 L
201.496 50.3732 L
203.35 50.3732 L
204.85 49.2833 L
205.423 47.52 LE
193.913 65.124 LS
193.34 63.3606 L
191.84 62.2708 L
189.986 62.2708 L
188.486 63.3606 L
187.913 65.124 L
188.486 66.8873 L
189.986 67.9772 L
191.84 67.9772 L
193.34 66.8873 L
193.913 65.124 LE
178.717 100.332 LS
178.144 98.5686 L
176.644 97.4788 L
174.79 97.4788 L
173.29 98.5686 L
172.717 100.332 L
173.29 102.095 L
174.79 103.185 L
176.644 103.185 L
178.144 102.095 L
178.717 100.332 LE
165.167 135.54 LS
164.594 133.777 L
163.094 132.687 L
161.24 132.687 L
159.74 133.777 L
159.167 135.54 L
159.74 137.303 L
161.24 138.393 L
163.094 138.393 L
164.594 137.303 L
165.167 135.54 LE
153.167 170.748 LS
152.594 168.985 L
151.094 167.895 L
149.24 167.895 L
147.74 168.985 L
147.167 170.748 L
147.74 172.511 L
149.24 173.601 L
151.094 173.601 L
152.594 172.511 L
153.167 170.748 LE
145.772 205.956 LS
145.2 204.193 L
143.7 203.103 L
141.845 203.103 L
140.345 204.193 L
139.772 205.956 L
140.345 207.719 L
141.845 208.809 L
143.7 208.809 L
145.2 207.719 L
145.772 205.956 LE
148.723 241.164 LS
148.151 239.401 L
146.651 238.311 L
144.796 238.311 L
143.296 239.401 L
142.723 241.164 L
143.296 242.927 L
144.796 244.017 L
146.651 244.017 L
148.151 242.927 L
148.723 241.164 LE
170.203 276.372 LS
169.63 274.609 L
168.13 273.519 L
166.276 273.519 L
164.776 274.609 L
164.203 276.372 L
164.776 278.135 L
166.276 279.225 L
168.13 279.225 L
169.63 278.135 L
170.203 276.372 LE
209.901 311.58 LS
209.328 309.817 L
207.828 308.727 L
205.974 308.727 L
204.474 309.817 L
203.901 311.58 L
204.474 313.343 L
205.974 314.433 L
207.828 314.433 L
209.328 313.343 L
209.901 311.58 LE
278.897 346.788 LS
278.324 345.025 L
276.824 343.935 L
274.97 343.935 L
273.47 345.025 L
272.897 346.788 L
273.47 348.551 L
274.97 349.641 L
276.824 349.641 L
278.324 348.551 L
278.897 346.788 LE
408.793 381.996 LS
408.22 380.233 L
406.72 379.143 L
404.866 379.143 L
403.366 380.233 L
402.793 381.996 L
403.366 383.759 L
404.866 384.849 L
406.72 384.849 L
408.22 383.759 L
408.793 381.996 LE
524.28 399.6 LS
523.707 397.837 L
522.207 396.747 L
520.353 396.747 L
518.853 397.837 L
518.28 399.6 L
518.853 401.363 L
520.353 402.453 L
522.207 402.453 L
523.707 401.363 L
524.28 399.6 LE
1 0 1 C
199.423 50.52 LS
199.423 44.52 L
205.423 44.52 L
205.423 50.52 L
199.423 50.52 LE
193.594 59.322 LS
193.594 53.322 L
199.594 53.322 L
199.594 59.322 L
193.594 59.322 LE
184.274 76.926 LS
184.274 70.926 L
190.274 70.926 L
190.274 76.926 L
184.274 76.926 LE
175.923 94.53 LS
175.923 88.53 L
181.923 88.53 L
181.923 94.53 L
175.923 94.53 LE
168.15 112.134 LS
168.15 106.134 L
174.15 106.134 L
174.15 112.134 L
168.15 112.134 LE
160.414 129.738 LS
160.414 123.738 L
166.414 123.738 L
166.414 129.738 L
160.414 129.738 LE
152.722 147.342 LS
152.722 141.342 L
158.722 141.342 L
158.722 147.342 L
152.722 147.342 LE
145.249 164.946 LS
145.249 158.946 L
151.249 158.946 L
151.249 164.946 L
145.249 164.946 LE
138.636 182.55 LS
138.636 176.55 L
144.636 176.55 L
144.636 182.55 L
138.636 182.55 LE
133.805 200.154 LS
133.805 194.154 L
139.805 194.154 L
139.805 200.154 L
133.805 200.154 LE
131.936 217.758 LS
131.936 211.758 L
137.936 211.758 L
137.936 217.758 L
131.936 217.758 LE
134.186 235.362 LS
134.186 229.362 L
140.186 229.362 L
140.186 235.362 L
134.186 235.362 LE
141.408 252.966 LS
141.408 246.966 L
147.408 246.966 L
147.408 252.966 L
141.408 252.966 LE
153.891 270.57 LS
153.891 264.57 L
159.891 264.57 L
159.891 270.57 L
153.891 270.57 LE
171.392 288.174 LS
171.392 282.174 L
177.392 282.174 L
177.392 288.174 L
171.392 288.174 LE
193.365 305.778 LS
193.365 299.778 L
199.365 299.778 L
199.365 305.778 L
193.365 305.778 LE
220.243 323.382 LS
220.243 317.382 L
226.243 317.382 L
226.243 323.382 L
220.243 323.382 LE
254.022 340.986 LS
254.022 334.986 L
260.022 334.986 L
260.022 340.986 L
254.022 340.986 LE
301.206 358.59 LS
301.206 352.59 L
307.206 352.59 L
307.206 358.59 L
301.206 358.59 LE
369.234 376.194 LS
369.234 370.194 L
375.234 370.194 L
375.234 376.194 L
369.234 376.194 LE
465.038 393.798 LS
465.038 387.798 L
471.038 387.798 L
471.038 393.798 L
465.038 393.798 LE
518.28 402.6 LS
518.28 396.6 L
524.28 396.6 L
524.28 402.6 L
518.28 402.6 LE
1 0 0 C
199.423 47.52 LS
205.423 47.52 LE
202.423 50.52 LS
202.423 44.52 LE
196.411 51.921 LS
202.411 51.921 LE
199.411 54.921 LS
199.411 48.921 LE
191.048 60.723 LS
197.048 60.723 LE
194.048 63.723 LS
194.048 57.723 LE
186.122 69.525 LS
192.122 69.525 LE
189.122 72.525 LS
189.122 66.525 LE
181.55 78.327 LS
187.55 78.327 LE
184.55 81.327 LS
184.55 75.327 LE
177.196 87.129 LS
183.195 87.129 LE
180.195 90.129 LS
180.195 84.129 LE
172.995 95.931 LS
178.995 95.931 LE
175.995 98.931 LS
175.995 92.931 LE
168.865 104.733 LS
174.865 104.733 LE
171.865 107.733 LS
171.865 101.733 LE
164.771 113.535 LS
170.771 113.535 LE
167.771 116.535 LS
167.771 110.535 LE
160.677 122.337 LS
166.677 122.337 LE
163.677 125.337 LS
163.677 119.337 LE
156.58 131.139 LS
162.58 131.139 LE
159.58 134.139 LS
159.58 128.139 LE
152.493 139.941 LS
158.493 139.941 LE
155.493 142.941 LS
155.493 136.941 LE
148.458 148.743 LS
154.458 148.743 LE
151.458 151.743 LS
151.458 145.743 LE
144.538 157.545 LS
150.538 157.545 LE
147.538 160.545 LS
147.538 154.545 LE
140.827 166.347 LS
146.827 166.347 LE
143.827 169.347 LS
143.827 163.347 LE
137.44 175.149 LS
143.44 175.149 LE
140.44 178.149 LS
140.44 172.149 LE
134.513 183.951 LS
140.513 183.951 LE
137.513 186.951 LS
137.513 180.951 LE
132.198 192.753 LS
138.198 192.753 LE
135.198 195.753 LS
135.198 189.753 LE
130.656 201.555 LS
136.656 201.555 LE
133.656 204.555 LS
133.656 198.555 LE
130.042 210.357 LS
136.042 210.357 LE
133.042 213.357 LS
133.042 207.357 LE
130.501 219.159 LS
136.501 219.159 LE
133.501 222.159 LS
133.501 216.159 LE
132.15 227.961 LS
138.15 227.961 LE
135.15 230.961 LS
135.15 224.961 LE
135.073 236.763 LS
141.073 236.763 LE
138.073 239.763 LS
138.073 233.763 LE
139.31 245.565 LS
145.31 245.565 LE
142.31 248.565 LS
142.31 242.565 LE
144.86 254.367 LS
150.86 254.367 LE
147.86 257.367 LS
147.86 251.367 LE
151.673 263.169 LS
157.673 263.169 LE
154.673 266.169 LS
154.673 260.169 LE
159.674 271.971 LS
165.674 271.971 LE
162.674 274.971 LS
162.674 268.971 LE
168.763 280.773 LS
174.763 280.773 LE
171.763 283.773 LS
171.763 277.773 LE
178.856 289.575 LS
184.856 289.575 LE
181.856 292.575 LS
181.856 286.575 LE
189.889 298.377 LS
195.889 298.377 LE
192.889 301.377 LS
192.889 295.377 LE
201.893 307.179 LS
207.893 307.179 LE
204.893 310.179 LS
204.893 304.179 LE
214.987 315.981 LS
220.987 315.981 LE
217.987 318.981 LS
217.987 312.981 LE
229.508 324.783 LS
235.508 324.783 LE
232.508 327.783 LS
232.508 321.783 LE
245.96 333.585 LS
251.96 333.585 LE
248.96 336.585 LS
248.96 330.585 LE
265.207 342.387 LS
271.207 342.387 LE
268.207 345.387 LS
268.207 339.387 LE
288.266 351.189 LS
294.266 351.189 LE
291.266 354.189 LS
291.266 348.189 LE
316.499 359.991 LS
322.499 359.991 LE
319.499 362.991 LS
319.499 356.991 LE
350.964 368.793 LS
356.964 368.793 LE
353.964 371.793 LS
353.964 365.793 LE
392.502 377.595 LS
398.502 377.595 LE
395.502 380.595 LS
395.502 374.595 LE
440.348 386.397 LS
446.348 386.397 LE
443.348 389.397 LS
443.348 383.397 LE
492.494 395.199 LS
498.494 395.199 LE
495.494 398.199 LS
495.494 392.199 LE
518.28 399.6 LS
524.28 399.6 LE
521.28 402.6 LS
521.28 396.6 LE
[12 4] 0 setdash
0 0 1 C
202.423 47.52 LS
200.908 49.7205 L
198.051 54.1215 L
195.336 58.5225 L
192.748 62.9235 L
190.266 67.3245 L
187.877 71.7255 L
185.563 76.1265 L
183.314 80.5275 L
181.115 84.9285 L
178.957 89.3295 L
176.831 93.7305 L
174.728 98.1315 L
172.641 102.532 L
170.565 106.933 L
168.495 111.334 L
166.428 115.735 L
164.361 120.136 L
162.295 124.537 L
160.229 128.938 L
158.167 133.34 L
156.112 137.74 L
154.069 142.141 L
152.046 146.542 L
150.051 150.943 L
148.094 155.344 L
146.188 159.745 L
144.346 164.146 L
142.582 168.548 L
140.913 172.948 L
139.356 177.35 L
137.93 181.75 L
136.654 186.151 L
135.547 190.552 L
134.63 194.953 L
133.922 199.354 L
133.442 203.755 L
133.208 208.156 L
133.239 212.557 L
133.549 216.958 L
134.152 221.359 L
135.06 225.761 L
136.281 230.161 L
137.822 234.562 L
139.687 238.963 L
141.876 243.364 L
144.388 247.766 L
147.217 252.167 L
150.356 256.568 L
153.797 260.969 L
157.527 265.369 L
161.535 269.771 L
165.808 274.171 L
170.332 278.572 L
175.097 282.974 L
180.092 287.375 L
185.31 291.776 L
190.747 296.177 L
196.405 300.578 L
202.295 304.978 L
208.432 309.379 L
214.844 313.781 L
221.571 318.181 L
228.666 322.582 L
236.199 326.983 L
244.256 331.384 L
252.945 335.785 L
262.39 340.187 L
272.735 344.587 L
284.138 348.988 L
296.77 353.389 L
310.801 357.79 L
326.395 362.191 L
343.683 366.592 L
362.762 370.993 L
383.644 375.394 L
406.271 379.796 L
430.44 384.197 L
455.852 388.597 L
482.014 392.998 L
508.374 397.399 L
521.28 399.6 LE
1 1 1 C
518.538 50.2617 518.538 159.971 518.538 50.2617 T
518.538 50.2617 518.538 159.971 518.538 159.971 T
424.951 159.971 518.538 159.971 424.951 159.971 T
424.951 159.971 518.538 159.971 518.538 159.971 T
424.951 159.971 518.538 50.2617 424.951 50.2617 T
424.951 159.971 518.538 159.971 518.538 50.2617 T
[16 0] 0 setdash
0 0 0 C
424.951 50.2617 LS
518.538 50.2617 LE
424.951 159.971 LS
518.538 159.971 LE
424.951 159.971 LS
518.538 159.971 LE
424.951 50.2617 LS
518.538 50.2617 LE
424.951 50.2617 LS
424.951 159.971 LE
518.538 50.2617 LS
518.538 159.971 LE
518.538 50.2617 LS
518.538 159.971 LE
424.951 50.2617 LS
424.951 159.971 L
424.951 159.971 LE
518.538 159.971 LS
518.538 159.971 LE
518.538 50.2617 LS
518.538 50.2617 LE
424.951 50.2617 LS
424.951 50.2617 LE
(10x10) 450.997 146.257 20 /Helvetica SCL
(20x20) 450.997 118.83 20 /Helvetica SCL
(40x40) 450.997 91.4027 20 /Helvetica SCL
(80x80) 450.997 63.9753 20 /Helvetica SCL
0.5 W
[] 0 setdash
0 1 0 C
440.974 146.257 LS
440.401 144.494 L
438.901 143.404 L
437.047 143.404 L
435.547 144.494 L
434.974 146.257 L
435.547 148.021 L
437.047 149.111 L
438.901 149.111 L
440.401 148.021 L
440.974 146.257 LE
1 0 1 C
434.974 121.83 LS
434.974 115.83 L
440.974 115.83 L
440.974 121.83 L
434.974 121.83 LE
1 0 0 C
434.974 91.4027 LS
440.974 91.4027 LE
437.974 94.4027 LS
437.974 88.4027 LE
[12 4] 0 setdash
0 0 1 C
427.693 63.9753 LS
448.255 63.9753 LE
grestore
showpage
cleartomark
%%PageTrailer
%%Trailer
end
%%EOF
