%!PS-Adobe-3.0 EPSF-3.0
%%Title: glps_renderer figure
%%Creator: GL2PS 1.3.8, (C) 1999-2012 C. Geuzaine
%%For: Octave
%%CreationDate: Mon Dec 14 14:55:04 2015
%%LanguageLevel: 3
%%DocumentData: Clean7Bit
%%Pages: 1
%%BoundingBox: 0 0 576 432
%%EndComments
%%BeginProlog
/gl2psdict 64 dict def gl2psdict begin
0 setlinecap 0 setlinejoin
/tryPS3shading false def % set to false to force subdivision
/rThreshold 0.064 def % red component subdivision threshold
/gThreshold 0.034 def % green component subdivision threshold
/bThreshold 0.1 def % blue component subdivision threshold
/BD { bind def } bind def
/C  { setrgbcolor } BD
/G  { 0.082 mul exch 0.6094 mul add exch 0.3086 mul add neg 1.0 add setgray } BD
/W  { setlinewidth } BD
/FC { findfont exch /SH exch def SH scalefont setfont } BD
/SW { dup stringwidth pop } BD
/S  { FC moveto show } BD
/SBC{ FC moveto SW -2 div 0 rmoveto show } BD
/SBR{ FC moveto SW neg 0 rmoveto show } BD
/SCL{ FC moveto 0 SH -2 div rmoveto show } BD
/SCC{ FC moveto SW -2 div SH -2 div rmoveto show } BD
/SCR{ FC moveto SW neg SH -2 div rmoveto show } BD
/STL{ FC moveto 0 SH neg rmoveto show } BD
/STC{ FC moveto SW -2 div SH neg rmoveto show } BD
/STR{ FC moveto SW neg SH neg rmoveto show } BD
/FCT { FC translate 0 0 } BD
/SR  { gsave FCT moveto rotate show grestore } BD
/SBCR{ gsave FCT moveto rotate SW -2 div 0 rmoveto show grestore } BD
/SBRR{ gsave FCT moveto rotate SW neg 0 rmoveto show grestore } BD
/SCLR{ gsave FCT moveto rotate 0 SH -2 div rmoveto show grestore} BD
/SCCR{ gsave FCT moveto rotate SW -2 div SH -2 div rmoveto show grestore} BD
/SCRR{ gsave FCT moveto rotate SW neg SH -2 div rmoveto show grestore} BD
/STLR{ gsave FCT moveto rotate 0 SH neg rmoveto show grestore } BD
/STCR{ gsave FCT moveto rotate SW -2 div SH neg rmoveto show grestore } BD
/STRR{ gsave FCT moveto rotate SW neg SH neg rmoveto show grestore } BD
/P  { newpath 0.0 360.0 arc closepath fill } BD
/LS { newpath moveto } BD
/L  { lineto } BD
/LE { lineto stroke } BD
/T  { newpath moveto lineto lineto closepath fill } BD
/STshfill {
      /b1 exch def /g1 exch def /r1 exch def /y1 exch def /x1 exch def
      /b2 exch def /g2 exch def /r2 exch def /y2 exch def /x2 exch def
      /b3 exch def /g3 exch def /r3 exch def /y3 exch def /x3 exch def
      gsave << /ShadingType 4 /ColorSpace [/DeviceRGB]
      /DataSource [ 0 x1 y1 r1 g1 b1 0 x2 y2 r2 g2 b2 0 x3 y3 r3 g3 b3 ] >>
      shfill grestore } BD
/Tm { 3 -1 roll 8 -1 roll 13 -1 roll add add 3 div
      3 -1 roll 7 -1 roll 11 -1 roll add add 3 div
      3 -1 roll 6 -1 roll 9 -1 roll add add 3 div C T } BD
/STsplit {
      4 index 15 index add 0.5 mul
      4 index 15 index add 0.5 mul
      4 index 15 index add 0.5 mul
      4 index 15 index add 0.5 mul
      4 index 15 index add 0.5 mul
      5 copy 5 copy 25 15 roll
      9 index 30 index add 0.5 mul
      9 index 30 index add 0.5 mul
      9 index 30 index add 0.5 mul
      9 index 30 index add 0.5 mul
      9 index 30 index add 0.5 mul
      5 copy 5 copy 35 5 roll 25 5 roll 15 5 roll
      4 index 10 index add 0.5 mul
      4 index 10 index add 0.5 mul
      4 index 10 index add 0.5 mul
      4 index 10 index add 0.5 mul
      4 index 10 index add 0.5 mul
      5 copy 5 copy 40 5 roll 25 5 roll 15 5 roll 25 5 roll
      STnoshfill STnoshfill STnoshfill STnoshfill } BD
/STnoshfill {
      2 index 8 index sub abs rThreshold gt
      { STsplit }
      { 1 index 7 index sub abs gThreshold gt
        { STsplit }
        { dup 6 index sub abs bThreshold gt
          { STsplit }
          { 2 index 13 index sub abs rThreshold gt
            { STsplit }
            { 1 index 12 index sub abs gThreshold gt
              { STsplit }
              { dup 11 index sub abs bThreshold gt
                { STsplit }
                { 7 index 13 index sub abs rThreshold gt
                  { STsplit }
                  { 6 index 12 index sub abs gThreshold gt
                    { STsplit }
                    { 5 index 11 index sub abs bThreshold gt
                      { STsplit }
                      { Tm }
                      ifelse }
                    ifelse }
                  ifelse }
                ifelse }
              ifelse }
            ifelse }
          ifelse }
        ifelse }
      ifelse } BD
tryPS3shading
{ /shfill where
  { /ST { STshfill } BD }
  { /ST { STnoshfill } BD }
  ifelse }
{ /ST { STnoshfill } BD }
ifelse
end
%%EndProlog
%%BeginSetup
/DeviceRGB setcolorspace
gl2psdict begin
%%EndSetup
%%Page: 1 1
%%BeginPageSetup
%%EndPageSetup
mark
gsave
1.0 1.0 scale
1 1 1 C
521.28 47.52 521.28 399.6 521.28 47.52 T
521.28 47.52 521.28 399.6 521.28 399.6 T
74.88 399.6 521.28 399.6 74.88 399.6 T
74.88 399.6 521.28 399.6 521.28 399.6 T
74.88 399.6 521.28 47.52 74.88 47.52 T
74.88 399.6 521.28 399.6 521.28 47.52 T
0.5 W
[16 0] 0 setdash
0 0 0 C
74.88 47.52 LS
521.28 47.52 LE
74.88 399.6 LS
521.28 399.6 LE
74.88 399.6 LS
521.28 399.6 LE
74.88 47.52 LS
521.28 47.52 LE
74.88 47.52 LS
74.88 399.6 LE
521.28 47.52 LS
521.28 399.6 LE
521.28 47.52 LS
521.28 399.6 LE
74.88 47.52 LS
74.88 399.6 L
74.88 399.6 LE
521.28 399.6 LS
521.28 399.6 LE
521.28 47.52 LS
521.28 47.52 LE
74.88 47.52 LS
74.88 47.52 L
74.88 51.985 LE
74.88 399.6 LS
74.88 395.135 LE
186.48 47.52 LS
186.48 51.985 LE
186.48 399.6 LS
186.48 395.135 LE
298.08 47.52 LS
298.08 51.985 LE
298.08 399.6 LS
298.08 395.135 LE
409.68 47.52 LS
409.68 51.985 LE
409.68 399.6 LS
409.68 395.135 LE
521.28 47.52 LS
521.28 51.985 LE
521.28 399.6 LS
521.28 395.135 LE
(0) 74.88 42.5188 15 /Helvetica STC
(50) 186.48 42.5188 15 /Helvetica STC
(100) 298.08 42.5188 15 /Helvetica STC
(150) 409.68 42.5188 15 /Helvetica STC
(200) 521.28 42.5188 15 /Helvetica STC
74.88 47.52 LS
79.348 47.52 LE
521.28 47.52 LS
516.812 47.52 LE
74.88 106.2 LS
79.348 106.2 LE
521.28 106.2 LS
516.812 106.2 LE
74.88 164.88 LS
79.348 164.88 LE
521.28 164.88 LS
516.812 164.88 LE
74.88 223.56 LS
79.348 223.56 LE
521.28 223.56 LS
516.812 223.56 LE
74.88 282.24 LS
79.348 282.24 LE
521.28 282.24 LS
516.812 282.24 LE
74.88 340.92 LS
79.348 340.92 LE
521.28 340.92 LS
516.812 340.92 LE
74.88 399.6 LS
79.348 399.6 LE
521.28 399.6 LS
516.812 399.6 LE
(1e-6) 69.8755 47.52 15 /Helvetica SCR
(1e-5) 69.8755 106.2 15 /Helvetica SCR
(1e-4) 69.8755 164.88 15 /Helvetica SCR
(1e-3) 69.8755 223.56 15 /Helvetica SCR
(1e-2) 69.8755 282.24 15 /Helvetica SCR
(1e-1) 69.8755 340.92 15 /Helvetica SCR
(1e+0) 69.8755 399.6 15 /Helvetica SCR
(N) 298.08 24.5188 15 /Helvetica STC
(L2 norm of change per iteration) 90 32.8755 223.56 15 /Helvetica SBCR
(Velocity U) 298.08 409.6 15 /Helvetica SBC
2 W
[] 0 setdash
0 0 1 C
77.112 344.151 LS
79.344 339.745 L
81.576 335.834 L
83.808 331.9 L
86.04 327.416 L
88.272 321.877 L
90.504 315.185 L
92.736 307.984 L
94.968 302.502 L
97.2 302.045 L
99.432 305.229 L
101.664 308.626 L
103.896 311.035 L
106.128 312.399 L
108.36 312.893 L
110.592 312.687 L
112.824 311.92 L
115.056 310.701 L
117.288 309.122 L
119.52 307.258 L
121.752 305.162 L
123.984 302.867 L
126.216 300.398 L
128.448 297.828 L
130.68 295.353 L
132.912 293.356 L
135.144 292.316 L
137.376 292.489 L
139.608 293.673 L
141.84 295.363 L
144.072 297.072 L
146.304 298.468 L
148.536 299.362 L
150.768 299.658 L
153 299.317 L
155.232 298.324 L
157.464 296.674 L
159.696 294.349 L
161.928 291.316 L
164.16 287.525 L
166.392 282.929 L
168.624 277.559 L
170.856 271.776 L
173.088 266.814 L
175.32 264.772 L
177.552 266.146 L
179.784 268.958 L
182.016 271.487 L
184.248 273.074 L
186.48 273.559 L
188.712 272.905 L
190.944 271.062 L
193.176 267.904 L
195.408 263.178 L
197.64 256.453 L
199.872 247.282 L
202.104 237.837 L
204.336 239.281 L
206.568 248.674 L
208.8 256.615 L
211.032 262.252 L
213.264 266.129 L
215.496 268.681 L
217.728 270.183 L
219.96 270.806 L
222.192 270.654 L
224.424 269.783 L
226.656 268.216 L
228.888 265.947 L
231.12 262.943 L
233.352 259.15 L
235.584 254.493 L
237.816 248.892 L
240.048 242.345 L
242.28 235.196 L
244.512 228.824 L
246.744 225.762 L
248.976 226.558 L
251.208 228.773 L
253.44 230.515 L
255.672 231.138 L
257.904 230.474 L
260.136 228.445 L
262.368 224.944 L
264.6 219.879 L
266.832 213.646 L
269.064 209.004 L
271.296 211.004 L
273.528 217.707 L
275.76 224.412 L
277.992 229.804 L
280.224 233.892 L
282.456 236.884 L
284.688 238.958 L
286.92 240.247 L
289.152 240.843 L
291.384 240.809 L
293.616 240.186 L
295.848 238.999 L
298.08 237.261 L
300.312 234.973 L
302.544 232.13 L
304.776 228.724 L
307.008 224.75 L
309.24 220.229 L
311.472 215.232 L
313.704 209.949 L
315.936 204.76 L
318.168 200.232 L
320.4 196.862 L
322.632 194.663 L
324.864 193.145 L
327.096 191.762 L
329.328 190.282 L
331.56 188.937 L
333.792 188.428 L
336.024 189.531 L
338.256 192.315 L
340.488 196.052 L
342.72 199.933 L
344.952 203.481 L
347.184 206.497 L
349.416 208.932 L
351.648 210.793 L
353.88 212.111 L
356.112 212.918 L
358.344 213.247 L
360.576 213.124 L
362.808 212.572 L
365.04 211.611 L
367.272 210.258 L
369.504 208.532 L
371.736 206.451 L
373.968 204.039 L
376.2 201.331 L
378.432 198.373 L
380.664 195.233 L
382.896 192 L
385.128 188.791 L
387.36 185.74 L
389.592 182.98 L
391.824 180.63 L
394.056 178.773 L
396.288 177.463 L
398.52 176.735 L
400.752 176.603 L
402.984 177.042 L
405.216 177.975 L
407.448 179.273 L
409.68 180.78 L
411.912 182.345 L
414.144 183.844 L
416.376 185.185 L
418.608 186.308 L
420.84 187.177 L
423.072 187.769 L
425.304 188.077 L
427.536 188.099 L
429.768 187.839 L
432 187.304 L
434.232 186.506 L
436.464 185.457 L
438.696 184.175 L
440.928 182.682 L
443.16 181.003 L
445.392 179.171 L
447.624 177.224 L
449.856 175.209 L
452.088 173.177 L
454.32 171.188 L
456.552 169.3 L
458.784 167.572 L
461.016 166.056 L
463.248 164.795 L
465.48 163.816 L
467.712 163.131 L
469.944 162.734 L
472.176 162.602 L
474.408 162.695 L
476.64 162.964 L
478.872 163.351 L
481.104 163.797 L
483.336 164.249 L
485.568 164.659 L
487.8 164.988 L
490.032 165.204 L
492.264 165.286 L
494.496 165.219 L
496.728 164.993 L
498.96 164.604 L
501.192 164.053 L
503.424 163.345 L
505.656 162.488 L
507.888 161.493 L
510.12 160.377 L
512.352 159.158 L
514.584 157.857 L
516.816 156.5 L
519.048 155.115 L
521.28 153.73 L
521.726 153.46 LE
1 W
1 0 0 C
77.112 348.797 LS
79.344 344.025 L
81.576 339.596 L
83.808 334.796 L
86.04 328.742 L
88.272 320.957 L
90.504 313.076 L
92.736 309.271 L
94.968 311.982 L
97.2 316.074 L
99.432 318.813 L
101.664 320.092 L
103.896 320.224 L
106.128 319.498 L
108.36 318.129 L
110.592 316.287 L
112.824 314.094 L
115.056 311.638 L
117.288 308.983 L
119.52 306.17 L
121.752 303.314 L
123.984 300.83 L
126.216 299.48 L
128.448 299.813 L
130.68 301.483 L
132.912 303.59 L
135.144 305.367 L
137.376 306.375 L
139.608 306.42 L
141.84 305.447 L
144.072 303.452 L
146.304 300.417 L
148.536 296.283 L
150.768 290.997 L
153 284.68 L
155.232 278.224 L
157.464 274.315 L
159.696 275.243 L
161.928 278.694 L
164.16 281.761 L
166.392 283.427 L
168.624 283.514 L
170.856 281.98 L
173.088 278.682 L
175.32 273.226 L
177.552 264.77 L
179.784 252.154 L
182.016 243.152 L
184.248 254.293 L
186.48 265.109 L
188.712 271.989 L
190.944 276.209 L
193.176 278.576 L
195.408 279.527 L
197.64 279.293 L
199.872 277.975 L
202.104 275.582 L
204.336 272.046 L
206.568 267.226 L
208.8 260.909 L
211.032 252.889 L
213.264 243.538 L
215.496 236.2 L
217.728 236.447 L
219.96 240.8 L
222.192 244.332 L
224.424 245.983 L
226.656 245.745 L
228.888 243.622 L
231.12 239.425 L
233.352 232.732 L
235.584 223.389 L
237.816 216.628 L
240.048 223.114 L
242.28 232.855 L
244.512 240.131 L
246.744 245.11 L
248.976 248.347 L
251.208 250.214 L
253.44 250.935 L
255.672 250.637 L
257.904 249.386 L
260.136 247.194 L
262.368 244.034 L
264.6 239.836 L
266.832 234.493 L
269.064 227.893 L
271.296 220.074 L
273.528 211.83 L
275.76 205.892 L
277.992 204.858 L
280.224 206.409 L
282.456 207.417 L
284.688 206.7 L
286.92 203.921 L
289.152 199.036 L
291.384 193.169 L
293.616 191.518 L
295.848 197.542 L
298.08 205.41 L
300.312 211.883 L
302.544 216.679 L
304.776 220.048 L
307.008 222.229 L
309.24 223.394 L
311.472 223.66 L
313.704 223.1 L
315.936 221.759 L
318.168 219.657 L
320.4 216.8 L
322.632 213.185 L
324.864 208.813 L
327.096 203.719 L
329.328 198.031 L
331.56 192.067 L
333.792 186.435 L
336.024 181.873 L
338.256 178.692 L
340.488 176.496 L
342.72 174.755 L
344.952 173.527 L
347.184 173.608 L
349.416 175.75 L
351.648 179.574 L
353.88 183.959 L
356.112 188.062 L
358.344 191.507 L
360.576 194.19 L
362.808 196.112 L
365.04 197.311 L
367.272 197.829 L
369.504 197.706 L
371.736 196.973 L
373.968 195.659 L
376.2 193.788 L
378.432 191.387 L
380.664 188.491 L
382.896 185.153 L
385.128 181.459 L
387.36 177.537 L
389.592 173.578 L
391.824 169.818 L
394.056 166.507 L
396.288 163.853 L
398.52 161.988 L
400.752 160.992 L
402.984 160.909 L
405.216 161.703 L
407.448 163.209 L
409.68 165.154 L
411.912 167.238 L
414.144 169.218 L
416.376 170.927 L
418.608 172.267 L
420.84 173.187 L
423.072 173.665 L
425.304 173.698 L
427.536 173.292 L
429.768 172.461 L
432 171.224 L
434.232 169.608 L
436.464 167.647 L
438.696 165.387 L
440.928 162.891 L
443.16 160.237 L
445.392 157.528 L
447.624 154.881 L
449.856 152.423 L
452.088 150.277 L
454.32 148.548 L
456.552 147.307 L
458.784 146.587 L
461.016 146.372 L
463.248 146.6 L
465.48 147.167 L
467.712 147.946 L
469.944 148.807 L
472.176 149.632 L
474.408 150.329 L
476.64 150.828 L
478.872 151.084 L
481.104 151.069 L
483.336 150.768 L
485.568 150.178 L
487.8 149.307 L
490.032 148.169 L
492.264 146.788 L
494.496 145.194 L
496.728 143.43 L
498.96 141.546 L
501.192 139.601 L
503.424 137.663 L
505.656 135.802 L
507.888 134.088 L
510.12 132.583 L
512.352 131.336 L
514.584 130.376 L
516.816 129.708 L
519.048 129.316 L
521.28 129.159 L
521.726 129.164 LE
0 1 0 C
77.112 352.726 LS
79.344 347.786 L
81.576 342.904 L
83.808 337.121 L
86.04 329.21 L
88.272 320.472 L
90.504 316.592 L
92.736 320.344 L
94.968 324.625 L
97.2 326.851 L
99.432 327.353 L
101.664 326.62 L
103.896 325.069 L
106.128 322.995 L
108.36 320.509 L
110.592 317.698 L
112.824 314.755 L
115.056 311.714 L
117.288 308.649 L
119.52 306.478 L
121.752 306.521 L
123.984 308.546 L
126.216 311.008 L
128.448 312.655 L
130.68 312.906 L
132.912 311.632 L
135.144 308.868 L
137.376 304.591 L
139.608 298.721 L
141.84 291.588 L
144.072 285.164 L
146.304 283.472 L
148.536 286.645 L
150.768 290.434 L
153 292.6 L
155.232 292.704 L
157.464 290.705 L
159.696 286.384 L
161.928 278.983 L
164.16 266.717 L
166.392 251.454 L
168.624 261.817 L
170.856 274.711 L
173.088 282.041 L
175.32 285.924 L
177.552 287.527 L
179.784 287.414 L
182.016 285.801 L
184.248 282.663 L
186.48 277.776 L
188.712 270.725 L
190.944 260.992 L
193.176 249.435 L
195.408 244.999 L
197.64 250.924 L
199.872 256.443 L
202.104 259.178 L
204.336 259.411 L
206.568 257.323 L
208.8 252.714 L
211.032 244.913 L
213.264 233.457 L
215.496 227.948 L
217.728 238.688 L
219.96 248.589 L
222.192 254.945 L
224.424 258.704 L
226.656 260.513 L
228.888 260.717 L
231.12 259.466 L
233.352 256.775 L
235.584 252.531 L
237.816 246.476 L
240.048 238.183 L
242.28 227.322 L
244.512 216.595 L
246.744 216.288 L
248.976 222.242 L
251.208 226.152 L
253.44 227.025 L
255.672 224.937 L
257.904 219.569 L
260.136 209.931 L
262.368 197.226 L
264.6 202.223 L
266.832 215.453 L
269.064 224.329 L
271.296 229.871 L
273.528 233.111 L
275.76 234.595 L
277.992 234.608 L
280.224 233.283 L
282.456 230.649 L
284.688 226.651 L
286.92 221.149 L
289.152 213.934 L
291.384 204.897 L
293.616 195.013 L
295.848 188.877 L
298.08 189.591 L
300.312 191.782 L
302.544 191.91 L
304.776 189.131 L
307.008 183.165 L
309.24 175.597 L
311.472 176.353 L
313.704 186.207 L
315.936 195.09 L
318.168 201.374 L
320.4 205.533 L
322.632 208.014 L
324.864 209.099 L
327.096 208.953 L
329.328 207.665 L
331.56 205.267 L
333.792 201.745 L
336.024 197.058 L
338.256 191.161 L
340.488 184.101 L
342.72 176.296 L
344.952 169.06 L
347.184 164.325 L
349.416 162.147 L
351.648 160.506 L
353.88 158.151 L
356.112 155.995 L
358.344 157.154 L
360.576 162.538 L
362.808 169.104 L
365.04 174.781 L
367.272 179.091 L
369.504 182.072 L
371.736 183.852 L
373.968 184.548 L
376.2 184.243 L
378.432 182.993 L
380.664 180.83 L
382.896 177.775 L
385.128 173.85 L
387.36 169.105 L
389.592 163.671 L
391.824 157.844 L
394.056 152.158 L
396.288 147.288 L
398.52 143.679 L
400.752 141.352 L
402.984 140.334 L
405.216 140.99 L
407.448 143.478 L
409.68 147.169 L
411.912 151.108 L
414.144 154.629 L
416.376 157.427 L
418.608 159.4 L
420.84 160.538 L
423.072 160.865 L
425.304 160.411 L
427.536 159.208 L
429.768 157.287 L
432 154.685 L
434.232 151.458 L
436.464 147.694 L
438.696 143.538 L
440.928 139.22 L
443.16 135.053 L
445.392 131.394 L
447.624 128.556 L
449.856 126.751 L
452.088 126.098 L
454.32 126.603 L
456.552 128.081 L
458.784 130.161 L
461.016 132.418 L
463.248 134.507 L
465.48 136.204 L
467.712 137.384 L
469.944 137.991 L
472.176 138.005 L
474.408 137.427 L
476.64 136.274 L
478.872 134.574 L
481.104 132.371 L
483.336 129.728 L
485.568 126.739 L
487.8 123.533 L
490.032 120.283 L
492.264 117.197 L
494.496 114.491 L
496.728 112.36 L
498.96 110.939 L
501.192 110.288 L
503.424 110.365 L
505.656 111.035 L
507.888 112.084 L
510.12 113.279 L
512.352 114.411 L
514.584 115.321 L
516.816 115.902 L
519.048 116.089 L
521.28 115.849 L
521.726 115.713 LE
1 1 1 C
518.538 314.576 518.538 396.858 518.538 314.576 T
518.538 314.576 518.538 396.858 518.538 396.858 T
368.379 396.858 518.538 396.858 368.379 396.858 T
368.379 396.858 518.538 396.858 518.538 396.858 T
368.379 396.858 518.538 314.576 368.379 314.576 T
368.379 396.858 518.538 396.858 518.538 314.576 T
2 W
[16 0] 0 setdash
0 0 0 C
368.379 314.576 LS
518.538 314.576 LE
368.379 396.858 LS
518.538 396.858 LE
368.379 396.858 LS
518.538 396.858 LE
368.379 314.576 LS
518.538 314.576 LE
368.379 314.576 LS
368.379 396.858 LE
518.538 314.576 LS
518.538 396.858 LE
518.538 314.576 LS
518.538 396.858 LE
368.379 314.576 LS
368.379 396.858 L
368.379 396.858 LE
518.538 396.858 LS
518.538 396.858 LE
518.538 314.576 LS
518.538 314.576 LE
368.379 314.576 LS
368.379 314.576 LE
(omega=1.0) 394.425 383.145 20 /Helvetica SCL
(omega=1.2) 394.425 355.717 20 /Helvetica SCL
(omega=1.4) 394.425 328.29 20 /Helvetica SCL
0.5 W
[] 0 setdash
0 0 1 C
371.121 383.145 LS
391.684 383.145 LE
1 0 0 C
371.121 355.717 LS
391.684 355.717 LE
0 1 0 C
371.121 328.29 LS
391.684 328.29 LE
grestore
showpage
cleartomark
%%PageTrailer
%%Trailer
end
%%EOF
