%!PS-Adobe-3.0 EPSF-3.0
%%Title: glps_renderer figure
%%Creator: GL2PS 1.3.8, (C) 1999-2012 C. Geuzaine
%%For: Octave
%%CreationDate: Mon Dec 14 14:55:04 2015
%%LanguageLevel: 3
%%DocumentData: Clean7Bit
%%Pages: 1
%%BoundingBox: 0 0 560 420
%%EndComments
%%BeginProlog
/gl2psdict 64 dict def gl2psdict begin
0 setlinecap 0 setlinejoin
/tryPS3shading false def % set to false to force subdivision
/rThreshold 0.064 def % red component subdivision threshold
/gThreshold 0.034 def % green component subdivision threshold
/bThreshold 0.1 def % blue component subdivision threshold
/BD { bind def } bind def
/C  { setrgbcolor } BD
/G  { 0.082 mul exch 0.6094 mul add exch 0.3086 mul add neg 1.0 add setgray } BD
/W  { setlinewidth } BD
/FC { findfont exch /SH exch def SH scalefont setfont } BD
/SW { dup stringwidth pop } BD
/S  { FC moveto show } BD
/SBC{ FC moveto SW -2 div 0 rmoveto show } BD
/SBR{ FC moveto SW neg 0 rmoveto show } BD
/SCL{ FC moveto 0 SH -2 div rmoveto show } BD
/SCC{ FC moveto SW -2 div SH -2 div rmoveto show } BD
/SCR{ FC moveto SW neg SH -2 div rmoveto show } BD
/STL{ FC moveto 0 SH neg rmoveto show } BD
/STC{ FC moveto SW -2 div SH neg rmoveto show } BD
/STR{ FC moveto SW neg SH neg rmoveto show } BD
/FCT { FC translate 0 0 } BD
/SR  { gsave FCT moveto rotate show grestore } BD
/SBCR{ gsave FCT moveto rotate SW -2 div 0 rmoveto show grestore } BD
/SBRR{ gsave FCT moveto rotate SW neg 0 rmoveto show grestore } BD
/SCLR{ gsave FCT moveto rotate 0 SH -2 div rmoveto show grestore} BD
/SCCR{ gsave FCT moveto rotate SW -2 div SH -2 div rmoveto show grestore} BD
/SCRR{ gsave FCT moveto rotate SW neg SH -2 div rmoveto show grestore} BD
/STLR{ gsave FCT moveto rotate 0 SH neg rmoveto show grestore } BD
/STCR{ gsave FCT moveto rotate SW -2 div SH neg rmoveto show grestore } BD
/STRR{ gsave FCT moveto rotate SW neg SH neg rmoveto show grestore } BD
/P  { newpath 0.0 360.0 arc closepath fill } BD
/LS { newpath moveto } BD
/L  { lineto } BD
/LE { lineto stroke } BD
/T  { newpath moveto lineto lineto closepath fill } BD
/STshfill {
      /b1 exch def /g1 exch def /r1 exch def /y1 exch def /x1 exch def
      /b2 exch def /g2 exch def /r2 exch def /y2 exch def /x2 exch def
      /b3 exch def /g3 exch def /r3 exch def /y3 exch def /x3 exch def
      gsave << /ShadingType 4 /ColorSpace [/DeviceRGB]
      /DataSource [ 0 x1 y1 r1 g1 b1 0 x2 y2 r2 g2 b2 0 x3 y3 r3 g3 b3 ] >>
      shfill grestore } BD
/Tm { 3 -1 roll 8 -1 roll 13 -1 roll add add 3 div
      3 -1 roll 7 -1 roll 11 -1 roll add add 3 div
      3 -1 roll 6 -1 roll 9 -1 roll add add 3 div C T } BD
/STsplit {
      4 index 15 index add 0.5 mul
      4 index 15 index add 0.5 mul
      4 index 15 index add 0.5 mul
      4 index 15 index add 0.5 mul
      4 index 15 index add 0.5 mul
      5 copy 5 copy 25 15 roll
      9 index 30 index add 0.5 mul
      9 index 30 index add 0.5 mul
      9 index 30 index add 0.5 mul
      9 index 30 index add 0.5 mul
      9 index 30 index add 0.5 mul
      5 copy 5 copy 35 5 roll 25 5 roll 15 5 roll
      4 index 10 index add 0.5 mul
      4 index 10 index add 0.5 mul
      4 index 10 index add 0.5 mul
      4 index 10 index add 0.5 mul
      4 index 10 index add 0.5 mul
      5 copy 5 copy 40 5 roll 25 5 roll 15 5 roll 25 5 roll
      STnoshfill STnoshfill STnoshfill STnoshfill } BD
/STnoshfill {
      2 index 8 index sub abs rThreshold gt
      { STsplit }
      { 1 index 7 index sub abs gThreshold gt
        { STsplit }
        { dup 6 index sub abs bThreshold gt
          { STsplit }
          { 2 index 13 index sub abs rThreshold gt
            { STsplit }
            { 1 index 12 index sub abs gThreshold gt
              { STsplit }
              { dup 11 index sub abs bThreshold gt
                { STsplit }
                { 7 index 13 index sub abs rThreshold gt
                  { STsplit }
                  { 6 index 12 index sub abs gThreshold gt
                    { STsplit }
                    { 5 index 11 index sub abs bThreshold gt
                      { STsplit }
                      { Tm }
                      ifelse }
                    ifelse }
                  ifelse }
                ifelse }
              ifelse }
            ifelse }
          ifelse }
        ifelse }
      ifelse } BD
tryPS3shading
{ /shfill where
  { /ST { STshfill } BD }
  { /ST { STnoshfill } BD }
  ifelse }
{ /ST { STnoshfill } BD }
ifelse
end
%%EndProlog
%%BeginSetup
/DeviceRGB setcolorspace
gl2psdict begin
%%EndSetup
%%Page: 1 1
%%BeginPageSetup
%%EndPageSetup
mark
gsave
1.0 1.0 scale
1 1 1 C
506.8 46.2 506.8 388.5 506.8 46.2 T
506.8 46.2 506.8 388.5 506.8 388.5 T
72.8 388.5 506.8 388.5 72.8 388.5 T
72.8 388.5 506.8 388.5 506.8 388.5 T
72.8 388.5 506.8 46.2 72.8 46.2 T
72.8 388.5 506.8 388.5 506.8 46.2 T
0.5 W
[16 0] 0 setdash
0 0 0 C
72.8 46.2 LS
506.8 46.2 LE
72.8 388.5 LS
506.8 388.5 LE
72.8 388.5 LS
506.8 388.5 LE
72.8 46.2 LS
506.8 46.2 LE
72.8 46.2 LS
72.8 388.5 LE
506.8 46.2 LS
506.8 388.5 LE
506.8 46.2 LS
506.8 388.5 LE
72.8 46.2 LS
72.8 388.5 L
72.8 388.5 LE
506.8 388.5 LS
506.8 388.5 LE
506.8 46.2 LS
506.8 46.2 LE
72.8 46.2 LS
72.8 46.2 L
72.8 50.5438 LE
72.8 388.5 LS
72.8 384.156 LE
181.3 46.2 LS
181.3 50.5438 LE
181.3 388.5 LS
181.3 384.156 LE
289.8 46.2 LS
289.8 50.5438 LE
289.8 388.5 LS
289.8 384.156 LE
398.3 46.2 LS
398.3 50.5438 LE
398.3 388.5 LS
398.3 384.156 LE
506.8 46.2 LS
506.8 50.5438 LE
506.8 388.5 LS
506.8 384.156 LE
(0) 72.8 41.1956 15 /Helvetica STC
(50) 181.3 41.1956 15 /Helvetica STC
(100) 289.8 41.1956 15 /Helvetica STC
(150) 398.3 41.1956 15 /Helvetica STC
(200) 506.8 41.1956 15 /Helvetica STC
72.8 46.2 LS
77.14 46.2 LE
506.8 46.2 LS
502.46 46.2 LE
72.8 103.25 LS
77.14 103.25 LE
506.8 103.25 LS
502.46 103.25 LE
72.8 160.3 LS
77.14 160.3 LE
506.8 160.3 LS
502.46 160.3 LE
72.8 217.35 LS
77.14 217.35 LE
506.8 217.35 LS
502.46 217.35 LE
72.8 274.4 LS
77.14 274.4 LE
506.8 274.4 LS
502.46 274.4 LE
72.8 331.45 LS
77.14 331.45 LE
506.8 331.45 LS
502.46 331.45 LE
72.8 388.5 LS
77.14 388.5 LE
506.8 388.5 LS
502.46 388.5 LE
(1e-6) 67.8 46.2 15 /Helvetica SCR
(1e-5) 67.8 103.25 15 /Helvetica SCR
(1e-4) 67.8 160.3 15 /Helvetica SCR
(1e-3) 67.8 217.35 15 /Helvetica SCR
(1e-2) 67.8 274.4 15 /Helvetica SCR
(1e-1) 67.8 331.45 15 /Helvetica SCR
(1e+0) 67.8 388.5 15 /Helvetica SCR
(N) 289.8 23.1956 15 /Helvetica STC
(L2 norm of change per iteration) 90 30.8 217.35 15 /Helvetica SBCR
(Velocity V) 289.8 398.5 15 /Helvetica SBC
2 W
[] 0 setdash
0 0 1 C
74.97 330.627 LS
77.14 325.058 L
79.31 319.308 L
81.48 313.714 L
83.65 309.92 L
85.82 310.027 L
87.99 312.828 L
90.16 315.232 L
92.33 316.22 L
94.5 315.997 L
96.67 314.94 L
98.84 313.342 L
101.01 311.442 L
103.18 309.47 L
105.35 307.66 L
107.52 306.19 L
109.69 305.118 L
111.86 304.358 L
114.03 303.747 L
116.2 303.104 L
118.37 302.268 L
120.54 301.093 L
122.71 299.446 L
124.88 297.205 L
127.05 294.271 L
129.22 290.622 L
131.39 286.449 L
133.56 282.397 L
135.73 279.627 L
137.9 278.99 L
140.07 279.979 L
142.24 281.411 L
144.41 282.484 L
146.58 282.87 L
148.75 282.469 L
150.92 281.243 L
153.09 279.131 L
155.26 276.017 L
157.43 271.741 L
159.6 266.218 L
161.77 260.007 L
163.94 255.888 L
166.11 257.543 L
168.28 262.759 L
170.45 267.897 L
172.62 271.884 L
174.79 274.69 L
176.96 276.469 L
179.13 277.357 L
181.3 277.449 L
183.47 276.793 L
185.64 275.406 L
187.81 273.274 L
189.98 270.354 L
192.15 266.575 L
194.32 261.84 L
196.49 256.045 L
198.66 249.181 L
200.83 241.776 L
203 235.989 L
205.17 234.945 L
207.34 237.631 L
209.51 240.812 L
211.68 243.08 L
213.85 244.165 L
216.02 244.07 L
218.19 242.802 L
220.36 240.309 L
222.53 236.47 L
224.7 231.153 L
226.87 224.64 L
229.04 219.426 L
231.21 220.706 L
233.38 226.982 L
235.55 233.372 L
237.72 238.461 L
239.89 242.251 L
242.06 244.948 L
244.23 246.731 L
246.4 247.727 L
248.57 248.022 L
250.74 247.67 L
252.91 246.703 L
255.08 245.131 L
257.25 242.947 L
259.42 240.13 L
261.59 236.643 L
263.76 232.439 L
265.93 227.472 L
268.1 221.742 L
270.27 215.415 L
272.44 209.114 L
274.61 204.201 L
276.78 201.96 L
278.95 201.87 L
281.12 202.294 L
283.29 202.11 L
285.46 200.852 L
287.63 198.407 L
289.8 195.012 L
291.97 191.758 L
294.14 191.089 L
296.31 194.424 L
298.48 199.804 L
300.65 205.121 L
302.82 209.622 L
304.99 213.205 L
307.16 215.944 L
309.33 217.936 L
311.5 219.265 L
313.67 219.997 L
315.84 220.184 L
318.01 219.862 L
320.18 219.059 L
322.35 217.793 L
324.52 216.081 L
326.69 213.932 L
328.86 211.359 L
331.03 208.379 L
333.2 205.023 L
335.37 201.342 L
337.54 197.428 L
339.71 193.421 L
341.88 189.518 L
344.05 185.944 L
346.22 182.89 L
348.39 180.456 L
350.56 178.648 L
352.73 177.459 L
354.9 176.949 L
357.07 177.223 L
359.24 178.327 L
361.41 180.141 L
363.58 182.403 L
365.75 184.822 L
367.92 187.161 L
370.09 189.269 L
372.26 191.061 L
374.43 192.496 L
376.6 193.561 L
378.77 194.255 L
380.94 194.586 L
383.11 194.566 L
385.28 194.207 L
387.45 193.523 L
389.62 192.529 L
391.79 191.242 L
393.96 189.681 L
396.13 187.87 L
398.3 185.838 L
400.47 183.624 L
402.64 181.276 L
404.81 178.854 L
406.98 176.43 L
409.15 174.084 L
411.32 171.899 L
413.49 169.957 L
415.66 168.326 L
417.83 167.058 L
420 166.186 L
422.17 165.716 L
424.34 165.633 L
426.51 165.891 L
428.68 166.422 L
430.85 167.144 L
433.02 167.969 L
435.19 168.816 L
437.36 169.614 L
439.53 170.31 L
441.7 170.861 L
443.87 171.239 L
446.04 171.426 L
448.21 171.411 L
450.38 171.191 L
452.55 170.765 L
454.72 170.14 L
456.89 169.324 L
459.06 168.328 L
461.23 167.169 L
463.4 165.868 L
465.57 164.446 L
467.74 162.934 L
469.91 161.363 L
472.08 159.769 L
474.25 158.191 L
476.42 156.669 L
478.59 155.242 L
480.76 153.945 L
482.93 152.808 L
485.1 151.852 L
487.27 151.09 L
489.44 150.522 L
491.61 150.14 L
493.78 149.922 L
495.95 149.841 L
498.12 149.864 L
500.29 149.953 L
502.46 150.073 L
504.63 150.189 L
506.8 150.271 L
507.234 150.275 LE
1 W
1 0 0 C
74.97 335.144 LS
77.14 329.407 L
79.31 323.627 L
81.48 318.667 L
83.65 317.039 L
85.82 319.772 L
87.99 322.408 L
90.16 322.905 L
92.33 321.841 L
94.5 319.88 L
96.67 317.455 L
98.84 314.982 L
101.01 312.921 L
103.18 311.549 L
105.35 310.733 L
107.52 310.113 L
109.69 309.37 L
111.86 308.267 L
114.03 306.588 L
116.2 304.124 L
118.37 300.704 L
120.54 296.332 L
122.71 291.574 L
124.88 288.037 L
127.05 287.338 L
129.22 288.741 L
131.39 290.361 L
133.56 291.178 L
135.73 290.924 L
137.9 289.576 L
140.07 287.088 L
142.24 283.251 L
144.41 277.709 L
146.58 270.407 L
148.75 264.039 L
150.92 265.486 L
153.09 272.062 L
155.26 277.84 L
157.43 281.759 L
159.6 284.062 L
161.77 285.035 L
163.94 284.846 L
166.11 283.556 L
168.28 281.136 L
170.45 277.48 L
172.62 272.402 L
174.79 265.659 L
176.96 257.15 L
179.13 248.174 L
181.3 244.269 L
183.47 247.596 L
185.64 252.08 L
187.81 255.058 L
189.98 256.329 L
192.15 256.027 L
194.32 254.194 L
196.49 250.722 L
198.66 245.366 L
200.83 238.026 L
203 230.786 L
205.17 231.292 L
207.34 238.67 L
209.51 245.684 L
211.68 250.79 L
213.85 254.204 L
216.02 256.243 L
218.19 257.122 L
220.36 256.969 L
222.53 255.842 L
224.7 253.744 L
226.87 250.625 L
229.04 246.38 L
231.21 240.84 L
233.38 233.786 L
235.55 225.148 L
237.72 216.138 L
239.89 211.684 L
242.06 213.98 L
244.23 217.525 L
246.4 219.448 L
248.57 219.303 L
250.74 217.007 L
252.91 212.337 L
255.08 205.011 L
257.25 196.873 L
259.42 198.05 L
261.59 207.444 L
263.76 215.701 L
265.93 221.622 L
268.1 225.689 L
270.27 228.321 L
272.44 229.787 L
274.61 230.255 L
276.78 229.822 L
278.95 228.542 L
281.12 226.434 L
283.29 223.489 L
285.46 219.677 L
287.63 214.957 L
289.8 209.308 L
291.97 202.821 L
294.14 195.933 L
296.31 189.776 L
298.48 185.832 L
300.65 184.159 L
302.82 183.197 L
304.99 181.628 L
307.16 179.116 L
309.33 176.576 L
311.5 176.492 L
313.67 180.342 L
315.84 186.089 L
318.01 191.582 L
320.18 196.087 L
322.35 199.523 L
324.52 201.974 L
326.69 203.543 L
328.86 204.317 L
331.03 204.362 L
333.2 203.723 L
335.37 202.434 L
337.54 200.517 L
339.71 197.99 L
341.88 194.874 L
344.05 191.202 L
346.22 187.043 L
348.39 182.523 L
350.56 177.864 L
352.73 173.388 L
354.9 169.457 L
357.07 166.334 L
359.24 164.113 L
361.41 162.824 L
363.58 162.579 L
365.75 163.507 L
367.92 165.512 L
370.09 168.201 L
372.26 171.091 L
374.43 173.808 L
376.6 176.134 L
378.77 177.965 L
380.94 179.263 L
383.11 180.024 L
385.28 180.258 L
387.45 179.982 L
389.62 179.215 L
391.79 177.98 L
393.96 176.302 L
396.13 174.213 L
398.3 171.755 L
400.47 168.987 L
402.64 165.993 L
404.81 162.884 L
406.98 159.801 L
409.15 156.907 L
411.32 154.366 L
413.49 152.322 L
415.66 150.878 L
417.83 150.09 L
420 149.96 L
422.17 150.418 L
424.34 151.331 L
426.51 152.525 L
428.68 153.819 L
430.85 155.057 L
433.02 156.122 L
435.19 156.936 L
437.36 157.447 L
439.53 157.629 L
441.7 157.471 L
443.87 156.972 L
446.04 156.141 L
448.21 154.995 L
450.38 153.556 L
452.55 151.859 L
454.72 149.947 L
456.89 147.872 L
459.06 145.705 L
461.23 143.522 L
463.4 141.411 L
465.57 139.461 L
467.74 137.756 L
469.91 136.364 L
472.08 135.328 L
474.25 134.662 L
476.42 134.351 L
478.59 134.344 L
480.76 134.571 L
482.93 134.946 L
485.1 135.381 L
487.27 135.795 L
489.44 136.121 L
491.61 136.305 L
493.78 136.312 L
495.95 136.115 L
498.12 135.701 L
500.29 135.067 L
502.46 134.218 L
504.63 133.166 L
506.8 131.931 L
507.234 131.653 LE
0 1 0 C
74.97 338.964 LS
77.14 333.494 L
79.31 328.379 L
81.48 324.616 L
83.65 325.15 L
85.82 328.532 L
87.99 329.108 L
90.16 327.478 L
92.33 324.885 L
94.5 321.893 L
96.67 319.23 L
98.84 317.639 L
101.01 316.923 L
103.18 316.268 L
105.35 315.241 L
107.52 313.639 L
109.69 311.177 L
111.86 307.555 L
114.03 302.794 L
116.2 297.955 L
118.37 295.514 L
120.54 296.382 L
122.71 298.176 L
124.88 299.018 L
127.05 298.454 L
129.22 296.578 L
131.39 293.426 L
133.56 288.582 L
135.73 281.316 L
137.9 273.112 L
140.07 273.498 L
142.24 281.043 L
144.41 287.025 L
146.58 290.462 L
148.75 291.917 L
150.92 291.776 L
153.09 290.141 L
155.26 286.885 L
157.43 281.677 L
159.6 273.969 L
161.77 263.362 L
163.94 253.468 L
166.11 255.271 L
168.28 261.667 L
170.45 265.718 L
172.62 267.311 L
174.79 266.93 L
176.96 264.76 L
179.13 260.687 L
181.3 254.433 L
183.47 246.449 L
185.64 242.066 L
187.81 247.315 L
189.98 254.77 L
192.15 260.304 L
194.32 263.776 L
196.49 265.527 L
198.66 265.79 L
200.83 264.661 L
203 262.111 L
205.17 257.982 L
207.34 251.955 L
209.51 243.496 L
211.68 232.172 L
213.85 221.922 L
216.02 224.579 L
218.19 231.393 L
220.36 235.317 L
222.53 236.218 L
224.7 234.341 L
226.87 229.457 L
229.04 220.599 L
231.21 206.793 L
233.38 205.457 L
235.55 219.656 L
237.72 229.368 L
239.89 235.299 L
242.06 238.738 L
244.23 240.336 L
246.4 240.419 L
248.57 239.135 L
250.74 236.508 L
252.91 232.46 L
255.08 226.801 L
257.25 219.234 L
259.42 209.555 L
261.59 199.305 L
263.76 195.556 L
265.93 199.082 L
268.1 202.247 L
270.27 202.735 L
272.44 200.25 L
274.61 194.406 L
276.78 184.987 L
278.95 179.585 L
281.12 189.351 L
283.29 199.674 L
285.46 206.743 L
287.63 211.311 L
289.8 214.014 L
291.97 215.223 L
294.14 215.144 L
296.31 213.879 L
298.48 211.457 L
300.65 207.852 L
302.82 202.984 L
304.99 196.753 L
307.16 189.141 L
309.33 180.666 L
311.5 173.434 L
313.67 170.308 L
315.84 170.03 L
318.01 169.293 L
320.18 166.615 L
322.35 162.351 L
324.52 160.287 L
326.69 165.161 L
328.86 172.986 L
331.03 179.727 L
333.2 184.706 L
335.37 188.094 L
337.54 190.126 L
339.71 190.973 L
341.88 190.749 L
344.05 189.52 L
346.22 187.32 L
348.39 184.157 L
350.56 180.029 L
352.73 174.953 L
354.9 169.03 L
357.07 162.579 L
359.24 156.308 L
361.41 151.192 L
363.58 147.684 L
365.75 145.338 L
367.92 143.839 L
370.09 143.927 L
372.26 146.531 L
374.43 151.015 L
376.6 155.861 L
378.77 160.107 L
380.94 163.418 L
383.11 165.739 L
385.28 167.108 L
387.45 167.578 L
389.62 167.201 L
391.79 166.014 L
393.96 164.049 L
396.13 161.338 L
398.3 157.922 L
400.47 153.876 L
402.64 149.339 L
404.81 144.556 L
406.98 139.898 L
409.15 135.804 L
411.32 132.642 L
413.49 130.63 L
415.66 129.912 L
417.83 130.577 L
420 132.472 L
422.17 135.12 L
424.34 137.949 L
426.51 140.528 L
428.68 142.606 L
430.85 144.069 L
433.02 144.873 L
435.19 145.015 L
437.36 144.506 L
439.53 143.367 L
441.7 141.628 L
443.87 139.329 L
446.04 136.529 L
448.21 133.319 L
450.38 129.833 L
452.55 126.261 L
454.72 122.842 L
456.89 119.838 L
459.06 117.485 L
461.23 115.954 L
463.4 115.328 L
465.57 115.577 L
467.74 116.538 L
469.91 117.948 L
472.08 119.513 L
474.25 120.98 L
476.42 122.171 L
478.59 122.973 L
480.76 123.322 L
482.93 123.191 L
485.1 122.574 L
487.27 121.482 L
489.44 119.94 L
491.61 117.989 L
493.78 115.69 L
495.95 113.127 L
498.12 110.412 L
500.29 107.686 L
502.46 105.11 L
504.63 102.847 L
506.8 101.039 L
507.234 100.788 LE
1 1 1 C
504.135 305.838 504.135 385.834 504.135 305.838 T
504.135 305.838 504.135 385.834 504.135 385.834 T
358.147 385.834 504.135 385.834 358.147 385.834 T
358.147 385.834 504.135 385.834 504.135 385.834 T
358.147 385.834 504.135 305.838 358.147 305.838 T
358.147 385.834 504.135 385.834 504.135 305.838 T
2 W
[16 0] 0 setdash
0 0 0 C
358.147 305.838 LS
504.135 305.838 LE
358.147 385.834 LS
504.135 385.834 LE
358.147 385.834 LS
504.135 385.834 LE
358.147 305.838 LS
504.135 305.838 LE
358.147 305.838 LS
358.147 385.834 LE
504.135 305.838 LS
504.135 385.834 LE
504.135 305.838 LS
504.135 385.834 LE
358.147 305.838 LS
358.147 385.834 L
358.147 385.834 LE
504.135 385.834 LS
504.135 385.834 LE
504.135 305.838 LS
504.135 305.838 LE
358.147 305.838 LS
358.147 305.838 LE
(omega=1.0) 383.469 372.502 20 /Helvetica SCL
(omega=1.2) 383.469 345.836 20 /Helvetica SCL
(omega=1.4) 383.469 319.171 20 /Helvetica SCL
0.5 W
[] 0 setdash
0 0 1 C
360.812 372.502 LS
380.804 372.502 LE
1 0 0 C
360.812 345.836 LS
380.804 345.836 LE
0 1 0 C
360.812 319.171 LS
380.804 319.171 LE
grestore
showpage
cleartomark
%%PageTrailer
%%Trailer
end
%%EOF
