%!PS-Adobe-3.0 EPSF-3.0
%%Title: glps_renderer figure
%%Creator: GL2PS 1.3.8, (C) 1999-2012 C. Geuzaine
%%For: Octave
%%CreationDate: Mon Dec 14 14:55:03 2015
%%LanguageLevel: 3
%%DocumentData: Clean7Bit
%%Pages: 1
%%BoundingBox: 0 0 576 432
%%EndComments
%%BeginProlog
/gl2psdict 64 dict def gl2psdict begin
0 setlinecap 0 setlinejoin
/tryPS3shading false def % set to false to force subdivision
/rThreshold 0.064 def % red component subdivision threshold
/gThreshold 0.034 def % green component subdivision threshold
/bThreshold 0.1 def % blue component subdivision threshold
/BD { bind def } bind def
/C  { setrgbcolor } BD
/G  { 0.082 mul exch 0.6094 mul add exch 0.3086 mul add neg 1.0 add setgray } BD
/W  { setlinewidth } BD
/FC { findfont exch /SH exch def SH scalefont setfont } BD
/SW { dup stringwidth pop } BD
/S  { FC moveto show } BD
/SBC{ FC moveto SW -2 div 0 rmoveto show } BD
/SBR{ FC moveto SW neg 0 rmoveto show } BD
/SCL{ FC moveto 0 SH -2 div rmoveto show } BD
/SCC{ FC moveto SW -2 div SH -2 div rmoveto show } BD
/SCR{ FC moveto SW neg SH -2 div rmoveto show } BD
/STL{ FC moveto 0 SH neg rmoveto show } BD
/STC{ FC moveto SW -2 div SH neg rmoveto show } BD
/STR{ FC moveto SW neg SH neg rmoveto show } BD
/FCT { FC translate 0 0 } BD
/SR  { gsave FCT moveto rotate show grestore } BD
/SBCR{ gsave FCT moveto rotate SW -2 div 0 rmoveto show grestore } BD
/SBRR{ gsave FCT moveto rotate SW neg 0 rmoveto show grestore } BD
/SCLR{ gsave FCT moveto rotate 0 SH -2 div rmoveto show grestore} BD
/SCCR{ gsave FCT moveto rotate SW -2 div SH -2 div rmoveto show grestore} BD
/SCRR{ gsave FCT moveto rotate SW neg SH -2 div rmoveto show grestore} BD
/STLR{ gsave FCT moveto rotate 0 SH neg rmoveto show grestore } BD
/STCR{ gsave FCT moveto rotate SW -2 div SH neg rmoveto show grestore } BD
/STRR{ gsave FCT moveto rotate SW neg SH neg rmoveto show grestore } BD
/P  { newpath 0.0 360.0 arc closepath fill } BD
/LS { newpath moveto } BD
/L  { lineto } BD
/LE { lineto stroke } BD
/T  { newpath moveto lineto lineto closepath fill } BD
/STshfill {
      /b1 exch def /g1 exch def /r1 exch def /y1 exch def /x1 exch def
      /b2 exch def /g2 exch def /r2 exch def /y2 exch def /x2 exch def
      /b3 exch def /g3 exch def /r3 exch def /y3 exch def /x3 exch def
      gsave << /ShadingType 4 /ColorSpace [/DeviceRGB]
      /DataSource [ 0 x1 y1 r1 g1 b1 0 x2 y2 r2 g2 b2 0 x3 y3 r3 g3 b3 ] >>
      shfill grestore } BD
/Tm { 3 -1 roll 8 -1 roll 13 -1 roll add add 3 div
      3 -1 roll 7 -1 roll 11 -1 roll add add 3 div
      3 -1 roll 6 -1 roll 9 -1 roll add add 3 div C T } BD
/STsplit {
      4 index 15 index add 0.5 mul
      4 index 15 index add 0.5 mul
      4 index 15 index add 0.5 mul
      4 index 15 index add 0.5 mul
      4 index 15 index add 0.5 mul
      5 copy 5 copy 25 15 roll
      9 index 30 index add 0.5 mul
      9 index 30 index add 0.5 mul
      9 index 30 index add 0.5 mul
      9 index 30 index add 0.5 mul
      9 index 30 index add 0.5 mul
      5 copy 5 copy 35 5 roll 25 5 roll 15 5 roll
      4 index 10 index add 0.5 mul
      4 index 10 index add 0.5 mul
      4 index 10 index add 0.5 mul
      4 index 10 index add 0.5 mul
      4 index 10 index add 0.5 mul
      5 copy 5 copy 40 5 roll 25 5 roll 15 5 roll 25 5 roll
      STnoshfill STnoshfill STnoshfill STnoshfill } BD
/STnoshfill {
      2 index 8 index sub abs rThreshold gt
      { STsplit }
      { 1 index 7 index sub abs gThreshold gt
        { STsplit }
        { dup 6 index sub abs bThreshold gt
          { STsplit }
          { 2 index 13 index sub abs rThreshold gt
            { STsplit }
            { 1 index 12 index sub abs gThreshold gt
              { STsplit }
              { dup 11 index sub abs bThreshold gt
                { STsplit }
                { 7 index 13 index sub abs rThreshold gt
                  { STsplit }
                  { 6 index 12 index sub abs gThreshold gt
                    { STsplit }
                    { 5 index 11 index sub abs bThreshold gt
                      { STsplit }
                      { Tm }
                      ifelse }
                    ifelse }
                  ifelse }
                ifelse }
              ifelse }
            ifelse }
          ifelse }
        ifelse }
      ifelse } BD
tryPS3shading
{ /shfill where
  { /ST { STshfill } BD }
  { /ST { STnoshfill } BD }
  ifelse }
{ /ST { STnoshfill } BD }
ifelse
end
%%EndProlog
%%BeginSetup
/DeviceRGB setcolorspace
gl2psdict begin
%%EndSetup
%%Page: 1 1
%%BeginPageSetup
%%EndPageSetup
mark
gsave
1.0 1.0 scale
1 1 1 C
521.28 47.52 521.28 399.6 521.28 47.52 T
521.28 47.52 521.28 399.6 521.28 399.6 T
74.88 399.6 521.28 399.6 74.88 399.6 T
74.88 399.6 521.28 399.6 521.28 399.6 T
74.88 399.6 521.28 47.52 74.88 47.52 T
74.88 399.6 521.28 399.6 521.28 47.52 T
0.5 W
[16 0] 0 setdash
0 0 0 C
74.88 47.52 LS
521.28 47.52 LE
74.88 399.6 LS
521.28 399.6 LE
74.88 399.6 LS
521.28 399.6 LE
74.88 47.52 LS
521.28 47.52 LE
74.88 47.52 LS
74.88 399.6 LE
521.28 47.52 LS
521.28 399.6 LE
521.28 47.52 LS
521.28 399.6 LE
74.88 47.52 LS
74.88 399.6 L
74.88 399.6 LE
521.28 399.6 LS
521.28 399.6 LE
521.28 47.52 LS
521.28 47.52 LE
74.88 47.52 LS
74.88 47.52 L
74.88 51.985 LE
74.88 399.6 LS
74.88 395.135 LE
186.48 47.52 LS
186.48 51.985 LE
186.48 399.6 LS
186.48 395.135 LE
298.08 47.52 LS
298.08 51.985 LE
298.08 399.6 LS
298.08 395.135 LE
409.68 47.52 LS
409.68 51.985 LE
409.68 399.6 LS
409.68 395.135 LE
521.28 47.52 LS
521.28 51.985 LE
521.28 399.6 LS
521.28 395.135 LE
(0) 74.88 42.5188 15 /Helvetica STC
(50) 186.48 42.5188 15 /Helvetica STC
(100) 298.08 42.5188 15 /Helvetica STC
(150) 409.68 42.5188 15 /Helvetica STC
(200) 521.28 42.5188 15 /Helvetica STC
74.88 47.52 LS
79.348 47.52 LE
521.28 47.52 LS
516.812 47.52 LE
74.88 106.2 LS
79.348 106.2 LE
521.28 106.2 LS
516.812 106.2 LE
74.88 164.88 LS
79.348 164.88 LE
521.28 164.88 LS
516.812 164.88 LE
74.88 223.56 LS
79.348 223.56 LE
521.28 223.56 LS
516.812 223.56 LE
74.88 282.24 LS
79.348 282.24 LE
521.28 282.24 LS
516.812 282.24 LE
74.88 340.92 LS
79.348 340.92 LE
521.28 340.92 LS
516.812 340.92 LE
74.88 399.6 LS
79.348 399.6 LE
521.28 399.6 LS
516.812 399.6 LE
(1e-6) 69.8755 47.52 15 /Helvetica SCR
(1e-5) 69.8755 106.2 15 /Helvetica SCR
(1e-4) 69.8755 164.88 15 /Helvetica SCR
(1e-3) 69.8755 223.56 15 /Helvetica SCR
(1e-2) 69.8755 282.24 15 /Helvetica SCR
(1e-1) 69.8755 340.92 15 /Helvetica SCR
(1e+0) 69.8755 399.6 15 /Helvetica SCR
(N) 298.08 24.5188 15 /Helvetica STC
(L2 norm of change per iteration) 90 32.8755 223.56 15 /Helvetica SBCR
(All Solution Variables) 298.08 409.6 15 /Helvetica SBC
2 W
[] 0 setdash
0 0 1 C
77.112 339.267 LS
79.344 335.886 L
81.576 333.418 L
83.808 331.544 L
86.04 330.017 L
88.272 328.657 L
90.504 327.401 L
92.736 326.205 L
94.968 325.042 L
97.2 323.915 L
99.432 322.81 L
101.664 321.699 L
103.896 320.574 L
106.128 319.446 L
108.36 318.324 L
110.592 317.204 L
112.824 316.078 L
115.056 314.932 L
117.288 313.759 L
119.52 312.555 L
121.752 311.32 L
123.984 310.06 L
126.216 308.783 L
128.448 307.509 L
130.68 306.259 L
132.912 305.05 L
135.144 303.883 L
137.376 302.736 L
139.608 301.578 L
141.84 300.382 L
144.072 299.137 L
146.304 297.846 L
148.536 296.523 L
150.768 295.193 L
153 293.881 L
155.232 292.616 L
157.464 291.422 L
159.696 290.313 L
161.928 289.292 L
164.16 288.35 L
166.392 287.466 L
168.624 286.608 L
170.856 285.737 L
173.088 284.814 L
175.32 283.807 L
177.552 282.694 L
179.784 281.468 L
182.016 280.135 L
184.248 278.718 L
186.48 277.252 L
188.712 275.787 L
190.944 274.376 L
193.176 273.072 L
195.408 271.913 L
197.64 270.909 L
199.872 270.044 L
202.104 269.273 L
204.336 268.543 L
206.568 267.796 L
208.8 266.984 L
211.032 266.073 L
213.264 265.047 L
215.496 263.905 L
217.728 262.661 L
219.96 261.344 L
222.192 259.992 L
224.424 258.654 L
226.656 257.375 L
228.888 256.196 L
231.12 255.139 L
233.352 254.206 L
235.584 253.375 L
237.816 252.606 L
240.048 251.853 L
242.28 251.069 L
244.512 250.215 L
246.744 249.264 L
248.976 248.205 L
251.208 247.038 L
253.44 245.78 L
255.672 244.46 L
257.904 243.119 L
260.136 241.801 L
262.368 240.553 L
264.6 239.412 L
266.832 238.397 L
269.064 237.507 L
271.296 236.718 L
273.528 235.99 L
275.76 235.278 L
277.992 234.538 L
280.224 233.736 L
282.456 232.848 L
284.688 231.865 L
286.92 230.792 L
289.152 229.648 L
291.384 228.46 L
293.616 227.265 L
295.848 226.101 L
298.08 225.003 L
300.312 223.993 L
302.544 223.079 L
304.776 222.25 L
307.008 221.482 L
309.24 220.743 L
311.472 219.997 L
313.704 219.214 L
315.936 218.37 L
318.168 217.455 L
320.4 216.467 L
322.632 215.418 L
324.864 214.33 L
327.096 213.23 L
329.328 212.15 L
331.56 211.121 L
333.792 210.164 L
336.024 209.292 L
338.256 208.501 L
340.488 207.777 L
342.72 207.094 L
344.952 206.426 L
347.184 205.745 L
349.416 205.029 L
351.648 204.264 L
353.88 203.444 L
356.112 202.573 L
358.344 201.662 L
360.576 200.727 L
362.808 199.789 L
365.04 198.869 L
367.272 197.982 L
369.504 197.141 L
371.736 196.349 L
373.968 195.6 L
376.2 194.883 L
378.432 194.183 L
380.664 193.483 L
382.896 192.769 L
385.128 192.028 L
387.36 191.257 L
389.592 190.456 L
391.824 189.629 L
394.056 188.788 L
396.288 187.945 L
398.52 187.113 L
400.752 186.306 L
402.984 185.532 L
405.216 184.794 L
407.448 184.092 L
409.68 183.418 L
411.912 182.763 L
414.144 182.116 L
416.376 181.466 L
418.608 180.804 L
420.84 180.122 L
423.072 179.419 L
425.304 178.696 L
427.536 177.956 L
429.768 177.207 L
432 176.455 L
434.232 175.708 L
436.464 174.972 L
438.696 174.251 L
440.928 173.547 L
443.16 172.858 L
445.392 172.18 L
447.624 171.509 L
449.856 170.838 L
452.088 170.163 L
454.32 169.481 L
456.552 168.789 L
458.784 168.087 L
461.016 167.378 L
463.248 166.665 L
465.48 165.952 L
467.712 165.245 L
469.944 164.546 L
472.176 163.859 L
474.408 163.185 L
476.64 162.523 L
478.872 161.872 L
481.104 161.228 L
483.336 160.587 L
485.568 159.946 L
487.8 159.3 L
490.032 158.649 L
492.264 157.991 L
494.496 157.325 L
496.728 156.654 L
498.96 155.978 L
501.192 155.301 L
503.424 154.624 L
505.656 153.95 L
507.888 153.279 L
510.12 152.613 L
512.352 151.95 L
514.584 151.291 L
516.816 150.634 L
519.048 149.978 L
521.28 149.32 L
521.726 149.188 LE
1 0 0 C
77.112 343.913 LS
79.344 340.625 L
81.576 338.28 L
83.808 336.496 L
86.04 334.94 L
88.272 333.498 L
90.504 332.144 L
92.736 330.849 L
94.968 329.65 L
97.2 328.474 L
99.432 327.263 L
101.664 326.022 L
103.896 324.761 L
106.128 323.468 L
108.36 322.122 L
110.592 320.714 L
112.824 319.253 L
115.056 317.752 L
117.288 316.229 L
119.52 314.711 L
121.752 313.24 L
123.984 311.85 L
126.216 310.527 L
128.448 309.212 L
130.68 307.841 L
132.912 306.391 L
135.144 304.875 L
137.376 303.326 L
139.608 301.79 L
141.84 300.317 L
144.072 298.948 L
146.304 297.702 L
148.536 296.573 L
150.768 295.538 L
153 294.554 L
155.232 293.557 L
157.464 292.477 L
159.696 291.259 L
161.928 289.878 L
164.16 288.34 L
166.392 286.684 L
168.624 284.98 L
170.856 283.321 L
173.088 281.804 L
175.32 280.503 L
177.552 279.434 L
179.784 278.551 L
182.016 277.764 L
184.248 276.965 L
186.48 276.065 L
188.712 275.005 L
190.944 273.764 L
193.176 272.358 L
195.408 270.836 L
197.64 269.267 L
199.872 267.736 L
202.104 266.324 L
204.336 265.09 L
206.568 264.045 L
208.8 263.153 L
211.032 262.338 L
213.264 261.511 L
215.496 260.593 L
217.728 259.529 L
219.96 258.294 L
222.192 256.897 L
224.424 255.375 L
226.656 253.792 L
228.888 252.231 L
231.12 250.778 L
233.352 249.5 L
235.584 248.424 L
237.816 247.522 L
240.048 246.724 L
242.28 245.94 L
244.512 245.085 L
246.744 244.098 L
248.976 242.947 L
251.208 241.637 L
253.44 240.204 L
255.672 238.71 L
257.904 237.237 L
260.136 235.864 L
262.368 234.648 L
264.6 233.605 L
266.832 232.704 L
269.064 231.878 L
271.296 231.048 L
273.528 230.141 L
275.76 229.106 L
277.992 227.923 L
280.224 226.601 L
282.456 225.18 L
284.688 223.726 L
286.92 222.315 L
289.152 221.022 L
291.384 219.892 L
293.616 218.932 L
295.848 218.105 L
298.08 217.344 L
300.312 216.575 L
302.544 215.734 L
304.776 214.778 L
307.008 213.693 L
309.24 212.489 L
311.472 211.205 L
313.704 209.893 L
315.936 208.617 L
318.168 207.429 L
320.4 206.363 L
322.632 205.417 L
324.864 204.562 L
327.096 203.747 L
329.328 202.919 L
331.56 202.029 L
333.792 201.05 L
336.024 199.974 L
338.256 198.816 L
340.488 197.61 L
342.72 196.404 L
344.952 195.247 L
347.184 194.177 L
349.416 193.216 L
351.648 192.357 L
353.88 191.571 L
356.112 190.816 L
358.344 190.047 L
360.576 189.228 L
362.808 188.338 L
365.04 187.372 L
367.272 186.341 L
369.504 185.273 L
371.736 184.199 L
373.968 183.153 L
376.2 182.162 L
378.432 181.237 L
380.664 180.374 L
382.896 179.553 L
385.128 178.746 L
387.36 177.926 L
389.592 177.07 L
391.824 176.167 L
394.056 175.216 L
396.288 174.23 L
398.52 173.23 L
400.752 172.241 L
402.984 171.286 L
405.216 170.383 L
407.448 169.535 L
409.68 168.736 L
411.912 167.969 L
414.144 167.212 L
416.376 166.444 L
418.608 165.65 L
420.84 164.818 L
423.072 163.951 L
425.304 163.055 L
427.536 162.144 L
429.768 161.234 L
432 160.339 L
434.232 159.47 L
436.464 158.629 L
438.696 157.813 L
440.928 157.013 L
443.16 156.215 L
445.392 155.409 L
447.624 154.587 L
449.856 153.744 L
452.088 152.884 L
454.32 152.012 L
456.552 151.139 L
458.784 150.275 L
461.016 149.43 L
463.248 148.609 L
465.48 147.813 L
467.712 147.036 L
469.944 146.27 L
472.176 145.508 L
474.408 144.739 L
476.64 143.957 L
478.872 143.16 L
481.104 142.347 L
483.336 141.523 L
485.568 140.693 L
487.8 139.864 L
490.032 139.041 L
492.264 138.228 L
494.496 137.425 L
496.728 136.631 L
498.96 135.841 L
501.192 135.051 L
503.424 134.257 L
505.656 133.456 L
507.888 132.648 L
510.12 131.834 L
512.352 131.018 L
514.584 130.204 L
516.816 129.395 L
519.048 128.595 L
521.28 127.806 L
521.726 127.65 LE
0 1 0 C
77.112 347.841 LS
79.344 344.919 L
81.576 342.87 L
83.808 341.215 L
86.04 339.607 L
88.272 338.088 L
90.504 336.634 L
92.736 335.437 L
94.968 334.297 L
97.2 333.074 L
99.432 331.769 L
101.664 330.371 L
103.896 328.847 L
106.128 327.196 L
108.36 325.459 L
110.592 323.681 L
112.824 321.906 L
115.056 320.2 L
117.288 318.633 L
119.52 317.172 L
121.752 315.681 L
123.984 314.07 L
126.216 312.351 L
128.448 310.584 L
130.68 308.842 L
132.912 307.202 L
135.144 305.716 L
137.376 304.385 L
139.608 303.175 L
141.84 302.043 L
144.072 300.909 L
146.304 299.66 L
148.536 298.208 L
150.768 296.535 L
153 294.692 L
155.232 292.783 L
157.464 290.957 L
159.696 289.363 L
161.928 288.088 L
164.16 287.102 L
166.392 286.278 L
168.624 285.443 L
170.856 284.45 L
173.088 283.215 L
175.32 281.735 L
177.552 280.075 L
179.784 278.346 L
182.016 276.677 L
184.248 275.189 L
186.48 273.953 L
188.712 272.958 L
190.944 272.106 L
193.176 271.254 L
195.408 270.272 L
197.64 269.078 L
199.872 267.65 L
202.104 266.024 L
204.336 264.284 L
206.568 262.55 L
208.8 260.957 L
211.032 259.611 L
213.264 258.54 L
215.496 257.674 L
217.728 256.872 L
219.96 255.981 L
222.192 254.887 L
224.424 253.541 L
226.656 251.969 L
228.888 250.258 L
231.12 248.544 L
233.352 246.973 L
235.584 245.65 L
237.816 244.591 L
240.048 243.714 L
242.28 242.879 L
244.512 241.942 L
246.744 240.8 L
248.976 239.412 L
251.208 237.806 L
253.44 236.074 L
255.672 234.356 L
257.904 232.804 L
260.136 231.521 L
262.368 230.516 L
264.6 229.699 L
266.832 228.923 L
269.064 228.044 L
271.296 226.966 L
273.528 225.651 L
275.76 224.128 L
277.992 222.485 L
280.224 220.848 L
282.456 219.352 L
284.688 218.086 L
286.92 217.056 L
289.152 216.18 L
291.384 215.333 L
293.616 214.39 L
295.848 213.268 L
298.08 211.939 L
300.312 210.433 L
302.544 208.835 L
304.776 207.265 L
307.008 205.843 L
309.24 204.646 L
311.472 203.674 L
313.704 202.848 L
315.936 202.052 L
318.168 201.171 L
320.4 200.128 L
322.632 198.896 L
324.864 197.501 L
327.096 196.016 L
329.328 194.543 L
331.56 193.183 L
333.792 191.999 L
336.024 190.992 L
338.256 190.1 L
340.488 189.227 L
342.72 188.28 L
344.952 187.194 L
347.184 185.951 L
349.416 184.579 L
351.648 183.148 L
353.88 181.75 L
356.112 180.474 L
358.344 179.369 L
360.576 178.431 L
362.808 177.598 L
365.04 176.783 L
367.272 175.903 L
369.504 174.901 L
371.736 173.762 L
373.968 172.507 L
376.2 171.194 L
378.432 169.895 L
380.664 168.679 L
382.896 167.583 L
385.128 166.605 L
387.36 165.7 L
389.592 164.804 L
391.824 163.856 L
394.056 162.815 L
396.288 161.67 L
398.52 160.447 L
400.752 159.193 L
402.984 157.972 L
405.216 156.837 L
407.448 155.816 L
409.68 154.901 L
411.912 154.051 L
414.144 153.21 L
416.376 152.326 L
418.608 151.364 L
420.84 150.314 L
423.072 149.194 L
425.304 148.039 L
427.536 146.896 L
429.768 145.803 L
432 144.781 L
434.232 143.827 L
436.464 142.914 L
438.696 142.004 L
440.928 141.061 L
443.16 140.063 L
445.392 139.006 L
447.624 137.908 L
449.856 136.797 L
452.088 135.712 L
454.32 134.68 L
456.552 133.716 L
458.784 132.812 L
461.016 131.946 L
463.248 131.083 L
465.48 130.195 L
467.712 129.261 L
469.944 128.277 L
472.176 127.253 L
474.408 126.21 L
476.64 125.174 L
478.872 124.164 L
481.104 123.192 L
483.336 122.255 L
485.568 121.338 L
487.8 120.421 L
490.032 119.486 L
492.264 118.522 L
494.496 117.527 L
496.728 116.513 L
498.96 115.496 L
501.192 114.496 L
503.424 113.527 L
505.656 112.594 L
507.888 111.695 L
510.12 110.814 L
512.352 109.936 L
514.584 109.043 L
516.816 108.126 L
519.048 107.181 L
521.28 106.215 L
521.726 106.02 LE
1 1 1 C
518.538 314.576 518.538 396.858 518.538 314.576 T
518.538 314.576 518.538 396.858 518.538 396.858 T
368.379 396.858 518.538 396.858 368.379 396.858 T
368.379 396.858 518.538 396.858 518.538 396.858 T
368.379 396.858 518.538 314.576 368.379 314.576 T
368.379 396.858 518.538 396.858 518.538 314.576 T
[16 0] 0 setdash
0 0 0 C
368.379 314.576 LS
518.538 314.576 LE
368.379 396.858 LS
518.538 396.858 LE
368.379 396.858 LS
518.538 396.858 LE
368.379 314.576 LS
518.538 314.576 LE
368.379 314.576 LS
368.379 396.858 LE
518.538 314.576 LS
518.538 396.858 LE
518.538 314.576 LS
518.538 396.858 LE
368.379 314.576 LS
368.379 396.858 L
368.379 396.858 LE
518.538 396.858 LS
518.538 396.858 LE
518.538 314.576 LS
518.538 314.576 LE
368.379 314.576 LS
368.379 314.576 LE
(omega=1.0) 394.425 383.145 20 /Helvetica SCL
(omega=1.2) 394.425 355.717 20 /Helvetica SCL
(omega=1.4) 394.425 328.29 20 /Helvetica SCL
0.5 W
[] 0 setdash
0 0 1 C
371.121 383.145 LS
391.684 383.145 LE
1 0 0 C
371.121 355.717 LS
391.684 355.717 LE
0 1 0 C
371.121 328.29 LS
391.684 328.29 LE
grestore
showpage
cleartomark
%%PageTrailer
%%Trailer
end
%%EOF
