%!PS-Adobe-3.0 EPSF-3.0
%%Title: glps_renderer figure
%%Creator: GL2PS 1.3.8, (C) 1999-2012 C. Geuzaine
%%For: Octave
%%CreationDate: Wed Dec 16 14:00:44 2015
%%LanguageLevel: 3
%%DocumentData: Clean7Bit
%%Pages: 1
%%BoundingBox: 0 0 560 420
%%EndComments
%%BeginProlog
/gl2psdict 64 dict def gl2psdict begin
0 setlinecap 0 setlinejoin
/tryPS3shading false def % set to false to force subdivision
/rThreshold 0.064 def % red component subdivision threshold
/gThreshold 0.034 def % green component subdivision threshold
/bThreshold 0.1 def % blue component subdivision threshold
/BD { bind def } bind def
/C  { setrgbcolor } BD
/G  { 0.082 mul exch 0.6094 mul add exch 0.3086 mul add neg 1.0 add setgray } BD
/W  { setlinewidth } BD
/FC { findfont exch /SH exch def SH scalefont setfont } BD
/SW { dup stringwidth pop } BD
/S  { FC moveto show } BD
/SBC{ FC moveto SW -2 div 0 rmoveto show } BD
/SBR{ FC moveto SW neg 0 rmoveto show } BD
/SCL{ FC moveto 0 SH -2 div rmoveto show } BD
/SCC{ FC moveto SW -2 div SH -2 div rmoveto show } BD
/SCR{ FC moveto SW neg SH -2 div rmoveto show } BD
/STL{ FC moveto 0 SH neg rmoveto show } BD
/STC{ FC moveto SW -2 div SH neg rmoveto show } BD
/STR{ FC moveto SW neg SH neg rmoveto show } BD
/FCT { FC translate 0 0 } BD
/SR  { gsave FCT moveto rotate show grestore } BD
/SBCR{ gsave FCT moveto rotate SW -2 div 0 rmoveto show grestore } BD
/SBRR{ gsave FCT moveto rotate SW neg 0 rmoveto show grestore } BD
/SCLR{ gsave FCT moveto rotate 0 SH -2 div rmoveto show grestore} BD
/SCCR{ gsave FCT moveto rotate SW -2 div SH -2 div rmoveto show grestore} BD
/SCRR{ gsave FCT moveto rotate SW neg SH -2 div rmoveto show grestore} BD
/STLR{ gsave FCT moveto rotate 0 SH neg rmoveto show grestore } BD
/STCR{ gsave FCT moveto rotate SW -2 div SH neg rmoveto show grestore } BD
/STRR{ gsave FCT moveto rotate SW neg SH neg rmoveto show grestore } BD
/P  { newpath 0.0 360.0 arc closepath fill } BD
/LS { newpath moveto } BD
/L  { lineto } BD
/LE { lineto stroke } BD
/T  { newpath moveto lineto lineto closepath fill } BD
/STshfill {
      /b1 exch def /g1 exch def /r1 exch def /y1 exch def /x1 exch def
      /b2 exch def /g2 exch def /r2 exch def /y2 exch def /x2 exch def
      /b3 exch def /g3 exch def /r3 exch def /y3 exch def /x3 exch def
      gsave << /ShadingType 4 /ColorSpace [/DeviceRGB]
      /DataSource [ 0 x1 y1 r1 g1 b1 0 x2 y2 r2 g2 b2 0 x3 y3 r3 g3 b3 ] >>
      shfill grestore } BD
/Tm { 3 -1 roll 8 -1 roll 13 -1 roll add add 3 div
      3 -1 roll 7 -1 roll 11 -1 roll add add 3 div
      3 -1 roll 6 -1 roll 9 -1 roll add add 3 div C T } BD
/STsplit {
      4 index 15 index add 0.5 mul
      4 index 15 index add 0.5 mul
      4 index 15 index add 0.5 mul
      4 index 15 index add 0.5 mul
      4 index 15 index add 0.5 mul
      5 copy 5 copy 25 15 roll
      9 index 30 index add 0.5 mul
      9 index 30 index add 0.5 mul
      9 index 30 index add 0.5 mul
      9 index 30 index add 0.5 mul
      9 index 30 index add 0.5 mul
      5 copy 5 copy 35 5 roll 25 5 roll 15 5 roll
      4 index 10 index add 0.5 mul
      4 index 10 index add 0.5 mul
      4 index 10 index add 0.5 mul
      4 index 10 index add 0.5 mul
      4 index 10 index add 0.5 mul
      5 copy 5 copy 40 5 roll 25 5 roll 15 5 roll 25 5 roll
      STnoshfill STnoshfill STnoshfill STnoshfill } BD
/STnoshfill {
      2 index 8 index sub abs rThreshold gt
      { STsplit }
      { 1 index 7 index sub abs gThreshold gt
        { STsplit }
        { dup 6 index sub abs bThreshold gt
          { STsplit }
          { 2 index 13 index sub abs rThreshold gt
            { STsplit }
            { 1 index 12 index sub abs gThreshold gt
              { STsplit }
              { dup 11 index sub abs bThreshold gt
                { STsplit }
                { 7 index 13 index sub abs rThreshold gt
                  { STsplit }
                  { 6 index 12 index sub abs gThreshold gt
                    { STsplit }
                    { 5 index 11 index sub abs bThreshold gt
                      { STsplit }
                      { Tm }
                      ifelse }
                    ifelse }
                  ifelse }
                ifelse }
              ifelse }
            ifelse }
          ifelse }
        ifelse }
      ifelse } BD
tryPS3shading
{ /shfill where
  { /ST { STshfill } BD }
  { /ST { STnoshfill } BD }
  ifelse }
{ /ST { STnoshfill } BD }
ifelse
end
%%EndProlog
%%BeginSetup
/DeviceRGB setcolorspace
gl2psdict begin
%%EndSetup
%%Page: 1 1
%%BeginPageSetup
%%EndPageSetup
mark
gsave
1.0 1.0 scale
1 1 1 C
506.8 46.2 506.8 388.5 506.8 46.2 T
506.8 46.2 506.8 388.5 506.8 388.5 T
72.8 388.5 506.8 388.5 72.8 388.5 T
72.8 388.5 506.8 388.5 506.8 388.5 T
72.8 388.5 506.8 46.2 72.8 46.2 T
72.8 388.5 506.8 388.5 506.8 46.2 T
0.5 W
[16 0] 0 setdash
0 0 0 C
72.8 46.2 LS
506.8 46.2 LE
72.8 388.5 LS
506.8 388.5 LE
72.8 388.5 LS
506.8 388.5 LE
72.8 46.2 LS
506.8 46.2 LE
72.8 46.2 LS
72.8 388.5 LE
506.8 46.2 LS
506.8 388.5 LE
506.8 46.2 LS
506.8 388.5 LE
72.8 46.2 LS
72.8 388.5 L
72.8 388.5 LE
506.8 388.5 LS
506.8 388.5 LE
506.8 46.2 LS
506.8 46.2 LE
72.8 46.2 LS
72.8 46.2 L
72.8 50.5438 LE
72.8 388.5 LS
72.8 384.156 LE
289.8 46.2 LS
289.8 50.5438 LE
289.8 388.5 LS
289.8 384.156 LE
506.8 46.2 LS
506.8 50.5438 LE
506.8 388.5 LS
506.8 384.156 LE
(10) 72.8 41.1956 15 /Helvetica STC
(100) 289.8 41.1956 15 /Helvetica STC
(1000) 506.8 41.1956 15 /Helvetica STC
72.8 46.2 LS
77.14 46.2 LE
506.8 46.2 LS
502.46 46.2 LE
72.8 131.775 LS
77.14 131.775 LE
506.8 131.775 LS
502.46 131.775 LE
72.8 217.35 LS
77.14 217.35 LE
506.8 217.35 LS
502.46 217.35 LE
72.8 302.925 LS
77.14 302.925 LE
506.8 302.925 LS
502.46 302.925 LE
72.8 388.5 LS
77.14 388.5 LE
506.8 388.5 LS
502.46 388.5 LE
(1e-5) 67.8 46.2 15 /Helvetica SCR
(1e-4) 67.8 131.775 15 /Helvetica SCR
(1e-3) 67.8 217.35 15 /Helvetica SCR
(1e-2) 67.8 302.925 15 /Helvetica SCR
(1e-1) 67.8 388.5 15 /Helvetica SCR
(N) 289.8 23.1956 15 /Helvetica STC
(Flux Error L2 Norm) 90 34.8 217.35 15 /Helvetica SBCR
(Error in seperate flux components) 289.8 398.5 15 /Helvetica SBC
2 W
[] 0 setdash
138.124 309.649 LS
203.447 258.126 L
268.771 206.605 L
334.094 155.083 L
399.418 103.562 L
464.741 52.0406 LE
[12 4] 0 setdash
138.124 362.759 LS
203.447 311.472 L
268.771 260.01 L
334.094 208.503 L
399.418 156.986 L
464.741 105.465 LE
[] 0 setdash
135.124 365.759 LS
135.124 359.759 L
141.124 359.759 L
141.124 365.759 L
135.124 365.759 LE
200.447 314.473 LS
200.447 308.473 L
206.447 308.473 L
206.447 314.473 L
200.447 314.473 LE
265.771 263.01 LS
265.771 257.01 L
271.771 257.01 L
271.771 263.01 L
265.771 263.01 LE
331.094 211.503 LS
331.094 205.503 L
337.094 205.503 L
337.094 211.503 L
331.094 211.503 LE
396.418 159.986 LS
396.418 153.986 L
402.418 153.986 L
402.418 159.986 L
396.418 159.986 LE
461.741 108.465 LS
461.741 102.465 L
467.741 102.465 L
467.741 108.465 L
461.741 108.465 LE
1 1 1 C
504.135 305.838 504.135 385.834 504.135 305.838 T
504.135 305.838 504.135 385.834 504.135 385.834 T
328.147 385.834 504.135 385.834 328.147 385.834 T
328.147 385.834 504.135 385.834 504.135 385.834 T
328.147 385.834 504.135 305.838 328.147 305.838 T
328.147 385.834 504.135 385.834 504.135 305.838 T
[16 0] 0 setdash
0 0 0 C
328.147 305.838 LS
504.135 305.838 LE
328.147 385.834 LS
504.135 385.834 LE
328.147 385.834 LS
504.135 385.834 LE
328.147 305.838 LS
504.135 305.838 LE
328.147 305.838 LS
328.147 385.834 LE
504.135 305.838 LS
504.135 385.834 LE
504.135 305.838 LS
504.135 385.834 LE
328.147 305.838 LS
328.147 385.834 L
328.147 385.834 LE
504.135 385.834 LS
504.135 385.834 LE
504.135 305.838 LS
504.135 305.838 LE
328.147 305.838 LS
328.147 305.838 LE
(P, slope =2.00) 353.469 372.502 20 /Helvetica SCL
(U, slope =2.00) 353.469 345.836 20 /Helvetica SCL
(V, slope =2.00) 353.469 319.171 20 /Helvetica SCL
0.5 W
[] 0 setdash
330.812 372.502 LS
350.804 372.502 LE
[12 4] 0 setdash
330.812 345.836 LS
350.804 345.836 LE
[] 0 setdash
337.808 322.171 LS
337.808 316.171 L
343.808 316.171 L
343.808 322.171 L
337.808 322.171 LE
grestore
showpage
cleartomark
%%PageTrailer
%%Trailer
end
%%EOF
