%!PS-Adobe-3.0 EPSF-3.0
%%Title: glps_renderer figure
%%Creator: GL2PS 1.3.8, (C) 1999-2012 C. Geuzaine
%%For: Octave
%%CreationDate: Tue Dec 15 15:33:36 2015
%%LanguageLevel: 3
%%DocumentData: Clean7Bit
%%Pages: 1
%%BoundingBox: 0 0 576 432
%%EndComments
%%BeginProlog
/gl2psdict 64 dict def gl2psdict begin
0 setlinecap 0 setlinejoin
/tryPS3shading false def % set to false to force subdivision
/rThreshold 0.064 def % red component subdivision threshold
/gThreshold 0.034 def % green component subdivision threshold
/bThreshold 0.1 def % blue component subdivision threshold
/BD { bind def } bind def
/C  { setrgbcolor } BD
/G  { 0.082 mul exch 0.6094 mul add exch 0.3086 mul add neg 1.0 add setgray } BD
/W  { setlinewidth } BD
/FC { findfont exch /SH exch def SH scalefont setfont } BD
/SW { dup stringwidth pop } BD
/S  { FC moveto show } BD
/SBC{ FC moveto SW -2 div 0 rmoveto show } BD
/SBR{ FC moveto SW neg 0 rmoveto show } BD
/SCL{ FC moveto 0 SH -2 div rmoveto show } BD
/SCC{ FC moveto SW -2 div SH -2 div rmoveto show } BD
/SCR{ FC moveto SW neg SH -2 div rmoveto show } BD
/STL{ FC moveto 0 SH neg rmoveto show } BD
/STC{ FC moveto SW -2 div SH neg rmoveto show } BD
/STR{ FC moveto SW neg SH neg rmoveto show } BD
/FCT { FC translate 0 0 } BD
/SR  { gsave FCT moveto rotate show grestore } BD
/SBCR{ gsave FCT moveto rotate SW -2 div 0 rmoveto show grestore } BD
/SBRR{ gsave FCT moveto rotate SW neg 0 rmoveto show grestore } BD
/SCLR{ gsave FCT moveto rotate 0 SH -2 div rmoveto show grestore} BD
/SCCR{ gsave FCT moveto rotate SW -2 div SH -2 div rmoveto show grestore} BD
/SCRR{ gsave FCT moveto rotate SW neg SH -2 div rmoveto show grestore} BD
/STLR{ gsave FCT moveto rotate 0 SH neg rmoveto show grestore } BD
/STCR{ gsave FCT moveto rotate SW -2 div SH neg rmoveto show grestore } BD
/STRR{ gsave FCT moveto rotate SW neg SH neg rmoveto show grestore } BD
/P  { newpath 0.0 360.0 arc closepath fill } BD
/LS { newpath moveto } BD
/L  { lineto } BD
/LE { lineto stroke } BD
/T  { newpath moveto lineto lineto closepath fill } BD
/STshfill {
      /b1 exch def /g1 exch def /r1 exch def /y1 exch def /x1 exch def
      /b2 exch def /g2 exch def /r2 exch def /y2 exch def /x2 exch def
      /b3 exch def /g3 exch def /r3 exch def /y3 exch def /x3 exch def
      gsave << /ShadingType 4 /ColorSpace [/DeviceRGB]
      /DataSource [ 0 x1 y1 r1 g1 b1 0 x2 y2 r2 g2 b2 0 x3 y3 r3 g3 b3 ] >>
      shfill grestore } BD
/Tm { 3 -1 roll 8 -1 roll 13 -1 roll add add 3 div
      3 -1 roll 7 -1 roll 11 -1 roll add add 3 div
      3 -1 roll 6 -1 roll 9 -1 roll add add 3 div C T } BD
/STsplit {
      4 index 15 index add 0.5 mul
      4 index 15 index add 0.5 mul
      4 index 15 index add 0.5 mul
      4 index 15 index add 0.5 mul
      4 index 15 index add 0.5 mul
      5 copy 5 copy 25 15 roll
      9 index 30 index add 0.5 mul
      9 index 30 index add 0.5 mul
      9 index 30 index add 0.5 mul
      9 index 30 index add 0.5 mul
      9 index 30 index add 0.5 mul
      5 copy 5 copy 35 5 roll 25 5 roll 15 5 roll
      4 index 10 index add 0.5 mul
      4 index 10 index add 0.5 mul
      4 index 10 index add 0.5 mul
      4 index 10 index add 0.5 mul
      4 index 10 index add 0.5 mul
      5 copy 5 copy 40 5 roll 25 5 roll 15 5 roll 25 5 roll
      STnoshfill STnoshfill STnoshfill STnoshfill } BD
/STnoshfill {
      2 index 8 index sub abs rThreshold gt
      { STsplit }
      { 1 index 7 index sub abs gThreshold gt
        { STsplit }
        { dup 6 index sub abs bThreshold gt
          { STsplit }
          { 2 index 13 index sub abs rThreshold gt
            { STsplit }
            { 1 index 12 index sub abs gThreshold gt
              { STsplit }
              { dup 11 index sub abs bThreshold gt
                { STsplit }
                { 7 index 13 index sub abs rThreshold gt
                  { STsplit }
                  { 6 index 12 index sub abs gThreshold gt
                    { STsplit }
                    { 5 index 11 index sub abs bThreshold gt
                      { STsplit }
                      { Tm }
                      ifelse }
                    ifelse }
                  ifelse }
                ifelse }
              ifelse }
            ifelse }
          ifelse }
        ifelse }
      ifelse } BD
tryPS3shading
{ /shfill where
  { /ST { STshfill } BD }
  { /ST { STnoshfill } BD }
  ifelse }
{ /ST { STnoshfill } BD }
ifelse
end
%%EndProlog
%%BeginSetup
/DeviceRGB setcolorspace
gl2psdict begin
%%EndSetup
%%Page: 1 1
%%BeginPageSetup
%%EndPageSetup
mark
gsave
1.0 1.0 scale
1 1 1 C
521.28 47.52 521.28 399.6 521.28 47.52 T
521.28 47.52 521.28 399.6 521.28 399.6 T
74.88 399.6 521.28 399.6 74.88 399.6 T
74.88 399.6 521.28 399.6 521.28 399.6 T
74.88 399.6 521.28 47.52 74.88 47.52 T
74.88 399.6 521.28 399.6 521.28 47.52 T
0.5 W
[16 0] 0 setdash
0 0 0 C
74.88 47.52 LS
521.28 47.52 LE
74.88 399.6 LS
521.28 399.6 LE
74.88 399.6 LS
521.28 399.6 LE
74.88 47.52 LS
521.28 47.52 LE
74.88 47.52 LS
74.88 399.6 LE
521.28 47.52 LS
521.28 399.6 LE
521.28 47.52 LS
521.28 399.6 LE
74.88 47.52 LS
74.88 399.6 L
74.88 399.6 LE
521.28 399.6 LS
521.28 399.6 LE
521.28 47.52 LS
521.28 47.52 LE
74.88 47.52 LS
74.88 47.52 L
74.88 51.985 LE
74.88 399.6 LS
74.88 395.135 LE
298.08 47.52 LS
298.08 51.985 LE
298.08 399.6 LS
298.08 395.135 LE
521.28 47.52 LS
521.28 51.985 LE
521.28 399.6 LS
521.28 395.135 LE
(10) 74.88 42.5189 15 /Helvetica STC
(100) 298.08 42.5189 15 /Helvetica STC
(1000) 521.28 42.5189 15 /Helvetica STC
74.88 47.52 LS
79.348 47.52 LE
521.28 47.52 LS
516.812 47.52 LE
74.88 117.936 LS
79.348 117.936 LE
521.28 117.936 LS
516.812 117.936 LE
74.88 188.352 LS
79.348 188.352 LE
521.28 188.352 LS
516.812 188.352 LE
74.88 258.768 LS
79.348 258.768 LE
521.28 258.768 LS
516.812 258.768 LE
74.88 329.184 LS
79.348 329.184 LE
521.28 329.184 LS
516.812 329.184 LE
74.88 399.6 LS
79.348 399.6 LE
521.28 399.6 LS
516.812 399.6 LE
(1e-5) 69.8755 47.52 15 /Helvetica SCR
(1e-4) 69.8755 117.936 15 /Helvetica SCR
(1e-3) 69.8755 188.352 15 /Helvetica SCR
(1e-2) 69.8755 258.768 15 /Helvetica SCR
(1e-1) 69.8755 329.184 15 /Helvetica SCR
(1e+0) 69.8755 399.6 15 /Helvetica SCR
(N) 298.08 24.5188 15 /Helvetica STC
(Flux Error Norms) 90 32.8755 223.56 15 /Helvetica SBCR
(Error in all flux components) 298.08 409.6 15 /Helvetica SBC
2 W
[] 0 setdash
142.07 291.818 LS
209.26 249.575 L
276.45 207.242 L
343.64 164.857 L
410.829 122.464 L
478.019 80.0703 LE
145.07 291.818 LS
144.497 290.055 L
142.997 288.965 L
141.143 288.965 L
139.643 290.055 L
139.07 291.818 L
139.643 293.582 L
141.143 294.672 L
142.997 294.672 L
144.497 293.582 L
145.07 291.818 LE
212.26 249.576 LS
211.687 247.812 L
210.187 246.722 L
208.333 246.722 L
206.833 247.812 L
206.26 249.576 L
206.833 251.339 L
208.333 252.429 L
210.187 252.429 L
211.687 251.339 L
212.26 249.576 LE
279.45 207.242 LS
278.877 205.478 L
277.377 204.388 L
275.523 204.388 L
274.023 205.478 L
273.45 207.242 L
274.023 209.005 L
275.523 210.095 L
277.377 210.095 L
278.877 209.005 L
279.45 207.242 LE
346.64 164.857 LS
346.067 163.094 L
344.567 162.004 L
342.713 162.004 L
341.213 163.094 L
340.64 164.857 L
341.213 166.62 L
342.713 167.71 L
344.567 167.71 L
346.067 166.62 L
346.64 164.857 LE
413.829 122.464 LS
413.257 120.701 L
411.757 119.611 L
409.902 119.611 L
408.402 120.701 L
407.829 122.464 L
408.402 124.228 L
409.902 125.317 L
411.757 125.317 L
413.257 124.228 L
413.829 122.464 LE
481.019 80.0703 LS
480.446 78.3069 L
478.946 77.2171 L
477.092 77.2171 L
475.592 78.3069 L
475.019 80.0703 L
475.592 81.8336 L
477.092 82.9234 L
478.946 82.9234 L
480.446 81.8336 L
481.019 80.0703 LE
[12 4] 0 setdash
142.07 302.235 LS
209.26 260.029 L
276.45 217.681 L
343.64 175.298 L
410.829 132.906 L
478.019 90.5124 LE
[] 0 setdash
142.07 305.235 LS
139.07 299.235 L
145.07 299.235 L
142.07 305.235 LE
209.26 263.029 LS
206.26 257.029 L
212.26 257.029 L
209.26 263.029 LE
276.45 220.681 LS
273.45 214.681 L
279.45 214.681 L
276.45 220.681 LE
343.64 178.298 LS
340.64 172.298 L
346.64 172.298 L
343.64 178.298 LE
410.829 135.906 LS
407.829 129.906 L
413.829 129.906 L
410.829 135.906 LE
478.019 93.5124 LS
475.019 87.5124 L
481.019 87.5124 L
478.019 93.5124 LE
[4 5 1 6] 0 setdash
142.07 333.861 LS
209.26 292.206 L
276.45 249.892 L
343.64 207.562 L
410.829 165.182 L
478.019 122.79 LE
[] 0 setdash
139.07 336.861 LS
139.07 330.861 L
145.07 330.861 L
145.07 336.861 L
139.07 336.861 LE
206.26 295.206 LS
206.26 289.206 L
212.26 289.206 L
212.26 295.206 L
206.26 295.206 LE
273.45 252.892 LS
273.45 246.892 L
279.45 246.892 L
279.45 252.892 L
273.45 252.892 LE
340.64 210.562 LS
340.64 204.562 L
346.64 204.562 L
346.64 210.562 L
340.64 210.562 LE
407.829 168.182 LS
407.829 162.182 L
413.829 162.182 L
413.829 168.182 L
407.829 168.182 LE
475.019 125.79 LS
475.019 119.79 L
481.019 119.79 L
481.019 125.79 L
475.019 125.79 LE
1 1 1 C
518.538 314.576 518.538 396.858 518.538 314.576 T
518.538 314.576 518.538 396.858 518.538 396.858 T
314.894 396.858 518.538 396.858 314.894 396.858 T
314.894 396.858 518.538 396.858 518.538 396.858 T
314.894 396.858 518.538 314.576 314.894 314.576 T
314.894 396.858 518.538 396.858 518.538 314.576 T
[16 0] 0 setdash
0 0 0 C
314.894 314.576 LS
518.538 314.576 LE
314.894 396.858 LS
518.538 396.858 LE
314.894 396.858 LS
518.538 396.858 LE
314.894 314.576 LS
518.538 314.576 LE
314.894 314.576 LS
314.894 396.858 LE
518.538 314.576 LS
518.538 396.858 LE
518.538 314.576 LS
518.538 396.858 LE
314.894 314.576 LS
314.894 396.858 L
314.894 396.858 LE
518.538 396.858 LS
518.538 396.858 LE
518.538 314.576 LS
518.538 314.576 LE
314.894 314.576 LS
314.894 314.576 LE
(L1, slope =2.00) 340.94 383.145 20 /Helvetica SCL
(L2, slope =2.00) 340.94 355.717 20 /Helvetica SCL
(Linf, slope =1.99) 340.94 328.29 20 /Helvetica SCL
0.5 W
[] 0 setdash
317.635 383.145 LS
338.198 383.145 LE
330.917 383.145 LS
330.344 381.381 L
328.844 380.292 L
326.99 380.292 L
325.49 381.381 L
324.917 383.145 L
325.49 384.908 L
326.99 385.998 L
328.844 385.998 L
330.344 384.908 L
330.917 383.145 LE
[12 4] 0 setdash
317.635 355.717 LS
338.198 355.717 LE
[] 0 setdash
327.917 358.717 LS
324.917 352.717 L
330.917 352.717 L
327.917 358.717 LE
[4 5 1 6] 0 setdash
317.635 328.29 LS
338.198 328.29 LE
[] 0 setdash
324.917 331.29 LS
324.917 325.29 L
330.917 325.29 L
330.917 331.29 L
324.917 331.29 LE
grestore
showpage
cleartomark
%%PageTrailer
%%Trailer
end
%%EOF
