%!PS-Adobe-3.0 EPSF-3.0
%%Title: glps_renderer figure
%%Creator: GL2PS 1.3.8, (C) 1999-2012 C. Geuzaine
%%For: Octave
%%CreationDate: Mon Nov  9 08:40:03 2015
%%LanguageLevel: 3
%%DocumentData: Clean7Bit
%%Pages: 1
%%BoundingBox: 0 0 576 432
%%EndComments
%%BeginProlog
/gl2psdict 64 dict def gl2psdict begin
0 setlinecap 0 setlinejoin
/tryPS3shading false def % set to false to force subdivision
/rThreshold 0.064 def % red component subdivision threshold
/gThreshold 0.034 def % green component subdivision threshold
/bThreshold 0.1 def % blue component subdivision threshold
/BD { bind def } bind def
/C  { setrgbcolor } BD
/G  { 0.082 mul exch 0.6094 mul add exch 0.3086 mul add neg 1.0 add setgray } BD
/W  { setlinewidth } BD
/FC { findfont exch /SH exch def SH scalefont setfont } BD
/SW { dup stringwidth pop } BD
/S  { FC moveto show } BD
/SBC{ FC moveto SW -2 div 0 rmoveto show } BD
/SBR{ FC moveto SW neg 0 rmoveto show } BD
/SCL{ FC moveto 0 SH -2 div rmoveto show } BD
/SCC{ FC moveto SW -2 div SH -2 div rmoveto show } BD
/SCR{ FC moveto SW neg SH -2 div rmoveto show } BD
/STL{ FC moveto 0 SH neg rmoveto show } BD
/STC{ FC moveto SW -2 div SH neg rmoveto show } BD
/STR{ FC moveto SW neg SH neg rmoveto show } BD
/FCT { FC translate 0 0 } BD
/SR  { gsave FCT moveto rotate show grestore } BD
/SBCR{ gsave FCT moveto rotate SW -2 div 0 rmoveto show grestore } BD
/SBRR{ gsave FCT moveto rotate SW neg 0 rmoveto show grestore } BD
/SCLR{ gsave FCT moveto rotate 0 SH -2 div rmoveto show grestore} BD
/SCCR{ gsave FCT moveto rotate SW -2 div SH -2 div rmoveto show grestore} BD
/SCRR{ gsave FCT moveto rotate SW neg SH -2 div rmoveto show grestore} BD
/STLR{ gsave FCT moveto rotate 0 SH neg rmoveto show grestore } BD
/STCR{ gsave FCT moveto rotate SW -2 div SH neg rmoveto show grestore } BD
/STRR{ gsave FCT moveto rotate SW neg SH neg rmoveto show grestore } BD
/P  { newpath 0.0 360.0 arc closepath fill } BD
/LS { newpath moveto } BD
/L  { lineto } BD
/LE { lineto stroke } BD
/T  { newpath moveto lineto lineto closepath fill } BD
/STshfill {
      /b1 exch def /g1 exch def /r1 exch def /y1 exch def /x1 exch def
      /b2 exch def /g2 exch def /r2 exch def /y2 exch def /x2 exch def
      /b3 exch def /g3 exch def /r3 exch def /y3 exch def /x3 exch def
      gsave << /ShadingType 4 /ColorSpace [/DeviceRGB]
      /DataSource [ 0 x1 y1 r1 g1 b1 0 x2 y2 r2 g2 b2 0 x3 y3 r3 g3 b3 ] >>
      shfill grestore } BD
/Tm { 3 -1 roll 8 -1 roll 13 -1 roll add add 3 div
      3 -1 roll 7 -1 roll 11 -1 roll add add 3 div
      3 -1 roll 6 -1 roll 9 -1 roll add add 3 div C T } BD
/STsplit {
      4 index 15 index add 0.5 mul
      4 index 15 index add 0.5 mul
      4 index 15 index add 0.5 mul
      4 index 15 index add 0.5 mul
      4 index 15 index add 0.5 mul
      5 copy 5 copy 25 15 roll
      9 index 30 index add 0.5 mul
      9 index 30 index add 0.5 mul
      9 index 30 index add 0.5 mul
      9 index 30 index add 0.5 mul
      9 index 30 index add 0.5 mul
      5 copy 5 copy 35 5 roll 25 5 roll 15 5 roll
      4 index 10 index add 0.5 mul
      4 index 10 index add 0.5 mul
      4 index 10 index add 0.5 mul
      4 index 10 index add 0.5 mul
      4 index 10 index add 0.5 mul
      5 copy 5 copy 40 5 roll 25 5 roll 15 5 roll 25 5 roll
      STnoshfill STnoshfill STnoshfill STnoshfill } BD
/STnoshfill {
      2 index 8 index sub abs rThreshold gt
      { STsplit }
      { 1 index 7 index sub abs gThreshold gt
        { STsplit }
        { dup 6 index sub abs bThreshold gt
          { STsplit }
          { 2 index 13 index sub abs rThreshold gt
            { STsplit }
            { 1 index 12 index sub abs gThreshold gt
              { STsplit }
              { dup 11 index sub abs bThreshold gt
                { STsplit }
                { 7 index 13 index sub abs rThreshold gt
                  { STsplit }
                  { 6 index 12 index sub abs gThreshold gt
                    { STsplit }
                    { 5 index 11 index sub abs bThreshold gt
                      { STsplit }
                      { Tm }
                      ifelse }
                    ifelse }
                  ifelse }
                ifelse }
              ifelse }
            ifelse }
          ifelse }
        ifelse }
      ifelse } BD
tryPS3shading
{ /shfill where
  { /ST { STshfill } BD }
  { /ST { STnoshfill } BD }
  ifelse }
{ /ST { STnoshfill } BD }
ifelse
end
%%EndProlog
%%BeginSetup
/DeviceRGB setcolorspace
gl2psdict begin
%%EndSetup
%%Page: 1 1
%%BeginPageSetup
%%EndPageSetup
mark
gsave
1.0 1.0 scale
1 1 1 C
474.12 47.52 474.12 399.6 474.12 47.52 T
474.12 47.52 474.12 399.6 474.12 399.6 T
122.04 399.6 474.12 399.6 122.04 399.6 T
122.04 399.6 474.12 399.6 474.12 399.6 T
122.04 399.6 474.12 47.52 122.04 47.52 T
122.04 399.6 474.12 399.6 474.12 47.52 T
0.5 W
[16 0] 0 setdash
0 0 0 C
122.04 47.52 LS
474.12 47.52 LE
122.04 399.6 LS
474.12 399.6 LE
122.04 399.6 LS
474.12 399.6 LE
122.04 47.52 LS
474.12 47.52 LE
122.04 47.52 LS
122.04 399.6 LE
474.12 47.52 LS
474.12 399.6 LE
474.12 47.52 LS
474.12 399.6 LE
122.04 47.52 LS
122.04 399.6 L
122.04 399.6 LE
474.12 399.6 LS
474.12 399.6 LE
474.12 47.52 LS
474.12 47.52 LE
122.04 47.52 LS
122.04 47.52 LE
[0 3 1 3 1 3 1 3 1 0] 0 setdash
148.12 47.52 LS
148.12 399.6 LE
213.32 47.52 LS
213.32 399.6 LE
278.52 47.52 LS
278.52 399.6 LE
343.72 47.52 LS
343.72 399.6 LE
408.92 47.52 LS
408.92 399.6 LE
474.12 47.52 LS
474.12 399.6 LE
[16 0] 0 setdash
148.12 47.52 LS
148.12 51.985 LE
148.12 399.6 LS
148.12 395.135 LE
213.32 47.52 LS
213.32 51.985 LE
213.32 399.6 LS
213.32 395.135 LE
278.52 47.52 LS
278.52 51.985 LE
278.52 399.6 LS
278.52 395.135 LE
343.72 47.52 LS
343.72 51.985 LE
343.72 399.6 LS
343.72 395.135 LE
408.92 47.52 LS
408.92 51.985 LE
408.92 399.6 LS
408.92 395.135 LE
474.12 47.52 LS
474.12 51.985 LE
474.12 399.6 LS
474.12 395.135 LE
(-2) 148.12 42.5189 15 /Helvetica STC
(-1.5) 213.32 42.5189 15 /Helvetica STC
(-1) 278.52 42.5189 15 /Helvetica STC
(-0.5) 343.72 42.5189 15 /Helvetica STC
(0) 408.92 42.5189 15 /Helvetica STC
(0.5) 474.12 42.5189 15 /Helvetica STC
[0 3 1 3 1 3 1 3 1 0] 0 setdash
122.04 93.16 LS
474.12 93.16 LE
122.04 158.36 LS
474.12 158.36 LE
122.04 223.56 LS
474.12 223.56 LE
122.04 288.76 LS
474.12 288.76 LE
122.04 353.96 LS
474.12 353.96 LE
[16 0] 0 setdash
122.04 93.16 LS
126.505 93.16 LE
474.12 93.16 LS
469.655 93.16 LE
122.04 158.36 LS
126.505 158.36 LE
474.12 158.36 LS
469.655 158.36 LE
122.04 223.56 LS
126.505 223.56 LE
474.12 223.56 LS
469.655 223.56 LE
122.04 288.76 LS
126.505 288.76 LE
474.12 288.76 LS
469.655 288.76 LE
122.04 353.96 LS
126.505 353.96 LE
474.12 353.96 LS
469.655 353.96 LE
(-1) 117.039 93.16 15 /Helvetica SCR
(-0.5) 117.039 158.36 15 /Helvetica SCR
(0) 117.039 223.56 15 /Helvetica SCR
(0.5) 117.039 288.76 15 /Helvetica SCR
(1) 117.039 353.96 15 /Helvetica SCR
(Re) 298.08 24.5188 15 /Helvetica STC
(Im) 90 88.0389 223.56 15 /Helvetica SBCR
(Finding CFL(MAX), Explicit Euler) 298.08 409.6 15 /Helvetica SBC
1 W
[] 0 setdash
121.688 223.56 LS
474.472 223.56 LE
0.5 W
408.92 47.1679 LS
408.92 399.952 LE
2 W
1 0 0 C
408.92 223.56 LS
408.92 222.973 L
408.92 222.386 L
408.92 221.799 L
408.92 221.212 L
408.92 220.624 L
408.92 220.035 L
408.92 219.446 L
408.919 218.856 L
408.919 218.265 L
408.919 217.673 L
408.918 217.079 L
408.917 216.485 L
408.916 215.889 L
408.914 215.291 L
408.913 214.692 L
408.91 214.092 L
408.908 213.489 L
408.905 212.885 L
408.901 212.278 L
408.897 211.67 L
408.892 211.059 L
408.886 210.446 L
408.879 209.83 L
408.872 209.212 L
408.863 208.591 L
408.854 207.967 L
408.843 207.341 L
408.831 206.712 L
408.818 206.08 L
408.803 205.444 L
408.787 204.806 L
408.769 204.164 L
408.749 203.519 L
408.728 202.871 L
408.704 202.219 L
408.679 201.563 L
408.651 200.904 L
408.621 200.242 L
408.589 199.575 L
408.554 198.905 L
408.517 198.231 L
408.477 197.553 L
408.434 196.871 L
408.388 196.185 L
408.338 195.495 L
408.286 194.801 L
408.23 194.103 L
408.171 193.401 L
408.108 192.694 L
408.041 191.983 L
407.97 191.268 L
407.895 190.549 L
407.816 189.826 L
407.732 189.098 L
407.644 188.365 L
407.551 187.629 L
407.453 186.888 L
407.351 186.143 L
407.243 185.393 L
407.13 184.64 L
407.011 183.881 L
406.887 183.119 L
406.757 182.352 L
406.622 181.581 L
406.48 180.806 L
406.332 180.027 L
406.178 179.243 L
406.017 178.455 L
405.849 177.664 L
405.675 176.868 L
405.494 176.068 L
405.305 175.264 L
405.11 174.456 L
404.906 173.645 L
404.696 172.829 L
404.477 172.01 L
404.251 171.188 L
404.016 170.361 L
403.773 169.532 L
403.522 168.699 L
403.263 167.862 L
402.994 167.022 L
402.717 166.18 L
402.431 165.334 L
402.136 164.485 L
401.831 163.634 L
401.518 162.779 L
401.194 161.922 L
400.861 161.063 L
400.518 160.201 L
400.165 159.337 L
399.802 158.471 L
399.429 157.603 L
399.046 156.734 L
398.652 155.862 L
398.247 154.989 L
397.832 154.114 L
397.405 153.239 L
396.968 152.362 L
396.52 151.484 L
396.06 150.605 L
395.589 149.726 L
395.107 148.846 L
394.613 147.966 L
394.107 147.086 L
393.59 146.206 L
393.06 145.326 L
392.519 144.446 L
391.966 143.567 L
391.401 142.689 L
390.823 141.812 L
390.233 140.936 L
389.631 140.061 L
389.016 139.188 L
388.389 138.317 L
387.749 137.448 L
387.096 136.58 L
386.431 135.716 L
385.752 134.853 L
385.061 133.994 L
384.357 133.138 L
383.641 132.284 L
382.911 131.435 L
382.168 130.589 L
381.412 129.746 L
380.643 128.908 L
379.86 128.075 L
379.065 127.245 L
378.257 126.421 L
377.435 125.602 L
376.6 124.788 L
375.752 123.979 L
374.89 123.176 L
374.016 122.379 L
373.128 121.588 L
372.227 120.804 L
371.313 120.027 L
370.386 119.256 L
369.446 118.492 L
368.492 117.736 L
367.526 116.988 L
366.546 116.247 L
365.554 115.514 L
364.548 114.79 L
363.53 114.075 L
362.499 113.368 L
361.455 112.67 L
360.399 111.982 L
359.33 111.303 L
358.248 110.634 L
357.154 109.976 L
356.048 109.327 L
354.929 108.689 L
353.798 108.062 L
352.655 107.445 L
351.5 106.84 L
350.333 106.247 L
349.155 105.665 L
347.965 105.095 L
346.763 104.537 L
345.55 103.992 L
344.326 103.459 L
343.09 102.94 L
341.844 102.433 L
340.587 101.94 L
339.319 101.46 L
338.041 100.994 L
336.752 100.542 L
335.453 100.104 L
334.145 99.6806 L
332.826 99.2719 L
331.498 98.878 L
330.16 98.4991 L
328.813 98.1356 L
327.457 97.7874 L
326.092 97.455 L
324.718 97.1384 L
323.336 96.8378 L
321.945 96.5535 L
320.546 96.2857 L
319.14 96.0345 L
317.726 95.8 L
316.304 95.5826 L
314.876 95.3823 L
313.44 95.1993 L
311.998 95.0339 L
310.549 94.8861 L
309.094 94.7561 L
307.633 94.6442 L
306.166 94.5503 L
304.693 94.4747 L
303.216 94.4176 L
301.733 94.3791 L
300.246 94.3592 L
298.754 94.3582 L
297.259 94.3762 L
295.759 94.4133 L
294.255 94.4696 L
292.749 94.5452 L
291.239 94.6403 L
289.726 94.7549 L
288.211 94.8892 L
286.694 95.0432 L
285.175 95.2171 L
283.654 95.4109 L
282.132 95.6247 L
280.608 95.8587 L
279.084 96.1127 L
277.56 96.3871 L
276.035 96.6817 L
274.511 96.9967 L
272.987 97.3321 L
271.464 97.688 L
269.942 98.0643 L
268.422 98.4612 L
266.903 98.8787 L
265.386 99.3168 L
263.871 99.7755 L
262.359 100.255 L
260.851 100.755 L
259.345 101.276 L
257.843 101.817 L
256.345 102.379 L
254.851 102.961 L
253.362 103.565 L
251.878 104.188 L
250.399 104.833 L
248.925 105.498 L
247.458 106.183 L
245.996 106.889 L
244.541 107.615 L
243.093 108.362 L
241.652 109.129 L
240.219 109.916 L
238.793 110.724 L
237.375 111.551 L
235.966 112.399 L
234.566 113.266 L
233.174 114.153 L
231.792 115.06 L
230.42 115.987 L
229.057 116.933 L
227.705 117.898 L
226.364 118.883 L
225.033 119.887 L
223.714 120.91 L
222.406 121.951 L
221.11 123.012 L
219.827 124.091 L
218.555 125.188 L
217.296 126.304 L
216.051 127.438 L
214.819 128.59 L
213.6 129.76 L
212.395 130.947 L
211.204 132.151 L
210.028 133.373 L
208.867 134.612 L
207.72 135.868 L
206.589 137.14 L
205.474 138.429 L
204.374 139.734 L
203.29 141.055 L
202.223 142.392 L
201.172 143.744 L
200.138 145.111 L
199.122 146.494 L
198.122 147.891 L
197.14 149.303 L
196.176 150.73 L
195.23 152.17 L
194.303 153.625 L
193.393 155.092 L
192.503 156.574 L
191.632 158.068 L
190.779 159.575 L
189.946 161.094 L
189.133 162.626 L
188.339 164.169 L
187.566 165.724 L
186.812 167.291 L
186.079 168.868 L
185.367 170.457 L
184.675 172.056 L
184.004 173.664 L
183.354 175.283 L
182.725 176.911 L
182.117 178.549 L
181.531 180.195 L
180.967 181.85 L
180.425 183.513 L
179.904 185.185 L
179.406 186.863 L
178.929 188.549 L
178.475 190.242 L
178.044 191.942 L
177.634 193.648 L
177.248 195.36 L
176.884 197.077 L
176.543 198.8 L
176.225 200.528 L
175.93 202.26 L
175.658 203.997 L
175.409 205.737 L
175.183 207.481 L
174.98 209.228 L
174.801 210.978 L
174.645 212.731 L
174.512 214.486 L
174.403 216.242 L
174.317 218 L
174.255 219.759 L
174.216 221.519 L
174.2 223.28 L
174.208 225.04 L
174.24 226.8 L
174.295 228.559 L
174.373 230.318 L
174.475 232.075 L
174.6 233.83 L
174.749 235.584 L
174.921 237.335 L
175.116 239.083 L
175.334 240.828 L
175.576 242.569 L
175.841 244.307 L
176.128 246.041 L
176.439 247.77 L
176.773 249.494 L
177.13 251.214 L
177.509 252.927 L
177.911 254.635 L
178.335 256.337 L
178.782 258.032 L
179.251 259.72 L
179.743 261.401 L
180.257 263.075 L
180.792 264.741 L
181.349 266.398 L
181.928 268.048 L
182.529 269.688 L
183.151 271.319 L
183.794 272.941 L
184.459 274.553 L
185.144 276.155 L
185.85 277.747 L
186.576 279.328 L
187.323 280.898 L
188.091 282.457 L
188.878 284.004 L
189.685 285.539 L
190.512 287.063 L
191.358 288.574 L
192.223 290.072 L
193.108 291.557 L
194.011 293.029 L
194.933 294.488 L
195.873 295.933 L
196.831 297.364 L
197.807 298.78 L
198.801 300.183 L
199.813 301.57 L
200.841 302.942 L
201.886 304.299 L
202.948 305.641 L
204.027 306.967 L
205.122 308.277 L
206.232 309.571 L
207.358 310.849 L
208.5 312.11 L
209.657 313.354 L
210.828 314.581 L
212.014 315.791 L
213.215 316.984 L
214.429 318.159 L
215.657 319.317 L
216.898 320.457 L
218.153 321.578 L
219.42 322.681 L
220.7 323.766 L
221.992 324.833 L
223.296 325.881 L
224.612 326.909 L
225.939 327.919 L
227.277 328.91 L
228.626 329.882 L
229.985 330.834 L
231.354 331.767 L
232.733 332.68 L
234.122 333.573 L
235.519 334.447 L
236.926 335.301 L
238.341 336.135 L
239.764 336.949 L
241.195 337.742 L
242.634 338.516 L
244.079 339.269 L
245.532 340.002 L
246.992 340.714 L
248.457 341.406 L
249.929 342.078 L
251.406 342.729 L
252.889 343.359 L
254.377 343.969 L
255.869 344.558 L
257.366 345.126 L
258.866 345.674 L
260.371 346.202 L
261.879 346.708 L
263.389 347.194 L
264.903 347.659 L
266.419 348.104 L
267.938 348.528 L
269.458 348.931 L
270.979 349.314 L
272.502 349.677 L
274.026 350.019 L
275.55 350.34 L
277.074 350.641 L
278.599 350.922 L
280.123 351.183 L
281.647 351.423 L
283.169 351.643 L
284.69 351.843 L
286.21 352.024 L
287.728 352.184 L
289.244 352.324 L
290.757 352.445 L
292.268 352.547 L
293.776 352.628 L
295.28 352.691 L
296.781 352.734 L
298.278 352.758 L
299.771 352.763 L
301.26 352.749 L
302.744 352.717 L
304.223 352.665 L
305.697 352.596 L
307.166 352.508 L
308.629 352.401 L
310.086 352.277 L
311.537 352.135 L
312.981 351.975 L
314.419 351.798 L
315.85 351.603 L
317.274 351.391 L
318.69 351.162 L
320.099 350.916 L
321.5 350.654 L
322.894 350.374 L
324.278 350.079 L
325.655 349.768 L
327.023 349.44 L
328.382 349.097 L
329.732 348.738 L
331.073 348.364 L
332.404 347.975 L
333.726 347.571 L
335.038 347.152 L
336.34 346.719 L
337.632 346.272 L
338.913 345.81 L
340.184 345.335 L
341.445 344.846 L
342.695 344.343 L
343.934 343.828 L
345.161 343.299 L
346.378 342.758 L
347.583 342.204 L
348.777 341.638 L
349.959 341.06 L
351.13 340.47 L
352.289 339.869 L
353.435 339.256 L
354.57 338.632 L
355.693 337.997 L
356.803 337.352 L
357.901 336.697 L
358.987 336.031 L
360.06 335.355 L
361.12 334.67 L
362.168 333.975 L
363.203 333.271 L
364.225 332.559 L
365.235 331.837 L
366.231 331.107 L
367.215 330.369 L
368.186 329.623 L
369.143 328.869 L
370.088 328.108 L
371.019 327.34 L
371.937 326.564 L
372.843 325.782 L
373.734 324.993 L
374.613 324.198 L
375.479 323.397 L
376.331 322.591 L
377.17 321.778 L
377.996 320.961 L
378.809 320.138 L
379.609 319.31 L
380.395 318.478 L
381.168 317.641 L
381.928 316.8 L
382.675 315.955 L
383.41 315.107 L
384.131 314.255 L
384.839 313.399 L
385.534 312.541 L
386.216 311.679 L
386.885 310.815 L
387.542 309.949 L
388.186 309.08 L
388.818 308.209 L
389.436 307.337 L
390.043 306.463 L
390.636 305.587 L
391.218 304.71 L
391.787 303.832 L
392.344 302.954 L
392.889 302.074 L
393.422 301.195 L
393.944 300.315 L
394.453 299.434 L
394.951 298.554 L
395.437 297.674 L
395.911 296.795 L
396.374 295.916 L
396.826 295.038 L
397.267 294.161 L
397.697 293.284 L
398.116 292.41 L
398.524 291.536 L
398.921 290.664 L
399.308 289.793 L
399.685 288.925 L
400.051 288.058 L
400.407 287.193 L
400.753 286.331 L
401.089 285.471 L
401.416 284.613 L
401.733 283.758 L
402.04 282.906 L
402.338 282.056 L
402.627 281.209 L
402.907 280.366 L
403.178 279.525 L
403.44 278.688 L
403.694 277.853 L
403.94 277.022 L
404.177 276.195 L
404.406 275.371 L
404.627 274.551 L
404.84 273.735 L
405.046 272.922 L
405.244 272.113 L
405.434 271.308 L
405.618 270.507 L
405.795 269.709 L
405.964 268.916 L
406.127 268.127 L
406.284 267.342 L
406.434 266.562 L
406.577 265.785 L
406.715 265.013 L
406.847 264.245 L
406.972 263.481 L
407.093 262.721 L
407.207 261.966 L
407.317 261.215 L
407.421 260.469 L
407.52 259.727 L
407.615 258.989 L
407.704 258.255 L
407.789 257.526 L
407.87 256.801 L
407.946 256.08 L
408.018 255.364 L
408.087 254.652 L
408.151 253.944 L
408.212 253.24 L
408.269 252.541 L
408.322 251.845 L
408.372 251.154 L
408.419 250.467 L
408.463 249.784 L
408.504 249.104 L
408.543 248.429 L
408.578 247.758 L
408.611 247.09 L
408.642 246.426 L
408.67 245.766 L
408.696 245.11 L
408.72 244.457 L
408.742 243.807 L
408.763 243.161 L
408.781 242.518 L
408.798 241.879 L
408.813 241.242 L
408.827 240.609 L
408.839 239.979 L
408.85 239.352 L
408.86 238.727 L
408.869 238.106 L
408.877 237.487 L
408.884 236.87 L
408.89 236.256 L
408.895 235.645 L
408.9 235.035 L
408.904 234.428 L
408.907 233.823 L
408.91 233.22 L
408.912 232.619 L
408.914 232.019 L
408.915 231.421 L
408.917 230.825 L
408.918 230.23 L
408.918 229.636 L
408.919 229.044 L
408.919 228.453 L
408.92 227.862 L
408.92 227.273 L
408.92 226.684 L
408.92 226.096 L
408.92 225.508 L
408.92 224.921 L
408.92 224.334 L
408.92 223.747 LE
0 1 0 C
408.92 223.56 LS
408.92 223.104 L
408.92 222.647 L
408.92 222.19 L
408.92 221.733 L
408.92 221.276 L
408.92 220.818 L
408.92 220.36 L
408.92 219.901 L
408.919 219.441 L
408.919 218.981 L
408.918 218.519 L
408.918 218.057 L
408.917 217.594 L
408.916 217.129 L
408.914 216.663 L
408.913 216.196 L
408.91 215.727 L
408.908 215.257 L
408.905 214.785 L
408.902 214.312 L
408.898 213.837 L
408.893 213.36 L
408.888 212.881 L
408.883 212.4 L
408.876 211.917 L
408.868 211.432 L
408.86 210.945 L
408.851 210.456 L
408.84 209.964 L
408.829 209.47 L
408.816 208.973 L
408.802 208.474 L
408.787 207.973 L
408.77 207.468 L
408.752 206.961 L
408.732 206.452 L
408.711 205.939 L
408.688 205.424 L
408.663 204.905 L
408.636 204.384 L
408.606 203.86 L
408.575 203.332 L
408.542 202.802 L
408.506 202.268 L
408.468 201.732 L
408.427 201.192 L
408.383 200.649 L
408.337 200.103 L
408.288 199.553 L
408.236 199 L
408.181 198.444 L
408.123 197.885 L
408.061 197.322 L
407.996 196.756 L
407.927 196.186 L
407.855 195.614 L
407.779 195.037 L
407.699 194.458 L
407.616 193.875 L
407.528 193.289 L
407.435 192.699 L
407.339 192.106 L
407.238 191.51 L
407.132 190.91 L
407.022 190.307 L
406.907 189.701 L
406.787 189.091 L
406.662 188.479 L
406.532 187.863 L
406.396 187.244 L
406.255 186.622 L
406.109 185.996 L
405.956 185.368 L
405.798 184.737 L
405.634 184.103 L
405.464 183.466 L
405.288 182.826 L
405.106 182.183 L
404.917 181.538 L
404.722 180.89 L
404.52 180.239 L
404.311 179.586 L
404.096 178.931 L
403.873 178.273 L
403.643 177.613 L
403.407 176.951 L
403.163 176.286 L
402.911 175.62 L
402.652 174.951 L
402.385 174.281 L
402.111 173.609 L
401.829 172.936 L
401.538 172.26 L
401.24 171.584 L
400.933 170.906 L
400.619 170.227 L
400.296 169.547 L
399.964 168.866 L
399.624 168.183 L
399.275 167.501 L
398.918 166.817 L
398.551 166.133 L
398.176 165.449 L
397.792 164.765 L
397.399 164.08 L
396.996 163.395 L
396.585 162.711 L
396.164 162.027 L
395.734 161.343 L
395.294 160.66 L
394.845 159.978 L
394.386 159.297 L
393.917 158.617 L
393.439 157.938 L
392.951 157.26 L
392.453 156.584 L
391.946 155.909 L
391.428 155.237 L
390.901 154.566 L
390.363 153.898 L
389.816 153.231 L
389.258 152.568 L
388.691 151.907 L
388.113 151.249 L
387.525 150.594 L
386.927 149.942 L
386.318 149.294 L
385.699 148.649 L
385.071 148.007 L
384.431 147.37 L
383.782 146.737 L
383.122 146.108 L
382.452 145.484 L
381.772 144.864 L
381.082 144.249 L
380.381 143.639 L
379.67 143.034 L
378.949 142.435 L
378.218 141.841 L
377.476 141.253 L
376.724 140.67 L
375.963 140.094 L
375.191 139.525 L
374.409 138.961 L
373.617 138.405 L
372.815 137.855 L
372.003 137.313 L
371.181 136.777 L
370.35 136.249 L
369.509 135.729 L
368.658 135.217 L
367.797 134.712 L
366.927 134.216 L
366.047 133.728 L
365.158 133.249 L
364.26 132.778 L
363.353 132.316 L
362.436 131.864 L
361.51 131.421 L
360.576 130.987 L
359.632 130.563 L
358.68 130.148 L
357.719 129.744 L
356.75 129.35 L
355.772 128.966 L
354.786 128.593 L
353.792 128.231 L
352.79 127.879 L
351.779 127.539 L
350.761 127.209 L
349.736 126.891 L
348.703 126.585 L
347.662 126.29 L
346.614 126.008 L
345.56 125.737 L
344.498 125.478 L
343.429 125.232 L
342.354 124.998 L
341.273 124.777 L
340.185 124.569 L
339.091 124.373 L
337.991 124.191 L
336.886 124.022 L
335.774 123.866 L
334.658 123.724 L
333.536 123.595 L
332.409 123.48 L
331.277 123.379 L
330.141 123.292 L
329 123.219 L
327.855 123.16 L
326.706 123.116 L
325.553 123.086 L
324.396 123.071 L
323.236 123.07 L
322.072 123.084 L
320.906 123.113 L
319.736 123.156 L
318.565 123.215 L
317.39 123.289 L
316.214 123.378 L
315.035 123.483 L
313.855 123.602 L
312.674 123.738 L
311.491 123.888 L
310.307 124.055 L
309.122 124.237 L
307.937 124.434 L
306.751 124.648 L
305.565 124.877 L
304.38 125.122 L
303.195 125.383 L
302.01 125.66 L
300.826 125.952 L
299.643 126.261 L
298.462 126.586 L
297.282 126.926 L
296.104 127.283 L
294.928 127.656 L
293.755 128.045 L
292.584 128.45 L
291.416 128.871 L
290.251 129.308 L
289.089 129.761 L
287.931 130.23 L
286.776 130.715 L
285.626 131.217 L
284.48 131.734 L
283.338 132.267 L
282.202 132.816 L
281.07 133.381 L
279.944 133.962 L
278.823 134.558 L
277.708 135.171 L
276.599 135.798 L
275.496 136.442 L
274.4 137.101 L
273.311 137.776 L
272.229 138.466 L
271.154 139.171 L
270.087 139.892 L
269.027 140.628 L
267.975 141.379 L
266.932 142.144 L
265.897 142.925 L
264.871 143.721 L
263.854 144.531 L
262.846 145.356 L
261.847 146.195 L
260.858 147.049 L
259.879 147.917 L
258.911 148.799 L
257.952 149.694 L
257.004 150.604 L
256.067 151.528 L
255.141 152.464 L
254.226 153.415 L
253.323 154.378 L
252.431 155.355 L
251.552 156.345 L
250.684 157.347 L
249.829 158.362 L
248.986 159.389 L
248.156 160.429 L
247.338 161.481 L
246.534 162.544 L
245.743 163.62 L
244.966 164.707 L
244.202 165.805 L
243.453 166.914 L
242.717 168.035 L
241.995 169.166 L
241.288 170.307 L
240.596 171.459 L
239.918 172.622 L
239.255 173.794 L
238.607 174.975 L
237.974 176.167 L
237.357 177.367 L
236.756 178.577 L
236.17 179.795 L
235.599 181.022 L
235.045 182.258 L
234.507 183.501 L
233.985 184.752 L
233.479 186.011 L
232.99 187.278 L
232.518 188.551 L
232.062 189.832 L
231.623 191.119 L
231.201 192.413 L
230.797 193.712 L
230.409 195.018 L
230.038 196.33 L
229.685 197.646 L
229.349 198.968 L
229.031 200.295 L
228.731 201.627 L
228.448 202.962 L
228.182 204.302 L
227.935 205.646 L
227.705 206.993 L
227.494 208.344 L
227.3 209.698 L
227.124 211.054 L
226.967 212.413 L
226.827 213.774 L
226.706 215.137 L
226.603 216.502 L
226.518 217.868 L
226.451 219.236 L
226.403 220.604 L
226.372 221.973 L
226.36 223.342 L
226.366 224.711 L
226.391 226.08 L
226.434 227.448 L
226.495 228.816 L
226.574 230.183 L
226.671 231.548 L
226.787 232.912 L
226.92 234.274 L
227.072 235.633 L
227.242 236.99 L
227.43 238.345 L
227.636 239.697 L
227.86 241.045 L
228.102 242.39 L
228.361 243.731 L
228.639 245.068 L
228.934 246.401 L
229.246 247.73 L
229.576 249.053 L
229.924 250.372 L
230.289 251.685 L
230.671 252.992 L
231.071 254.294 L
231.487 255.59 L
231.921 256.879 L
232.371 258.161 L
232.838 259.437 L
233.322 260.706 L
233.822 261.967 L
234.339 263.221 L
234.872 264.467 L
235.421 265.705 L
235.986 266.935 L
236.567 268.156 L
237.164 269.368 L
237.776 270.572 L
238.404 271.766 L
239.047 272.951 L
239.705 274.126 L
240.378 275.292 L
241.066 276.447 L
241.769 277.592 L
242.485 278.726 L
243.217 279.85 L
243.962 280.963 L
244.721 282.065 L
245.494 283.155 L
246.281 284.234 L
247.081 285.302 L
247.894 286.357 L
248.72 287.401 L
249.559 288.432 L
250.41 289.451 L
251.274 290.457 L
252.15 291.451 L
253.038 292.432 L
253.937 293.4 L
254.849 294.354 L
255.771 295.295 L
256.705 296.223 L
257.649 297.137 L
258.604 298.038 L
259.57 298.924 L
260.546 299.796 L
261.531 300.654 L
262.527 301.498 L
263.532 302.328 L
264.546 303.143 L
265.569 303.943 L
266.601 304.728 L
267.642 305.499 L
268.691 306.255 L
269.748 306.995 L
270.813 307.721 L
271.886 308.431 L
272.966 309.126 L
274.053 309.806 L
275.147 310.47 L
276.247 311.118 L
277.354 311.751 L
278.467 312.368 L
279.586 312.97 L
280.711 313.556 L
281.841 314.126 L
282.976 314.68 L
284.116 315.218 L
285.26 315.74 L
286.409 316.247 L
287.562 316.737 L
288.72 317.211 L
289.88 317.669 L
291.044 318.112 L
292.212 318.538 L
293.382 318.948 L
294.554 319.342 L
295.73 319.72 L
296.907 320.082 L
298.086 320.428 L
299.267 320.757 L
300.449 321.071 L
301.633 321.369 L
302.817 321.651 L
304.002 321.917 L
305.188 322.167 L
306.373 322.401 L
307.559 322.619 L
308.745 322.822 L
309.93 323.009 L
311.114 323.18 L
312.297 323.336 L
313.479 323.476 L
314.66 323.601 L
315.839 323.71 L
317.016 323.804 L
318.191 323.883 L
319.363 323.947 L
320.534 323.995 L
321.701 324.029 L
322.865 324.047 L
324.027 324.051 L
325.185 324.041 L
326.339 324.015 L
327.489 323.975 L
328.636 323.921 L
329.778 323.853 L
330.916 323.77 L
332.049 323.673 L
333.177 323.563 L
334.301 323.439 L
335.419 323.301 L
336.532 323.149 L
337.64 322.984 L
338.741 322.806 L
339.837 322.615 L
340.927 322.411 L
342.011 322.193 L
343.088 321.964 L
344.158 321.721 L
345.222 321.467 L
346.279 321.2 L
347.329 320.921 L
348.372 320.63 L
349.408 320.327 L
350.436 320.013 L
351.456 319.687 L
352.469 319.35 L
353.473 319.002 L
354.47 318.643 L
355.459 318.274 L
356.439 317.893 L
357.411 317.502 L
358.375 317.101 L
359.33 316.69 L
360.276 316.269 L
361.214 315.839 L
362.142 315.398 L
363.062 314.949 L
363.972 314.49 L
364.873 314.022 L
365.765 313.546 L
366.648 313.06 L
367.521 312.567 L
368.384 312.065 L
369.239 311.555 L
370.083 311.037 L
370.917 310.512 L
371.742 309.979 L
372.557 309.438 L
373.362 308.891 L
374.158 308.337 L
374.943 307.776 L
375.718 307.208 L
376.483 306.634 L
377.238 306.053 L
377.983 305.467 L
378.717 304.875 L
379.442 304.278 L
380.156 303.674 L
380.86 303.066 L
381.553 302.453 L
382.237 301.834 L
382.91 301.211 L
383.573 300.584 L
384.226 299.952 L
384.868 299.316 L
385.5 298.676 L
386.122 298.032 L
386.734 297.385 L
387.335 296.734 L
387.927 296.08 L
388.508 295.423 L
389.078 294.763 L
389.639 294.1 L
390.19 293.435 L
390.731 292.767 L
391.261 292.097 L
391.782 291.425 L
392.293 290.751 L
392.794 290.076 L
393.285 289.398 L
393.766 288.72 L
394.238 288.04 L
394.699 287.359 L
395.152 286.677 L
395.595 285.994 L
396.028 285.311 L
396.452 284.627 L
396.866 283.943 L
397.272 283.258 L
397.668 282.573 L
398.055 281.889 L
398.433 281.205 L
398.802 280.521 L
399.162 279.837 L
399.514 279.154 L
399.857 278.472 L
400.191 277.79 L
400.517 277.11 L
400.834 276.43 L
401.143 275.752 L
401.444 275.075 L
401.737 274.399 L
402.022 273.725 L
402.299 273.053 L
402.568 272.382 L
402.829 271.713 L
403.083 271.046 L
403.33 270.381 L
403.569 269.718 L
403.801 269.057 L
404.025 268.398 L
404.243 267.742 L
404.454 267.088 L
404.658 266.437 L
404.856 265.788 L
405.046 265.142 L
405.231 264.498 L
405.409 263.858 L
405.581 263.22 L
405.747 262.585 L
405.907 261.953 L
406.061 261.323 L
406.209 260.697 L
406.352 260.074 L
406.489 259.454 L
406.621 258.837 L
406.748 258.223 L
406.869 257.613 L
406.986 257.006 L
407.098 256.402 L
407.205 255.801 L
407.307 255.204 L
407.405 254.61 L
407.499 254.019 L
407.588 253.432 L
407.673 252.847 L
407.754 252.267 L
407.831 251.69 L
407.905 251.116 L
407.974 250.545 L
408.041 249.978 L
408.103 249.414 L
408.163 248.854 L
408.219 248.296 L
408.272 247.743 L
408.322 247.192 L
408.369 246.645 L
408.413 246.101 L
408.455 245.56 L
408.494 245.022 L
408.531 244.488 L
408.565 243.956 L
408.597 243.428 L
408.627 242.903 L
408.654 242.38 L
408.68 241.861 L
408.704 241.345 L
408.726 240.831 L
408.746 240.321 L
408.765 239.813 L
408.782 239.308 L
408.798 238.805 L
408.812 238.305 L
408.825 237.808 L
408.837 237.313 L
408.848 236.82 L
408.857 236.33 L
408.866 235.842 L
408.874 235.357 L
408.88 234.873 L
408.887 234.392 L
408.892 233.912 L
408.897 233.435 L
408.901 232.959 L
408.904 232.485 L
408.907 232.013 L
408.91 231.542 L
408.912 231.073 L
408.914 230.606 L
408.915 230.139 L
408.916 229.674 L
408.917 229.21 L
408.918 228.748 L
408.919 228.286 L
408.919 227.825 L
408.919 227.365 L
408.92 226.906 L
408.92 226.448 L
408.92 225.99 L
408.92 225.532 L
408.92 225.075 L
408.92 224.618 L
408.92 224.162 L
408.92 223.705 LE
1 0 1 C
408.92 223.56 LS
408.92 223.234 L
408.92 222.908 L
408.92 222.582 L
408.92 222.255 L
408.92 221.929 L
408.92 221.602 L
408.92 221.274 L
408.92 220.946 L
408.919 220.618 L
408.919 220.289 L
408.919 219.96 L
408.918 219.629 L
408.918 219.298 L
408.917 218.966 L
408.916 218.634 L
408.915 218.3 L
408.913 217.965 L
408.911 217.629 L
408.909 217.292 L
408.907 216.954 L
408.904 216.615 L
408.901 216.274 L
408.897 215.932 L
408.893 215.589 L
408.888 215.244 L
408.883 214.897 L
408.877 214.55 L
408.871 214.2 L
408.863 213.849 L
408.855 213.496 L
408.846 213.141 L
408.836 212.785 L
408.825 212.426 L
408.813 212.066 L
408.8 211.704 L
408.786 211.34 L
408.771 210.974 L
408.754 210.605 L
408.736 210.235 L
408.717 209.863 L
408.696 209.488 L
408.674 209.112 L
408.65 208.733 L
408.624 208.352 L
408.597 207.968 L
408.568 207.583 L
408.537 207.195 L
408.504 206.805 L
408.469 206.412 L
408.431 206.017 L
408.392 205.62 L
408.35 205.221 L
408.306 204.819 L
408.26 204.414 L
408.211 204.007 L
408.159 203.598 L
408.105 203.187 L
408.048 202.773 L
407.988 202.356 L
407.925 201.938 L
407.86 201.516 L
407.791 201.093 L
407.719 200.667 L
407.643 200.239 L
407.564 199.808 L
407.482 199.375 L
407.396 198.94 L
407.307 198.502 L
407.214 198.062 L
407.117 197.62 L
407.016 197.175 L
406.912 196.729 L
406.803 196.28 L
406.69 195.829 L
406.573 195.376 L
406.452 194.921 L
406.326 194.464 L
406.196 194.005 L
406.061 193.544 L
405.921 193.081 L
405.777 192.617 L
405.628 192.15 L
405.474 191.682 L
405.315 191.212 L
405.151 190.741 L
404.982 190.268 L
404.808 189.793 L
404.628 189.317 L
404.443 188.84 L
404.252 188.361 L
404.056 187.881 L
403.855 187.4 L
403.647 186.917 L
403.434 186.434 L
403.215 185.95 L
402.991 185.465 L
402.76 184.979 L
402.523 184.493 L
402.28 184.005 L
402.031 183.518 L
401.776 183.029 L
401.514 182.541 L
401.246 182.052 L
400.971 181.563 L
400.691 181.074 L
400.403 180.585 L
400.109 180.097 L
399.808 179.608 L
399.501 179.12 L
399.187 178.632 L
398.866 178.144 L
398.538 177.658 L
398.204 177.172 L
397.862 176.687 L
397.514 176.203 L
397.158 175.72 L
396.796 175.238 L
396.426 174.758 L
396.049 174.279 L
395.665 173.801 L
395.274 173.325 L
394.876 172.851 L
394.47 172.379 L
394.058 171.909 L
393.638 171.441 L
393.21 170.976 L
392.776 170.513 L
392.334 170.052 L
391.885 169.594 L
391.428 169.139 L
390.964 168.686 L
390.493 168.237 L
390.015 167.791 L
389.529 167.348 L
389.036 166.909 L
388.535 166.473 L
388.027 166.041 L
387.512 165.613 L
386.99 165.189 L
386.46 164.769 L
385.923 164.353 L
385.379 163.942 L
384.828 163.535 L
384.269 163.132 L
383.703 162.735 L
383.131 162.342 L
382.551 161.955 L
381.964 161.572 L
381.37 161.195 L
380.769 160.824 L
380.161 160.458 L
379.546 160.097 L
378.925 159.743 L
378.297 159.394 L
377.662 159.052 L
377.02 158.716 L
376.372 158.386 L
375.717 158.063 L
375.056 157.746 L
374.388 157.436 L
373.714 157.133 L
373.034 156.837 L
372.348 156.549 L
371.656 156.267 L
370.957 155.993 L
370.253 155.727 L
369.543 155.468 L
368.827 155.217 L
368.105 154.973 L
367.378 154.738 L
366.646 154.511 L
365.908 154.292 L
365.164 154.082 L
364.416 153.88 L
363.663 153.686 L
362.904 153.502 L
362.141 153.326 L
361.373 153.159 L
360.601 153.001 L
359.824 152.852 L
359.042 152.712 L
358.257 152.582 L
357.467 152.461 L
356.673 152.35 L
355.876 152.249 L
355.074 152.157 L
354.269 152.074 L
353.461 152.002 L
352.649 151.94 L
351.834 151.888 L
351.016 151.846 L
350.195 151.814 L
349.372 151.793 L
348.546 151.782 L
347.717 151.781 L
346.886 151.791 L
346.053 151.812 L
345.217 151.843 L
344.38 151.885 L
343.542 151.938 L
342.701 152.002 L
341.86 152.076 L
341.017 152.162 L
340.173 152.258 L
339.328 152.366 L
338.482 152.485 L
337.636 152.615 L
336.789 152.756 L
335.942 152.908 L
335.095 153.072 L
334.248 153.247 L
333.402 153.433 L
332.556 153.631 L
331.71 153.84 L
330.865 154.061 L
330.021 154.293 L
329.179 154.536 L
328.337 154.791 L
327.497 155.057 L
326.659 155.335 L
325.823 155.624 L
324.988 155.925 L
324.156 156.237 L
323.326 156.561 L
322.499 156.896 L
321.674 157.242 L
320.853 157.6 L
320.034 157.97 L
319.219 158.351 L
318.407 158.743 L
317.599 159.146 L
316.794 159.561 L
315.993 159.987 L
315.197 160.425 L
314.405 160.873 L
313.617 161.333 L
312.835 161.804 L
312.057 162.286 L
311.284 162.778 L
310.516 163.282 L
309.753 163.797 L
308.996 164.323 L
308.245 164.859 L
307.5 165.406 L
306.761 165.964 L
306.028 166.532 L
305.301 167.111 L
304.581 167.7 L
303.868 168.299 L
303.162 168.909 L
302.462 169.529 L
301.77 170.159 L
301.086 170.799 L
300.409 171.449 L
299.739 172.108 L
299.078 172.777 L
298.425 173.456 L
297.779 174.145 L
297.142 174.842 L
296.514 175.549 L
295.894 176.265 L
295.283 176.99 L
294.681 177.724 L
294.088 178.466 L
293.505 179.218 L
292.93 179.977 L
292.365 180.746 L
291.81 181.522 L
291.265 182.306 L
290.729 183.099 L
290.203 183.899 L
289.688 184.707 L
289.183 185.522 L
288.688 186.345 L
288.204 187.175 L
287.731 188.013 L
287.268 188.857 L
286.816 189.708 L
286.375 190.565 L
285.945 191.429 L
285.527 192.299 L
285.12 193.176 L
284.724 194.058 L
284.339 194.946 L
283.966 195.84 L
283.605 196.74 L
283.256 197.644 L
282.919 198.554 L
282.593 199.469 L
282.28 200.388 L
281.978 201.312 L
281.689 202.24 L
281.412 203.173 L
281.147 204.11 L
280.895 205.05 L
280.655 205.994 L
280.428 206.942 L
280.213 207.893 L
280.011 208.847 L
279.822 209.804 L
279.645 210.764 L
279.481 211.727 L
279.33 212.691 L
279.191 213.658 L
279.066 214.627 L
278.953 215.598 L
278.854 216.57 L
278.767 217.544 L
278.693 218.519 L
278.633 219.495 L
278.585 220.471 L
278.55 221.449 L
278.529 222.426 L
278.52 223.404 L
278.525 224.382 L
278.542 225.36 L
278.573 226.337 L
278.616 227.314 L
278.673 228.291 L
278.742 229.266 L
278.825 230.24 L
278.92 231.213 L
279.029 232.184 L
279.15 233.153 L
279.284 234.121 L
279.431 235.086 L
279.591 236.049 L
279.764 237.01 L
279.949 237.968 L
280.148 238.923 L
280.358 239.875 L
280.582 240.824 L
280.817 241.769 L
281.066 242.711 L
281.326 243.649 L
281.599 244.583 L
281.885 245.513 L
282.182 246.438 L
282.492 247.359 L
282.814 248.275 L
283.147 249.187 L
283.493 250.093 L
283.85 250.994 L
284.219 251.889 L
284.6 252.779 L
284.992 253.664 L
285.396 254.542 L
285.811 255.414 L
286.237 256.28 L
286.674 257.14 L
287.123 257.993 L
287.582 258.839 L
288.052 259.679 L
288.533 260.511 L
289.024 261.336 L
289.526 262.154 L
290.038 262.964 L
290.56 263.767 L
291.093 264.562 L
291.635 265.349 L
292.187 266.128 L
292.749 266.899 L
293.321 267.661 L
293.901 268.415 L
294.491 269.161 L
295.091 269.897 L
295.699 270.625 L
296.316 271.344 L
296.941 272.054 L
297.576 272.754 L
298.218 273.445 L
298.869 274.127 L
299.528 274.8 L
300.195 275.462 L
300.869 276.115 L
301.552 276.758 L
302.241 277.391 L
302.938 278.014 L
303.642 278.627 L
304.353 279.23 L
305.071 279.823 L
305.796 280.405 L
306.527 280.976 L
307.264 281.537 L
308.007 282.088 L
308.756 282.628 L
309.512 283.157 L
310.272 283.675 L
311.038 284.182 L
311.81 284.679 L
312.586 285.164 L
313.368 285.638 L
314.154 286.102 L
314.944 286.554 L
315.739 286.995 L
316.539 287.424 L
317.342 287.843 L
318.149 288.25 L
318.96 288.646 L
319.774 289.03 L
320.592 289.403 L
321.412 289.765 L
322.236 290.115 L
323.063 290.454 L
323.892 290.781 L
324.723 291.097 L
325.557 291.401 L
326.393 291.694 L
327.23 291.976 L
328.07 292.246 L
328.911 292.504 L
329.753 292.751 L
330.596 292.987 L
331.441 293.211 L
332.286 293.424 L
333.132 293.625 L
333.979 293.815 L
334.826 293.993 L
335.672 294.161 L
336.519 294.317 L
337.366 294.461 L
338.213 294.595 L
339.058 294.717 L
339.904 294.829 L
340.748 294.929 L
341.591 295.018 L
342.433 295.096 L
343.274 295.163 L
344.113 295.219 L
344.951 295.265 L
345.787 295.299 L
346.621 295.323 L
347.452 295.337 L
348.282 295.34 L
349.109 295.332 L
349.933 295.314 L
350.755 295.285 L
351.574 295.247 L
352.39 295.198 L
353.203 295.139 L
354.012 295.07 L
354.818 294.991 L
355.621 294.902 L
356.419 294.803 L
357.214 294.695 L
358.005 294.577 L
358.792 294.45 L
359.575 294.313 L
360.354 294.168 L
361.128 294.012 L
361.897 293.848 L
362.662 293.675 L
363.422 293.493 L
364.177 293.303 L
364.927 293.104 L
365.671 292.896 L
366.411 292.68 L
367.145 292.455 L
367.874 292.222 L
368.598 291.982 L
369.315 291.733 L
370.027 291.477 L
370.734 291.213 L
371.434 290.941 L
372.128 290.662 L
372.816 290.375 L
373.499 290.082 L
374.174 289.781 L
374.844 289.473 L
375.507 289.159 L
376.164 288.838 L
376.814 288.51 L
377.458 288.176 L
378.095 287.835 L
378.726 287.489 L
379.349 287.136 L
379.966 286.778 L
380.576 286.414 L
381.179 286.044 L
381.775 285.668 L
382.365 285.288 L
382.947 284.902 L
383.522 284.511 L
384.09 284.115 L
384.65 283.714 L
385.204 283.308 L
385.751 282.898 L
386.29 282.484 L
386.822 282.065 L
387.347 281.642 L
387.864 281.215 L
388.374 280.785 L
388.877 280.35 L
389.372 279.912 L
389.861 279.47 L
390.342 279.025 L
390.815 278.577 L
391.281 278.126 L
391.74 277.671 L
392.192 277.214 L
392.636 276.754 L
393.073 276.292 L
393.502 275.827 L
393.925 275.36 L
394.34 274.891 L
394.747 274.419 L
395.148 273.946 L
395.541 273.471 L
395.928 272.994 L
396.307 272.515 L
396.679 272.035 L
397.043 271.554 L
397.401 271.071 L
397.752 270.587 L
398.096 270.103 L
398.433 269.617 L
398.762 269.131 L
399.086 268.643 L
399.402 268.156 L
399.711 267.668 L
400.014 267.179 L
400.31 266.69 L
400.6 266.201 L
400.883 265.712 L
401.159 265.223 L
401.429 264.735 L
401.693 264.246 L
401.95 263.758 L
402.201 263.27 L
402.446 262.783 L
402.685 262.296 L
402.918 261.81 L
403.144 261.324 L
403.365 260.84 L
403.58 260.356 L
403.789 259.874 L
403.993 259.392 L
404.19 258.912 L
404.383 258.433 L
404.57 257.955 L
404.751 257.478 L
404.927 257.003 L
405.098 256.53 L
405.263 256.058 L
405.424 255.587 L
405.579 255.119 L
405.73 254.652 L
405.876 254.186 L
406.017 253.723 L
406.153 253.261 L
406.285 252.802 L
406.412 252.344 L
406.535 251.888 L
406.653 251.435 L
406.768 250.983 L
406.878 250.534 L
406.984 250.087 L
407.086 249.641 L
407.184 249.199 L
407.278 248.758 L
407.368 248.32 L
407.455 247.884 L
407.539 247.45 L
407.618 247.018 L
407.695 246.589 L
407.768 246.163 L
407.838 245.738 L
407.905 245.316 L
407.969 244.897 L
408.029 244.48 L
408.087 244.065 L
408.142 243.653 L
408.195 243.243 L
408.245 242.835 L
408.292 242.43 L
408.337 242.027 L
408.379 241.627 L
408.419 241.229 L
408.457 240.833 L
408.493 240.44 L
408.526 240.049 L
408.558 239.66 L
408.588 239.274 L
408.616 238.89 L
408.642 238.508 L
408.666 238.129 L
408.689 237.751 L
408.71 237.376 L
408.73 237.003 L
408.749 236.632 L
408.766 236.263 L
408.781 235.897 L
408.796 235.532 L
408.809 235.169 L
408.821 234.808 L
408.833 234.449 L
408.843 234.092 L
408.852 233.737 L
408.861 233.384 L
408.868 233.032 L
408.875 232.682 L
408.881 232.333 L
408.887 231.986 L
408.892 231.641 L
408.896 231.297 L
408.9 230.955 L
408.903 230.613 L
408.906 230.274 L
408.909 229.935 L
408.911 229.598 L
408.913 229.262 L
408.914 228.927 L
408.916 228.593 L
408.917 228.26 L
408.917 227.927 L
408.918 227.596 L
408.919 227.266 L
408.919 226.936 L
408.919 226.607 L
408.92 226.278 L
408.92 225.95 L
408.92 225.623 L
408.92 225.295 L
408.92 224.969 L
408.92 224.642 L
408.92 224.316 L
408.92 223.99 L
408.92 223.664 LE
0 1 1 C
408.92 223.56 LS
408.92 223.364 L
408.92 223.169 L
408.92 222.973 L
408.92 222.777 L
408.92 222.581 L
408.92 222.385 L
408.92 222.189 L
408.92 221.992 L
408.92 221.795 L
408.919 221.597 L
408.919 221.4 L
408.919 221.202 L
408.919 221.003 L
408.918 220.804 L
408.918 220.604 L
408.917 220.404 L
408.916 220.203 L
408.915 220.002 L
408.914 219.799 L
408.912 219.597 L
408.911 219.393 L
408.909 219.189 L
408.906 218.983 L
408.904 218.777 L
408.901 218.57 L
408.898 218.362 L
408.894 218.154 L
408.89 217.944 L
408.886 217.733 L
408.881 217.521 L
408.876 217.309 L
408.87 217.095 L
408.863 216.88 L
408.856 216.664 L
408.848 216.446 L
408.84 216.228 L
408.83 216.008 L
408.82 215.787 L
408.81 215.565 L
408.798 215.342 L
408.786 215.117 L
408.772 214.891 L
408.758 214.664 L
408.743 214.435 L
408.726 214.205 L
408.709 213.974 L
408.69 213.741 L
408.67 213.507 L
408.649 213.271 L
408.627 213.034 L
408.603 212.796 L
408.578 212.556 L
408.552 212.315 L
408.524 212.073 L
408.495 211.828 L
408.464 211.583 L
408.431 211.336 L
408.397 211.088 L
408.361 210.838 L
408.323 210.587 L
408.284 210.334 L
408.242 210.08 L
408.199 209.824 L
408.154 209.567 L
408.107 209.309 L
408.057 209.049 L
408.006 208.788 L
407.952 208.525 L
407.896 208.261 L
407.838 207.996 L
407.778 207.729 L
407.715 207.461 L
407.65 207.192 L
407.582 206.922 L
407.512 206.65 L
407.439 206.377 L
407.364 206.103 L
407.285 205.827 L
407.204 205.551 L
407.121 205.273 L
407.034 204.994 L
406.945 204.714 L
406.852 204.433 L
406.757 204.151 L
406.659 203.868 L
406.557 203.585 L
406.453 203.3 L
406.345 203.014 L
406.234 202.728 L
406.119 202.44 L
406.002 202.152 L
405.881 201.864 L
405.756 201.574 L
405.629 201.285 L
405.497 200.994 L
405.362 200.703 L
405.224 200.411 L
405.082 200.12 L
404.936 199.827 L
404.787 199.535 L
404.633 199.242 L
404.476 198.949 L
404.316 198.655 L
404.151 198.362 L
403.982 198.069 L
403.81 197.775 L
403.633 197.482 L
403.453 197.189 L
403.269 196.896 L
403.08 196.603 L
402.888 196.311 L
402.691 196.019 L
402.49 195.727 L
402.285 195.436 L
402.076 195.146 L
401.863 194.856 L
401.645 194.567 L
401.424 194.279 L
401.197 193.991 L
400.967 193.705 L
400.732 193.419 L
400.494 193.135 L
400.25 192.852 L
400.003 192.57 L
399.751 192.289 L
399.494 192.009 L
399.233 191.732 L
398.968 191.455 L
398.699 191.18 L
398.425 190.907 L
398.147 190.636 L
397.864 190.366 L
397.577 190.099 L
397.285 189.833 L
396.989 189.569 L
396.689 189.308 L
396.384 189.049 L
396.075 188.792 L
395.762 188.537 L
395.444 188.285 L
395.122 188.036 L
394.795 187.789 L
394.465 187.545 L
394.129 187.303 L
393.79 187.065 L
393.446 186.829 L
393.098 186.597 L
392.746 186.367 L
392.39 186.141 L
392.029 185.918 L
391.665 185.699 L
391.296 185.482 L
390.923 185.27 L
390.546 185.061 L
390.165 184.855 L
389.78 184.653 L
389.391 184.456 L
388.998 184.262 L
388.602 184.072 L
388.201 183.886 L
387.797 183.704 L
387.389 183.526 L
386.977 183.353 L
386.561 183.184 L
386.142 183.02 L
385.72 182.86 L
385.294 182.705 L
384.864 182.554 L
384.431 182.408 L
383.995 182.267 L
383.555 182.131 L
383.113 181.999 L
382.667 181.873 L
382.218 181.752 L
381.766 181.636 L
381.311 181.525 L
380.853 181.419 L
380.392 181.319 L
379.928 181.225 L
379.462 181.135 L
378.993 181.051 L
378.522 180.973 L
378.048 180.901 L
377.572 180.834 L
377.093 180.773 L
376.613 180.718 L
376.13 180.669 L
375.645 180.625 L
375.158 180.588 L
374.669 180.557 L
374.178 180.532 L
373.685 180.513 L
373.191 180.5 L
372.695 180.493 L
372.198 180.493 L
371.7 180.499 L
371.2 180.511 L
370.698 180.53 L
370.196 180.555 L
369.693 180.587 L
369.189 180.625 L
368.684 180.67 L
368.178 180.721 L
367.672 180.779 L
367.165 180.844 L
366.657 180.915 L
366.149 180.993 L
365.641 181.078 L
365.133 181.169 L
364.625 181.267 L
364.117 181.372 L
363.609 181.484 L
363.101 181.603 L
362.594 181.728 L
362.087 181.86 L
361.581 182 L
361.075 182.146 L
360.57 182.298 L
360.066 182.458 L
359.564 182.625 L
359.062 182.798 L
358.561 182.979 L
358.062 183.166 L
357.564 183.36 L
357.067 183.562 L
356.573 183.769 L
356.08 183.984 L
355.589 184.206 L
355.099 184.434 L
354.612 184.67 L
354.127 184.912 L
353.644 185.161 L
353.164 185.416 L
352.686 185.679 L
352.211 185.948 L
351.738 186.224 L
351.269 186.506 L
350.802 186.795 L
350.338 187.091 L
349.877 187.393 L
349.42 187.702 L
348.966 188.018 L
348.515 188.339 L
348.068 188.668 L
347.624 189.002 L
347.185 189.343 L
346.749 189.69 L
346.317 190.044 L
345.889 190.404 L
345.465 190.769 L
345.045 191.141 L
344.63 191.519 L
344.22 191.903 L
343.813 192.293 L
343.412 192.689 L
343.015 193.09 L
342.623 193.498 L
342.236 193.911 L
341.853 194.329 L
341.476 194.753 L
341.105 195.183 L
340.738 195.618 L
340.377 196.058 L
340.021 196.504 L
339.671 196.955 L
339.326 197.41 L
338.987 197.871 L
338.654 198.337 L
338.327 198.808 L
338.005 199.283 L
337.69 199.763 L
337.381 200.248 L
337.078 200.737 L
336.781 201.231 L
336.49 201.729 L
336.206 202.232 L
335.929 202.738 L
335.658 203.249 L
335.393 203.763 L
335.135 204.281 L
334.884 204.804 L
334.64 205.329 L
334.402 205.859 L
334.172 206.392 L
333.948 206.928 L
333.731 207.468 L
333.522 208.01 L
333.319 208.556 L
333.124 209.105 L
332.936 209.657 L
332.755 210.211 L
332.581 210.768 L
332.415 211.328 L
332.256 211.89 L
332.105 212.454 L
331.961 213.021 L
331.825 213.589 L
331.696 214.16 L
331.575 214.732 L
331.461 215.307 L
331.355 215.883 L
331.257 216.46 L
331.166 217.039 L
331.083 217.619 L
331.008 218.2 L
330.94 218.783 L
330.88 219.366 L
330.828 219.95 L
330.784 220.535 L
330.748 221.121 L
330.719 221.707 L
330.698 222.293 L
330.685 222.88 L
330.68 223.467 L
330.683 224.053 L
330.693 224.64 L
330.712 225.226 L
330.738 225.813 L
330.772 226.398 L
330.813 226.983 L
330.863 227.568 L
330.92 228.152 L
330.985 228.734 L
331.058 229.316 L
331.139 229.896 L
331.227 230.476 L
331.323 231.054 L
331.426 231.63 L
331.538 232.205 L
331.656 232.778 L
331.783 233.349 L
331.917 233.918 L
332.058 234.486 L
332.207 235.051 L
332.364 235.613 L
332.528 236.174 L
332.699 236.732 L
332.877 237.287 L
333.063 237.839 L
333.256 238.389 L
333.456 238.936 L
333.664 239.48 L
333.878 240.02 L
334.1 240.558 L
334.328 241.092 L
334.563 241.622 L
334.805 242.149 L
335.054 242.673 L
335.31 243.192 L
335.573 243.708 L
335.842 244.22 L
336.117 244.728 L
336.399 245.231 L
336.688 245.731 L
336.983 246.226 L
337.284 246.716 L
337.591 247.203 L
337.904 247.684 L
338.224 248.161 L
338.549 248.633 L
338.88 249.101 L
339.217 249.563 L
339.56 250.021 L
339.909 250.473 L
340.263 250.92 L
340.622 251.362 L
340.987 251.799 L
341.357 252.23 L
341.733 252.656 L
342.113 253.077 L
342.499 253.491 L
342.889 253.9 L
343.285 254.304 L
343.685 254.701 L
344.09 255.093 L
344.499 255.479 L
344.913 255.859 L
345.331 256.233 L
345.753 256.6 L
346.18 256.962 L
346.611 257.318 L
347.045 257.667 L
347.484 258.01 L
347.926 258.346 L
348.372 258.677 L
348.822 259.001 L
349.275 259.318 L
349.731 259.629 L
350.191 259.933 L
350.654 260.231 L
351.12 260.522 L
351.589 260.807 L
352.06 261.085 L
352.535 261.356 L
353.012 261.621 L
353.491 261.879 L
353.973 262.13 L
354.457 262.374 L
354.944 262.611 L
355.432 262.842 L
355.923 263.066 L
356.415 263.283 L
356.91 263.493 L
357.406 263.696 L
357.903 263.893 L
358.402 264.082 L
358.902 264.265 L
359.404 264.44 L
359.906 264.609 L
360.41 264.771 L
360.914 264.926 L
361.42 265.075 L
361.926 265.216 L
362.433 265.35 L
362.94 265.478 L
363.447 265.599 L
363.955 265.713 L
364.463 265.82 L
364.971 265.92 L
365.48 266.014 L
365.988 266.101 L
366.496 266.181 L
367.003 266.254 L
367.51 266.321 L
368.017 266.381 L
368.523 266.435 L
369.028 266.481 L
369.532 266.522 L
370.036 266.556 L
370.539 266.583 L
371.04 266.604 L
371.54 266.618 L
372.039 266.626 L
372.537 266.628 L
373.033 266.623 L
373.528 266.612 L
374.021 266.595 L
374.512 266.572 L
375.002 266.543 L
375.49 266.507 L
375.975 266.466 L
376.459 266.418 L
376.94 266.365 L
377.42 266.306 L
377.897 266.241 L
378.371 266.17 L
378.843 266.094 L
379.313 266.012 L
379.78 265.924 L
380.245 265.831 L
380.706 265.733 L
381.165 265.629 L
381.621 265.52 L
382.074 265.406 L
382.524 265.286 L
382.971 265.161 L
383.415 265.032 L
383.855 264.897 L
384.293 264.757 L
384.727 264.613 L
385.157 264.464 L
385.584 264.31 L
386.008 264.152 L
386.428 263.989 L
386.845 263.821 L
387.258 263.649 L
387.667 263.473 L
388.073 263.293 L
388.474 263.108 L
388.872 262.919 L
389.266 262.727 L
389.657 262.53 L
390.043 262.33 L
390.425 262.125 L
390.803 261.917 L
391.178 261.706 L
391.548 261.491 L
391.914 261.272 L
392.276 261.05 L
392.633 260.825 L
392.987 260.597 L
393.336 260.365 L
393.681 260.13 L
394.022 259.893 L
394.358 259.652 L
394.69 259.409 L
395.018 259.163 L
395.342 258.914 L
395.661 258.663 L
395.976 258.409 L
396.286 258.153 L
396.592 257.895 L
396.894 257.634 L
397.191 257.371 L
397.484 257.106 L
397.773 256.839 L
398.057 256.57 L
398.337 256.299 L
398.612 256.027 L
398.883 255.753 L
399.149 255.477 L
399.412 255.199 L
399.669 254.92 L
399.923 254.64 L
400.172 254.358 L
400.417 254.076 L
400.657 253.792 L
400.893 253.506 L
401.125 253.22 L
401.352 252.933 L
401.575 252.645 L
401.794 252.356 L
402.009 252.067 L
402.219 251.776 L
402.425 251.486 L
402.628 251.194 L
402.825 250.902 L
403.019 250.61 L
403.209 250.317 L
403.395 250.025 L
403.576 249.731 L
403.754 249.438 L
403.928 249.145 L
404.098 248.851 L
404.264 248.558 L
404.426 248.265 L
404.584 247.972 L
404.738 247.679 L
404.889 247.386 L
405.036 247.094 L
405.179 246.801 L
405.319 246.51 L
405.455 246.219 L
405.587 245.928 L
405.716 245.638 L
405.842 245.348 L
405.964 245.059 L
406.082 244.771 L
406.198 244.484 L
406.31 244.197 L
406.419 243.911 L
406.524 243.626 L
406.627 243.342 L
406.726 243.059 L
406.822 242.776 L
406.916 242.495 L
407.006 242.215 L
407.093 241.936 L
407.178 241.658 L
407.26 241.381 L
407.339 241.105 L
407.415 240.83 L
407.489 240.557 L
407.56 240.285 L
407.629 240.014 L
407.695 239.744 L
407.758 239.476 L
407.819 239.209 L
407.878 238.943 L
407.935 238.679 L
407.989 238.416 L
408.041 238.154 L
408.091 237.894 L
408.139 237.635 L
408.185 237.378 L
408.229 237.122 L
408.271 236.867 L
408.311 236.614 L
408.349 236.362 L
408.386 236.112 L
408.42 235.863 L
408.453 235.616 L
408.485 235.37 L
408.515 235.125 L
408.543 234.882 L
408.57 234.64 L
408.595 234.4 L
408.619 234.161 L
408.642 233.924 L
408.664 233.688 L
408.684 233.453 L
408.703 233.22 L
408.721 232.988 L
408.737 232.758 L
408.753 232.529 L
408.768 232.301 L
408.781 232.075 L
408.794 231.85 L
408.806 231.626 L
408.817 231.403 L
408.827 231.182 L
408.837 230.962 L
408.845 230.743 L
408.853 230.525 L
408.861 230.309 L
408.868 230.094 L
408.874 229.879 L
408.879 229.666 L
408.884 229.454 L
408.889 229.243 L
408.893 229.033 L
408.897 228.824 L
408.9 228.616 L
408.903 228.409 L
408.906 228.202 L
408.908 227.997 L
408.91 227.792 L
408.912 227.588 L
408.913 227.385 L
408.914 227.183 L
408.916 226.981 L
408.917 226.78 L
408.917 226.58 L
408.918 226.38 L
408.918 226.18 L
408.919 225.982 L
408.919 225.783 L
408.919 225.585 L
408.92 225.388 L
408.92 225.191 L
408.92 224.994 L
408.92 224.798 L
408.92 224.601 L
408.92 224.405 L
408.92 224.209 L
408.92 224.014 L
408.92 223.818 L
408.92 223.622 LE
3 W
0 0 1 C
408.92 223.56 LS
408.913 224.864 L
408.894 226.168 L
408.861 227.471 L
408.816 228.775 L
408.757 230.077 L
408.685 231.379 L
408.601 232.681 L
408.503 233.981 L
408.392 235.28 L
408.269 236.578 L
408.132 237.875 L
407.982 239.17 L
407.82 240.464 L
407.644 241.756 L
407.456 243.047 L
407.254 244.335 L
407.04 245.621 L
406.813 246.905 L
406.573 248.187 L
406.321 249.466 L
406.055 250.743 L
405.777 252.017 L
405.486 253.288 L
405.182 254.556 L
404.866 255.821 L
404.537 257.083 L
404.196 258.342 L
403.842 259.597 L
403.475 260.848 L
403.096 262.096 L
402.704 263.34 L
402.3 264.579 L
401.884 265.815 L
401.455 267.047 L
401.014 268.274 L
400.561 269.497 L
400.095 270.715 L
399.618 271.928 L
399.128 273.137 L
398.626 274.34 L
398.113 275.539 L
397.587 276.732 L
397.049 277.92 L
396.5 279.103 L
395.938 280.279 L
395.365 281.451 L
394.78 282.616 L
394.184 283.776 L
393.576 284.93 L
392.957 286.077 L
392.326 287.218 L
391.684 288.353 L
391.03 289.482 L
390.365 290.603 L
389.689 291.718 L
389.002 292.827 L
388.304 293.928 L
387.595 295.022 L
386.875 296.109 L
386.144 297.189 L
385.402 298.262 L
384.65 299.327 L
383.887 300.384 L
383.113 301.434 L
382.329 302.476 L
381.535 303.51 L
380.73 304.537 L
379.915 305.555 L
379.09 306.564 L
378.255 307.566 L
377.41 308.559 L
376.555 309.544 L
375.691 310.52 L
374.816 311.487 L
373.932 312.446 L
373.039 313.395 L
372.136 314.336 L
371.223 315.268 L
370.301 316.19 L
369.371 317.103 L
368.431 318.007 L
367.482 318.901 L
366.524 319.786 L
365.557 320.661 L
364.582 321.527 L
363.598 322.383 L
362.605 323.228 L
361.604 324.064 L
360.595 324.89 L
359.578 325.706 L
358.552 326.511 L
357.519 327.306 L
356.478 328.091 L
355.428 328.866 L
354.371 329.629 L
353.307 330.383 L
352.235 331.125 L
351.156 331.857 L
350.069 332.578 L
348.975 333.288 L
347.875 333.987 L
346.767 334.675 L
345.652 335.352 L
344.531 336.018 L
343.403 336.672 L
342.269 337.315 L
341.128 337.947 L
339.981 338.567 L
338.828 339.176 L
337.669 339.773 L
336.504 340.359 L
335.333 340.933 L
334.156 341.495 L
332.974 342.046 L
331.787 342.584 L
330.594 343.111 L
329.396 343.626 L
328.193 344.129 L
326.984 344.619 L
325.771 345.098 L
324.554 345.564 L
323.331 346.019 L
322.105 346.461 L
320.873 346.89 L
319.638 347.308 L
318.398 347.713 L
317.155 348.105 L
315.908 348.485 L
314.657 348.853 L
313.402 349.208 L
312.144 349.551 L
310.882 349.88 L
309.617 350.198 L
308.349 350.502 L
307.078 350.794 L
305.805 351.074 L
304.528 351.34 L
303.249 351.594 L
301.968 351.835 L
300.684 352.063 L
299.398 352.278 L
298.109 352.48 L
296.819 352.67 L
295.527 352.846 L
294.234 353.01 L
292.938 353.16 L
291.642 353.298 L
290.344 353.423 L
289.044 353.535 L
287.744 353.633 L
286.443 353.719 L
285.141 353.792 L
283.838 353.852 L
282.535 353.898 L
281.232 353.932 L
279.928 353.952 L
278.624 353.96 L
277.32 353.954 L
276.016 353.936 L
274.712 353.904 L
273.409 353.86 L
272.106 353.802 L
270.804 353.732 L
269.503 353.648 L
268.203 353.551 L
266.903 353.442 L
265.605 353.319 L
264.308 353.183 L
263.013 353.035 L
261.719 352.873 L
260.426 352.699 L
259.136 352.511 L
257.847 352.311 L
256.561 352.098 L
255.277 351.872 L
253.995 351.633 L
252.715 351.381 L
251.438 351.117 L
250.164 350.84 L
248.893 350.55 L
247.624 350.247 L
246.359 349.932 L
245.097 349.604 L
243.838 349.263 L
242.583 348.91 L
241.331 348.545 L
240.083 348.167 L
238.839 347.776 L
237.599 347.373 L
236.363 346.958 L
235.131 346.53 L
233.904 346.09 L
232.681 345.637 L
231.462 345.173 L
230.248 344.696 L
229.039 344.208 L
227.836 343.707 L
226.637 343.194 L
225.443 342.669 L
224.254 342.132 L
223.071 341.584 L
221.894 341.023 L
220.722 340.451 L
219.556 339.867 L
218.396 339.272 L
217.242 338.665 L
216.094 338.047 L
214.952 337.417 L
213.817 336.775 L
212.688 336.122 L
211.566 335.459 L
210.45 334.783 L
209.341 334.097 L
208.239 333.4 L
207.145 332.692 L
206.057 331.972 L
204.976 331.242 L
203.903 330.502 L
202.838 329.75 L
201.779 328.988 L
200.729 328.215 L
199.686 327.432 L
198.652 326.639 L
197.625 325.835 L
196.606 325.021 L
195.596 324.197 L
194.593 323.362 L
193.6 322.518 L
192.614 321.664 L
191.638 320.8 L
190.67 319.926 L
189.71 319.043 L
188.76 318.15 L
187.819 317.248 L
186.886 316.336 L
185.963 315.415 L
185.049 314.485 L
184.145 313.546 L
183.249 312.598 L
182.364 311.64 L
181.488 310.674 L
180.622 309.7 L
179.765 308.716 L
178.919 307.725 L
178.082 306.724 L
177.255 305.716 L
176.439 304.699 L
175.632 303.674 L
174.836 302.642 L
174.051 301.601 L
173.276 300.552 L
172.511 299.496 L
171.757 298.432 L
171.014 297.361 L
170.281 296.282 L
169.559 295.196 L
168.848 294.103 L
168.148 293.003 L
167.46 291.895 L
166.782 290.781 L
166.115 289.661 L
165.46 288.533 L
164.816 287.399 L
164.183 286.259 L
163.562 285.113 L
162.952 283.96 L
162.354 282.801 L
161.767 281.637 L
161.192 280.466 L
160.629 279.29 L
160.078 278.109 L
159.538 276.922 L
159.01 275.729 L
158.495 274.531 L
157.991 273.329 L
157.499 272.121 L
157.02 270.908 L
156.552 269.691 L
156.097 268.469 L
155.654 267.242 L
155.224 266.012 L
154.805 264.777 L
154.399 263.537 L
154.006 262.294 L
153.625 261.047 L
153.256 259.796 L
152.9 258.542 L
152.556 257.284 L
152.225 256.023 L
151.907 254.758 L
151.601 253.49 L
151.308 252.22 L
151.028 250.946 L
150.761 249.67 L
150.506 248.391 L
150.264 247.11 L
150.035 245.826 L
149.819 244.54 L
149.615 243.252 L
149.425 241.962 L
149.247 240.67 L
149.083 239.377 L
148.931 238.081 L
148.792 236.785 L
148.667 235.487 L
148.554 234.188 L
148.454 232.888 L
148.367 231.587 L
148.294 230.285 L
148.233 228.982 L
148.185 227.679 L
148.15 226.375 L
148.129 225.072 L
148.12 223.768 L
148.125 222.464 L
148.142 221.16 L
148.173 219.856 L
148.216 218.553 L
148.273 217.25 L
148.342 215.948 L
148.425 214.647 L
148.521 213.346 L
148.629 212.047 L
148.751 210.748 L
148.885 209.451 L
149.033 208.156 L
149.194 206.862 L
149.367 205.569 L
149.553 204.279 L
149.753 202.99 L
149.965 201.703 L
150.19 200.419 L
150.428 199.137 L
150.678 197.857 L
150.942 196.58 L
151.218 195.306 L
151.507 194.034 L
151.808 192.765 L
152.123 191.5 L
152.45 190.237 L
152.789 188.978 L
153.141 187.723 L
153.506 186.471 L
153.883 185.223 L
154.273 183.978 L
154.675 182.738 L
155.089 181.501 L
155.516 180.269 L
155.955 179.041 L
156.406 177.818 L
156.87 176.599 L
157.345 175.385 L
157.833 174.176 L
158.333 172.971 L
158.845 171.772 L
159.369 170.578 L
159.904 169.389 L
160.452 168.205 L
161.012 167.028 L
161.583 165.855 L
162.166 164.689 L
162.76 163.528 L
163.366 162.374 L
163.984 161.225 L
164.613 160.083 L
165.253 158.947 L
165.905 157.818 L
166.568 156.695 L
167.242 155.579 L
167.928 154.469 L
168.624 153.367 L
169.332 152.271 L
170.05 151.183 L
170.779 150.102 L
171.519 149.028 L
172.27 147.962 L
173.031 146.903 L
173.803 145.852 L
174.585 144.809 L
175.378 143.774 L
176.181 142.746 L
176.994 141.727 L
177.817 140.716 L
178.651 139.713 L
179.494 138.718 L
180.348 137.732 L
181.211 136.755 L
182.084 135.786 L
182.966 134.826 L
183.858 133.875 L
184.76 132.933 L
185.671 132 L
186.591 131.076 L
187.521 130.162 L
188.459 129.256 L
189.407 128.36 L
190.363 127.474 L
191.328 126.597 L
192.302 125.73 L
193.285 124.873 L
194.276 124.026 L
195.276 123.188 L
196.283 122.361 L
197.299 121.543 L
198.324 120.736 L
199.356 119.939 L
200.396 119.153 L
201.444 118.377 L
202.5 117.612 L
203.563 116.857 L
204.634 116.112 L
205.712 115.379 L
206.797 114.656 L
207.89 113.945 L
208.99 113.244 L
210.096 112.554 L
211.21 111.875 L
212.33 111.208 L
213.457 110.551 L
214.59 109.907 L
215.73 109.273 L
216.876 108.651 L
218.028 108.04 L
219.186 107.441 L
220.35 106.853 L
221.52 106.278 L
222.696 105.713 L
223.877 105.161 L
225.064 104.621 L
226.256 104.092 L
227.453 103.575 L
228.655 103.071 L
229.863 102.578 L
231.075 102.098 L
232.292 101.629 L
233.514 101.173 L
234.74 100.729 L
235.97 100.297 L
237.205 99.878 L
238.444 99.4711 L
239.687 99.0765 L
240.933 98.6944 L
242.184 98.3248 L
243.438 97.9677 L
244.696 97.6232 L
245.957 97.2913 L
247.221 96.9719 L
248.488 96.6653 L
249.759 96.3713 L
251.032 96.0901 L
252.308 95.8216 L
253.587 95.5658 L
254.868 95.3229 L
256.152 95.0928 L
257.437 94.8755 L
258.725 94.6712 L
260.015 94.4797 L
261.307 94.3011 L
262.6 94.1354 L
263.895 93.9827 L
265.192 93.8429 L
266.49 93.7161 L
267.789 93.6023 L
269.089 93.5015 L
270.39 93.4137 L
271.692 93.3389 L
272.994 93.2771 L
274.297 93.2284 L
275.601 93.1927 L
276.905 93.17 L
278.208 93.1604 L
279.512 93.1638 L
280.816 93.1802 L
282.12 93.2097 L
283.423 93.2522 L
284.726 93.3078 L
286.028 93.3763 L
287.33 93.4579 L
288.63 93.5525 L
289.93 93.6601 L
291.228 93.7807 L
292.525 93.9143 L
293.821 94.0608 L
295.115 94.2203 L
296.408 94.3927 L
297.699 94.5781 L
298.987 94.7763 L
300.274 94.9874 L
301.559 95.2114 L
302.841 95.4482 L
304.121 95.6978 L
305.398 95.9602 L
306.673 96.2354 L
307.945 96.5232 L
309.214 96.8238 L
310.48 97.1371 L
311.742 97.463 L
313.001 97.8015 L
314.257 98.1526 L
315.51 98.5163 L
316.758 98.8924 L
318.003 99.281 L
319.244 99.6821 L
320.48 100.095 L
321.713 100.521 L
322.941 100.959 L
324.165 101.41 L
325.384 101.872 L
326.599 102.347 L
327.808 102.834 L
329.013 103.333 L
330.213 103.844 L
331.407 104.367 L
332.597 104.901 L
333.78 105.448 L
334.959 106.007 L
336.132 106.577 L
337.298 107.159 L
338.46 107.752 L
339.615 108.357 L
340.764 108.974 L
341.906 109.602 L
343.043 110.242 L
344.173 110.893 L
345.296 111.555 L
346.413 112.228 L
347.523 112.913 L
348.626 113.608 L
349.722 114.315 L
350.81 115.032 L
351.892 115.761 L
352.966 116.5 L
354.033 117.25 L
355.093 118.01 L
356.144 118.781 L
357.188 119.562 L
358.224 120.354 L
359.252 121.156 L
360.272 121.969 L
361.284 122.792 L
362.287 123.624 L
363.283 124.467 L
364.269 125.319 L
365.247 126.182 L
366.217 127.054 L
367.177 127.936 L
368.129 128.827 L
369.072 129.728 L
370.006 130.638 L
370.931 131.558 L
371.846 132.486 L
372.752 133.424 L
373.649 134.371 L
374.536 135.327 L
375.413 136.291 L
376.281 137.264 L
377.139 138.246 L
377.987 139.237 L
378.826 140.236 L
379.654 141.243 L
380.472 142.258 L
381.28 143.282 L
382.077 144.313 L
382.865 145.353 L
383.642 146.4 L
384.408 147.455 L
385.164 148.518 L
385.909 149.588 L
386.643 150.666 L
387.367 151.751 L
388.079 152.843 L
388.781 153.942 L
389.471 155.048 L
390.151 156.161 L
390.819 157.28 L
391.477 158.407 L
392.123 159.539 L
392.757 160.679 L
393.38 161.824 L
393.992 162.976 L
394.592 164.134 L
395.18 165.297 L
395.757 166.467 L
396.322 167.642 L
396.875 168.823 L
397.417 170.009 L
397.946 171.201 L
398.464 172.398 L
398.97 173.6 L
399.463 174.806 L
399.945 176.018 L
400.414 177.235 L
400.871 178.456 L
401.316 179.682 L
401.749 180.912 L
402.169 182.146 L
402.577 183.385 L
402.972 184.628 L
403.356 185.874 L
403.726 187.124 L
404.084 188.378 L
404.43 189.635 L
404.763 190.896 L
405.083 192.16 L
405.391 193.427 L
405.686 194.698 L
405.968 195.971 L
406.237 197.247 L
406.494 198.525 L
406.738 199.806 L
406.969 201.089 L
407.188 202.375 L
407.393 203.663 L
407.586 204.952 L
407.765 206.244 L
407.932 207.537 L
408.086 208.832 L
408.226 210.128 L
408.354 211.426 L
408.469 212.725 L
408.571 214.025 L
408.66 215.326 L
408.736 216.628 L
408.798 217.93 L
408.848 219.233 L
408.885 220.537 L
408.909 221.841 L
408.919 223.145 LE
1 1 1 C
320.352 50.2617 320.352 156.541 320.352 50.2617 T
320.352 50.2617 320.352 156.541 320.352 156.541 T
77.6217 156.541 320.352 156.541 77.6217 156.541 T
77.6217 156.541 320.352 156.541 320.352 156.541 T
77.6217 156.541 320.352 50.2617 77.6217 50.2617 T
77.6217 156.541 320.352 156.541 320.352 50.2617 T
2 W
[16 0] 0 setdash
0 0 0 C
77.6217 50.2617 LS
320.352 50.2617 LE
77.6217 156.541 LS
320.352 156.541 LE
77.6217 156.541 LS
320.352 156.541 LE
77.6217 50.2617 LS
320.352 50.2617 LE
77.6217 50.2617 LS
77.6217 156.541 LE
320.352 50.2617 LS
320.352 156.541 LE
320.352 50.2617 LS
320.352 156.541 LE
77.6217 50.2617 LS
77.6217 156.541 L
77.6217 156.541 LE
320.352 156.541 LS
320.352 156.541 LE
320.352 50.2617 LS
320.352 50.2617 LE
77.6217 50.2617 LS
77.6217 50.2617 LE
(0.45L.dx/u) 103.667 145.913 15 /Helvetica SCL
(0.35L.dx/u) 103.667 124.657 15 /Helvetica SCL
(0.25L.dx/u) 103.667 103.402 15 /Helvetica SCL
(0.15L.dx/u) 103.667 82.1456 15 /Helvetica SCL
(Explicit Euler Stability Region) 103.667 60.8896 15 /Helvetica SCL
0.5 W
[] 0 setdash
1 0 0 C
80.3633 145.913 LS
100.926 145.913 LE
0 1 0 C
80.3633 124.657 LS
100.926 124.657 LE
1 0 1 C
80.3633 103.402 LS
100.926 103.402 LE
0 1 1 C
80.3633 82.1456 LS
100.926 82.1456 LE
0 0 1 C
80.3633 60.8896 LS
100.926 60.8896 LE
grestore
showpage
cleartomark
%%PageTrailer
%%Trailer
end
%%EOF
