%!PS-Adobe-3.0 EPSF-3.0
%%Title: glps_renderer figure
%%Creator: GL2PS 1.3.8, (C) 1999-2012 C. Geuzaine
%%For: Octave
%%CreationDate: Mon Nov  9 08:40:03 2015
%%LanguageLevel: 3
%%DocumentData: Clean7Bit
%%Pages: 1
%%BoundingBox: 0 0 560 420
%%EndComments
%%BeginProlog
/gl2psdict 64 dict def gl2psdict begin
0 setlinecap 0 setlinejoin
/tryPS3shading false def % set to false to force subdivision
/rThreshold 0.064 def % red component subdivision threshold
/gThreshold 0.034 def % green component subdivision threshold
/bThreshold 0.1 def % blue component subdivision threshold
/BD { bind def } bind def
/C  { setrgbcolor } BD
/G  { 0.082 mul exch 0.6094 mul add exch 0.3086 mul add neg 1.0 add setgray } BD
/W  { setlinewidth } BD
/FC { findfont exch /SH exch def SH scalefont setfont } BD
/SW { dup stringwidth pop } BD
/S  { FC moveto show } BD
/SBC{ FC moveto SW -2 div 0 rmoveto show } BD
/SBR{ FC moveto SW neg 0 rmoveto show } BD
/SCL{ FC moveto 0 SH -2 div rmoveto show } BD
/SCC{ FC moveto SW -2 div SH -2 div rmoveto show } BD
/SCR{ FC moveto SW neg SH -2 div rmoveto show } BD
/STL{ FC moveto 0 SH neg rmoveto show } BD
/STC{ FC moveto SW -2 div SH neg rmoveto show } BD
/STR{ FC moveto SW neg SH neg rmoveto show } BD
/FCT { FC translate 0 0 } BD
/SR  { gsave FCT moveto rotate show grestore } BD
/SBCR{ gsave FCT moveto rotate SW -2 div 0 rmoveto show grestore } BD
/SBRR{ gsave FCT moveto rotate SW neg 0 rmoveto show grestore } BD
/SCLR{ gsave FCT moveto rotate 0 SH -2 div rmoveto show grestore} BD
/SCCR{ gsave FCT moveto rotate SW -2 div SH -2 div rmoveto show grestore} BD
/SCRR{ gsave FCT moveto rotate SW neg SH -2 div rmoveto show grestore} BD
/STLR{ gsave FCT moveto rotate 0 SH neg rmoveto show grestore } BD
/STCR{ gsave FCT moveto rotate SW -2 div SH neg rmoveto show grestore } BD
/STRR{ gsave FCT moveto rotate SW neg SH neg rmoveto show grestore } BD
/P  { newpath 0.0 360.0 arc closepath fill } BD
/LS { newpath moveto } BD
/L  { lineto } BD
/LE { lineto stroke } BD
/T  { newpath moveto lineto lineto closepath fill } BD
/STshfill {
      /b1 exch def /g1 exch def /r1 exch def /y1 exch def /x1 exch def
      /b2 exch def /g2 exch def /r2 exch def /y2 exch def /x2 exch def
      /b3 exch def /g3 exch def /r3 exch def /y3 exch def /x3 exch def
      gsave << /ShadingType 4 /ColorSpace [/DeviceRGB]
      /DataSource [ 0 x1 y1 r1 g1 b1 0 x2 y2 r2 g2 b2 0 x3 y3 r3 g3 b3 ] >>
      shfill grestore } BD
/Tm { 3 -1 roll 8 -1 roll 13 -1 roll add add 3 div
      3 -1 roll 7 -1 roll 11 -1 roll add add 3 div
      3 -1 roll 6 -1 roll 9 -1 roll add add 3 div C T } BD
/STsplit {
      4 index 15 index add 0.5 mul
      4 index 15 index add 0.5 mul
      4 index 15 index add 0.5 mul
      4 index 15 index add 0.5 mul
      4 index 15 index add 0.5 mul
      5 copy 5 copy 25 15 roll
      9 index 30 index add 0.5 mul
      9 index 30 index add 0.5 mul
      9 index 30 index add 0.5 mul
      9 index 30 index add 0.5 mul
      9 index 30 index add 0.5 mul
      5 copy 5 copy 35 5 roll 25 5 roll 15 5 roll
      4 index 10 index add 0.5 mul
      4 index 10 index add 0.5 mul
      4 index 10 index add 0.5 mul
      4 index 10 index add 0.5 mul
      4 index 10 index add 0.5 mul
      5 copy 5 copy 40 5 roll 25 5 roll 15 5 roll 25 5 roll
      STnoshfill STnoshfill STnoshfill STnoshfill } BD
/STnoshfill {
      2 index 8 index sub abs rThreshold gt
      { STsplit }
      { 1 index 7 index sub abs gThreshold gt
        { STsplit }
        { dup 6 index sub abs bThreshold gt
          { STsplit }
          { 2 index 13 index sub abs rThreshold gt
            { STsplit }
            { 1 index 12 index sub abs gThreshold gt
              { STsplit }
              { dup 11 index sub abs bThreshold gt
                { STsplit }
                { 7 index 13 index sub abs rThreshold gt
                  { STsplit }
                  { 6 index 12 index sub abs gThreshold gt
                    { STsplit }
                    { 5 index 11 index sub abs bThreshold gt
                      { STsplit }
                      { Tm }
                      ifelse }
                    ifelse }
                  ifelse }
                ifelse }
              ifelse }
            ifelse }
          ifelse }
        ifelse }
      ifelse } BD
tryPS3shading
{ /shfill where
  { /ST { STshfill } BD }
  { /ST { STnoshfill } BD }
  ifelse }
{ /ST { STnoshfill } BD }
ifelse
end
%%EndProlog
%%BeginSetup
/DeviceRGB setcolorspace
gl2psdict begin
%%EndSetup
%%Page: 1 1
%%BeginPageSetup
%%EndPageSetup
mark
gsave
1.0 1.0 scale
1 1 1 C
460.95 46.2 460.95 388.5 460.95 46.2 T
460.95 46.2 460.95 388.5 460.95 388.5 T
118.65 388.5 460.95 388.5 118.65 388.5 T
118.65 388.5 460.95 388.5 460.95 388.5 T
118.65 388.5 460.95 46.2 118.65 46.2 T
118.65 388.5 460.95 388.5 460.95 46.2 T
0.5 W
[16 0] 0 setdash
0 0 0 C
118.65 46.2 LS
460.95 46.2 LE
118.65 388.5 LS
460.95 388.5 LE
118.65 388.5 LS
460.95 388.5 LE
118.65 46.2 LS
460.95 46.2 LE
118.65 46.2 LS
118.65 388.5 LE
460.95 46.2 LS
460.95 388.5 LE
460.95 46.2 LS
460.95 388.5 LE
118.65 46.2 LS
118.65 388.5 L
118.65 388.5 LE
460.95 388.5 LS
460.95 388.5 LE
460.95 46.2 LS
460.95 46.2 LE
118.65 46.2 LS
118.65 46.2 LE
[0 3 1 3 1 3 1 3 1 0] 0 setdash
118.65 46.2 LS
118.65 388.5 LE
187.11 46.2 LS
187.11 388.5 LE
255.57 46.2 LS
255.57 388.5 LE
324.03 46.2 LS
324.03 388.5 LE
392.49 46.2 LS
392.49 388.5 LE
460.95 46.2 LS
460.95 388.5 LE
[16 0] 0 setdash
118.65 46.2 LS
118.65 50.5437 LE
118.65 388.5 LS
118.65 384.156 LE
187.11 46.2 LS
187.11 50.5437 LE
187.11 388.5 LS
187.11 384.156 LE
255.57 46.2 LS
255.57 50.5437 LE
255.57 388.5 LS
255.57 384.156 LE
324.03 46.2 LS
324.03 50.5437 LE
324.03 388.5 LS
324.03 384.156 LE
392.49 46.2 LS
392.49 50.5437 LE
392.49 388.5 LS
392.49 384.156 LE
460.95 46.2 LS
460.95 50.5437 LE
460.95 388.5 LS
460.95 384.156 LE
(-0.02) 118.65 41.1955 15 /Helvetica STC
(-0.015) 187.11 41.1955 15 /Helvetica STC
(-0.01) 255.57 41.1955 15 /Helvetica STC
(-0.005) 324.03 41.1955 15 /Helvetica STC
(0) 392.49 41.1955 15 /Helvetica STC
(0.005) 460.95 41.1955 15 /Helvetica STC
[0 3 1 3 1 3 1 3 1 0] 0 setdash
118.65 46.2 LS
460.95 46.2 LE
118.65 114.66 LS
460.95 114.66 LE
118.65 183.12 LS
460.95 183.12 LE
118.65 251.58 LS
460.95 251.58 LE
118.65 320.04 LS
460.95 320.04 LE
118.65 388.5 LS
460.95 388.5 LE
[16 0] 0 setdash
118.65 46.2 LS
122.994 46.2 LE
460.95 46.2 LS
456.606 46.2 LE
118.65 114.66 LS
122.994 114.66 LE
460.95 114.66 LS
456.606 114.66 LE
118.65 183.12 LS
122.994 183.12 LE
460.95 183.12 LS
456.606 183.12 LE
118.65 251.58 LS
122.994 251.58 LE
460.95 251.58 LS
456.606 251.58 LE
118.65 320.04 LS
122.994 320.04 LE
460.95 320.04 LS
456.606 320.04 LE
118.65 388.5 LS
122.994 388.5 LE
460.95 388.5 LS
456.606 388.5 LE
(0.075) 113.646 46.2 15 /Helvetica SCR
(0.08) 113.646 114.66 15 /Helvetica SCR
(0.085) 113.646 183.12 15 /Helvetica SCR
(0.09) 113.646 251.58 15 /Helvetica SCR
(0.095) 113.646 320.04 15 /Helvetica SCR
(0.1) 113.646 388.5 15 /Helvetica SCR
(Re) 289.8 23.1956 15 /Helvetica STC
(Im) 90 73.6456 217.35 15 /Helvetica SBCR
(Finding CFL(MAX), Explicit Euler) 289.8 398.5 15 /Helvetica SBC
[] 0 setdash
392.49 45.8478 LS
392.49 388.841 LE
2 W
1 0 0 C
388.975 388.842 LS
389.332 352.404 L
389.883 288.186 L
390.358 224.207 L
390.765 160.455 L
391.111 96.9205 L
391.346 45.8577 LE
0 1 0 C
385.336 388.842 LS
385.9 360.182 L
386.808 308.956 L
387.619 257.962 L
388.341 207.193 L
388.98 156.642 L
389.542 106.299 L
390.034 56.1586 L
390.122 45.8577 LE
1 0 1 C
374.628 388.842 LS
376.274 353.165 L
377.925 314.655 L
379.449 276.355 L
380.851 238.264 L
382.137 200.376 L
383.315 162.687 L
384.391 125.192 L
385.369 87.8889 L
386.257 50.7709 L
386.364 45.8577 LE
0 1 1 C
328.702 388.842 LS
332.55 363.518 L
336.38 337.237 L
340.03 311.108 L
343.503 285.13 L
346.805 259.304 L
349.942 233.629 L
352.918 208.105 L
355.74 182.732 L
358.411 157.51 L
360.937 132.437 L
363.323 107.513 L
365.573 82.7372 L
367.694 58.1085 L
368.692 45.8577 LE
3 W
0 0 1 C
353.781 45.8577 LS
348.699 113.492 L
337.075 249.917 L
324.087 386.219 L
323.811 388.842 LE
1 1 1 C
311.453 48.8655 311.453 152.193 311.453 48.8655 T
311.453 48.8655 311.453 152.193 311.453 152.193 T
75.4655 152.193 311.453 152.193 75.4655 152.193 T
75.4655 152.193 311.453 152.193 311.453 152.193 T
75.4655 152.193 311.453 48.8655 75.4655 48.8655 T
75.4655 152.193 311.453 152.193 311.453 48.8655 T
2 W
[16 0] 0 setdash
0 0 0 C
75.4655 48.8655 LS
311.453 48.8655 LE
75.4655 152.193 LS
311.453 152.193 LE
75.4655 152.193 LS
311.453 152.193 LE
75.4655 48.8655 LS
311.453 48.8655 LE
75.4655 48.8655 LS
75.4655 152.193 LE
311.453 48.8655 LS
311.453 152.193 LE
311.453 48.8655 LS
311.453 152.193 LE
75.4655 48.8655 LS
75.4655 152.193 L
75.4655 152.193 LE
311.453 152.193 LS
311.453 152.193 LE
311.453 48.8655 LS
311.453 48.8655 LE
75.4655 48.8655 LS
75.4655 48.8655 LE
(0.45L.dx/u) 100.788 141.86 15 /Helvetica SCL
(0.35L.dx/u) 100.788 121.195 15 /Helvetica SCL
(0.25L.dx/u) 100.788 100.529 15 /Helvetica SCL
(0.15L.dx/u) 100.788 79.8638 15 /Helvetica SCL
(Explicit Euler Stability Region) 100.788 59.1983 15 /Helvetica SCL
0.5 W
[] 0 setdash
1 0 0 C
78.131 141.86 LS
98.1223 141.86 LE
0 1 0 C
78.131 121.195 LS
98.1223 121.195 LE
1 0 1 C
78.131 100.529 LS
98.1223 100.529 LE
0 1 1 C
78.131 79.8638 LS
98.1223 79.8638 LE
0 0 1 C
78.131 59.1983 LS
98.1223 59.1983 LE
grestore
showpage
cleartomark
%%PageTrailer
%%Trailer
end
%%EOF
