%!PS-Adobe-3.0 EPSF-3.0
%%Title: glps_renderer figure
%%Creator: GL2PS 1.3.8, (C) 1999-2012 C. Geuzaine
%%For: Octave
%%CreationDate: Mon Nov  9 08:35:50 2015
%%LanguageLevel: 3
%%DocumentData: Clean7Bit
%%Pages: 1
%%BoundingBox: 0 0 576 432
%%EndComments
%%BeginProlog
/gl2psdict 64 dict def gl2psdict begin
0 setlinecap 0 setlinejoin
/tryPS3shading false def % set to false to force subdivision
/rThreshold 0.064 def % red component subdivision threshold
/gThreshold 0.034 def % green component subdivision threshold
/bThreshold 0.1 def % blue component subdivision threshold
/BD { bind def } bind def
/C  { setrgbcolor } BD
/G  { 0.082 mul exch 0.6094 mul add exch 0.3086 mul add neg 1.0 add setgray } BD
/W  { setlinewidth } BD
/FC { findfont exch /SH exch def SH scalefont setfont } BD
/SW { dup stringwidth pop } BD
/S  { FC moveto show } BD
/SBC{ FC moveto SW -2 div 0 rmoveto show } BD
/SBR{ FC moveto SW neg 0 rmoveto show } BD
/SCL{ FC moveto 0 SH -2 div rmoveto show } BD
/SCC{ FC moveto SW -2 div SH -2 div rmoveto show } BD
/SCR{ FC moveto SW neg SH -2 div rmoveto show } BD
/STL{ FC moveto 0 SH neg rmoveto show } BD
/STC{ FC moveto SW -2 div SH neg rmoveto show } BD
/STR{ FC moveto SW neg SH neg rmoveto show } BD
/FCT { FC translate 0 0 } BD
/SR  { gsave FCT moveto rotate show grestore } BD
/SBCR{ gsave FCT moveto rotate SW -2 div 0 rmoveto show grestore } BD
/SBRR{ gsave FCT moveto rotate SW neg 0 rmoveto show grestore } BD
/SCLR{ gsave FCT moveto rotate 0 SH -2 div rmoveto show grestore} BD
/SCCR{ gsave FCT moveto rotate SW -2 div SH -2 div rmoveto show grestore} BD
/SCRR{ gsave FCT moveto rotate SW neg SH -2 div rmoveto show grestore} BD
/STLR{ gsave FCT moveto rotate 0 SH neg rmoveto show grestore } BD
/STCR{ gsave FCT moveto rotate SW -2 div SH neg rmoveto show grestore } BD
/STRR{ gsave FCT moveto rotate SW neg SH neg rmoveto show grestore } BD
/P  { newpath 0.0 360.0 arc closepath fill } BD
/LS { newpath moveto } BD
/L  { lineto } BD
/LE { lineto stroke } BD
/T  { newpath moveto lineto lineto closepath fill } BD
/STshfill {
      /b1 exch def /g1 exch def /r1 exch def /y1 exch def /x1 exch def
      /b2 exch def /g2 exch def /r2 exch def /y2 exch def /x2 exch def
      /b3 exch def /g3 exch def /r3 exch def /y3 exch def /x3 exch def
      gsave << /ShadingType 4 /ColorSpace [/DeviceRGB]
      /DataSource [ 0 x1 y1 r1 g1 b1 0 x2 y2 r2 g2 b2 0 x3 y3 r3 g3 b3 ] >>
      shfill grestore } BD
/Tm { 3 -1 roll 8 -1 roll 13 -1 roll add add 3 div
      3 -1 roll 7 -1 roll 11 -1 roll add add 3 div
      3 -1 roll 6 -1 roll 9 -1 roll add add 3 div C T } BD
/STsplit {
      4 index 15 index add 0.5 mul
      4 index 15 index add 0.5 mul
      4 index 15 index add 0.5 mul
      4 index 15 index add 0.5 mul
      4 index 15 index add 0.5 mul
      5 copy 5 copy 25 15 roll
      9 index 30 index add 0.5 mul
      9 index 30 index add 0.5 mul
      9 index 30 index add 0.5 mul
      9 index 30 index add 0.5 mul
      9 index 30 index add 0.5 mul
      5 copy 5 copy 35 5 roll 25 5 roll 15 5 roll
      4 index 10 index add 0.5 mul
      4 index 10 index add 0.5 mul
      4 index 10 index add 0.5 mul
      4 index 10 index add 0.5 mul
      4 index 10 index add 0.5 mul
      5 copy 5 copy 40 5 roll 25 5 roll 15 5 roll 25 5 roll
      STnoshfill STnoshfill STnoshfill STnoshfill } BD
/STnoshfill {
      2 index 8 index sub abs rThreshold gt
      { STsplit }
      { 1 index 7 index sub abs gThreshold gt
        { STsplit }
        { dup 6 index sub abs bThreshold gt
          { STsplit }
          { 2 index 13 index sub abs rThreshold gt
            { STsplit }
            { 1 index 12 index sub abs gThreshold gt
              { STsplit }
              { dup 11 index sub abs bThreshold gt
                { STsplit }
                { 7 index 13 index sub abs rThreshold gt
                  { STsplit }
                  { 6 index 12 index sub abs gThreshold gt
                    { STsplit }
                    { 5 index 11 index sub abs bThreshold gt
                      { STsplit }
                      { Tm }
                      ifelse }
                    ifelse }
                  ifelse }
                ifelse }
              ifelse }
            ifelse }
          ifelse }
        ifelse }
      ifelse } BD
tryPS3shading
{ /shfill where
  { /ST { STshfill } BD }
  { /ST { STnoshfill } BD }
  ifelse }
{ /ST { STnoshfill } BD }
ifelse
end
%%EndProlog
%%BeginSetup
/DeviceRGB setcolorspace
gl2psdict begin
%%EndSetup
%%Page: 1 1
%%BeginPageSetup
%%EndPageSetup
mark
gsave
1.0 1.0 scale
1 1 1 C
521.28 47.52 521.28 399.6 521.28 47.52 T
521.28 47.52 521.28 399.6 521.28 399.6 T
74.88 399.6 521.28 399.6 74.88 399.6 T
74.88 399.6 521.28 399.6 521.28 399.6 T
74.88 399.6 521.28 47.52 74.88 47.52 T
74.88 399.6 521.28 399.6 521.28 47.52 T
0.5 W
[16 0] 0 setdash
0 0 0 C
74.88 47.52 LS
521.28 47.52 LE
74.88 399.6 LS
521.28 399.6 LE
74.88 399.6 LS
521.28 399.6 LE
74.88 47.52 LS
521.28 47.52 LE
74.88 47.52 LS
74.88 399.6 LE
521.28 47.52 LS
521.28 399.6 LE
521.28 47.52 LS
521.28 399.6 LE
74.88 47.52 LS
74.88 399.6 L
74.88 399.6 LE
521.28 399.6 LS
521.28 399.6 LE
521.28 47.52 LS
521.28 47.52 LE
74.88 47.52 LS
74.88 47.52 L
74.88 51.985 LE
74.88 399.6 LS
74.88 395.135 LE
164.16 47.52 LS
164.16 51.985 LE
164.16 399.6 LS
164.16 395.135 LE
253.44 47.52 LS
253.44 51.985 LE
253.44 399.6 LS
253.44 395.135 LE
342.72 47.52 LS
342.72 51.985 LE
342.72 399.6 LS
342.72 395.135 LE
432 47.52 LS
432 51.985 LE
432 399.6 LS
432 395.135 LE
521.28 47.52 LS
521.28 51.985 LE
521.28 399.6 LS
521.28 395.135 LE
(0) 74.88 42.5189 15 /Helvetica STC
(0.2) 164.16 42.5189 15 /Helvetica STC
(0.4) 253.44 42.5189 15 /Helvetica STC
(0.6) 342.72 42.5189 15 /Helvetica STC
(0.8) 432 42.5189 15 /Helvetica STC
(1) 521.28 42.5189 15 /Helvetica STC
74.88 47.52 LS
79.348 47.52 LE
521.28 47.52 LS
516.812 47.52 LE
74.88 91.53 LS
79.348 91.53 LE
521.28 91.53 LS
516.812 91.53 LE
74.88 135.54 LS
79.348 135.54 LE
521.28 135.54 LS
516.812 135.54 LE
74.88 179.55 LS
79.348 179.55 LE
521.28 179.55 LS
516.812 179.55 LE
74.88 223.56 LS
79.348 223.56 LE
521.28 223.56 LS
516.812 223.56 LE
74.88 267.57 LS
79.348 267.57 LE
521.28 267.57 LS
516.812 267.57 LE
74.88 311.58 LS
79.348 311.58 LE
521.28 311.58 LS
516.812 311.58 LE
74.88 355.59 LS
79.348 355.59 LE
521.28 355.59 LS
516.812 355.59 LE
74.88 399.6 LS
79.348 399.6 LE
521.28 399.6 LS
516.812 399.6 LE
(-0.2) 69.8755 47.52 15 /Helvetica SCR
(-0.15) 69.8755 91.53 15 /Helvetica SCR
(-0.1) 69.8755 135.54 15 /Helvetica SCR
(-0.05) 69.8755 179.55 15 /Helvetica SCR
(0) 69.8755 223.56 15 /Helvetica SCR
(0.05) 69.8755 267.57 15 /Helvetica SCR
(0.1) 69.8755 311.58 15 /Helvetica SCR
(0.15) 69.8755 355.59 15 /Helvetica SCR
(0.2) 69.8755 399.6 15 /Helvetica SCR
(X) 298.08 24.5188 15 /Helvetica STC
(Solution Error) 90 32.8755 223.56 15 /Helvetica SBCR
2 W
[] 0 setdash
0 0 1 C
74.88 219.581 LS
97.2 219.581 L
97.2 207.529 L
119.52 207.529 L
119.52 194.079 L
141.84 194.079 L
141.84 186.668 L
164.16 186.668 L
164.16 185.196 L
186.48 185.196 L
186.48 193.249 L
208.8 193.249 L
208.8 208.472 L
231.12 208.472 L
231.12 230.96 L
253.44 230.96 L
253.44 256.527 L
275.76 256.527 L
275.76 282.799 L
298.08 282.799 L
298.08 304.968 L
320.4 304.968 L
320.4 320.085 L
342.72 320.085 L
342.72 324.532 L
365.04 324.532 L
365.04 316.866 L
387.36 316.866 L
387.36 296.241 L
409.68 296.241 L
409.68 264.06 L
432 264.06 L
432 222.782 L
454.32 222.782 L
454.32 176.603 L
476.64 176.603 L
476.64 130.37 L
498.96 130.37 L
498.96 89.5751 L
521.28 89.5751 LE
1 0 0 C
74.88 223.047 LS
86.04 223.047 L
86.04 221.384 L
97.2 221.384 L
97.2 219.204 L
108.36 219.204 L
108.36 217.252 L
119.52 217.252 L
119.52 215.371 L
130.68 215.371 L
130.68 214.022 L
141.84 214.022 L
141.84 213.023 L
153 213.023 L
153 212.678 L
164.16 212.678 L
164.16 212.835 L
175.32 212.835 L
175.32 213.674 L
186.48 213.674 L
186.48 215.06 L
197.64 215.06 L
197.64 217.071 L
208.8 217.071 L
208.8 219.569 L
219.96 219.569 L
219.96 222.552 L
231.12 222.552 L
231.12 225.868 L
242.28 225.868 L
242.28 229.455 L
253.44 229.455 L
253.44 233.152 L
264.6 233.152 L
264.6 236.854 L
275.76 236.854 L
275.76 240.4 L
286.92 240.4 L
286.92 243.669 L
298.08 243.669 L
298.08 246.512 L
309.24 246.512 L
309.24 248.812 L
320.4 248.812 L
320.4 250.447 L
331.56 250.447 L
331.56 251.328 L
342.72 251.328 L
342.72 251.373 L
353.88 251.373 L
353.88 250.535 L
365.04 250.535 L
365.04 248.785 L
376.2 248.785 L
376.2 246.131 L
387.36 246.131 L
387.36 242.603 L
398.52 242.603 L
398.52 238.264 L
409.68 238.264 L
409.68 233.203 L
420.84 233.203 L
420.84 227.538 L
432 227.538 L
432 221.41 L
443.16 221.41 L
443.16 214.978 L
454.32 214.978 L
454.32 208.42 L
465.48 208.42 L
465.48 201.923 L
476.64 201.923 L
476.64 195.682 L
487.8 195.682 L
487.8 189.891 L
498.96 189.891 L
498.96 184.741 L
510.12 184.741 L
510.12 180.406 L
521.28 180.406 LE
1 1 1 C
166.066 50.2616 166.066 105.116 166.066 50.2616 T
166.066 50.2616 166.066 105.116 166.066 105.116 T
77.6217 105.116 166.066 105.116 77.6217 105.116 T
77.6217 105.116 166.066 105.116 166.066 105.116 T
77.6217 105.116 166.066 50.2616 77.6217 50.2616 T
77.6217 105.116 166.066 105.116 166.066 50.2616 T
[16 0] 0 setdash
0 0 0 C
77.6217 50.2616 LS
166.066 50.2616 LE
77.6217 105.116 LS
166.066 105.116 LE
77.6217 105.116 LS
166.066 105.116 LE
77.6217 50.2616 LS
166.066 50.2616 LE
77.6217 50.2616 LS
77.6217 105.116 LE
166.066 50.2616 LS
166.066 105.116 LE
166.066 50.2616 LS
166.066 105.116 LE
77.6217 50.2616 LS
77.6217 105.116 L
77.6217 105.116 LE
166.066 105.116 LS
166.066 105.116 LE
166.066 50.2616 LS
166.066 50.2616 LE
77.6217 50.2616 LS
77.6217 50.2616 LE
(N=20) 103.667 91.4027 20 /Helvetica SCL
(N=40) 103.667 63.9753 20 /Helvetica SCL
0.5 W
[] 0 setdash
0 0 1 C
80.3633 91.4027 LS
100.926 91.4027 LE
1 0 0 C
80.3633 63.9753 LS
100.926 63.9753 LE
grestore
showpage
cleartomark
%%PageTrailer
%%Trailer
end
%%EOF
