%!PS-Adobe-3.0 EPSF-3.0
%%Title: glps_renderer figure
%%Creator: GL2PS 1.3.8, (C) 1999-2012 C. Geuzaine
%%For: Octave
%%CreationDate: Mon Nov  9 08:35:50 2015
%%LanguageLevel: 3
%%DocumentData: Clean7Bit
%%Pages: 1
%%BoundingBox: 0 0 560 420
%%EndComments
%%BeginProlog
/gl2psdict 64 dict def gl2psdict begin
0 setlinecap 0 setlinejoin
/tryPS3shading false def % set to false to force subdivision
/rThreshold 0.064 def % red component subdivision threshold
/gThreshold 0.034 def % green component subdivision threshold
/bThreshold 0.1 def % blue component subdivision threshold
/BD { bind def } bind def
/C  { setrgbcolor } BD
/G  { 0.082 mul exch 0.6094 mul add exch 0.3086 mul add neg 1.0 add setgray } BD
/W  { setlinewidth } BD
/FC { findfont exch /SH exch def SH scalefont setfont } BD
/SW { dup stringwidth pop } BD
/S  { FC moveto show } BD
/SBC{ FC moveto SW -2 div 0 rmoveto show } BD
/SBR{ FC moveto SW neg 0 rmoveto show } BD
/SCL{ FC moveto 0 SH -2 div rmoveto show } BD
/SCC{ FC moveto SW -2 div SH -2 div rmoveto show } BD
/SCR{ FC moveto SW neg SH -2 div rmoveto show } BD
/STL{ FC moveto 0 SH neg rmoveto show } BD
/STC{ FC moveto SW -2 div SH neg rmoveto show } BD
/STR{ FC moveto SW neg SH neg rmoveto show } BD
/FCT { FC translate 0 0 } BD
/SR  { gsave FCT moveto rotate show grestore } BD
/SBCR{ gsave FCT moveto rotate SW -2 div 0 rmoveto show grestore } BD
/SBRR{ gsave FCT moveto rotate SW neg 0 rmoveto show grestore } BD
/SCLR{ gsave FCT moveto rotate 0 SH -2 div rmoveto show grestore} BD
/SCCR{ gsave FCT moveto rotate SW -2 div SH -2 div rmoveto show grestore} BD
/SCRR{ gsave FCT moveto rotate SW neg SH -2 div rmoveto show grestore} BD
/STLR{ gsave FCT moveto rotate 0 SH neg rmoveto show grestore } BD
/STCR{ gsave FCT moveto rotate SW -2 div SH neg rmoveto show grestore } BD
/STRR{ gsave FCT moveto rotate SW neg SH neg rmoveto show grestore } BD
/P  { newpath 0.0 360.0 arc closepath fill } BD
/LS { newpath moveto } BD
/L  { lineto } BD
/LE { lineto stroke } BD
/T  { newpath moveto lineto lineto closepath fill } BD
/STshfill {
      /b1 exch def /g1 exch def /r1 exch def /y1 exch def /x1 exch def
      /b2 exch def /g2 exch def /r2 exch def /y2 exch def /x2 exch def
      /b3 exch def /g3 exch def /r3 exch def /y3 exch def /x3 exch def
      gsave << /ShadingType 4 /ColorSpace [/DeviceRGB]
      /DataSource [ 0 x1 y1 r1 g1 b1 0 x2 y2 r2 g2 b2 0 x3 y3 r3 g3 b3 ] >>
      shfill grestore } BD
/Tm { 3 -1 roll 8 -1 roll 13 -1 roll add add 3 div
      3 -1 roll 7 -1 roll 11 -1 roll add add 3 div
      3 -1 roll 6 -1 roll 9 -1 roll add add 3 div C T } BD
/STsplit {
      4 index 15 index add 0.5 mul
      4 index 15 index add 0.5 mul
      4 index 15 index add 0.5 mul
      4 index 15 index add 0.5 mul
      4 index 15 index add 0.5 mul
      5 copy 5 copy 25 15 roll
      9 index 30 index add 0.5 mul
      9 index 30 index add 0.5 mul
      9 index 30 index add 0.5 mul
      9 index 30 index add 0.5 mul
      9 index 30 index add 0.5 mul
      5 copy 5 copy 35 5 roll 25 5 roll 15 5 roll
      4 index 10 index add 0.5 mul
      4 index 10 index add 0.5 mul
      4 index 10 index add 0.5 mul
      4 index 10 index add 0.5 mul
      4 index 10 index add 0.5 mul
      5 copy 5 copy 40 5 roll 25 5 roll 15 5 roll 25 5 roll
      STnoshfill STnoshfill STnoshfill STnoshfill } BD
/STnoshfill {
      2 index 8 index sub abs rThreshold gt
      { STsplit }
      { 1 index 7 index sub abs gThreshold gt
        { STsplit }
        { dup 6 index sub abs bThreshold gt
          { STsplit }
          { 2 index 13 index sub abs rThreshold gt
            { STsplit }
            { 1 index 12 index sub abs gThreshold gt
              { STsplit }
              { dup 11 index sub abs bThreshold gt
                { STsplit }
                { 7 index 13 index sub abs rThreshold gt
                  { STsplit }
                  { 6 index 12 index sub abs gThreshold gt
                    { STsplit }
                    { 5 index 11 index sub abs bThreshold gt
                      { STsplit }
                      { Tm }
                      ifelse }
                    ifelse }
                  ifelse }
                ifelse }
              ifelse }
            ifelse }
          ifelse }
        ifelse }
      ifelse } BD
tryPS3shading
{ /shfill where
  { /ST { STshfill } BD }
  { /ST { STnoshfill } BD }
  ifelse }
{ /ST { STnoshfill } BD }
ifelse
end
%%EndProlog
%%BeginSetup
/DeviceRGB setcolorspace
gl2psdict begin
%%EndSetup
%%Page: 1 1
%%BeginPageSetup
%%EndPageSetup
mark
gsave
1.0 1.0 scale
1 1 1 C
506.8 46.2 506.8 388.5 506.8 46.2 T
506.8 46.2 506.8 388.5 506.8 388.5 T
72.8 388.5 506.8 388.5 72.8 388.5 T
72.8 388.5 506.8 388.5 506.8 388.5 T
72.8 388.5 506.8 46.2 72.8 46.2 T
72.8 388.5 506.8 388.5 506.8 46.2 T
0.5 W
[16 0] 0 setdash
0 0 0 C
72.8 46.2 LS
506.8 46.2 LE
72.8 388.5 LS
506.8 388.5 LE
72.8 388.5 LS
506.8 388.5 LE
72.8 46.2 LS
506.8 46.2 LE
72.8 46.2 LS
72.8 388.5 LE
506.8 46.2 LS
506.8 388.5 LE
506.8 46.2 LS
506.8 388.5 LE
72.8 46.2 LS
72.8 388.5 L
72.8 388.5 LE
506.8 388.5 LS
506.8 388.5 LE
506.8 46.2 LS
506.8 46.2 LE
72.8 46.2 LS
72.8 46.2 L
72.8 50.5438 LE
72.8 388.5 LS
72.8 384.156 LE
261.411 46.2 LS
261.411 50.5438 LE
261.411 388.5 LS
261.411 384.156 LE
450.022 46.2 LS
450.022 50.5438 LE
450.022 388.5 LS
450.022 384.156 LE
(10) 72.8 41.1956 15 /Helvetica STC
(100) 261.411 41.1956 15 /Helvetica STC
(1000) 450.022 41.1956 15 /Helvetica STC
72.8 46.2 LS
77.14 46.2 LE
506.8 46.2 LS
502.46 46.2 LE
72.8 114.66 LS
77.14 114.66 LE
506.8 114.66 LS
502.46 114.66 LE
72.8 183.12 LS
77.14 183.12 LE
506.8 183.12 LS
502.46 183.12 LE
72.8 251.58 LS
77.14 251.58 LE
506.8 251.58 LS
502.46 251.58 LE
72.8 320.04 LS
77.14 320.04 LE
506.8 320.04 LS
502.46 320.04 LE
72.8 388.5 LS
77.14 388.5 LE
506.8 388.5 LS
502.46 388.5 LE
(1e-5) 67.8 46.2 15 /Helvetica SCR
(1e-4) 67.8 114.66 15 /Helvetica SCR
(1e-3) 67.8 183.12 15 /Helvetica SCR
(1e-2) 67.8 251.58 15 /Helvetica SCR
(1e-1) 67.8 320.04 15 /Helvetica SCR
(1e+0) 67.8 388.5 15 /Helvetica SCR
(N) 289.8 23.1956 15 /Helvetica STC
(Error Norm) 90 30.8 217.35 15 /Helvetica SBCR
2 W
[] 0 setdash
129.578 304.106 LS
186.355 267.675 L
243.133 228.143 L
299.91 187.604 L
356.688 146.67 L
413.466 105.582 L
470.243 64.4259 LE
[12 4] 0 setdash
129.578 310.283 LS
186.355 273.827 L
243.133 234.346 L
299.91 193.789 L
356.688 152.846 L
413.466 111.753 L
470.243 70.5936 LE
[4 5 1 6] 0 setdash
129.578 332.532 LS
186.355 298.847 L
243.133 260.021 L
299.91 219.648 L
356.688 178.767 L
413.466 137.698 L
470.243 96.5499 LE
1 1 1 C
140.453 48.8655 140.453 128.862 140.453 48.8655 T
140.453 48.8655 140.453 128.862 140.453 128.862 T
75.4655 128.862 140.453 128.862 75.4655 128.862 T
75.4655 128.862 140.453 128.862 140.453 128.862 T
75.4655 128.862 140.453 48.8655 75.4655 48.8655 T
75.4655 128.862 140.453 128.862 140.453 48.8655 T
[16 0] 0 setdash
0 0 0 C
75.4655 48.8655 LS
140.453 48.8655 LE
75.4655 128.862 LS
140.453 128.862 LE
75.4655 128.862 LS
140.453 128.862 LE
75.4655 48.8655 LS
140.453 48.8655 LE
75.4655 48.8655 LS
75.4655 128.862 LE
140.453 48.8655 LS
140.453 128.862 LE
140.453 48.8655 LS
140.453 128.862 LE
75.4655 48.8655 LS
75.4655 128.862 L
75.4655 128.862 LE
140.453 128.862 LS
140.453 128.862 LE
140.453 48.8655 LS
140.453 48.8655 LE
75.4655 48.8655 LS
75.4655 48.8655 LE
(L1) 100.788 115.529 20 /Helvetica SCL
(L2) 100.788 88.8637 20 /Helvetica SCL
(Linf) 100.788 62.1982 20 /Helvetica SCL
0.5 W
[] 0 setdash
78.131 115.529 LS
98.1223 115.529 LE
[12 4] 0 setdash
78.131 88.8637 LS
98.1223 88.8637 LE
[4 5 1 6] 0 setdash
78.131 62.1982 LS
98.1223 62.1982 LE
grestore
showpage
cleartomark
%%PageTrailer
%%Trailer
end
%%EOF
