%!PS-Adobe-3.0 EPSF-3.0
%%Title: glps_renderer figure
%%Creator: GL2PS 1.3.8, (C) 1999-2012 C. Geuzaine
%%For: Octave
%%CreationDate: Mon Nov  9 08:35:58 2015
%%LanguageLevel: 3
%%DocumentData: Clean7Bit
%%Pages: 1
%%BoundingBox: 0 0 576 432
%%EndComments
%%BeginProlog
/gl2psdict 64 dict def gl2psdict begin
0 setlinecap 0 setlinejoin
/tryPS3shading false def % set to false to force subdivision
/rThreshold 0.064 def % red component subdivision threshold
/gThreshold 0.034 def % green component subdivision threshold
/bThreshold 0.1 def % blue component subdivision threshold
/BD { bind def } bind def
/C  { setrgbcolor } BD
/G  { 0.082 mul exch 0.6094 mul add exch 0.3086 mul add neg 1.0 add setgray } BD
/W  { setlinewidth } BD
/FC { findfont exch /SH exch def SH scalefont setfont } BD
/SW { dup stringwidth pop } BD
/S  { FC moveto show } BD
/SBC{ FC moveto SW -2 div 0 rmoveto show } BD
/SBR{ FC moveto SW neg 0 rmoveto show } BD
/SCL{ FC moveto 0 SH -2 div rmoveto show } BD
/SCC{ FC moveto SW -2 div SH -2 div rmoveto show } BD
/SCR{ FC moveto SW neg SH -2 div rmoveto show } BD
/STL{ FC moveto 0 SH neg rmoveto show } BD
/STC{ FC moveto SW -2 div SH neg rmoveto show } BD
/STR{ FC moveto SW neg SH neg rmoveto show } BD
/FCT { FC translate 0 0 } BD
/SR  { gsave FCT moveto rotate show grestore } BD
/SBCR{ gsave FCT moveto rotate SW -2 div 0 rmoveto show grestore } BD
/SBRR{ gsave FCT moveto rotate SW neg 0 rmoveto show grestore } BD
/SCLR{ gsave FCT moveto rotate 0 SH -2 div rmoveto show grestore} BD
/SCCR{ gsave FCT moveto rotate SW -2 div SH -2 div rmoveto show grestore} BD
/SCRR{ gsave FCT moveto rotate SW neg SH -2 div rmoveto show grestore} BD
/STLR{ gsave FCT moveto rotate 0 SH neg rmoveto show grestore } BD
/STCR{ gsave FCT moveto rotate SW -2 div SH neg rmoveto show grestore } BD
/STRR{ gsave FCT moveto rotate SW neg SH neg rmoveto show grestore } BD
/P  { newpath 0.0 360.0 arc closepath fill } BD
/LS { newpath moveto } BD
/L  { lineto } BD
/LE { lineto stroke } BD
/T  { newpath moveto lineto lineto closepath fill } BD
/STshfill {
      /b1 exch def /g1 exch def /r1 exch def /y1 exch def /x1 exch def
      /b2 exch def /g2 exch def /r2 exch def /y2 exch def /x2 exch def
      /b3 exch def /g3 exch def /r3 exch def /y3 exch def /x3 exch def
      gsave << /ShadingType 4 /ColorSpace [/DeviceRGB]
      /DataSource [ 0 x1 y1 r1 g1 b1 0 x2 y2 r2 g2 b2 0 x3 y3 r3 g3 b3 ] >>
      shfill grestore } BD
/Tm { 3 -1 roll 8 -1 roll 13 -1 roll add add 3 div
      3 -1 roll 7 -1 roll 11 -1 roll add add 3 div
      3 -1 roll 6 -1 roll 9 -1 roll add add 3 div C T } BD
/STsplit {
      4 index 15 index add 0.5 mul
      4 index 15 index add 0.5 mul
      4 index 15 index add 0.5 mul
      4 index 15 index add 0.5 mul
      4 index 15 index add 0.5 mul
      5 copy 5 copy 25 15 roll
      9 index 30 index add 0.5 mul
      9 index 30 index add 0.5 mul
      9 index 30 index add 0.5 mul
      9 index 30 index add 0.5 mul
      9 index 30 index add 0.5 mul
      5 copy 5 copy 35 5 roll 25 5 roll 15 5 roll
      4 index 10 index add 0.5 mul
      4 index 10 index add 0.5 mul
      4 index 10 index add 0.5 mul
      4 index 10 index add 0.5 mul
      4 index 10 index add 0.5 mul
      5 copy 5 copy 40 5 roll 25 5 roll 15 5 roll 25 5 roll
      STnoshfill STnoshfill STnoshfill STnoshfill } BD
/STnoshfill {
      2 index 8 index sub abs rThreshold gt
      { STsplit }
      { 1 index 7 index sub abs gThreshold gt
        { STsplit }
        { dup 6 index sub abs bThreshold gt
          { STsplit }
          { 2 index 13 index sub abs rThreshold gt
            { STsplit }
            { 1 index 12 index sub abs gThreshold gt
              { STsplit }
              { dup 11 index sub abs bThreshold gt
                { STsplit }
                { 7 index 13 index sub abs rThreshold gt
                  { STsplit }
                  { 6 index 12 index sub abs gThreshold gt
                    { STsplit }
                    { 5 index 11 index sub abs bThreshold gt
                      { STsplit }
                      { Tm }
                      ifelse }
                    ifelse }
                  ifelse }
                ifelse }
              ifelse }
            ifelse }
          ifelse }
        ifelse }
      ifelse } BD
tryPS3shading
{ /shfill where
  { /ST { STshfill } BD }
  { /ST { STnoshfill } BD }
  ifelse }
{ /ST { STnoshfill } BD }
ifelse
end
%%EndProlog
%%BeginSetup
/DeviceRGB setcolorspace
gl2psdict begin
%%EndSetup
%%Page: 1 1
%%BeginPageSetup
%%EndPageSetup
mark
gsave
1.0 1.0 scale
1 1 1 C
521.28 47.52 521.28 399.6 521.28 47.52 T
521.28 47.52 521.28 399.6 521.28 399.6 T
74.88 399.6 521.28 399.6 74.88 399.6 T
74.88 399.6 521.28 399.6 521.28 399.6 T
74.88 399.6 521.28 47.52 74.88 47.52 T
74.88 399.6 521.28 399.6 521.28 47.52 T
0.5 W
[16 0] 0 setdash
0 0 0 C
74.88 47.52 LS
521.28 47.52 LE
74.88 399.6 LS
521.28 399.6 LE
74.88 399.6 LS
521.28 399.6 LE
74.88 47.52 LS
521.28 47.52 LE
74.88 47.52 LS
74.88 399.6 LE
521.28 47.52 LS
521.28 399.6 LE
521.28 47.52 LS
521.28 399.6 LE
74.88 47.52 LS
74.88 399.6 L
74.88 399.6 LE
521.28 399.6 LS
521.28 399.6 LE
521.28 47.52 LS
521.28 47.52 LE
74.88 47.52 LS
74.88 47.52 L
74.88 51.985 LE
74.88 399.6 LS
74.88 395.135 LE
164.16 47.52 LS
164.16 51.985 LE
164.16 399.6 LS
164.16 395.135 LE
253.44 47.52 LS
253.44 51.985 LE
253.44 399.6 LS
253.44 395.135 LE
342.72 47.52 LS
342.72 51.985 LE
342.72 399.6 LS
342.72 395.135 LE
432 47.52 LS
432 51.985 LE
432 399.6 LS
432 395.135 LE
521.28 47.52 LS
521.28 51.985 LE
521.28 399.6 LS
521.28 395.135 LE
(0) 74.88 42.5189 12 /Helvetica STC
(0.2) 164.16 42.5189 12 /Helvetica STC
(0.4) 253.44 42.5189 12 /Helvetica STC
(0.6) 342.72 42.5189 12 /Helvetica STC
(0.8) 432 42.5189 12 /Helvetica STC
(1) 521.28 42.5189 12 /Helvetica STC
74.88 47.52 LS
79.348 47.52 LE
521.28 47.52 LS
516.812 47.52 LE
74.88 106.2 LS
79.348 106.2 LE
521.28 106.2 LS
516.812 106.2 LE
74.88 164.88 LS
79.348 164.88 LE
521.28 164.88 LS
516.812 164.88 LE
74.88 223.56 LS
79.348 223.56 LE
521.28 223.56 LS
516.812 223.56 LE
74.88 282.24 LS
79.348 282.24 LE
521.28 282.24 LS
516.812 282.24 LE
74.88 340.92 LS
79.348 340.92 LE
521.28 340.92 LS
516.812 340.92 LE
74.88 399.6 LS
79.348 399.6 LE
521.28 399.6 LS
516.812 399.6 LE
(0) 69.8755 47.52 12 /Helvetica SCR
(0.001) 69.8755 106.2 12 /Helvetica SCR
(0.002) 69.8755 164.88 12 /Helvetica SCR
(0.003) 69.8755 223.56 12 /Helvetica SCR
(0.004) 69.8755 282.24 12 /Helvetica SCR
(0.005) 69.8755 340.92 12 /Helvetica SCR
(0.006) 69.8755 399.6 12 /Helvetica SCR
(t) 298.08 28.5189 15 /Helvetica STC
(L_1   norm) 90 34.8755 223.56 15 /Helvetica SBCR
2 W
[] 0 setdash
0 0 1 C
75.996 50.0705 LS
77.112 52.586 L
78.228 55.0854 L
79.344 57.5441 L
80.46 59.9654 L
81.576 62.4183 L
82.692 64.8216 L
83.808 67.2133 L
84.924 69.594 L
86.04 71.9919 L
87.156 74.3671 L
88.272 76.6785 L
89.388 78.9968 L
90.504 81.3271 L
91.62 83.6547 L
92.736 85.9655 L
93.852 88.202 L
94.968 90.537 L
96.084 92.8436 L
97.2 95.1268 L
98.316 97.4015 L
99.432 99.5936 L
100.548 101.915 L
101.664 104.195 L
102.78 106.461 L
103.896 108.726 L
105.012 110.966 L
106.128 113.338 L
107.244 115.628 L
108.36 117.911 L
109.476 120.204 L
110.592 122.499 L
111.708 124.921 L
112.824 127.254 L
113.94 129.59 L
115.056 132.04 L
116.172 134.422 L
117.288 136.932 L
118.404 139.347 L
119.52 141.817 L
120.636 144.407 L
121.752 146.888 L
122.868 149.525 L
123.984 152.11 L
125.1 154.803 L
126.216 157.536 L
127.332 160.155 L
128.448 162.988 L
129.564 165.818 L
130.68 168.603 L
131.796 171.349 L
132.912 174.029 L
134.028 176.822 L
135.144 179.484 L
136.26 182.088 L
137.376 184.725 L
138.492 187.281 L
139.608 189.864 L
140.724 192.297 L
141.84 194.801 L
142.956 197.259 L
144.072 199.551 L
145.188 201.905 L
146.304 204.215 L
147.42 206.448 L
148.536 208.61 L
149.652 210.705 L
150.768 212.876 L
151.884 214.861 L
153 216.797 L
154.116 218.791 L
155.232 220.585 L
156.348 222.41 L
157.464 224.176 L
158.58 225.889 L
159.696 227.514 L
160.812 229.01 L
161.928 230.643 L
163.044 232.059 L
164.16 233.416 L
165.276 234.842 L
166.392 236.048 L
167.508 237.29 L
168.624 238.485 L
169.74 239.612 L
170.856 240.641 L
171.972 241.592 L
173.088 242.641 L
174.204 243.455 L
175.32 244.309 L
176.436 245.151 L
177.552 245.768 L
178.668 246.531 L
179.784 247.171 L
180.9 247.74 L
182.016 248.291 L
183.132 248.756 L
184.248 249.273 L
185.364 249.627 L
186.48 250.072 L
187.596 250.412 L
188.712 250.615 L
189.828 251.062 L
190.944 251.281 L
192.06 251.544 L
193.176 251.899 L
194.292 252.083 L
195.408 252.445 L
196.524 252.717 L
197.64 253.055 L
198.756 253.421 L
199.872 253.71 L
200.988 254.081 L
202.104 254.425 L
203.22 254.91 L
204.336 255.295 L
205.452 255.678 L
206.568 256.29 L
207.684 256.715 L
208.8 257.38 L
209.916 257.99 L
211.032 258.412 L
212.148 259.294 L
213.264 259.979 L
214.38 260.733 L
215.496 261.635 L
216.612 262.411 L
217.728 263.477 L
218.844 264.49 L
219.96 265.532 L
221.076 266.665 L
222.192 267.843 L
223.308 269.17 L
224.424 270.515 L
225.54 271.962 L
226.656 273.424 L
227.772 275.063 L
228.888 276.833 L
230.004 278.458 L
231.12 280.415 L
232.236 282.374 L
233.352 284.35 L
234.468 286.623 L
235.584 288.701 L
236.7 291.211 L
237.816 293.699 L
238.932 296.048 L
240.048 298.901 L
241.164 301.611 L
242.28 304.202 L
243.396 306.766 L
244.512 309.132 L
245.628 311.565 L
246.744 313.856 L
247.86 315.877 L
248.976 318.077 L
250.092 320.078 L
251.208 321.91 L
252.324 323.738 L
253.44 325.419 L
254.556 327.064 L
255.672 328.575 L
256.788 329.824 L
257.904 331.273 L
259.02 332.448 L
260.136 333.423 L
261.252 334.508 L
262.368 335.331 L
263.484 336.088 L
264.6 336.729 L
265.716 337.187 L
266.832 337.722 L
267.948 337.958 L
269.064 338.136 L
270.18 338.328 L
271.296 338.193 L
272.412 338.094 L
273.528 337.926 L
274.644 337.433 L
275.76 337.085 L
276.876 336.573 L
277.992 335.905 L
279.108 335.199 L
280.224 334.349 L
281.34 333.544 L
282.456 332.539 L
283.572 331.421 L
284.688 330.464 L
285.804 329.197 L
286.92 327.981 L
288.036 326.793 L
289.152 325.305 L
290.268 324.048 L
291.384 322.673 L
292.5 321.137 L
293.616 319.763 L
294.732 318.241 L
295.848 316.767 L
296.964 315.267 L
298.08 313.665 L
299.196 312.275 L
300.312 310.695 L
301.428 309.261 L
302.544 307.866 L
303.66 306.298 L
304.776 305.107 L
305.892 303.782 L
307.008 302.437 L
308.124 301.394 L
309.24 300.195 L
310.356 299.226 L
311.472 298.324 L
312.588 297.207 L
313.704 296.574 L
314.82 295.852 L
315.936 295.146 L
317.052 294.685 L
318.168 294.116 L
319.284 293.86 L
320.4 293.665 L
321.516 293.441 L
322.632 293.378 L
323.748 293.428 L
324.864 293.697 L
325.98 293.942 L
327.096 294.267 L
328.212 294.913 L
329.328 295.491 L
330.444 296.349 L
331.56 297.222 L
332.676 298.031 L
333.792 299.414 L
334.908 300.582 L
336.024 302.012 L
337.14 303.61 L
338.256 305.06 L
339.372 307.128 L
340.488 309.037 L
341.604 310.955 L
342.72 313.347 L
343.836 315.567 L
344.952 318.156 L
346.068 320.822 L
347.184 323.267 L
348.3 325.808 L
349.416 328.141 L
350.532 330.228 L
351.648 332.394 L
352.764 334.387 L
353.88 336.231 L
354.996 338.019 L
356.112 339.583 L
357.228 341.188 L
358.344 342.628 L
359.46 343.777 L
360.576 345.084 L
361.692 346.175 L
362.808 347.081 L
363.924 347.969 L
365.04 348.699 L
366.156 349.385 L
367.272 349.931 L
368.388 350.214 L
369.504 350.697 L
370.62 350.91 L
371.736 350.929 L
372.852 351.069 L
373.968 350.96 L
375.084 350.801 L
376.2 350.545 L
377.316 350.129 L
378.432 349.814 L
379.548 349.226 L
380.664 348.609 L
381.78 348.038 L
382.896 347.17 L
384.012 346.373 L
385.128 345.541 L
386.244 344.417 L
387.36 343.476 L
388.476 342.404 L
389.592 341.211 L
390.708 340.015 L
391.824 338.709 L
392.94 337.479 L
394.056 336.083 L
395.172 334.603 L
396.288 333.315 L
397.404 331.744 L
398.52 330.251 L
399.636 328.812 L
400.752 327.095 L
401.868 325.631 L
402.984 324.069 L
404.1 322.366 L
405.216 320.842 L
406.332 319.186 L
407.448 317.592 L
408.564 315.986 L
409.68 314.29 L
410.796 312.818 L
411.912 311.165 L
413.028 309.667 L
414.144 308.216 L
415.26 306.598 L
416.376 305.364 L
417.492 304.002 L
418.608 302.625 L
419.724 301.554 L
420.84 300.331 L
421.956 299.341 L
423.072 298.422 L
424.188 297.289 L
425.304 296.644 L
426.42 295.91 L
427.536 295.195 L
428.652 294.726 L
429.768 294.15 L
430.884 293.888 L
432 293.689 L
433.116 293.461 L
434.232 293.394 L
435.348 293.441 L
436.464 293.708 L
437.58 293.951 L
438.696 294.274 L
439.812 294.919 L
440.928 295.496 L
442.044 296.353 L
443.16 297.225 L
444.276 298.033 L
445.392 299.415 L
446.508 300.583 L
447.624 302.013 L
448.74 303.611 L
449.856 305.061 L
450.972 307.129 L
452.088 309.037 L
453.204 310.954 L
454.32 313.346 L
455.436 315.567 L
456.552 318.156 L
457.668 320.822 L
458.784 323.267 L
459.9 325.808 L
461.016 328.141 L
462.132 330.228 L
463.248 332.394 L
464.364 334.386 L
465.48 336.231 L
466.596 338.019 L
467.712 339.583 L
468.828 341.188 L
469.944 342.628 L
471.06 343.777 L
472.176 345.084 L
473.292 346.175 L
474.408 347.081 L
475.524 347.969 L
476.64 348.699 L
477.756 349.385 L
478.872 349.931 L
479.988 350.214 L
481.104 350.697 L
482.22 350.91 L
483.336 350.929 L
484.452 351.069 L
485.568 350.96 L
486.684 350.801 L
487.8 350.545 L
488.916 350.129 L
490.032 349.814 L
491.148 349.226 L
492.264 348.609 L
493.38 348.038 L
494.496 347.17 L
495.612 346.373 L
496.728 345.541 L
497.844 344.417 L
498.96 343.476 L
500.076 342.404 L
501.192 341.211 L
502.308 340.015 L
503.424 338.709 L
504.54 337.479 L
505.656 336.083 L
506.772 334.603 L
507.888 333.315 L
509.004 331.744 L
510.12 330.251 L
511.236 328.812 L
512.352 327.095 L
513.468 325.631 L
514.584 324.069 L
515.7 322.366 L
516.816 320.842 L
517.932 319.186 L
519.048 317.592 L
520.164 315.986 L
521.28 314.29 LE
1 0 0 C
75.996 48.7609 LS
76.554 49.9911 L
77.112 51.2158 L
77.67 52.4366 L
78.228 53.6492 L
78.786 54.8517 L
79.344 56.0428 L
79.902 57.2213 L
80.46 58.4186 L
81.018 59.6177 L
81.576 60.8065 L
82.134 61.9835 L
82.692 63.1478 L
83.25 64.3194 L
83.808 65.4787 L
84.366 66.6246 L
84.924 67.7886 L
85.482 68.9489 L
86.04 70.1229 L
86.598 71.2839 L
87.156 72.4307 L
87.714 73.5622 L
88.272 74.6791 L
88.83 75.8148 L
89.388 76.9371 L
89.946 78.09 L
90.504 79.2269 L
91.062 80.349 L
91.62 81.4962 L
92.178 82.6273 L
92.736 83.7417 L
93.294 84.8383 L
93.852 85.9195 L
94.41 87.0312 L
94.968 88.1727 L
95.526 89.3013 L
96.084 90.4112 L
96.642 91.5058 L
97.2 92.6371 L
97.758 93.7502 L
98.316 94.8444 L
98.874 95.9189 L
99.432 96.9779 L
99.99 98.1181 L
100.548 99.2547 L
101.106 100.372 L
101.664 101.468 L
102.222 102.549 L
102.78 103.679 L
103.338 104.788 L
103.896 105.877 L
104.454 106.945 L
105.012 108.032 L
105.57 109.195 L
106.128 110.338 L
106.686 111.458 L
107.244 112.557 L
107.802 113.642 L
108.36 114.786 L
108.918 115.909 L
109.476 117.009 L
110.034 118.128 L
110.592 119.25 L
111.15 120.438 L
111.708 121.603 L
112.266 122.745 L
112.824 123.864 L
113.382 124.97 L
113.94 126.147 L
114.498 127.302 L
115.056 128.492 L
115.614 129.658 L
116.172 130.812 L
116.73 132.042 L
117.288 133.25 L
117.846 134.432 L
118.404 135.59 L
118.962 136.736 L
119.52 137.996 L
120.078 139.262 L
120.636 140.503 L
121.194 141.719 L
121.752 142.923 L
122.31 144.216 L
122.868 145.483 L
123.426 146.724 L
123.984 147.955 L
124.542 149.224 L
125.1 150.587 L
125.658 151.923 L
126.216 153.233 L
126.774 154.515 L
127.332 155.789 L
127.89 157.161 L
128.448 158.52 L
129.006 159.904 L
129.564 161.26 L
130.122 162.596 L
130.68 163.97 L
131.238 165.315 L
131.796 166.63 L
132.354 167.914 L
132.912 169.203 L
133.47 170.573 L
134.028 171.911 L
134.586 173.217 L
135.144 174.49 L
135.702 175.74 L
136.26 177.029 L
136.818 178.284 L
137.376 179.558 L
137.934 180.814 L
138.492 182.046 L
139.05 183.318 L
139.608 184.553 L
140.166 185.752 L
140.724 186.913 L
141.282 188.07 L
141.84 189.32 L
142.398 190.531 L
142.956 191.703 L
143.514 192.835 L
144.072 193.94 L
144.63 195.086 L
145.188 196.195 L
145.746 197.336 L
146.304 198.435 L
146.862 199.506 L
147.42 200.62 L
147.978 201.691 L
148.536 202.718 L
149.094 203.701 L
149.652 204.729 L
150.21 205.806 L
150.768 206.839 L
151.326 207.826 L
151.884 208.767 L
152.442 209.678 L
153 210.634 L
153.558 211.623 L
154.116 212.567 L
154.674 213.464 L
155.232 214.331 L
155.79 215.242 L
156.348 216.106 L
156.906 216.932 L
157.464 217.782 L
158.022 218.603 L
158.58 219.47 L
159.138 220.286 L
159.696 221.052 L
160.254 221.767 L
160.812 222.491 L
161.37 223.311 L
161.928 224.08 L
162.486 224.797 L
163.044 225.461 L
163.602 226.097 L
164.16 226.779 L
164.718 227.488 L
165.276 228.156 L
165.834 228.77 L
166.392 229.356 L
166.95 229.991 L
167.508 230.571 L
168.066 231.132 L
168.624 231.698 L
169.182 232.237 L
169.74 232.824 L
170.298 233.356 L
170.856 233.832 L
171.414 234.252 L
171.972 234.746 L
172.53 235.289 L
173.088 235.775 L
173.646 236.205 L
174.204 236.578 L
174.762 236.928 L
175.32 237.399 L
175.878 237.843 L
176.436 238.229 L
176.994 238.558 L
177.552 238.866 L
178.11 239.224 L
178.668 239.577 L
179.226 239.924 L
179.784 240.213 L
180.342 240.484 L
180.9 240.804 L
181.458 241.067 L
182.016 241.311 L
182.574 241.565 L
183.132 241.803 L
183.69 242.092 L
184.248 242.323 L
184.806 242.494 L
185.364 242.641 L
185.922 242.852 L
186.48 243.115 L
187.038 243.319 L
187.596 243.464 L
188.154 243.55 L
188.712 243.661 L
189.27 243.913 L
189.828 244.115 L
190.386 244.257 L
190.944 244.34 L
191.502 244.418 L
192.06 244.59 L
192.618 244.798 L
193.176 244.969 L
193.734 245.08 L
194.292 245.19 L
194.85 245.351 L
195.408 245.512 L
195.966 245.677 L
196.524 245.786 L
197.082 245.943 L
197.64 246.152 L
198.198 246.302 L
198.756 246.474 L
199.314 246.632 L
199.872 246.794 L
200.43 247.01 L
200.988 247.167 L
201.546 247.298 L
202.104 247.498 L
202.662 247.727 L
203.22 248.009 L
203.778 248.233 L
204.336 248.398 L
204.894 248.516 L
205.452 248.767 L
206.01 249.072 L
206.568 249.356 L
207.126 249.598 L
207.684 249.781 L
208.242 250.033 L
208.8 250.422 L
209.358 250.754 L
209.916 251.027 L
210.474 251.242 L
211.032 251.476 L
211.59 251.897 L
212.148 252.324 L
212.706 252.692 L
213.264 253.001 L
213.822 253.334 L
214.38 253.732 L
214.938 254.205 L
215.496 254.621 L
216.054 254.978 L
216.612 255.393 L
217.17 255.889 L
217.728 256.395 L
218.286 256.923 L
218.844 257.391 L
219.402 257.891 L
219.96 258.446 L
220.518 258.943 L
221.076 259.515 L
221.634 260.086 L
222.192 260.71 L
222.75 261.389 L
223.308 262.012 L
223.866 262.626 L
224.424 263.286 L
224.982 263.983 L
225.54 264.737 L
226.098 265.433 L
226.656 266.129 L
227.214 266.895 L
227.772 267.733 L
228.33 268.628 L
228.888 269.464 L
229.446 270.243 L
230.004 271.011 L
230.562 271.937 L
231.12 272.95 L
231.678 273.936 L
232.236 274.864 L
232.794 275.733 L
233.352 276.785 L
233.91 277.924 L
234.468 279.004 L
235.026 280.025 L
235.584 281.003 L
236.142 282.14 L
236.7 283.442 L
237.258 284.685 L
237.816 285.868 L
238.374 286.992 L
238.932 288.167 L
239.49 289.559 L
240.048 290.918 L
240.606 292.269 L
241.164 293.56 L
241.722 294.789 L
242.28 296.046 L
242.838 297.328 L
243.396 298.547 L
243.954 299.703 L
244.512 300.822 L
245.07 301.939 L
245.628 303.154 L
246.186 304.304 L
246.744 305.389 L
247.302 306.409 L
247.86 307.363 L
248.418 308.384 L
248.976 309.443 L
249.534 310.454 L
250.092 311.398 L
250.65 312.274 L
251.208 313.148 L
251.766 314.076 L
252.324 314.935 L
252.882 315.748 L
253.44 316.543 L
253.998 317.268 L
254.556 318.112 L
255.114 318.888 L
255.672 319.593 L
256.23 320.226 L
256.788 320.789 L
257.346 321.482 L
257.904 322.17 L
258.462 322.785 L
259.02 323.327 L
259.578 323.795 L
260.136 324.252 L
260.694 324.769 L
261.252 325.285 L
261.81 325.732 L
262.368 326.103 L
262.926 326.398 L
263.484 326.819 L
264.042 327.163 L
264.6 327.43 L
265.158 327.699 L
265.716 327.893 L
266.274 328.153 L
266.832 328.398 L
267.39 328.564 L
267.948 328.651 L
268.506 328.671 L
269.064 328.771 L
269.622 328.918 L
270.18 328.985 L
270.738 328.972 L
271.296 328.881 L
271.854 328.735 L
272.412 328.736 L
272.97 328.709 L
273.528 328.601 L
274.086 328.415 L
274.644 328.148 L
275.202 327.987 L
275.76 327.779 L
276.318 327.572 L
276.876 327.298 L
277.434 326.946 L
277.992 326.644 L
278.55 326.356 L
279.108 325.989 L
279.666 325.581 L
280.224 325.154 L
280.782 324.723 L
281.34 324.366 L
281.898 323.933 L
282.456 323.422 L
283.014 322.836 L
283.572 322.29 L
284.13 321.879 L
284.688 321.392 L
285.246 320.83 L
285.804 320.194 L
286.362 319.483 L
286.92 318.967 L
287.478 318.443 L
288.036 317.846 L
288.594 317.176 L
289.152 316.433 L
289.71 315.763 L
290.268 315.166 L
290.826 314.55 L
291.384 313.862 L
291.942 313.104 L
292.5 312.369 L
293.058 311.711 L
293.616 311.024 L
294.174 310.336 L
294.732 309.579 L
295.29 308.795 L
295.848 308.146 L
296.406 307.429 L
296.964 306.678 L
297.522 305.938 L
298.08 305.132 L
298.638 304.497 L
299.196 303.806 L
299.754 303.049 L
300.312 302.262 L
300.87 301.498 L
301.428 300.87 L
301.986 300.238 L
302.544 299.541 L
303.102 298.781 L
303.66 298 L
304.218 297.394 L
304.776 296.859 L
305.334 296.261 L
305.892 295.6 L
306.45 294.877 L
307.008 294.246 L
307.566 293.78 L
308.124 293.255 L
308.682 292.715 L
309.24 292.114 L
309.798 291.501 L
310.356 291.12 L
310.914 290.725 L
311.472 290.269 L
312.03 289.752 L
312.588 289.177 L
313.146 288.84 L
313.704 288.571 L
314.262 288.262 L
314.82 287.894 L
315.378 287.466 L
315.936 287.203 L
316.494 286.939 L
317.052 286.736 L
317.61 286.474 L
318.168 286.189 L
318.726 286.045 L
319.284 285.933 L
319.842 285.815 L
320.4 285.722 L
320.958 285.57 L
321.516 285.498 L
322.074 285.506 L
322.632 285.456 L
323.19 285.479 L
323.748 285.506 L
324.306 285.57 L
324.864 285.762 L
325.422 285.894 L
325.98 285.978 L
326.538 286.137 L
327.096 286.289 L
327.654 286.615 L
328.212 286.914 L
328.77 287.179 L
329.328 287.452 L
329.886 287.755 L
330.444 288.28 L
331.002 288.744 L
331.56 289.149 L
332.118 289.495 L
332.676 289.914 L
333.234 290.589 L
333.792 291.257 L
334.35 291.866 L
334.908 292.414 L
335.466 292.952 L
336.024 293.754 L
336.582 294.572 L
337.14 295.329 L
337.698 296.025 L
338.256 296.719 L
338.814 297.66 L
339.372 298.691 L
339.93 299.659 L
340.488 300.566 L
341.046 301.41 L
341.604 302.382 L
342.162 303.567 L
342.72 304.72 L
343.278 305.841 L
343.836 306.898 L
344.394 307.993 L
344.952 309.367 L
345.51 310.705 L
346.068 311.979 L
346.626 313.187 L
347.184 314.345 L
347.742 315.547 L
348.3 316.791 L
348.858 317.969 L
349.416 319.079 L
349.974 320.123 L
350.532 321.1 L
351.09 322.169 L
351.648 323.196 L
352.206 324.209 L
352.764 325.153 L
353.322 326.029 L
353.88 326.925 L
354.438 327.84 L
354.996 328.686 L
355.554 329.462 L
356.112 330.194 L
356.67 330.919 L
357.228 331.735 L
357.786 332.481 L
358.344 333.157 L
358.902 333.762 L
359.46 334.296 L
360.018 334.892 L
360.576 335.522 L
361.134 336.1 L
361.692 336.606 L
362.25 337.041 L
362.808 337.469 L
363.366 337.949 L
363.924 338.357 L
364.482 338.715 L
365.04 339.053 L
365.598 339.32 L
366.156 339.704 L
366.714 340.018 L
367.272 340.26 L
367.83 340.429 L
368.388 340.528 L
368.946 340.757 L
369.504 340.981 L
370.062 341.134 L
370.62 341.213 L
371.178 341.221 L
371.736 341.219 L
372.294 341.28 L
372.852 341.342 L
373.41 341.339 L
373.968 341.262 L
374.526 341.114 L
375.084 341.095 L
375.642 341.004 L
376.2 340.841 L
376.758 340.684 L
377.316 340.459 L
377.874 340.305 L
378.432 340.141 L
378.99 339.905 L
379.548 339.598 L
380.106 339.229 L
380.664 338.948 L
381.222 338.72 L
381.78 338.42 L
382.338 338.048 L
382.896 337.605 L
383.454 337.116 L
384.012 336.782 L
384.57 336.427 L
385.128 336.001 L
385.686 335.504 L
386.244 334.936 L
386.802 334.48 L
387.36 333.988 L
387.918 333.503 L
388.476 332.962 L
389.034 332.35 L
389.592 331.796 L
390.15 331.265 L
390.708 330.664 L
391.266 330.029 L
391.824 329.384 L
392.382 328.742 L
392.94 328.183 L
393.498 327.555 L
394.056 326.857 L
394.614 326.091 L
395.172 325.372 L
395.73 324.796 L
396.288 324.151 L
396.846 323.438 L
397.404 322.657 L
397.962 321.808 L
398.52 321.16 L
399.078 320.51 L
399.636 319.793 L
400.194 319.009 L
400.752 318.158 L
401.31 317.384 L
401.868 316.689 L
402.426 315.98 L
402.984 315.204 L
403.542 314.363 L
404.1 313.548 L
404.658 312.816 L
405.216 312.058 L
405.774 311.303 L
406.332 310.483 L
406.89 309.639 L
407.448 308.934 L
408.006 308.164 L
408.564 307.364 L
409.122 306.577 L
409.68 305.727 L
410.238 305.051 L
410.796 304.321 L
411.354 303.528 L
411.912 302.706 L
412.47 301.911 L
413.028 301.253 L
413.586 300.593 L
414.144 299.871 L
414.702 299.086 L
415.26 298.282 L
415.818 297.655 L
416.376 297.1 L
416.934 296.484 L
417.492 295.806 L
418.05 295.067 L
418.608 294.421 L
419.166 293.942 L
419.724 293.404 L
420.282 292.852 L
420.84 292.24 L
421.398 291.617 L
421.956 291.227 L
422.514 290.823 L
423.072 290.359 L
423.63 289.835 L
424.188 289.253 L
424.746 288.909 L
425.304 288.634 L
425.862 288.321 L
426.42 287.947 L
426.978 287.515 L
427.536 287.248 L
428.094 286.98 L
428.652 286.773 L
429.21 286.508 L
429.768 286.22 L
430.326 286.073 L
430.884 285.959 L
431.442 285.838 L
432 285.743 L
432.558 285.589 L
433.116 285.515 L
433.674 285.522 L
434.232 285.47 L
434.79 285.492 L
435.348 285.518 L
435.906 285.581 L
436.464 285.771 L
437.022 285.903 L
437.58 285.986 L
438.138 286.144 L
438.696 286.295 L
439.254 286.621 L
439.812 286.919 L
440.37 287.184 L
440.928 287.457 L
441.486 287.759 L
442.044 288.283 L
442.602 288.747 L
443.16 289.152 L
443.718 289.497 L
444.276 289.916 L
444.834 290.591 L
445.392 291.259 L
445.95 291.867 L
446.508 292.415 L
447.066 292.954 L
447.624 293.755 L
448.182 294.573 L
448.74 295.33 L
449.298 296.026 L
449.856 296.719 L
450.414 297.66 L
450.972 298.691 L
451.53 299.66 L
452.088 300.566 L
452.646 301.41 L
453.204 302.382 L
453.762 303.567 L
454.32 304.72 L
454.878 305.841 L
455.436 306.898 L
455.994 307.993 L
456.552 309.367 L
457.11 310.705 L
457.668 311.978 L
458.226 313.186 L
458.784 314.344 L
459.342 315.547 L
459.9 316.791 L
460.458 317.968 L
461.016 319.079 L
461.574 320.123 L
462.132 321.099 L
462.69 322.168 L
463.248 323.196 L
463.806 324.209 L
464.364 325.153 L
464.922 326.029 L
465.48 326.925 L
466.038 327.84 L
466.596 328.686 L
467.154 329.462 L
467.712 330.194 L
468.27 330.919 L
468.828 331.735 L
469.386 332.481 L
469.944 333.157 L
470.502 333.762 L
471.06 334.296 L
471.618 334.892 L
472.176 335.522 L
472.734 336.1 L
473.292 336.606 L
473.85 337.041 L
474.408 337.469 L
474.966 337.949 L
475.524 338.357 L
476.082 338.715 L
476.64 339.053 L
477.198 339.32 L
477.756 339.704 L
478.314 340.018 L
478.872 340.26 L
479.43 340.429 L
479.988 340.528 L
480.546 340.757 L
481.104 340.981 L
481.662 341.134 L
482.22 341.213 L
482.778 341.221 L
483.336 341.219 L
483.894 341.28 L
484.452 341.342 L
485.01 341.339 L
485.568 341.262 L
486.126 341.114 L
486.684 341.095 L
487.242 341.004 L
487.8 340.841 L
488.358 340.684 L
488.916 340.459 L
489.474 340.305 L
490.032 340.141 L
490.59 339.905 L
491.148 339.598 L
491.706 339.229 L
492.264 338.948 L
492.822 338.72 L
493.38 338.42 L
493.938 338.048 L
494.496 337.605 L
495.054 337.116 L
495.612 336.782 L
496.17 336.427 L
496.728 336.001 L
497.286 335.504 L
497.844 334.936 L
498.402 334.48 L
498.96 333.988 L
499.518 333.503 L
500.076 332.962 L
500.634 332.35 L
501.192 331.796 L
501.75 331.265 L
502.308 330.664 L
502.866 330.029 L
503.424 329.384 L
503.982 328.742 L
504.54 328.183 L
505.098 327.555 L
505.656 326.857 L
506.214 326.091 L
506.772 325.372 L
507.33 324.796 L
507.888 324.151 L
508.446 323.438 L
509.004 322.657 L
509.562 321.808 L
510.12 321.16 L
510.678 320.51 L
511.236 319.793 L
511.794 319.009 L
512.352 318.158 L
512.91 317.384 L
513.468 316.689 L
514.026 315.98 L
514.584 315.204 L
515.142 314.363 L
515.7 313.548 L
516.258 312.816 L
516.816 312.058 L
517.374 311.303 L
517.932 310.483 L
518.49 309.639 L
519.048 308.934 L
519.606 308.164 L
520.164 307.364 L
520.722 306.577 L
521.28 305.727 LE
0 1 0 C
75.438 52.2024 LS
75.996 52.5866 L
76.554 53.1992 L
77.112 53.9955 L
77.67 54.9009 L
78.228 55.8792 L
78.786 56.9029 L
79.344 57.9521 L
79.902 59.0149 L
80.46 60.1169 L
81.018 61.2309 L
81.576 62.3497 L
82.134 63.471 L
82.692 64.5904 L
83.25 65.7004 L
83.808 66.8203 L
84.366 67.9169 L
84.924 69.0529 L
85.482 70.1951 L
86.04 71.3153 L
86.598 72.445 L
87.156 73.5712 L
87.714 74.6753 L
88.272 75.7702 L
88.83 76.882 L
89.388 77.9726 L
89.946 79.0883 L
90.504 80.2141 L
91.062 81.3424 L
91.62 82.4489 L
92.178 83.5328 L
92.736 84.6328 L
93.294 85.7326 L
93.852 86.8101 L
94.41 87.8645 L
94.968 88.9757 L
95.526 90.1023 L
96.084 91.2066 L
96.642 92.2879 L
97.2 93.3615 L
97.758 94.4675 L
98.316 95.5509 L
98.874 96.6109 L
99.432 97.6468 L
99.99 98.7605 L
100.548 99.8811 L
101.106 100.979 L
101.664 102.052 L
102.222 103.126 L
102.78 104.235 L
103.338 105.32 L
103.896 106.381 L
104.454 107.417 L
105.012 108.528 L
105.57 109.661 L
106.128 110.771 L
106.686 111.855 L
107.244 112.922 L
107.802 114.053 L
108.36 115.159 L
108.918 116.24 L
109.476 117.296 L
110.034 118.407 L
110.592 119.573 L
111.15 120.715 L
111.708 121.83 L
112.266 122.92 L
112.824 124.055 L
113.382 125.204 L
113.94 126.326 L
114.498 127.423 L
115.056 128.552 L
115.614 129.759 L
116.172 130.954 L
116.73 132.122 L
117.288 133.263 L
117.846 134.389 L
118.404 135.6 L
118.962 136.785 L
119.52 137.975 L
120.078 139.168 L
120.636 140.368 L
121.194 141.637 L
121.752 142.879 L
122.31 144.094 L
122.868 145.279 L
123.426 146.498 L
123.984 147.782 L
124.542 149.087 L
125.1 150.364 L
125.658 151.611 L
126.216 152.915 L
126.774 154.252 L
127.332 155.559 L
127.89 156.838 L
128.448 158.1 L
129.006 159.496 L
129.564 160.906 L
130.122 162.287 L
130.68 163.637 L
131.238 164.957 L
131.796 166.312 L
132.354 167.649 L
132.912 168.982 L
133.47 170.324 L
134.028 171.633 L
134.586 172.987 L
135.144 174.313 L
135.702 175.605 L
136.26 176.862 L
136.818 178.086 L
137.376 179.413 L
137.934 180.722 L
138.492 181.994 L
139.05 183.23 L
139.608 184.438 L
140.166 185.689 L
140.724 186.902 L
141.282 188.098 L
141.84 189.306 L
142.398 190.495 L
142.956 191.719 L
143.514 192.902 L
144.072 194.044 L
144.63 195.144 L
145.188 196.234 L
145.746 197.426 L
146.304 198.576 L
146.862 199.682 L
147.42 200.744 L
147.978 201.801 L
148.536 202.878 L
149.094 203.91 L
149.652 204.971 L
150.21 205.992 L
150.768 207.014 L
151.326 208.05 L
151.884 209.04 L
152.442 209.982 L
153 210.876 L
153.558 211.859 L
154.116 212.851 L
154.674 213.795 L
155.232 214.689 L
155.79 215.534 L
156.348 216.397 L
156.906 217.269 L
157.464 218.165 L
158.022 219.011 L
158.58 219.805 L
159.138 220.625 L
159.696 221.436 L
160.254 222.196 L
160.812 222.941 L
161.37 223.684 L
161.928 224.462 L
162.486 225.222 L
163.044 225.93 L
163.602 226.583 L
164.16 227.183 L
164.718 227.904 L
165.276 228.615 L
165.834 229.271 L
166.392 229.872 L
166.95 230.418 L
167.508 231.016 L
168.066 231.619 L
168.624 232.225 L
169.182 232.774 L
169.74 233.267 L
170.298 233.823 L
170.856 234.339 L
171.414 234.798 L
171.972 235.299 L
172.53 235.742 L
173.088 236.257 L
173.646 236.725 L
174.204 237.135 L
174.762 237.487 L
175.32 237.853 L
175.878 238.332 L
176.436 238.755 L
176.994 239.12 L
177.552 239.426 L
178.11 239.677 L
178.668 240.066 L
179.226 240.448 L
179.784 240.771 L
180.342 241.036 L
180.9 241.252 L
181.458 241.548 L
182.016 241.826 L
182.574 242.113 L
183.132 242.341 L
183.69 242.527 L
184.248 242.789 L
184.806 242.993 L
185.364 243.172 L
185.922 243.367 L
186.48 243.529 L
187.038 243.764 L
187.596 243.94 L
188.154 244.056 L
188.712 244.147 L
189.27 244.3 L
189.828 244.531 L
190.386 244.703 L
190.944 244.815 L
191.502 244.867 L
192.06 244.942 L
192.618 245.179 L
193.176 245.378 L
193.734 245.517 L
194.292 245.596 L
194.85 245.663 L
195.408 245.85 L
195.966 246.043 L
196.524 246.178 L
197.082 246.299 L
197.64 246.416 L
198.198 246.593 L
198.756 246.79 L
199.314 246.972 L
199.872 247.095 L
200.43 247.221 L
200.988 247.402 L
201.546 247.557 L
202.104 247.782 L
202.662 247.966 L
203.22 248.161 L
203.778 248.409 L
204.336 248.597 L
204.894 248.738 L
205.452 248.94 L
206.01 249.16 L
206.568 249.466 L
207.126 249.73 L
207.684 249.935 L
208.242 250.133 L
208.8 250.44 L
209.358 250.794 L
209.916 251.088 L
210.474 251.323 L
211.032 251.5 L
211.59 251.841 L
212.148 252.288 L
212.706 252.677 L
213.264 253.006 L
213.822 253.277 L
214.38 253.598 L
214.938 254.091 L
215.496 254.526 L
216.054 254.902 L
216.612 255.251 L
217.17 255.673 L
217.728 256.199 L
218.286 256.745 L
218.844 257.232 L
219.402 257.661 L
219.96 258.145 L
220.518 258.661 L
221.076 259.251 L
221.634 259.84 L
222.192 260.389 L
222.75 261.001 L
223.308 261.641 L
223.866 262.274 L
224.424 262.951 L
224.982 263.57 L
225.54 264.259 L
226.098 264.972 L
226.656 265.686 L
227.214 266.47 L
227.772 267.226 L
228.33 268.058 L
228.888 268.912 L
229.446 269.708 L
230.004 270.494 L
230.562 271.334 L
231.12 272.289 L
231.678 273.293 L
232.236 274.238 L
232.794 275.125 L
233.352 276.088 L
233.91 277.171 L
234.468 278.269 L
235.026 279.307 L
235.584 280.302 L
236.142 281.348 L
236.7 282.598 L
237.258 283.858 L
237.816 285.06 L
238.374 286.201 L
238.932 287.282 L
239.49 288.625 L
240.048 290.002 L
240.606 291.371 L
241.164 292.679 L
241.722 293.926 L
242.28 295.201 L
242.838 296.5 L
243.396 297.737 L
243.954 298.911 L
244.512 300.048 L
245.07 301.182 L
245.628 302.414 L
246.186 303.582 L
246.744 304.685 L
247.302 305.722 L
247.86 306.694 L
248.418 307.731 L
248.976 308.808 L
249.534 309.835 L
250.092 310.796 L
250.65 311.689 L
251.208 312.58 L
251.766 313.524 L
252.324 314.4 L
252.882 315.228 L
253.44 316.039 L
253.998 316.78 L
254.556 317.641 L
255.114 318.432 L
255.672 319.152 L
256.23 319.8 L
256.788 320.378 L
257.346 321.086 L
257.904 321.788 L
258.462 322.418 L
259.02 322.974 L
259.578 323.455 L
260.136 323.925 L
260.694 324.456 L
261.252 324.985 L
261.81 325.444 L
262.368 325.828 L
262.926 326.135 L
263.484 326.568 L
264.042 326.923 L
264.6 327.201 L
265.158 327.481 L
265.716 327.685 L
266.274 327.956 L
266.832 328.21 L
267.39 328.386 L
267.948 328.483 L
268.506 328.512 L
269.064 328.62 L
269.622 328.775 L
270.18 328.85 L
270.738 328.845 L
271.296 328.76 L
271.854 328.622 L
272.412 328.63 L
272.97 328.609 L
273.528 328.508 L
274.086 328.327 L
274.644 328.066 L
275.202 327.91 L
275.76 327.708 L
276.318 327.505 L
276.876 327.236 L
277.434 326.888 L
277.992 326.59 L
278.55 326.306 L
279.108 325.943 L
279.666 325.538 L
280.224 325.114 L
280.782 324.686 L
281.34 324.333 L
281.898 323.902 L
282.456 323.394 L
283.014 322.809 L
283.572 322.266 L
284.13 321.857 L
284.688 321.372 L
285.246 320.812 L
285.804 320.177 L
286.362 319.468 L
286.92 318.953 L
287.478 318.431 L
288.036 317.835 L
288.594 317.166 L
289.152 316.424 L
289.71 315.755 L
290.268 315.159 L
290.826 314.543 L
291.384 313.857 L
291.942 313.099 L
292.5 312.365 L
293.058 311.708 L
293.616 311.021 L
294.174 310.333 L
294.732 309.576 L
295.29 308.793 L
295.848 308.144 L
296.406 307.427 L
296.964 306.677 L
297.522 305.937 L
298.08 305.131 L
298.638 304.497 L
299.196 303.805 L
299.754 303.049 L
300.312 302.261 L
300.87 301.498 L
301.428 300.87 L
301.986 300.238 L
302.544 299.542 L
303.102 298.781 L
303.66 298 L
304.218 297.394 L
304.776 296.859 L
305.334 296.261 L
305.892 295.6 L
306.45 294.877 L
307.008 294.246 L
307.566 293.78 L
308.124 293.255 L
308.682 292.716 L
309.24 292.114 L
309.798 291.501 L
310.356 291.121 L
310.914 290.725 L
311.472 290.269 L
312.03 289.753 L
312.588 289.178 L
313.146 288.84 L
313.704 288.571 L
314.262 288.263 L
314.82 287.894 L
315.378 287.466 L
315.936 287.204 L
316.494 286.94 L
317.052 286.736 L
317.61 286.474 L
318.168 286.189 L
318.726 286.045 L
319.284 285.933 L
319.842 285.815 L
320.4 285.722 L
320.958 285.57 L
321.516 285.498 L
322.074 285.506 L
322.632 285.456 L
323.19 285.479 L
323.748 285.506 L
324.306 285.57 L
324.864 285.762 L
325.422 285.894 L
325.98 285.978 L
326.538 286.137 L
327.096 286.289 L
327.654 286.615 L
328.212 286.914 L
328.77 287.179 L
329.328 287.452 L
329.886 287.756 L
330.444 288.28 L
331.002 288.744 L
331.56 289.15 L
332.118 289.495 L
332.676 289.914 L
333.234 290.589 L
333.792 291.257 L
334.35 291.866 L
334.908 292.414 L
335.466 292.952 L
336.024 293.754 L
336.582 294.572 L
337.14 295.329 L
337.698 296.025 L
338.256 296.719 L
338.814 297.66 L
339.372 298.691 L
339.93 299.659 L
340.488 300.566 L
341.046 301.41 L
341.604 302.382 L
342.162 303.567 L
342.72 304.72 L
343.278 305.841 L
343.836 306.898 L
344.394 307.993 L
344.952 309.367 L
345.51 310.705 L
346.068 311.979 L
346.626 313.187 L
347.184 314.345 L
347.742 315.547 L
348.3 316.791 L
348.858 317.969 L
349.416 319.079 L
349.974 320.123 L
350.532 321.1 L
351.09 322.169 L
351.648 323.196 L
352.206 324.209 L
352.764 325.153 L
353.322 326.029 L
353.88 326.925 L
354.438 327.84 L
354.996 328.686 L
355.554 329.462 L
356.112 330.194 L
356.67 330.919 L
357.228 331.735 L
357.786 332.481 L
358.344 333.157 L
358.902 333.762 L
359.46 334.296 L
360.018 334.892 L
360.576 335.522 L
361.134 336.1 L
361.692 336.606 L
362.25 337.041 L
362.808 337.469 L
363.366 337.949 L
363.924 338.357 L
364.482 338.715 L
365.04 339.053 L
365.598 339.32 L
366.156 339.704 L
366.714 340.018 L
367.272 340.26 L
367.83 340.429 L
368.388 340.528 L
368.946 340.757 L
369.504 340.981 L
370.062 341.134 L
370.62 341.213 L
371.178 341.221 L
371.736 341.219 L
372.294 341.28 L
372.852 341.342 L
373.41 341.339 L
373.968 341.262 L
374.526 341.114 L
375.084 341.095 L
375.642 341.004 L
376.2 340.841 L
376.758 340.684 L
377.316 340.459 L
377.874 340.305 L
378.432 340.141 L
378.99 339.905 L
379.548 339.598 L
380.106 339.229 L
380.664 338.948 L
381.222 338.72 L
381.78 338.42 L
382.338 338.048 L
382.896 337.605 L
383.454 337.116 L
384.012 336.782 L
384.57 336.427 L
385.128 336.001 L
385.686 335.504 L
386.244 334.936 L
386.802 334.48 L
387.36 333.988 L
387.918 333.503 L
388.476 332.962 L
389.034 332.35 L
389.592 331.796 L
390.15 331.265 L
390.708 330.664 L
391.266 330.029 L
391.824 329.384 L
392.382 328.742 L
392.94 328.183 L
393.498 327.555 L
394.056 326.857 L
394.614 326.091 L
395.172 325.372 L
395.73 324.796 L
396.288 324.151 L
396.846 323.438 L
397.404 322.657 L
397.962 321.808 L
398.52 321.16 L
399.078 320.51 L
399.636 319.793 L
400.194 319.009 L
400.752 318.158 L
401.31 317.384 L
401.868 316.689 L
402.426 315.98 L
402.984 315.204 L
403.542 314.363 L
404.1 313.548 L
404.658 312.816 L
405.216 312.058 L
405.774 311.303 L
406.332 310.483 L
406.89 309.639 L
407.448 308.934 L
408.006 308.164 L
408.564 307.364 L
409.122 306.577 L
409.68 305.727 L
410.238 305.051 L
410.796 304.321 L
411.354 303.528 L
411.912 302.706 L
412.47 301.911 L
413.028 301.253 L
413.586 300.593 L
414.144 299.871 L
414.702 299.086 L
415.26 298.282 L
415.818 297.655 L
416.376 297.1 L
416.934 296.484 L
417.492 295.806 L
418.05 295.067 L
418.608 294.421 L
419.166 293.942 L
419.724 293.404 L
420.282 292.852 L
420.84 292.24 L
421.398 291.617 L
421.956 291.227 L
422.514 290.823 L
423.072 290.359 L
423.63 289.835 L
424.188 289.253 L
424.746 288.909 L
425.304 288.634 L
425.862 288.321 L
426.42 287.947 L
426.978 287.515 L
427.536 287.248 L
428.094 286.98 L
428.652 286.773 L
429.21 286.508 L
429.768 286.22 L
430.326 286.073 L
430.884 285.959 L
431.442 285.838 L
432 285.743 L
432.558 285.589 L
433.116 285.515 L
433.674 285.522 L
434.232 285.47 L
434.79 285.492 L
435.348 285.518 L
435.906 285.581 L
436.464 285.771 L
437.022 285.903 L
437.58 285.986 L
438.138 286.144 L
438.696 286.295 L
439.254 286.621 L
439.812 286.919 L
440.37 287.184 L
440.928 287.457 L
441.486 287.759 L
442.044 288.283 L
442.602 288.747 L
443.16 289.152 L
443.718 289.497 L
444.276 289.916 L
444.834 290.591 L
445.392 291.259 L
445.95 291.867 L
446.508 292.415 L
447.066 292.954 L
447.624 293.755 L
448.182 294.573 L
448.74 295.33 L
449.298 296.026 L
449.856 296.719 L
450.414 297.66 L
450.972 298.691 L
451.53 299.66 L
452.088 300.566 L
452.646 301.41 L
453.204 302.382 L
453.762 303.567 L
454.32 304.72 L
454.878 305.841 L
455.436 306.898 L
455.994 307.993 L
456.552 309.367 L
457.11 310.705 L
457.668 311.978 L
458.226 313.186 L
458.784 314.344 L
459.342 315.547 L
459.9 316.791 L
460.458 317.968 L
461.016 319.079 L
461.574 320.123 L
462.132 321.099 L
462.69 322.168 L
463.248 323.196 L
463.806 324.209 L
464.364 325.153 L
464.922 326.029 L
465.48 326.925 L
466.038 327.84 L
466.596 328.686 L
467.154 329.462 L
467.712 330.194 L
468.27 330.919 L
468.828 331.735 L
469.386 332.481 L
469.944 333.157 L
470.502 333.762 L
471.06 334.296 L
471.618 334.892 L
472.176 335.522 L
472.734 336.1 L
473.292 336.606 L
473.85 337.041 L
474.408 337.469 L
474.966 337.949 L
475.524 338.357 L
476.082 338.715 L
476.64 339.053 L
477.198 339.32 L
477.756 339.704 L
478.314 340.018 L
478.872 340.26 L
479.43 340.429 L
479.988 340.528 L
480.546 340.757 L
481.104 340.981 L
481.662 341.134 L
482.22 341.213 L
482.778 341.221 L
483.336 341.219 L
483.894 341.28 L
484.452 341.342 L
485.01 341.339 L
485.568 341.262 L
486.126 341.114 L
486.684 341.095 L
487.242 341.004 L
487.8 340.841 L
488.358 340.684 L
488.916 340.459 L
489.474 340.305 L
490.032 340.141 L
490.59 339.905 L
491.148 339.598 L
491.706 339.229 L
492.264 338.948 L
492.822 338.72 L
493.38 338.42 L
493.938 338.048 L
494.496 337.605 L
495.054 337.116 L
495.612 336.782 L
496.17 336.427 L
496.728 336.001 L
497.286 335.504 L
497.844 334.936 L
498.402 334.48 L
498.96 333.988 L
499.518 333.503 L
500.076 332.962 L
500.634 332.35 L
501.192 331.796 L
501.75 331.265 L
502.308 330.664 L
502.866 330.029 L
503.424 329.384 L
503.982 328.742 L
504.54 328.183 L
505.098 327.555 L
505.656 326.857 L
506.214 326.091 L
506.772 325.372 L
507.33 324.796 L
507.888 324.151 L
508.446 323.438 L
509.004 322.657 L
509.562 321.808 L
510.12 321.16 L
510.678 320.51 L
511.236 319.793 L
511.794 319.009 L
512.352 318.158 L
512.91 317.384 L
513.468 316.689 L
514.026 315.98 L
514.584 315.204 L
515.142 314.363 L
515.7 313.548 L
516.258 312.816 L
516.816 312.058 L
517.374 311.303 L
517.932 310.483 L
518.49 309.639 L
519.048 308.934 L
519.606 308.164 L
520.164 307.364 L
520.722 306.577 L
521.28 305.727 LE
1 0 1 C
75.438 48.7278 LS
75.996 49.9616 L
76.554 51.1842 L
77.112 52.4044 L
77.67 53.6217 L
78.228 54.83 L
78.786 56.0278 L
79.344 57.2138 L
79.902 58.3877 L
80.46 59.5772 L
81.018 60.7726 L
81.576 61.9572 L
82.134 63.1296 L
82.692 64.2898 L
83.25 65.4575 L
83.808 66.6125 L
84.366 67.7537 L
84.924 68.9103 L
85.482 70.0669 L
86.04 71.2374 L
86.598 72.3943 L
87.156 73.5367 L
87.714 74.6636 L
88.272 75.7765 L
88.83 76.9084 L
89.388 78.0249 L
89.946 79.1736 L
90.504 80.3061 L
91.062 81.4246 L
91.62 82.5681 L
92.178 83.6954 L
92.736 84.8056 L
93.294 85.8977 L
93.852 86.9753 L
94.41 88.0835 L
94.968 89.2204 L
95.526 90.345 L
96.084 91.4508 L
96.642 92.542 L
97.2 93.67 L
97.758 94.7796 L
98.316 95.87 L
98.874 96.9404 L
99.432 97.9962 L
99.99 99.1329 L
100.548 100.266 L
101.106 101.38 L
101.664 102.472 L
102.222 103.55 L
102.78 104.677 L
103.338 105.784 L
103.896 106.869 L
104.454 107.933 L
105.012 109.018 L
105.57 110.178 L
106.128 111.318 L
106.686 112.436 L
107.244 113.531 L
107.802 114.613 L
108.36 115.756 L
108.918 116.876 L
109.476 117.974 L
110.034 119.089 L
110.592 120.209 L
111.15 121.395 L
111.708 122.558 L
112.266 123.698 L
112.824 124.815 L
113.382 125.919 L
113.94 127.095 L
114.498 128.247 L
115.056 129.435 L
115.614 130.599 L
116.172 131.752 L
116.73 132.981 L
117.288 134.187 L
117.846 135.368 L
118.404 136.523 L
118.962 137.669 L
119.52 138.928 L
120.078 140.193 L
120.636 141.433 L
121.194 142.647 L
121.752 143.851 L
122.31 145.143 L
122.868 146.409 L
123.426 147.65 L
123.984 148.879 L
124.542 150.148 L
125.1 151.511 L
125.658 152.847 L
126.216 154.156 L
126.774 155.438 L
127.332 156.711 L
127.89 158.083 L
128.448 159.443 L
129.006 160.827 L
129.564 162.182 L
130.122 163.518 L
130.68 164.892 L
131.238 166.237 L
131.796 167.551 L
132.354 168.834 L
132.912 170.122 L
133.47 171.492 L
134.028 172.83 L
134.586 174.135 L
135.144 175.407 L
135.702 176.656 L
136.26 177.944 L
136.818 179.198 L
137.376 180.471 L
137.934 181.725 L
138.492 182.956 L
139.05 184.227 L
139.608 185.461 L
140.166 186.658 L
140.724 187.816 L
141.282 188.972 L
141.84 190.22 L
142.398 191.43 L
142.956 192.6 L
143.514 193.73 L
144.072 194.832 L
144.63 195.977 L
145.188 197.083 L
145.746 198.222 L
146.304 199.319 L
146.862 200.387 L
147.42 201.499 L
147.978 202.567 L
148.536 203.592 L
149.094 204.572 L
149.652 205.597 L
150.21 206.672 L
150.768 207.702 L
151.326 208.686 L
151.884 209.624 L
152.442 210.532 L
153 211.485 L
153.558 212.471 L
154.116 213.412 L
154.674 214.305 L
155.232 215.169 L
155.79 216.077 L
156.348 216.937 L
156.906 217.76 L
157.464 218.606 L
158.022 219.424 L
158.58 220.287 L
159.138 221.1 L
159.696 221.861 L
160.254 222.572 L
160.812 223.293 L
161.37 224.109 L
161.928 224.874 L
162.486 225.587 L
163.044 226.247 L
163.602 226.879 L
164.16 227.557 L
164.718 228.261 L
165.276 228.925 L
165.834 229.535 L
166.392 230.118 L
166.95 230.747 L
167.508 231.323 L
168.066 231.88 L
168.624 232.441 L
169.182 232.976 L
169.74 233.559 L
170.298 234.086 L
170.856 234.558 L
171.414 234.973 L
171.972 235.463 L
172.53 236.001 L
173.088 236.482 L
173.646 236.907 L
174.204 237.275 L
174.762 237.621 L
175.32 238.088 L
175.878 238.527 L
176.436 238.908 L
176.994 239.232 L
177.552 239.536 L
178.11 239.889 L
178.668 240.237 L
179.226 240.579 L
179.784 240.862 L
180.342 241.129 L
180.9 241.445 L
181.458 241.703 L
182.016 241.942 L
182.574 242.19 L
183.132 242.425 L
183.69 242.709 L
184.248 242.934 L
184.806 243.1 L
185.364 243.241 L
185.922 243.449 L
186.48 243.707 L
187.038 243.906 L
187.596 244.046 L
188.154 244.126 L
188.712 244.234 L
189.27 244.481 L
189.828 244.677 L
190.386 244.815 L
190.944 244.893 L
191.502 244.966 L
192.06 245.134 L
192.618 245.337 L
193.176 245.503 L
193.734 245.609 L
194.292 245.715 L
194.85 245.871 L
195.408 246.027 L
195.966 246.188 L
196.524 246.291 L
197.082 246.445 L
197.64 246.649 L
198.198 246.795 L
198.756 246.962 L
199.314 247.115 L
199.872 247.274 L
200.43 247.485 L
200.988 247.637 L
201.546 247.763 L
202.104 247.959 L
202.662 248.185 L
203.22 248.463 L
203.778 248.682 L
204.336 248.843 L
204.894 248.957 L
205.452 249.205 L
206.01 249.506 L
206.568 249.786 L
207.126 250.023 L
207.684 250.202 L
208.242 250.451 L
208.8 250.837 L
209.358 251.164 L
209.916 251.434 L
210.474 251.644 L
211.032 251.876 L
211.59 252.294 L
212.148 252.716 L
212.706 253.081 L
213.264 253.386 L
213.822 253.717 L
214.38 254.111 L
214.938 254.582 L
215.496 254.994 L
216.054 255.347 L
216.612 255.76 L
217.17 256.253 L
217.728 256.756 L
218.286 257.281 L
218.844 257.746 L
219.402 258.244 L
219.96 258.796 L
220.518 259.291 L
221.076 259.86 L
221.634 260.428 L
222.192 261.05 L
222.75 261.728 L
223.308 262.347 L
223.866 262.96 L
224.424 263.617 L
224.982 264.313 L
225.54 265.065 L
226.098 265.758 L
226.656 266.452 L
227.214 267.217 L
227.772 268.054 L
228.33 268.947 L
228.888 269.782 L
229.446 270.559 L
230.004 271.326 L
230.562 272.25 L
231.12 273.263 L
231.678 274.248 L
232.236 275.175 L
232.794 276.043 L
233.352 277.094 L
233.91 278.232 L
234.468 279.312 L
235.026 280.332 L
235.584 281.309 L
236.142 282.446 L
236.7 283.748 L
237.258 284.991 L
237.816 286.174 L
238.374 287.297 L
238.932 288.472 L
239.49 289.865 L
240.048 291.224 L
240.606 292.575 L
241.164 293.865 L
241.722 295.094 L
242.28 296.351 L
242.838 297.632 L
243.396 298.851 L
243.954 300.007 L
244.512 301.126 L
245.07 302.242 L
245.628 303.456 L
246.186 304.606 L
246.744 305.69 L
247.302 306.71 L
247.86 307.663 L
248.418 308.683 L
248.976 309.742 L
249.534 310.752 L
250.092 311.694 L
250.65 312.57 L
251.208 313.442 L
251.766 314.369 L
252.324 315.227 L
252.882 316.038 L
253.44 316.832 L
253.998 317.555 L
254.556 318.398 L
255.114 319.172 L
255.672 319.874 L
256.23 320.506 L
256.788 321.067 L
257.346 321.757 L
257.904 322.443 L
258.462 323.055 L
259.02 323.594 L
259.578 324.059 L
260.136 324.513 L
260.694 325.028 L
261.252 325.54 L
261.81 325.984 L
262.368 326.351 L
262.926 326.643 L
263.484 327.06 L
264.042 327.401 L
264.6 327.664 L
265.158 327.928 L
265.716 328.119 L
266.274 328.375 L
266.832 328.615 L
267.39 328.777 L
267.948 328.86 L
268.506 328.875 L
269.064 328.971 L
269.622 329.112 L
270.18 329.175 L
270.738 329.157 L
271.296 329.061 L
271.854 328.91 L
272.412 328.907 L
272.97 328.875 L
273.528 328.763 L
274.086 328.571 L
274.644 328.3 L
275.202 328.134 L
275.76 327.922 L
276.318 327.709 L
276.876 327.431 L
277.434 327.074 L
277.992 326.767 L
278.55 326.475 L
279.108 326.104 L
279.666 325.692 L
280.224 325.26 L
280.782 324.825 L
281.34 324.464 L
281.898 324.027 L
282.456 323.513 L
283.014 322.922 L
283.572 322.372 L
284.13 321.958 L
284.688 321.468 L
285.246 320.903 L
285.804 320.263 L
286.362 319.549 L
286.92 319.029 L
287.478 318.502 L
288.036 317.902 L
288.594 317.23 L
289.152 316.484 L
289.71 315.811 L
290.268 315.212 L
290.826 314.593 L
291.384 313.903 L
291.942 313.143 L
292.5 312.406 L
293.058 311.746 L
293.616 311.057 L
294.174 310.367 L
294.732 309.608 L
295.29 308.823 L
295.848 308.171 L
296.406 307.453 L
296.964 306.701 L
297.522 305.959 L
298.08 305.152 L
298.638 304.516 L
299.196 303.823 L
299.754 303.065 L
300.312 302.277 L
300.87 301.513 L
301.428 300.884 L
301.986 300.25 L
302.544 299.553 L
303.102 298.792 L
303.66 298.01 L
304.218 297.403 L
304.776 296.867 L
305.334 296.269 L
305.892 295.607 L
306.45 294.884 L
307.008 294.252 L
307.566 293.786 L
308.124 293.261 L
308.682 292.72 L
309.24 292.119 L
309.798 291.505 L
310.356 291.125 L
310.914 290.729 L
311.472 290.272 L
312.03 289.755 L
312.588 289.18 L
313.146 288.842 L
313.704 288.573 L
314.262 288.265 L
314.82 287.896 L
315.378 287.468 L
315.936 287.205 L
316.494 286.941 L
317.052 286.738 L
317.61 286.475 L
318.168 286.191 L
318.726 286.046 L
319.284 285.934 L
319.842 285.816 L
320.4 285.723 L
320.958 285.571 L
321.516 285.498 L
322.074 285.507 L
322.632 285.456 L
323.19 285.479 L
323.748 285.506 L
324.306 285.57 L
324.864 285.762 L
325.422 285.895 L
325.98 285.978 L
326.538 286.137 L
327.096 286.289 L
327.654 286.615 L
328.212 286.914 L
328.77 287.179 L
329.328 287.453 L
329.886 287.756 L
330.444 288.28 L
331.002 288.744 L
331.56 289.15 L
332.118 289.495 L
332.676 289.914 L
333.234 290.589 L
333.792 291.257 L
334.35 291.866 L
334.908 292.414 L
335.466 292.953 L
336.024 293.754 L
336.582 294.572 L
337.14 295.329 L
337.698 296.025 L
338.256 296.719 L
338.814 297.66 L
339.372 298.691 L
339.93 299.659 L
340.488 300.566 L
341.046 301.41 L
341.604 302.382 L
342.162 303.567 L
342.72 304.72 L
343.278 305.841 L
343.836 306.898 L
344.394 307.993 L
344.952 309.367 L
345.51 310.705 L
346.068 311.979 L
346.626 313.187 L
347.184 314.345 L
347.742 315.547 L
348.3 316.791 L
348.858 317.969 L
349.416 319.079 L
349.974 320.123 L
350.532 321.1 L
351.09 322.169 L
351.648 323.196 L
352.206 324.209 L
352.764 325.153 L
353.322 326.029 L
353.88 326.925 L
354.438 327.84 L
354.996 328.686 L
355.554 329.462 L
356.112 330.194 L
356.67 330.919 L
357.228 331.735 L
357.786 332.481 L
358.344 333.157 L
358.902 333.762 L
359.46 334.296 L
360.018 334.892 L
360.576 335.522 L
361.134 336.1 L
361.692 336.606 L
362.25 337.041 L
362.808 337.469 L
363.366 337.949 L
363.924 338.357 L
364.482 338.715 L
365.04 339.053 L
365.598 339.32 L
366.156 339.704 L
366.714 340.018 L
367.272 340.26 L
367.83 340.429 L
368.388 340.528 L
368.946 340.757 L
369.504 340.981 L
370.062 341.134 L
370.62 341.213 L
371.178 341.221 L
371.736 341.219 L
372.294 341.28 L
372.852 341.342 L
373.41 341.339 L
373.968 341.262 L
374.526 341.114 L
375.084 341.095 L
375.642 341.004 L
376.2 340.841 L
376.758 340.684 L
377.316 340.459 L
377.874 340.305 L
378.432 340.141 L
378.99 339.905 L
379.548 339.598 L
380.106 339.229 L
380.664 338.948 L
381.222 338.72 L
381.78 338.42 L
382.338 338.048 L
382.896 337.605 L
383.454 337.116 L
384.012 336.782 L
384.57 336.427 L
385.128 336.001 L
385.686 335.504 L
386.244 334.936 L
386.802 334.48 L
387.36 333.988 L
387.918 333.503 L
388.476 332.962 L
389.034 332.35 L
389.592 331.796 L
390.15 331.265 L
390.708 330.664 L
391.266 330.029 L
391.824 329.384 L
392.382 328.742 L
392.94 328.183 L
393.498 327.555 L
394.056 326.857 L
394.614 326.091 L
395.172 325.372 L
395.73 324.796 L
396.288 324.151 L
396.846 323.438 L
397.404 322.657 L
397.962 321.808 L
398.52 321.16 L
399.078 320.51 L
399.636 319.793 L
400.194 319.009 L
400.752 318.158 L
401.31 317.384 L
401.868 316.689 L
402.426 315.98 L
402.984 315.204 L
403.542 314.363 L
404.1 313.548 L
404.658 312.816 L
405.216 312.058 L
405.774 311.303 L
406.332 310.483 L
406.89 309.639 L
407.448 308.934 L
408.006 308.164 L
408.564 307.364 L
409.122 306.577 L
409.68 305.727 L
410.238 305.051 L
410.796 304.321 L
411.354 303.528 L
411.912 302.706 L
412.47 301.911 L
413.028 301.253 L
413.586 300.593 L
414.144 299.871 L
414.702 299.086 L
415.26 298.282 L
415.818 297.655 L
416.376 297.1 L
416.934 296.484 L
417.492 295.806 L
418.05 295.067 L
418.608 294.421 L
419.166 293.942 L
419.724 293.404 L
420.282 292.852 L
420.84 292.24 L
421.398 291.617 L
421.956 291.227 L
422.514 290.823 L
423.072 290.359 L
423.63 289.835 L
424.188 289.253 L
424.746 288.909 L
425.304 288.634 L
425.862 288.321 L
426.42 287.947 L
426.978 287.515 L
427.536 287.248 L
428.094 286.98 L
428.652 286.773 L
429.21 286.508 L
429.768 286.22 L
430.326 286.073 L
430.884 285.959 L
431.442 285.838 L
432 285.743 L
432.558 285.589 L
433.116 285.515 L
433.674 285.522 L
434.232 285.47 L
434.79 285.492 L
435.348 285.518 L
435.906 285.581 L
436.464 285.771 L
437.022 285.903 L
437.58 285.986 L
438.138 286.144 L
438.696 286.295 L
439.254 286.621 L
439.812 286.919 L
440.37 287.184 L
440.928 287.457 L
441.486 287.759 L
442.044 288.283 L
442.602 288.747 L
443.16 289.152 L
443.718 289.497 L
444.276 289.916 L
444.834 290.591 L
445.392 291.259 L
445.95 291.867 L
446.508 292.415 L
447.066 292.954 L
447.624 293.755 L
448.182 294.573 L
448.74 295.33 L
449.298 296.026 L
449.856 296.719 L
450.414 297.66 L
450.972 298.691 L
451.53 299.66 L
452.088 300.566 L
452.646 301.41 L
453.204 302.382 L
453.762 303.567 L
454.32 304.72 L
454.878 305.841 L
455.436 306.898 L
455.994 307.993 L
456.552 309.367 L
457.11 310.705 L
457.668 311.978 L
458.226 313.186 L
458.784 314.344 L
459.342 315.547 L
459.9 316.791 L
460.458 317.968 L
461.016 319.079 L
461.574 320.123 L
462.132 321.099 L
462.69 322.168 L
463.248 323.196 L
463.806 324.209 L
464.364 325.153 L
464.922 326.029 L
465.48 326.925 L
466.038 327.84 L
466.596 328.686 L
467.154 329.462 L
467.712 330.194 L
468.27 330.919 L
468.828 331.735 L
469.386 332.481 L
469.944 333.157 L
470.502 333.762 L
471.06 334.296 L
471.618 334.892 L
472.176 335.522 L
472.734 336.1 L
473.292 336.606 L
473.85 337.041 L
474.408 337.469 L
474.966 337.949 L
475.524 338.357 L
476.082 338.715 L
476.64 339.053 L
477.198 339.32 L
477.756 339.704 L
478.314 340.018 L
478.872 340.26 L
479.43 340.429 L
479.988 340.528 L
480.546 340.757 L
481.104 340.981 L
481.662 341.134 L
482.22 341.213 L
482.778 341.221 L
483.336 341.219 L
483.894 341.28 L
484.452 341.342 L
485.01 341.339 L
485.568 341.262 L
486.126 341.114 L
486.684 341.095 L
487.242 341.004 L
487.8 340.841 L
488.358 340.684 L
488.916 340.459 L
489.474 340.305 L
490.032 340.141 L
490.59 339.905 L
491.148 339.598 L
491.706 339.229 L
492.264 338.948 L
492.822 338.72 L
493.38 338.42 L
493.938 338.048 L
494.496 337.605 L
495.054 337.116 L
495.612 336.782 L
496.17 336.427 L
496.728 336.001 L
497.286 335.504 L
497.844 334.936 L
498.402 334.48 L
498.96 333.988 L
499.518 333.503 L
500.076 332.962 L
500.634 332.35 L
501.192 331.796 L
501.75 331.265 L
502.308 330.664 L
502.866 330.029 L
503.424 329.384 L
503.982 328.742 L
504.54 328.183 L
505.098 327.555 L
505.656 326.857 L
506.214 326.091 L
506.772 325.372 L
507.33 324.796 L
507.888 324.151 L
508.446 323.438 L
509.004 322.657 L
509.562 321.808 L
510.12 321.16 L
510.678 320.51 L
511.236 319.793 L
511.794 319.009 L
512.352 318.158 L
512.91 317.384 L
513.468 316.689 L
514.026 315.98 L
514.584 315.204 L
515.142 314.363 L
515.7 313.548 L
516.258 312.816 L
516.816 312.058 L
517.374 311.303 L
517.932 310.483 L
518.49 309.639 L
519.048 308.934 L
519.606 308.164 L
520.164 307.364 L
520.722 306.577 L
521.28 305.727 LE
1 1 1 C
518.538 50.2617 518.538 135.285 518.538 50.2617 T
518.538 50.2617 518.538 135.285 518.538 135.285 T
397.18 135.285 518.538 135.285 397.18 135.285 T
397.18 135.285 518.538 135.285 518.538 135.285 T
397.18 135.285 518.538 50.2617 397.18 50.2617 T
397.18 135.285 518.538 135.285 518.538 50.2617 T
[16 0] 0 setdash
0 0 0 C
397.18 50.2617 LS
518.538 50.2617 LE
397.18 135.285 LS
518.538 135.285 LE
397.18 135.285 LS
518.538 135.285 LE
397.18 50.2617 LS
518.538 50.2617 LE
397.18 50.2617 LS
397.18 135.285 LE
518.538 50.2617 LS
518.538 135.285 LE
518.538 50.2617 LS
518.538 135.285 LE
397.18 50.2617 LS
397.18 135.285 L
397.18 135.285 LE
518.538 135.285 LS
518.538 135.285 LE
518.538 50.2617 LS
518.538 50.2617 LE
397.18 50.2617 LS
397.18 50.2617 LE
(RK2) 423.225 124.657 15 /Helvetica SCL
(AB2+EXACT) 423.225 103.402 15 /Helvetica SCL
(AB2+EULER) 423.225 82.1456 15 /Helvetica SCL
(AB2+RK2) 423.225 60.8896 15 /Helvetica SCL
0.5 W
[] 0 setdash
0 0 1 C
399.921 124.657 LS
420.484 124.657 LE
1 0 0 C
399.921 103.402 LS
420.484 103.402 LE
0 1 0 C
399.921 82.1456 LS
420.484 82.1456 LE
1 0 1 C
399.921 60.8896 LS
420.484 60.8896 LE
grestore
showpage
cleartomark
%%PageTrailer
%%Trailer
end
%%EOF
