%!PS-Adobe-3.0 EPSF-3.0
%%Title: glps_renderer figure
%%Creator: GL2PS 1.3.8, (C) 1999-2012 C. Geuzaine
%%For: Octave
%%CreationDate: Mon Nov  9 08:35:58 2015
%%LanguageLevel: 3
%%DocumentData: Clean7Bit
%%Pages: 1
%%BoundingBox: 0 0 576 432
%%EndComments
%%BeginProlog
/gl2psdict 64 dict def gl2psdict begin
0 setlinecap 0 setlinejoin
/tryPS3shading false def % set to false to force subdivision
/rThreshold 0.064 def % red component subdivision threshold
/gThreshold 0.034 def % green component subdivision threshold
/bThreshold 0.1 def % blue component subdivision threshold
/BD { bind def } bind def
/C  { setrgbcolor } BD
/G  { 0.082 mul exch 0.6094 mul add exch 0.3086 mul add neg 1.0 add setgray } BD
/W  { setlinewidth } BD
/FC { findfont exch /SH exch def SH scalefont setfont } BD
/SW { dup stringwidth pop } BD
/S  { FC moveto show } BD
/SBC{ FC moveto SW -2 div 0 rmoveto show } BD
/SBR{ FC moveto SW neg 0 rmoveto show } BD
/SCL{ FC moveto 0 SH -2 div rmoveto show } BD
/SCC{ FC moveto SW -2 div SH -2 div rmoveto show } BD
/SCR{ FC moveto SW neg SH -2 div rmoveto show } BD
/STL{ FC moveto 0 SH neg rmoveto show } BD
/STC{ FC moveto SW -2 div SH neg rmoveto show } BD
/STR{ FC moveto SW neg SH neg rmoveto show } BD
/FCT { FC translate 0 0 } BD
/SR  { gsave FCT moveto rotate show grestore } BD
/SBCR{ gsave FCT moveto rotate SW -2 div 0 rmoveto show grestore } BD
/SBRR{ gsave FCT moveto rotate SW neg 0 rmoveto show grestore } BD
/SCLR{ gsave FCT moveto rotate 0 SH -2 div rmoveto show grestore} BD
/SCCR{ gsave FCT moveto rotate SW -2 div SH -2 div rmoveto show grestore} BD
/SCRR{ gsave FCT moveto rotate SW neg SH -2 div rmoveto show grestore} BD
/STLR{ gsave FCT moveto rotate 0 SH neg rmoveto show grestore } BD
/STCR{ gsave FCT moveto rotate SW -2 div SH neg rmoveto show grestore } BD
/STRR{ gsave FCT moveto rotate SW neg SH neg rmoveto show grestore } BD
/P  { newpath 0.0 360.0 arc closepath fill } BD
/LS { newpath moveto } BD
/L  { lineto } BD
/LE { lineto stroke } BD
/T  { newpath moveto lineto lineto closepath fill } BD
/STshfill {
      /b1 exch def /g1 exch def /r1 exch def /y1 exch def /x1 exch def
      /b2 exch def /g2 exch def /r2 exch def /y2 exch def /x2 exch def
      /b3 exch def /g3 exch def /r3 exch def /y3 exch def /x3 exch def
      gsave << /ShadingType 4 /ColorSpace [/DeviceRGB]
      /DataSource [ 0 x1 y1 r1 g1 b1 0 x2 y2 r2 g2 b2 0 x3 y3 r3 g3 b3 ] >>
      shfill grestore } BD
/Tm { 3 -1 roll 8 -1 roll 13 -1 roll add add 3 div
      3 -1 roll 7 -1 roll 11 -1 roll add add 3 div
      3 -1 roll 6 -1 roll 9 -1 roll add add 3 div C T } BD
/STsplit {
      4 index 15 index add 0.5 mul
      4 index 15 index add 0.5 mul
      4 index 15 index add 0.5 mul
      4 index 15 index add 0.5 mul
      4 index 15 index add 0.5 mul
      5 copy 5 copy 25 15 roll
      9 index 30 index add 0.5 mul
      9 index 30 index add 0.5 mul
      9 index 30 index add 0.5 mul
      9 index 30 index add 0.5 mul
      9 index 30 index add 0.5 mul
      5 copy 5 copy 35 5 roll 25 5 roll 15 5 roll
      4 index 10 index add 0.5 mul
      4 index 10 index add 0.5 mul
      4 index 10 index add 0.5 mul
      4 index 10 index add 0.5 mul
      4 index 10 index add 0.5 mul
      5 copy 5 copy 40 5 roll 25 5 roll 15 5 roll 25 5 roll
      STnoshfill STnoshfill STnoshfill STnoshfill } BD
/STnoshfill {
      2 index 8 index sub abs rThreshold gt
      { STsplit }
      { 1 index 7 index sub abs gThreshold gt
        { STsplit }
        { dup 6 index sub abs bThreshold gt
          { STsplit }
          { 2 index 13 index sub abs rThreshold gt
            { STsplit }
            { 1 index 12 index sub abs gThreshold gt
              { STsplit }
              { dup 11 index sub abs bThreshold gt
                { STsplit }
                { 7 index 13 index sub abs rThreshold gt
                  { STsplit }
                  { 6 index 12 index sub abs gThreshold gt
                    { STsplit }
                    { 5 index 11 index sub abs bThreshold gt
                      { STsplit }
                      { Tm }
                      ifelse }
                    ifelse }
                  ifelse }
                ifelse }
              ifelse }
            ifelse }
          ifelse }
        ifelse }
      ifelse } BD
tryPS3shading
{ /shfill where
  { /ST { STshfill } BD }
  { /ST { STnoshfill } BD }
  ifelse }
{ /ST { STnoshfill } BD }
ifelse
end
%%EndProlog
%%BeginSetup
/DeviceRGB setcolorspace
gl2psdict begin
%%EndSetup
%%Page: 1 1
%%BeginPageSetup
%%EndPageSetup
mark
gsave
1.0 1.0 scale
1 1 1 C
521.28 47.52 521.28 399.6 521.28 47.52 T
521.28 47.52 521.28 399.6 521.28 399.6 T
74.88 399.6 521.28 399.6 74.88 399.6 T
74.88 399.6 521.28 399.6 521.28 399.6 T
74.88 399.6 521.28 47.52 74.88 47.52 T
74.88 399.6 521.28 399.6 521.28 47.52 T
0.5 W
[16 0] 0 setdash
0 0 0 C
74.88 47.52 LS
521.28 47.52 LE
74.88 399.6 LS
521.28 399.6 LE
74.88 399.6 LS
521.28 399.6 LE
74.88 47.52 LS
521.28 47.52 LE
74.88 47.52 LS
74.88 399.6 LE
521.28 47.52 LS
521.28 399.6 LE
521.28 47.52 LS
521.28 399.6 LE
74.88 47.52 LS
74.88 399.6 L
74.88 399.6 LE
521.28 399.6 LS
521.28 399.6 LE
521.28 47.52 LS
521.28 47.52 LE
74.88 47.52 LS
74.88 47.52 L
74.88 51.985 LE
74.88 399.6 LS
74.88 395.135 LE
164.16 47.52 LS
164.16 51.985 LE
164.16 399.6 LS
164.16 395.135 LE
253.44 47.52 LS
253.44 51.985 LE
253.44 399.6 LS
253.44 395.135 LE
342.72 47.52 LS
342.72 51.985 LE
342.72 399.6 LS
342.72 395.135 LE
432 47.52 LS
432 51.985 LE
432 399.6 LS
432 395.135 LE
521.28 47.52 LS
521.28 51.985 LE
521.28 399.6 LS
521.28 395.135 LE
(0) 74.88 42.5189 12 /Helvetica STC
(0.2) 164.16 42.5189 12 /Helvetica STC
(0.4) 253.44 42.5189 12 /Helvetica STC
(0.6) 342.72 42.5189 12 /Helvetica STC
(0.8) 432 42.5189 12 /Helvetica STC
(1) 521.28 42.5189 12 /Helvetica STC
74.88 47.52 LS
79.348 47.52 LE
521.28 47.52 LS
516.812 47.52 LE
74.88 97.8171 LS
79.348 97.8171 LE
521.28 97.8171 LS
516.812 97.8171 LE
74.88 148.114 LS
79.348 148.114 LE
521.28 148.114 LS
516.812 148.114 LE
74.88 198.411 LS
79.348 198.411 LE
521.28 198.411 LS
516.812 198.411 LE
74.88 248.709 LS
79.348 248.709 LE
521.28 248.709 LS
516.812 248.709 LE
74.88 299.006 LS
79.348 299.006 LE
521.28 299.006 LS
516.812 299.006 LE
74.88 349.303 LS
79.348 349.303 LE
521.28 349.303 LS
516.812 349.303 LE
74.88 399.6 LS
79.348 399.6 LE
521.28 399.6 LS
516.812 399.6 LE
(0) 69.8755 47.52 12 /Helvetica SCR
(0.001) 69.8755 97.8171 12 /Helvetica SCR
(0.002) 69.8755 148.114 12 /Helvetica SCR
(0.003) 69.8755 198.411 12 /Helvetica SCR
(0.004) 69.8755 248.709 12 /Helvetica SCR
(0.005) 69.8755 299.006 12 /Helvetica SCR
(0.006) 69.8755 349.303 12 /Helvetica SCR
(0.007) 69.8755 399.6 12 /Helvetica SCR
(t) 298.08 28.5189 15 /Helvetica STC
(L_2   norm) 90 34.8755 223.56 15 /Helvetica SBCR
2 W
[] 0 setdash
0 0 1 C
75.996 49.9615 LS
77.112 52.3772 L
78.228 54.7709 L
79.344 57.1453 L
80.46 59.5023 L
81.576 61.8436 L
82.692 64.1702 L
83.808 66.4834 L
84.924 68.7842 L
86.04 71.0735 L
87.156 73.3522 L
88.272 75.6213 L
89.388 77.8818 L
90.504 80.1348 L
91.62 82.3814 L
92.736 84.6225 L
93.852 86.8595 L
94.968 89.0933 L
96.084 91.3252 L
97.2 93.5564 L
98.316 95.788 L
99.432 98.0211 L
100.548 100.257 L
101.664 102.497 L
102.78 104.741 L
103.896 106.991 L
105.012 109.249 L
106.128 111.513 L
107.244 113.787 L
108.36 116.069 L
109.476 118.362 L
110.592 120.665 L
111.708 122.978 L
112.824 125.303 L
113.94 127.64 L
115.056 129.987 L
116.172 132.347 L
117.288 134.718 L
118.404 137.099 L
119.52 139.492 L
120.636 141.895 L
121.752 144.308 L
122.868 146.729 L
123.984 149.159 L
125.1 151.596 L
126.216 154.039 L
127.332 156.487 L
128.448 158.939 L
129.564 161.393 L
130.68 163.847 L
131.796 166.301 L
132.912 168.753 L
134.028 171.201 L
135.144 173.643 L
136.26 176.077 L
137.376 178.502 L
138.492 180.916 L
139.608 183.316 L
140.724 185.7 L
141.84 188.068 L
142.956 190.415 L
144.072 192.742 L
145.188 195.044 L
146.304 197.321 L
147.42 199.571 L
148.536 201.791 L
149.652 203.979 L
150.768 206.134 L
151.884 208.254 L
153 210.336 L
154.116 212.38 L
155.232 214.383 L
156.348 216.344 L
157.464 218.261 L
158.58 220.133 L
159.696 221.958 L
160.812 223.736 L
161.928 225.465 L
163.044 227.144 L
164.16 228.773 L
165.276 230.351 L
166.392 231.877 L
167.508 233.351 L
168.624 234.772 L
169.74 236.141 L
170.856 237.458 L
171.972 238.722 L
173.088 239.935 L
174.204 241.097 L
175.32 242.208 L
176.436 243.271 L
177.552 244.285 L
178.668 245.253 L
179.784 246.176 L
180.9 247.055 L
182.016 247.894 L
183.132 248.693 L
184.248 249.455 L
185.364 250.184 L
186.48 250.88 L
187.596 251.549 L
188.712 252.192 L
189.828 252.813 L
190.944 253.415 L
192.06 254.002 L
193.176 254.577 L
194.292 255.145 L
195.408 255.71 L
196.524 256.274 L
197.64 256.843 L
198.756 257.42 L
199.872 258.009 L
200.988 258.615 L
202.104 259.242 L
203.22 259.894 L
204.336 260.575 L
205.452 261.289 L
206.568 262.039 L
207.684 262.83 L
208.8 263.665 L
209.916 264.546 L
211.032 265.478 L
212.148 266.463 L
213.264 267.503 L
214.38 268.6 L
215.496 269.756 L
216.612 270.973 L
217.728 272.251 L
218.844 273.592 L
219.96 274.995 L
221.076 276.46 L
222.192 277.988 L
223.308 279.577 L
224.424 281.227 L
225.54 282.935 L
226.656 284.702 L
227.772 286.523 L
228.888 288.397 L
230.004 290.321 L
231.12 292.292 L
232.236 294.306 L
233.352 296.359 L
234.468 298.447 L
235.584 300.566 L
236.7 302.711 L
237.816 304.877 L
238.932 307.059 L
240.048 309.252 L
241.164 311.451 L
242.28 313.649 L
243.396 315.844 L
244.512 318.028 L
245.628 320.197 L
246.744 322.345 L
247.86 324.469 L
248.976 326.561 L
250.092 328.618 L
251.208 330.634 L
252.324 332.605 L
253.44 334.524 L
254.556 336.387 L
255.672 338.188 L
256.788 339.922 L
257.904 341.583 L
259.02 343.167 L
260.136 344.666 L
261.252 346.076 L
262.368 347.39 L
263.484 348.605 L
264.6 349.713 L
265.716 350.71 L
266.832 351.592 L
267.948 352.353 L
269.064 352.989 L
270.18 353.498 L
271.296 353.875 L
272.412 354.119 L
273.528 354.228 L
274.644 354.2 L
275.76 354.036 L
276.876 353.736 L
277.992 353.301 L
279.108 352.733 L
280.224 352.035 L
281.34 351.211 L
282.456 350.264 L
283.572 349.201 L
284.688 348.026 L
285.804 346.747 L
286.92 345.369 L
288.036 343.901 L
289.152 342.351 L
290.268 340.727 L
291.384 339.038 L
292.5 337.293 L
293.616 335.503 L
294.732 333.676 L
295.848 331.823 L
296.964 329.954 L
298.08 328.08 L
299.196 326.211 L
300.312 324.356 L
301.428 322.528 L
302.544 320.736 L
303.66 318.99 L
304.776 317.3 L
305.892 315.676 L
307.008 314.127 L
308.124 312.663 L
309.24 311.292 L
310.356 310.022 L
311.472 308.861 L
312.588 307.816 L
313.704 306.893 L
314.82 306.099 L
315.936 305.438 L
317.052 304.914 L
318.168 304.531 L
319.284 304.292 L
320.4 304.197 L
321.516 304.249 L
322.632 304.446 L
323.748 304.788 L
324.864 305.274 L
325.98 305.901 L
327.096 306.664 L
328.212 307.561 L
329.328 308.587 L
330.444 309.735 L
331.56 311.001 L
332.676 312.376 L
333.792 313.855 L
334.908 315.43 L
336.024 317.093 L
337.14 318.835 L
338.256 320.65 L
339.372 322.527 L
340.488 324.459 L
341.604 326.436 L
342.72 328.451 L
343.836 330.494 L
344.952 332.557 L
346.068 334.632 L
347.184 336.709 L
348.3 338.782 L
349.416 340.841 L
350.532 342.88 L
351.648 344.89 L
352.764 346.864 L
353.88 348.796 L
354.996 350.678 L
356.112 352.505 L
357.228 354.269 L
358.344 355.966 L
359.46 357.589 L
360.576 359.133 L
361.692 360.594 L
362.808 361.967 L
363.924 363.248 L
365.04 364.432 L
366.156 365.517 L
367.272 366.499 L
368.388 367.374 L
369.504 368.142 L
370.62 368.798 L
371.736 369.342 L
372.852 369.772 L
373.968 370.086 L
375.084 370.284 L
376.2 370.365 L
377.316 370.329 L
378.432 370.175 L
379.548 369.905 L
380.664 369.52 L
381.78 369.019 L
382.896 368.405 L
384.012 367.68 L
385.128 366.846 L
386.244 365.904 L
387.36 364.858 L
388.476 363.711 L
389.592 362.467 L
390.708 361.129 L
391.824 359.701 L
392.94 358.188 L
394.056 356.594 L
395.172 354.925 L
396.288 353.186 L
397.404 351.382 L
398.52 349.52 L
399.636 347.607 L
400.752 345.648 L
401.868 343.651 L
402.984 341.622 L
404.1 339.57 L
405.216 337.501 L
406.332 335.425 L
407.448 333.348 L
408.564 331.28 L
409.68 329.228 L
410.796 327.201 L
411.912 325.208 L
413.028 323.258 L
414.144 321.359 L
415.26 319.52 L
416.376 317.749 L
417.492 316.055 L
418.608 314.446 L
419.724 312.93 L
420.84 311.515 L
421.956 310.207 L
423.072 309.014 L
424.188 307.942 L
425.304 306.997 L
426.42 306.184 L
427.536 305.507 L
428.652 304.97 L
429.768 304.576 L
430.884 304.327 L
432 304.226 L
433.116 304.271 L
434.232 304.464 L
435.348 304.802 L
436.464 305.285 L
437.58 305.909 L
438.696 306.671 L
439.812 307.566 L
440.928 308.59 L
442.044 309.738 L
443.16 311.002 L
444.276 312.378 L
445.392 313.856 L
446.508 315.431 L
447.624 317.093 L
448.74 318.836 L
449.856 320.65 L
450.972 322.527 L
452.088 324.459 L
453.204 326.436 L
454.32 328.451 L
455.436 330.494 L
456.552 332.557 L
457.668 334.632 L
458.784 336.709 L
459.9 338.782 L
461.016 340.841 L
462.132 342.88 L
463.248 344.89 L
464.364 346.864 L
465.48 348.796 L
466.596 350.678 L
467.712 352.505 L
468.828 354.269 L
469.944 355.966 L
471.06 357.589 L
472.176 359.133 L
473.292 360.594 L
474.408 361.967 L
475.524 363.248 L
476.64 364.432 L
477.756 365.517 L
478.872 366.499 L
479.988 367.374 L
481.104 368.142 L
482.22 368.798 L
483.336 369.342 L
484.452 369.772 L
485.568 370.086 L
486.684 370.284 L
487.8 370.365 L
488.916 370.329 L
490.032 370.175 L
491.148 369.905 L
492.264 369.52 L
493.38 369.019 L
494.496 368.405 L
495.612 367.68 L
496.728 366.846 L
497.844 365.904 L
498.96 364.858 L
500.076 363.711 L
501.192 362.467 L
502.308 361.129 L
503.424 359.701 L
504.54 358.188 L
505.656 356.594 L
506.772 354.925 L
507.888 353.186 L
509.004 351.382 L
510.12 349.52 L
511.236 347.607 L
512.352 345.648 L
513.468 343.651 L
514.584 341.622 L
515.7 339.57 L
516.816 337.501 L
517.932 335.425 L
519.048 333.348 L
520.164 331.28 L
521.28 329.228 LE
1 0 0 C
75.996 48.7075 LS
76.554 49.8878 L
77.112 51.0618 L
77.67 52.2306 L
78.228 53.3943 L
78.786 54.5533 L
79.344 55.7079 L
79.902 56.8583 L
80.46 58.0047 L
81.018 59.1473 L
81.576 60.2862 L
82.134 61.4216 L
82.692 62.5535 L
83.25 63.6822 L
83.808 64.8077 L
84.366 65.9301 L
84.924 67.0496 L
85.482 68.1662 L
86.04 69.2802 L
86.598 70.3915 L
87.156 71.5003 L
87.714 72.6068 L
88.272 73.7109 L
88.83 74.813 L
89.388 75.913 L
89.946 77.0111 L
90.504 78.1074 L
91.062 79.2021 L
91.62 80.2953 L
92.178 81.3871 L
92.736 82.4777 L
93.294 83.5671 L
93.852 84.6556 L
94.41 85.7433 L
94.968 86.8303 L
95.526 87.9167 L
96.084 89.0028 L
96.642 90.0886 L
97.2 91.1742 L
97.758 92.2599 L
98.316 93.3458 L
98.874 94.4319 L
99.432 95.5185 L
99.99 96.6057 L
100.548 97.6936 L
101.106 98.7823 L
101.664 99.8721 L
102.222 100.963 L
102.78 102.055 L
103.338 103.148 L
103.896 104.243 L
104.454 105.34 L
105.012 106.438 L
105.57 107.538 L
106.128 108.64 L
106.686 109.743 L
107.244 110.849 L
107.802 111.958 L
108.36 113.068 L
108.918 114.181 L
109.476 115.296 L
110.034 116.413 L
110.592 117.533 L
111.15 118.656 L
111.708 119.781 L
112.266 120.909 L
112.824 122.04 L
113.382 123.174 L
113.94 124.31 L
114.498 125.449 L
115.056 126.59 L
115.614 127.735 L
116.172 128.882 L
116.73 130.032 L
117.288 131.184 L
117.846 132.339 L
118.404 133.497 L
118.962 134.658 L
119.52 135.821 L
120.078 136.986 L
120.636 138.154 L
121.194 139.324 L
121.752 140.497 L
122.31 141.671 L
122.868 142.848 L
123.426 144.026 L
123.984 145.207 L
124.542 146.389 L
125.1 147.573 L
125.658 148.758 L
126.216 149.944 L
126.774 151.132 L
127.332 152.321 L
127.89 153.511 L
128.448 154.701 L
129.006 155.892 L
129.564 157.083 L
130.122 158.275 L
130.68 159.466 L
131.238 160.658 L
131.796 161.849 L
132.354 163.039 L
132.912 164.229 L
133.47 165.418 L
134.028 166.605 L
134.586 167.791 L
135.144 168.976 L
135.702 170.159 L
136.26 171.339 L
136.818 172.518 L
137.376 173.693 L
137.934 174.866 L
138.492 176.037 L
139.05 177.203 L
139.608 178.367 L
140.166 179.526 L
140.724 180.682 L
141.282 181.834 L
141.84 182.981 L
142.398 184.123 L
142.956 185.261 L
143.514 186.393 L
144.072 187.52 L
144.63 188.641 L
145.188 189.756 L
145.746 190.865 L
146.304 191.968 L
146.862 193.064 L
147.42 194.153 L
147.978 195.235 L
148.536 196.309 L
149.094 197.376 L
149.652 198.435 L
150.21 199.486 L
150.768 200.529 L
151.326 201.563 L
151.884 202.588 L
152.442 203.605 L
153 204.612 L
153.558 205.61 L
154.116 206.598 L
154.674 207.576 L
155.232 208.545 L
155.79 209.503 L
156.348 210.451 L
156.906 211.388 L
157.464 212.315 L
158.022 213.23 L
158.58 214.135 L
159.138 215.028 L
159.696 215.91 L
160.254 216.781 L
160.812 217.639 L
161.37 218.487 L
161.928 219.322 L
162.486 220.145 L
163.044 220.956 L
163.602 221.755 L
164.16 222.541 L
164.718 223.316 L
165.276 224.077 L
165.834 224.827 L
166.392 225.563 L
166.95 226.288 L
167.508 226.999 L
168.066 227.698 L
168.624 228.384 L
169.182 229.058 L
169.74 229.718 L
170.298 230.367 L
170.856 231.002 L
171.414 231.625 L
171.972 232.236 L
172.53 232.834 L
173.088 233.419 L
173.646 233.993 L
174.204 234.554 L
174.762 235.103 L
175.32 235.64 L
175.878 236.165 L
176.436 236.678 L
176.994 237.18 L
177.552 237.67 L
178.11 238.149 L
178.668 238.617 L
179.226 239.074 L
179.784 239.521 L
180.342 239.957 L
180.9 240.383 L
181.458 240.799 L
182.016 241.205 L
182.574 241.602 L
183.132 241.99 L
183.69 242.368 L
184.248 242.739 L
184.806 243.101 L
185.364 243.455 L
185.922 243.801 L
186.48 244.141 L
187.038 244.473 L
187.596 244.799 L
188.154 245.119 L
188.712 245.434 L
189.27 245.743 L
189.828 246.047 L
190.386 246.346 L
190.944 246.642 L
191.502 246.934 L
192.06 247.222 L
192.618 247.508 L
193.176 247.792 L
193.734 248.074 L
194.292 248.354 L
194.85 248.634 L
195.408 248.913 L
195.966 249.193 L
196.524 249.473 L
197.082 249.754 L
197.64 250.036 L
198.198 250.321 L
198.756 250.608 L
199.314 250.899 L
199.872 251.193 L
200.43 251.491 L
200.988 251.793 L
201.546 252.101 L
202.104 252.414 L
202.662 252.734 L
203.22 253.06 L
203.778 253.393 L
204.336 253.733 L
204.894 254.081 L
205.452 254.438 L
206.01 254.804 L
206.568 255.179 L
207.126 255.564 L
207.684 255.959 L
208.242 256.365 L
208.8 256.782 L
209.358 257.21 L
209.916 257.65 L
210.474 258.102 L
211.032 258.566 L
211.59 259.044 L
212.148 259.534 L
212.706 260.038 L
213.264 260.555 L
213.822 261.087 L
214.38 261.632 L
214.938 262.192 L
215.496 262.766 L
216.054 263.355 L
216.612 263.958 L
217.17 264.577 L
217.728 265.21 L
218.286 265.858 L
218.844 266.522 L
219.402 267.201 L
219.96 267.895 L
220.518 268.604 L
221.076 269.328 L
221.634 270.067 L
222.192 270.821 L
222.75 271.589 L
223.308 272.373 L
223.866 273.171 L
224.424 273.984 L
224.982 274.811 L
225.54 275.651 L
226.098 276.506 L
226.656 277.374 L
227.214 278.256 L
227.772 279.15 L
228.33 280.057 L
228.888 280.977 L
229.446 281.908 L
230.004 282.852 L
230.562 283.806 L
231.12 284.771 L
231.678 285.746 L
232.236 286.732 L
232.794 287.726 L
233.352 288.73 L
233.91 289.742 L
234.468 290.762 L
235.026 291.789 L
235.584 292.823 L
236.142 293.863 L
236.7 294.909 L
237.258 295.96 L
237.816 297.015 L
238.374 298.074 L
238.932 299.136 L
239.49 300.201 L
240.048 301.268 L
240.606 302.335 L
241.164 303.404 L
241.722 304.473 L
242.28 305.541 L
242.838 306.607 L
243.396 307.672 L
243.954 308.734 L
244.512 309.793 L
245.07 310.848 L
245.628 311.899 L
246.186 312.945 L
246.744 313.985 L
247.302 315.019 L
247.86 316.046 L
248.418 317.065 L
248.976 318.076 L
249.534 319.079 L
250.092 320.072 L
250.65 321.055 L
251.208 322.027 L
251.766 322.989 L
252.324 323.938 L
252.882 324.875 L
253.44 325.798 L
253.998 326.709 L
254.556 327.604 L
255.114 328.485 L
255.672 329.35 L
256.23 330.198 L
256.788 331.03 L
257.346 331.844 L
257.904 332.64 L
258.462 333.417 L
259.02 334.174 L
259.578 334.911 L
260.136 335.627 L
260.694 336.321 L
261.252 336.993 L
261.81 337.643 L
262.368 338.268 L
262.926 338.869 L
263.484 339.446 L
264.042 339.996 L
264.6 340.521 L
265.158 341.019 L
265.716 341.489 L
266.274 341.932 L
266.832 342.346 L
267.39 342.731 L
267.948 343.086 L
268.506 343.412 L
269.064 343.706 L
269.622 343.97 L
270.18 344.203 L
270.738 344.404 L
271.296 344.573 L
271.854 344.71 L
272.412 344.814 L
272.97 344.885 L
273.528 344.924 L
274.086 344.93 L
274.644 344.902 L
275.202 344.841 L
275.76 344.748 L
276.318 344.621 L
276.876 344.462 L
277.434 344.269 L
277.992 344.044 L
278.55 343.787 L
279.108 343.498 L
279.666 343.177 L
280.224 342.826 L
280.782 342.443 L
281.34 342.03 L
281.898 341.587 L
282.456 341.115 L
283.014 340.615 L
283.572 340.086 L
284.13 339.531 L
284.688 338.949 L
285.246 338.342 L
285.804 337.709 L
286.362 337.053 L
286.92 336.374 L
287.478 335.672 L
288.036 334.95 L
288.594 334.207 L
289.152 333.445 L
289.71 332.665 L
290.268 331.868 L
290.826 331.055 L
291.384 330.227 L
291.942 329.386 L
292.5 328.532 L
293.058 327.666 L
293.616 326.791 L
294.174 325.906 L
294.732 325.014 L
295.29 324.116 L
295.848 323.212 L
296.406 322.304 L
296.964 321.393 L
297.522 320.481 L
298.08 319.568 L
298.638 318.657 L
299.196 317.748 L
299.754 316.843 L
300.312 315.942 L
300.87 315.048 L
301.428 314.161 L
301.986 313.283 L
302.544 312.414 L
303.102 311.557 L
303.66 310.712 L
304.218 309.881 L
304.776 309.064 L
305.334 308.264 L
305.892 307.48 L
306.45 306.715 L
307.008 305.969 L
307.566 305.244 L
308.124 304.54 L
308.682 303.859 L
309.24 303.201 L
309.798 302.568 L
310.356 301.96 L
310.914 301.379 L
311.472 300.826 L
312.03 300.3 L
312.588 299.803 L
313.146 299.337 L
313.704 298.9 L
314.262 298.495 L
314.82 298.122 L
315.378 297.781 L
315.936 297.472 L
316.494 297.198 L
317.052 296.957 L
317.61 296.75 L
318.168 296.578 L
318.726 296.441 L
319.284 296.339 L
319.842 296.273 L
320.4 296.242 L
320.958 296.246 L
321.516 296.286 L
322.074 296.361 L
322.632 296.472 L
323.19 296.618 L
323.748 296.799 L
324.306 297.016 L
324.864 297.266 L
325.422 297.551 L
325.98 297.87 L
326.538 298.223 L
327.096 298.608 L
327.654 299.026 L
328.212 299.476 L
328.77 299.957 L
329.328 300.468 L
329.886 301.01 L
330.444 301.581 L
331.002 302.18 L
331.56 302.808 L
332.118 303.462 L
332.676 304.142 L
333.234 304.847 L
333.792 305.577 L
334.35 306.33 L
334.908 307.105 L
335.466 307.902 L
336.024 308.719 L
336.582 309.556 L
337.14 310.412 L
337.698 311.285 L
338.256 312.174 L
338.814 313.079 L
339.372 313.998 L
339.93 314.93 L
340.488 315.875 L
341.046 316.831 L
341.604 317.797 L
342.162 318.772 L
342.72 319.755 L
343.278 320.745 L
343.836 321.742 L
344.394 322.743 L
344.952 323.747 L
345.51 324.755 L
346.068 325.765 L
346.626 326.775 L
347.184 327.785 L
347.742 328.794 L
348.3 329.801 L
348.858 330.805 L
349.416 331.804 L
349.974 332.799 L
350.532 333.788 L
351.09 334.77 L
351.648 335.744 L
352.206 336.709 L
352.764 337.665 L
353.322 338.611 L
353.88 339.545 L
354.438 340.468 L
354.996 341.378 L
355.554 342.274 L
356.112 343.156 L
356.67 344.023 L
357.228 344.874 L
357.786 345.708 L
358.344 346.526 L
358.902 347.326 L
359.46 348.107 L
360.018 348.869 L
360.576 349.612 L
361.134 350.334 L
361.692 351.036 L
362.25 351.716 L
362.808 352.374 L
363.366 353.01 L
363.924 353.623 L
364.482 354.212 L
365.04 354.778 L
365.598 355.32 L
366.156 355.837 L
366.714 356.329 L
367.272 356.795 L
367.83 357.236 L
368.388 357.651 L
368.946 358.039 L
369.504 358.401 L
370.062 358.735 L
370.62 359.043 L
371.178 359.323 L
371.736 359.576 L
372.294 359.801 L
372.852 359.998 L
373.41 360.167 L
373.968 360.308 L
374.526 360.421 L
375.084 360.505 L
375.642 360.561 L
376.2 360.588 L
376.758 360.587 L
377.316 360.557 L
377.874 360.499 L
378.432 360.413 L
378.99 360.298 L
379.548 360.155 L
380.106 359.983 L
380.664 359.784 L
381.222 359.557 L
381.78 359.302 L
382.338 359.019 L
382.896 358.709 L
383.454 358.372 L
384.012 358.008 L
384.57 357.618 L
385.128 357.201 L
385.686 356.758 L
386.244 356.29 L
386.802 355.796 L
387.36 355.277 L
387.918 354.733 L
388.476 354.165 L
389.034 353.574 L
389.592 352.959 L
390.15 352.321 L
390.708 351.661 L
391.266 350.98 L
391.824 350.276 L
392.382 349.552 L
392.94 348.808 L
393.498 348.044 L
394.056 347.262 L
394.614 346.46 L
395.172 345.641 L
395.73 344.805 L
396.288 343.953 L
396.846 343.085 L
397.404 342.202 L
397.962 341.304 L
398.52 340.393 L
399.078 339.47 L
399.636 338.534 L
400.194 337.588 L
400.752 336.631 L
401.31 335.665 L
401.868 334.69 L
402.426 333.708 L
402.984 332.718 L
403.542 331.723 L
404.1 330.723 L
404.658 329.719 L
405.216 328.712 L
405.774 327.703 L
406.332 326.693 L
406.89 325.683 L
407.448 324.673 L
408.006 323.666 L
408.564 322.661 L
409.122 321.66 L
409.68 320.665 L
410.238 319.675 L
410.796 318.693 L
411.354 317.718 L
411.912 316.753 L
412.47 315.798 L
413.028 314.854 L
413.586 313.923 L
414.144 313.005 L
414.702 312.101 L
415.26 311.213 L
415.818 310.342 L
416.376 309.488 L
416.934 308.653 L
417.492 307.837 L
418.05 307.042 L
418.608 306.268 L
419.166 305.517 L
419.724 304.79 L
420.282 304.087 L
420.84 303.409 L
421.398 302.757 L
421.956 302.133 L
422.514 301.536 L
423.072 300.968 L
423.63 300.429 L
424.188 299.92 L
424.746 299.442 L
425.304 298.996 L
425.862 298.581 L
426.42 298.199 L
426.978 297.851 L
427.536 297.535 L
428.094 297.254 L
428.652 297.008 L
429.21 296.796 L
429.768 296.619 L
430.326 296.478 L
430.884 296.372 L
431.442 296.302 L
432 296.267 L
432.558 296.269 L
433.116 296.306 L
433.674 296.379 L
434.232 296.488 L
434.79 296.632 L
435.348 296.812 L
435.906 297.026 L
436.464 297.276 L
437.022 297.56 L
437.58 297.878 L
438.138 298.229 L
438.696 298.614 L
439.254 299.031 L
439.812 299.48 L
440.37 299.96 L
440.928 300.472 L
441.486 301.013 L
442.044 301.583 L
442.602 302.182 L
443.16 302.809 L
443.718 303.463 L
444.276 304.143 L
444.834 304.848 L
445.392 305.578 L
445.95 306.33 L
446.508 307.106 L
447.066 307.903 L
447.624 308.72 L
448.182 309.557 L
448.74 310.412 L
449.298 311.285 L
449.856 312.174 L
450.414 313.079 L
450.972 313.998 L
451.53 314.93 L
452.088 315.875 L
452.646 316.831 L
453.204 317.797 L
453.762 318.772 L
454.32 319.755 L
454.878 320.745 L
455.436 321.741 L
455.994 322.742 L
456.552 323.747 L
457.11 324.755 L
457.668 325.765 L
458.226 326.775 L
458.784 327.785 L
459.342 328.794 L
459.9 329.801 L
460.458 330.805 L
461.016 331.804 L
461.574 332.799 L
462.132 333.788 L
462.69 334.77 L
463.248 335.744 L
463.806 336.709 L
464.364 337.665 L
464.922 338.611 L
465.48 339.545 L
466.038 340.468 L
466.596 341.378 L
467.154 342.274 L
467.712 343.156 L
468.27 344.023 L
468.828 344.874 L
469.386 345.708 L
469.944 346.526 L
470.502 347.326 L
471.06 348.107 L
471.618 348.869 L
472.176 349.612 L
472.734 350.334 L
473.292 351.036 L
473.85 351.716 L
474.408 352.374 L
474.966 353.01 L
475.524 353.623 L
476.082 354.212 L
476.64 354.778 L
477.198 355.32 L
477.756 355.837 L
478.314 356.329 L
478.872 356.795 L
479.43 357.236 L
479.988 357.651 L
480.546 358.039 L
481.104 358.401 L
481.662 358.735 L
482.22 359.043 L
482.778 359.323 L
483.336 359.576 L
483.894 359.801 L
484.452 359.998 L
485.01 360.167 L
485.568 360.308 L
486.126 360.421 L
486.684 360.505 L
487.242 360.561 L
487.8 360.588 L
488.358 360.587 L
488.916 360.557 L
489.474 360.499 L
490.032 360.413 L
490.59 360.298 L
491.148 360.155 L
491.706 359.983 L
492.264 359.784 L
492.822 359.557 L
493.38 359.302 L
493.938 359.019 L
494.496 358.709 L
495.054 358.372 L
495.612 358.008 L
496.17 357.618 L
496.728 357.201 L
497.286 356.758 L
497.844 356.29 L
498.402 355.796 L
498.96 355.277 L
499.518 354.733 L
500.076 354.165 L
500.634 353.574 L
501.192 352.959 L
501.75 352.321 L
502.308 351.661 L
502.866 350.98 L
503.424 350.276 L
503.982 349.552 L
504.54 348.808 L
505.098 348.044 L
505.656 347.262 L
506.214 346.46 L
506.772 345.641 L
507.33 344.805 L
507.888 343.953 L
508.446 343.085 L
509.004 342.202 L
509.562 341.304 L
510.12 340.393 L
510.678 339.47 L
511.236 338.534 L
511.794 337.588 L
512.352 336.631 L
512.91 335.665 L
513.468 334.69 L
514.026 333.708 L
514.584 332.718 L
515.142 331.723 L
515.7 330.723 L
516.258 329.719 L
516.816 328.712 L
517.374 327.703 L
517.932 326.693 L
518.49 325.683 L
519.048 324.673 L
519.606 323.666 L
520.164 322.661 L
520.722 321.66 L
521.28 320.665 LE
0 1 0 C
75.438 51.9927 LS
75.996 52.3751 L
76.554 52.9783 L
77.112 53.7429 L
77.67 54.614 L
78.228 55.5549 L
78.786 56.542 L
79.344 57.5601 L
79.902 58.5994 L
80.46 59.6534 L
81.018 60.7176 L
81.576 61.7888 L
82.134 62.8648 L
82.692 63.9441 L
83.25 65.0253 L
83.808 66.1077 L
84.366 67.1905 L
84.924 68.2733 L
85.482 69.3557 L
86.04 70.4374 L
86.598 71.5182 L
87.156 72.598 L
87.714 73.6766 L
88.272 74.7541 L
88.83 75.8303 L
89.388 76.9053 L
89.946 77.979 L
90.504 79.0517 L
91.062 80.1232 L
91.62 81.1937 L
92.178 82.2632 L
92.736 83.3319 L
93.294 84.3998 L
93.852 85.4671 L
94.41 86.5338 L
94.968 87.6001 L
95.526 88.6661 L
96.084 89.732 L
96.642 90.7978 L
97.2 91.8637 L
97.758 92.9298 L
98.316 93.9963 L
98.874 95.0633 L
99.432 96.1309 L
99.99 97.1993 L
100.548 98.2687 L
101.106 99.339 L
101.664 100.411 L
102.222 101.483 L
102.78 102.558 L
103.338 103.634 L
103.896 104.711 L
104.454 105.791 L
105.012 106.872 L
105.57 107.956 L
106.128 109.041 L
106.686 110.129 L
107.244 111.219 L
107.802 112.312 L
108.36 113.407 L
108.918 114.505 L
109.476 115.605 L
110.034 116.709 L
110.592 117.815 L
111.15 118.924 L
111.708 120.036 L
112.266 121.151 L
112.824 122.269 L
113.382 123.39 L
113.94 124.514 L
114.498 125.642 L
115.056 126.772 L
115.614 127.906 L
116.172 129.043 L
116.73 130.182 L
117.288 131.325 L
117.846 132.471 L
118.404 133.62 L
118.962 134.772 L
119.52 135.927 L
120.078 137.085 L
120.636 138.246 L
121.194 139.409 L
121.752 140.575 L
122.31 141.744 L
122.868 142.915 L
123.426 144.088 L
123.984 145.264 L
124.542 146.442 L
125.1 147.622 L
125.658 148.804 L
126.216 149.987 L
126.774 151.172 L
127.332 152.359 L
127.89 153.547 L
128.448 154.735 L
129.006 155.925 L
129.564 157.116 L
130.122 158.307 L
130.68 159.499 L
131.238 160.691 L
131.796 161.883 L
132.354 163.075 L
132.912 164.266 L
133.47 165.457 L
134.028 166.647 L
134.586 167.835 L
135.144 169.023 L
135.702 170.209 L
136.26 171.393 L
136.818 172.576 L
137.376 173.756 L
137.934 174.934 L
138.492 176.109 L
139.05 177.281 L
139.608 178.45 L
140.166 179.615 L
140.724 180.777 L
141.282 181.935 L
141.84 183.088 L
142.398 184.237 L
142.956 185.382 L
143.514 186.521 L
144.072 187.655 L
144.63 188.784 L
145.188 189.907 L
145.746 191.024 L
146.304 192.135 L
146.862 193.239 L
147.42 194.337 L
147.978 195.427 L
148.536 196.511 L
149.094 197.586 L
149.652 198.654 L
150.21 199.715 L
150.768 200.766 L
151.326 201.81 L
151.884 202.844 L
152.442 203.87 L
153 204.887 L
153.558 205.894 L
154.116 206.892 L
154.674 207.88 L
155.232 208.858 L
155.79 209.825 L
156.348 210.783 L
156.906 211.729 L
157.464 212.665 L
158.022 213.59 L
158.58 214.504 L
159.138 215.407 L
159.696 216.298 L
160.254 217.177 L
160.812 218.045 L
161.37 218.901 L
161.928 219.745 L
162.486 220.577 L
163.044 221.396 L
163.602 222.203 L
164.16 222.998 L
164.718 223.78 L
165.276 224.55 L
165.834 225.307 L
166.392 226.051 L
166.95 226.782 L
167.508 227.501 L
168.066 228.206 L
168.624 228.899 L
169.182 229.579 L
169.74 230.245 L
170.298 230.899 L
170.856 231.54 L
171.414 232.168 L
171.972 232.784 L
172.53 233.386 L
173.088 233.976 L
173.646 234.553 L
174.204 235.118 L
174.762 235.67 L
175.32 236.21 L
175.878 236.738 L
176.436 237.253 L
176.994 237.757 L
177.552 238.249 L
178.11 238.729 L
178.668 239.198 L
179.226 239.655 L
179.784 240.101 L
180.342 240.537 L
180.9 240.962 L
181.458 241.377 L
182.016 241.781 L
182.574 242.176 L
183.132 242.561 L
183.69 242.937 L
184.248 243.304 L
184.806 243.662 L
185.364 244.012 L
185.922 244.354 L
186.48 244.688 L
187.038 245.015 L
187.596 245.335 L
188.154 245.648 L
188.712 245.956 L
189.27 246.257 L
189.828 246.553 L
190.386 246.845 L
190.944 247.131 L
191.502 247.414 L
192.06 247.693 L
192.618 247.969 L
193.176 248.242 L
193.734 248.513 L
194.292 248.783 L
194.85 249.05 L
195.408 249.318 L
195.966 249.584 L
196.524 249.852 L
197.082 250.119 L
197.64 250.388 L
198.198 250.659 L
198.756 250.932 L
199.314 251.207 L
199.872 251.486 L
200.43 251.769 L
200.988 252.056 L
201.546 252.347 L
202.104 252.644 L
202.662 252.947 L
203.22 253.256 L
203.778 253.571 L
204.336 253.894 L
204.894 254.225 L
205.452 254.564 L
206.01 254.912 L
206.568 255.269 L
207.126 255.635 L
207.684 256.012 L
208.242 256.399 L
208.8 256.797 L
209.358 257.206 L
209.916 257.628 L
210.474 258.061 L
211.032 258.506 L
211.59 258.965 L
212.148 259.436 L
212.706 259.921 L
213.264 260.42 L
213.822 260.932 L
214.38 261.459 L
214.938 262 L
215.496 262.556 L
216.054 263.127 L
216.612 263.712 L
217.17 264.313 L
217.728 264.928 L
218.286 265.559 L
218.844 266.206 L
219.402 266.867 L
219.96 267.545 L
220.518 268.237 L
221.076 268.945 L
221.634 269.668 L
222.192 270.407 L
222.75 271.161 L
223.308 271.93 L
223.866 272.714 L
224.424 273.512 L
224.982 274.326 L
225.54 275.154 L
226.098 275.996 L
226.656 276.852 L
227.214 277.722 L
227.772 278.605 L
228.33 279.501 L
228.888 280.411 L
229.446 281.332 L
230.004 282.266 L
230.562 283.212 L
231.12 284.169 L
231.678 285.137 L
232.236 286.115 L
232.794 287.103 L
233.352 288.101 L
233.91 289.107 L
234.468 290.122 L
235.026 291.145 L
235.584 292.175 L
236.142 293.212 L
236.7 294.254 L
237.258 295.303 L
237.816 296.356 L
238.374 297.414 L
238.932 298.475 L
239.49 299.539 L
240.048 300.606 L
240.606 301.675 L
241.164 302.744 L
241.722 303.814 L
242.28 304.884 L
242.838 305.953 L
243.396 307.021 L
243.954 308.086 L
244.512 309.149 L
245.07 310.209 L
245.628 311.264 L
246.186 312.315 L
246.744 313.361 L
247.302 314.4 L
247.86 315.433 L
248.418 316.459 L
248.976 317.477 L
249.534 318.487 L
250.092 319.488 L
250.65 320.479 L
251.208 321.46 L
251.766 322.43 L
252.324 323.388 L
252.882 324.334 L
253.44 325.267 L
253.998 326.187 L
254.556 327.092 L
255.114 327.983 L
255.672 328.859 L
256.23 329.718 L
256.788 330.56 L
257.346 331.385 L
257.904 332.192 L
258.462 332.98 L
259.02 333.749 L
259.578 334.497 L
260.136 335.225 L
260.694 335.931 L
261.252 336.614 L
261.81 337.275 L
262.368 337.912 L
262.926 338.525 L
263.484 339.113 L
264.042 339.675 L
264.6 340.211 L
265.158 340.72 L
265.716 341.202 L
266.274 341.656 L
266.832 342.081 L
267.39 342.476 L
267.948 342.842 L
268.506 343.178 L
269.064 343.483 L
269.622 343.757 L
270.18 344 L
270.738 344.211 L
271.296 344.389 L
271.854 344.535 L
272.412 344.648 L
272.97 344.728 L
273.528 344.775 L
274.086 344.789 L
274.644 344.769 L
275.202 344.716 L
275.76 344.63 L
276.318 344.51 L
276.876 344.357 L
277.434 344.171 L
277.992 343.953 L
278.55 343.701 L
279.108 343.418 L
279.666 343.103 L
280.224 342.756 L
280.782 342.378 L
281.34 341.97 L
281.898 341.531 L
282.456 341.064 L
283.014 340.567 L
283.572 340.043 L
284.13 339.491 L
284.688 338.912 L
285.246 338.308 L
285.804 337.678 L
286.362 337.025 L
286.92 336.348 L
287.478 335.649 L
288.036 334.928 L
288.594 334.188 L
289.152 333.428 L
289.71 332.649 L
290.268 331.854 L
290.826 331.043 L
291.384 330.216 L
291.942 329.376 L
292.5 328.523 L
293.058 327.659 L
293.616 326.784 L
294.174 325.9 L
294.732 325.009 L
295.29 324.111 L
295.848 323.208 L
296.406 322.3 L
296.964 321.39 L
297.522 320.479 L
298.08 319.567 L
298.638 318.656 L
299.196 317.747 L
299.754 316.842 L
300.312 315.942 L
300.87 315.048 L
301.428 314.161 L
301.986 313.283 L
302.544 312.414 L
303.102 311.557 L
303.66 310.713 L
304.218 309.881 L
304.776 309.065 L
305.334 308.264 L
305.892 307.481 L
306.45 306.716 L
307.008 305.97 L
307.566 305.244 L
308.124 304.541 L
308.682 303.859 L
309.24 303.202 L
309.798 302.569 L
310.356 301.961 L
310.914 301.38 L
311.472 300.826 L
312.03 300.301 L
312.588 299.804 L
313.146 299.337 L
313.704 298.901 L
314.262 298.495 L
314.82 298.122 L
315.378 297.781 L
315.936 297.473 L
316.494 297.198 L
317.052 296.957 L
317.61 296.751 L
318.168 296.579 L
318.726 296.442 L
319.284 296.34 L
319.842 296.273 L
320.4 296.242 L
320.958 296.246 L
321.516 296.286 L
322.074 296.361 L
322.632 296.472 L
323.19 296.618 L
323.748 296.799 L
324.306 297.016 L
324.864 297.266 L
325.422 297.551 L
325.98 297.87 L
326.538 298.223 L
327.096 298.608 L
327.654 299.026 L
328.212 299.476 L
328.77 299.957 L
329.328 300.468 L
329.886 301.01 L
330.444 301.581 L
331.002 302.18 L
331.56 302.808 L
332.118 303.462 L
332.676 304.142 L
333.234 304.847 L
333.792 305.577 L
334.35 306.33 L
334.908 307.105 L
335.466 307.902 L
336.024 308.719 L
336.582 309.556 L
337.14 310.412 L
337.698 311.285 L
338.256 312.174 L
338.814 313.079 L
339.372 313.998 L
339.93 314.93 L
340.488 315.875 L
341.046 316.831 L
341.604 317.797 L
342.162 318.772 L
342.72 319.755 L
343.278 320.745 L
343.836 321.742 L
344.394 322.743 L
344.952 323.747 L
345.51 324.755 L
346.068 325.765 L
346.626 326.775 L
347.184 327.785 L
347.742 328.794 L
348.3 329.801 L
348.858 330.805 L
349.416 331.804 L
349.974 332.799 L
350.532 333.788 L
351.09 334.77 L
351.648 335.744 L
352.206 336.709 L
352.764 337.665 L
353.322 338.611 L
353.88 339.545 L
354.438 340.468 L
354.996 341.378 L
355.554 342.274 L
356.112 343.156 L
356.67 344.023 L
357.228 344.874 L
357.786 345.708 L
358.344 346.526 L
358.902 347.326 L
359.46 348.107 L
360.018 348.869 L
360.576 349.612 L
361.134 350.334 L
361.692 351.036 L
362.25 351.716 L
362.808 352.374 L
363.366 353.01 L
363.924 353.623 L
364.482 354.212 L
365.04 354.778 L
365.598 355.32 L
366.156 355.837 L
366.714 356.329 L
367.272 356.795 L
367.83 357.236 L
368.388 357.651 L
368.946 358.039 L
369.504 358.401 L
370.062 358.735 L
370.62 359.043 L
371.178 359.323 L
371.736 359.576 L
372.294 359.801 L
372.852 359.998 L
373.41 360.167 L
373.968 360.308 L
374.526 360.421 L
375.084 360.505 L
375.642 360.561 L
376.2 360.588 L
376.758 360.587 L
377.316 360.557 L
377.874 360.499 L
378.432 360.413 L
378.99 360.298 L
379.548 360.155 L
380.106 359.983 L
380.664 359.784 L
381.222 359.557 L
381.78 359.302 L
382.338 359.019 L
382.896 358.709 L
383.454 358.372 L
384.012 358.008 L
384.57 357.618 L
385.128 357.201 L
385.686 356.758 L
386.244 356.29 L
386.802 355.796 L
387.36 355.277 L
387.918 354.733 L
388.476 354.165 L
389.034 353.574 L
389.592 352.959 L
390.15 352.321 L
390.708 351.661 L
391.266 350.98 L
391.824 350.276 L
392.382 349.552 L
392.94 348.808 L
393.498 348.044 L
394.056 347.262 L
394.614 346.46 L
395.172 345.641 L
395.73 344.805 L
396.288 343.953 L
396.846 343.085 L
397.404 342.202 L
397.962 341.304 L
398.52 340.393 L
399.078 339.47 L
399.636 338.534 L
400.194 337.588 L
400.752 336.631 L
401.31 335.665 L
401.868 334.69 L
402.426 333.708 L
402.984 332.718 L
403.542 331.723 L
404.1 330.723 L
404.658 329.719 L
405.216 328.712 L
405.774 327.703 L
406.332 326.693 L
406.89 325.683 L
407.448 324.673 L
408.006 323.666 L
408.564 322.661 L
409.122 321.66 L
409.68 320.665 L
410.238 319.675 L
410.796 318.693 L
411.354 317.718 L
411.912 316.753 L
412.47 315.798 L
413.028 314.854 L
413.586 313.923 L
414.144 313.005 L
414.702 312.101 L
415.26 311.213 L
415.818 310.342 L
416.376 309.488 L
416.934 308.653 L
417.492 307.837 L
418.05 307.042 L
418.608 306.268 L
419.166 305.517 L
419.724 304.79 L
420.282 304.087 L
420.84 303.409 L
421.398 302.757 L
421.956 302.133 L
422.514 301.536 L
423.072 300.968 L
423.63 300.429 L
424.188 299.92 L
424.746 299.442 L
425.304 298.996 L
425.862 298.581 L
426.42 298.199 L
426.978 297.851 L
427.536 297.535 L
428.094 297.254 L
428.652 297.008 L
429.21 296.796 L
429.768 296.619 L
430.326 296.478 L
430.884 296.372 L
431.442 296.302 L
432 296.267 L
432.558 296.269 L
433.116 296.306 L
433.674 296.379 L
434.232 296.488 L
434.79 296.632 L
435.348 296.812 L
435.906 297.026 L
436.464 297.276 L
437.022 297.56 L
437.58 297.878 L
438.138 298.229 L
438.696 298.614 L
439.254 299.031 L
439.812 299.48 L
440.37 299.96 L
440.928 300.472 L
441.486 301.013 L
442.044 301.583 L
442.602 302.182 L
443.16 302.809 L
443.718 303.463 L
444.276 304.143 L
444.834 304.848 L
445.392 305.578 L
445.95 306.33 L
446.508 307.106 L
447.066 307.903 L
447.624 308.72 L
448.182 309.557 L
448.74 310.412 L
449.298 311.285 L
449.856 312.174 L
450.414 313.079 L
450.972 313.998 L
451.53 314.93 L
452.088 315.875 L
452.646 316.831 L
453.204 317.797 L
453.762 318.772 L
454.32 319.755 L
454.878 320.745 L
455.436 321.741 L
455.994 322.742 L
456.552 323.747 L
457.11 324.755 L
457.668 325.765 L
458.226 326.775 L
458.784 327.785 L
459.342 328.794 L
459.9 329.801 L
460.458 330.805 L
461.016 331.804 L
461.574 332.799 L
462.132 333.788 L
462.69 334.77 L
463.248 335.744 L
463.806 336.709 L
464.364 337.665 L
464.922 338.611 L
465.48 339.545 L
466.038 340.468 L
466.596 341.378 L
467.154 342.274 L
467.712 343.156 L
468.27 344.023 L
468.828 344.874 L
469.386 345.708 L
469.944 346.526 L
470.502 347.326 L
471.06 348.107 L
471.618 348.869 L
472.176 349.612 L
472.734 350.334 L
473.292 351.036 L
473.85 351.716 L
474.408 352.374 L
474.966 353.01 L
475.524 353.623 L
476.082 354.212 L
476.64 354.778 L
477.198 355.32 L
477.756 355.837 L
478.314 356.329 L
478.872 356.795 L
479.43 357.236 L
479.988 357.651 L
480.546 358.039 L
481.104 358.401 L
481.662 358.735 L
482.22 359.043 L
482.778 359.323 L
483.336 359.576 L
483.894 359.801 L
484.452 359.998 L
485.01 360.167 L
485.568 360.308 L
486.126 360.421 L
486.684 360.505 L
487.242 360.561 L
487.8 360.588 L
488.358 360.587 L
488.916 360.557 L
489.474 360.499 L
490.032 360.413 L
490.59 360.298 L
491.148 360.155 L
491.706 359.983 L
492.264 359.784 L
492.822 359.557 L
493.38 359.302 L
493.938 359.019 L
494.496 358.709 L
495.054 358.372 L
495.612 358.008 L
496.17 357.618 L
496.728 357.201 L
497.286 356.758 L
497.844 356.29 L
498.402 355.796 L
498.96 355.277 L
499.518 354.733 L
500.076 354.165 L
500.634 353.574 L
501.192 352.959 L
501.75 352.321 L
502.308 351.661 L
502.866 350.98 L
503.424 350.276 L
503.982 349.552 L
504.54 348.808 L
505.098 348.044 L
505.656 347.262 L
506.214 346.46 L
506.772 345.641 L
507.33 344.805 L
507.888 343.953 L
508.446 343.085 L
509.004 342.202 L
509.562 341.304 L
510.12 340.393 L
510.678 339.47 L
511.236 338.534 L
511.794 337.588 L
512.352 336.631 L
512.91 335.665 L
513.468 334.69 L
514.026 333.708 L
514.584 332.718 L
515.142 331.723 L
515.7 330.723 L
516.258 329.719 L
516.816 328.712 L
517.374 327.703 L
517.932 326.693 L
518.49 325.683 L
519.048 324.673 L
519.606 323.666 L
520.164 322.661 L
520.722 321.66 L
521.28 320.665 LE
1 0 1 C
75.438 48.6745 LS
75.996 49.8572 L
76.554 51.0336 L
77.112 52.2043 L
77.67 53.3696 L
78.228 54.5299 L
78.786 55.6855 L
79.344 56.8366 L
79.902 57.9836 L
80.46 59.1264 L
81.018 60.2655 L
81.576 61.4009 L
82.134 62.5327 L
82.692 63.6611 L
83.25 64.7861 L
83.808 65.9081 L
84.366 67.0269 L
84.924 68.1428 L
85.482 69.2559 L
86.04 70.3662 L
86.598 71.474 L
87.156 72.5793 L
87.714 73.6822 L
88.272 74.7828 L
88.83 75.8813 L
89.388 76.9779 L
89.946 78.0725 L
90.504 79.1654 L
91.062 80.2567 L
91.62 81.3465 L
92.178 82.435 L
92.736 83.5223 L
93.294 84.6085 L
93.852 85.6938 L
94.41 86.7783 L
94.968 87.8621 L
95.526 88.9455 L
96.084 90.0285 L
96.642 91.1113 L
97.2 92.194 L
97.758 93.2767 L
98.316 94.3597 L
98.874 95.4431 L
99.432 96.5269 L
99.99 97.6114 L
100.548 98.6967 L
101.106 99.7828 L
101.664 100.87 L
102.222 101.958 L
102.78 103.048 L
103.338 104.139 L
103.896 105.232 L
104.454 106.326 L
105.012 107.422 L
105.57 108.52 L
106.128 109.619 L
106.686 110.721 L
107.244 111.825 L
107.802 112.931 L
108.36 114.04 L
108.918 115.151 L
109.476 116.264 L
110.034 117.38 L
110.592 118.498 L
111.15 119.62 L
111.708 120.743 L
112.266 121.87 L
112.824 122.999 L
113.382 124.131 L
113.94 125.266 L
114.498 126.404 L
115.056 127.544 L
115.614 128.687 L
116.172 129.833 L
116.73 130.982 L
117.288 132.133 L
117.846 133.288 L
118.404 134.444 L
118.962 135.604 L
119.52 136.766 L
120.078 137.931 L
120.636 139.098 L
121.194 140.267 L
121.752 141.439 L
122.31 142.612 L
122.868 143.788 L
123.426 144.966 L
123.984 146.146 L
124.542 147.327 L
125.1 148.51 L
125.658 149.695 L
126.216 150.881 L
126.774 152.068 L
127.332 153.256 L
127.89 154.445 L
128.448 155.635 L
129.006 156.826 L
129.564 158.016 L
130.122 159.207 L
130.68 160.398 L
131.238 161.589 L
131.796 162.78 L
132.354 163.97 L
132.912 165.159 L
133.47 166.347 L
134.028 167.534 L
134.586 168.72 L
135.144 169.904 L
135.702 171.086 L
136.26 172.266 L
136.818 173.443 L
137.376 174.618 L
137.934 175.791 L
138.492 176.96 L
139.05 178.126 L
139.608 179.289 L
140.166 180.448 L
140.724 181.603 L
141.282 182.753 L
141.84 183.9 L
142.398 185.041 L
142.956 186.178 L
143.514 187.309 L
144.072 188.435 L
144.63 189.555 L
145.188 190.669 L
145.746 191.777 L
146.304 192.878 L
146.862 193.973 L
147.42 195.061 L
147.978 196.141 L
148.536 197.214 L
149.094 198.28 L
149.652 199.337 L
150.21 200.387 L
150.768 201.428 L
151.326 202.46 L
151.884 203.484 L
152.442 204.499 L
153 205.504 L
153.558 206.5 L
154.116 207.486 L
154.674 208.463 L
155.232 209.429 L
155.79 210.385 L
156.348 211.331 L
156.906 212.266 L
157.464 213.19 L
158.022 214.103 L
158.58 215.006 L
159.138 215.897 L
159.696 216.776 L
160.254 217.644 L
160.812 218.5 L
161.37 219.344 L
161.928 220.177 L
162.486 220.997 L
163.044 221.805 L
163.602 222.601 L
164.16 223.385 L
164.718 224.156 L
165.276 224.915 L
165.834 225.661 L
166.392 226.394 L
166.95 227.115 L
167.508 227.823 L
168.066 228.518 L
168.624 229.201 L
169.182 229.871 L
169.74 230.528 L
170.298 231.173 L
170.856 231.804 L
171.414 232.424 L
171.972 233.03 L
172.53 233.624 L
173.088 234.206 L
173.646 234.775 L
174.204 235.332 L
174.762 235.877 L
175.32 236.41 L
175.878 236.931 L
176.436 237.44 L
176.994 237.937 L
177.552 238.423 L
178.11 238.898 L
178.668 239.361 L
179.226 239.814 L
179.784 240.256 L
180.342 240.687 L
180.9 241.109 L
181.458 241.52 L
182.016 241.921 L
182.574 242.313 L
183.132 242.696 L
183.69 243.07 L
184.248 243.436 L
184.806 243.793 L
185.364 244.143 L
185.922 244.484 L
186.48 244.819 L
187.038 245.146 L
187.596 245.467 L
188.154 245.783 L
188.712 246.092 L
189.27 246.396 L
189.828 246.695 L
190.386 246.989 L
190.944 247.28 L
191.502 247.567 L
192.06 247.851 L
192.618 248.132 L
193.176 248.41 L
193.734 248.687 L
194.292 248.963 L
194.85 249.238 L
195.408 249.512 L
195.966 249.787 L
196.524 250.062 L
197.082 250.338 L
197.64 250.616 L
198.198 250.896 L
198.756 251.178 L
199.314 251.464 L
199.872 251.753 L
200.43 252.047 L
200.988 252.345 L
201.546 252.648 L
202.104 252.957 L
202.662 253.272 L
203.22 253.593 L
203.778 253.922 L
204.336 254.258 L
204.894 254.602 L
205.452 254.955 L
206.01 255.316 L
206.568 255.687 L
207.126 256.068 L
207.684 256.46 L
208.242 256.862 L
208.8 257.275 L
209.358 257.699 L
209.916 258.135 L
210.474 258.584 L
211.032 259.045 L
211.59 259.519 L
212.148 260.006 L
212.706 260.507 L
213.264 261.021 L
213.822 261.549 L
214.38 262.092 L
214.938 262.649 L
215.496 263.22 L
216.054 263.806 L
216.612 264.407 L
217.17 265.023 L
217.728 265.654 L
218.286 266.3 L
218.844 266.961 L
219.402 267.637 L
219.96 268.329 L
220.518 269.036 L
221.076 269.758 L
221.634 270.495 L
222.192 271.247 L
222.75 272.014 L
223.308 272.796 L
223.866 273.593 L
224.424 274.404 L
224.982 275.229 L
225.54 276.069 L
226.098 276.922 L
226.656 277.789 L
227.214 278.669 L
227.772 279.563 L
228.33 280.469 L
228.888 281.388 L
229.446 282.318 L
230.004 283.261 L
230.562 284.214 L
231.12 285.178 L
231.678 286.153 L
232.236 287.138 L
232.794 288.132 L
233.352 289.135 L
233.91 290.147 L
234.468 291.166 L
235.026 292.193 L
235.584 293.227 L
236.142 294.266 L
236.7 295.312 L
237.258 296.362 L
237.816 297.417 L
238.374 298.476 L
238.932 299.538 L
239.49 300.602 L
240.048 301.668 L
240.606 302.736 L
241.164 303.804 L
241.722 304.872 L
242.28 305.94 L
242.838 307.006 L
243.396 308.07 L
243.954 309.132 L
244.512 310.191 L
245.07 311.246 L
245.628 312.296 L
246.186 313.341 L
246.744 314.381 L
247.302 315.414 L
247.86 316.441 L
248.418 317.46 L
248.976 318.47 L
249.534 319.472 L
250.092 320.464 L
250.65 321.447 L
251.208 322.419 L
251.766 323.379 L
252.324 324.328 L
252.882 325.263 L
253.44 326.186 L
253.998 327.095 L
254.556 327.99 L
255.114 328.869 L
255.672 329.733 L
256.23 330.58 L
256.788 331.41 L
257.346 332.222 L
257.904 333.016 L
258.462 333.791 L
259.02 334.546 L
259.578 335.281 L
260.136 335.994 L
260.694 336.686 L
261.252 337.356 L
261.81 338.002 L
262.368 338.624 L
262.926 339.222 L
263.484 339.795 L
264.042 340.342 L
264.6 340.863 L
265.158 341.357 L
265.716 341.823 L
266.274 342.262 L
266.832 342.671 L
267.39 343.051 L
267.948 343.402 L
268.506 343.722 L
269.064 344.012 L
269.622 344.271 L
270.18 344.498 L
270.738 344.693 L
271.296 344.856 L
271.854 344.987 L
272.412 345.085 L
272.97 345.151 L
273.528 345.183 L
274.086 345.183 L
274.644 345.149 L
275.202 345.082 L
275.76 344.982 L
276.318 344.849 L
276.876 344.683 L
277.434 344.484 L
277.992 344.252 L
278.55 343.989 L
279.108 343.693 L
279.666 343.366 L
280.224 343.008 L
280.782 342.619 L
281.34 342.199 L
281.898 341.75 L
282.456 341.272 L
283.014 340.766 L
283.572 340.232 L
284.13 339.67 L
284.688 339.083 L
285.246 338.47 L
285.804 337.832 L
286.362 337.17 L
286.92 336.486 L
287.478 335.779 L
288.036 335.051 L
288.594 334.304 L
289.152 333.537 L
289.71 332.753 L
290.268 331.951 L
290.826 331.134 L
291.384 330.302 L
291.942 329.456 L
292.5 328.599 L
293.058 327.73 L
293.616 326.85 L
294.174 325.963 L
294.732 325.067 L
295.29 324.165 L
295.848 323.258 L
296.406 322.348 L
296.964 321.434 L
297.522 320.52 L
298.08 319.605 L
298.638 318.691 L
299.196 317.78 L
299.754 316.872 L
300.312 315.97 L
300.87 315.074 L
301.428 314.185 L
301.986 313.305 L
302.544 312.435 L
303.102 311.576 L
303.66 310.73 L
304.218 309.897 L
304.776 309.08 L
305.334 308.278 L
305.892 307.493 L
306.45 306.727 L
307.008 305.98 L
307.566 305.254 L
308.124 304.549 L
308.682 303.867 L
309.24 303.209 L
309.798 302.575 L
310.356 301.967 L
310.914 301.385 L
311.472 300.831 L
312.03 300.305 L
312.588 299.808 L
313.146 299.341 L
313.704 298.904 L
314.262 298.498 L
314.82 298.125 L
315.378 297.783 L
315.936 297.475 L
316.494 297.2 L
317.052 296.959 L
317.61 296.752 L
318.168 296.58 L
318.726 296.443 L
319.284 296.341 L
319.842 296.274 L
320.4 296.243 L
320.958 296.247 L
321.516 296.287 L
322.074 296.362 L
322.632 296.473 L
323.19 296.619 L
323.748 296.8 L
324.306 297.016 L
324.864 297.267 L
325.422 297.552 L
325.98 297.871 L
326.538 298.223 L
327.096 298.608 L
327.654 299.026 L
328.212 299.476 L
328.77 299.957 L
329.328 300.469 L
329.886 301.01 L
330.444 301.581 L
331.002 302.181 L
331.56 302.808 L
332.118 303.462 L
332.676 304.142 L
333.234 304.847 L
333.792 305.577 L
334.35 306.33 L
334.908 307.105 L
335.466 307.902 L
336.024 308.719 L
336.582 309.556 L
337.14 310.412 L
337.698 311.285 L
338.256 312.174 L
338.814 313.079 L
339.372 313.998 L
339.93 314.93 L
340.488 315.875 L
341.046 316.831 L
341.604 317.797 L
342.162 318.772 L
342.72 319.755 L
343.278 320.745 L
343.836 321.742 L
344.394 322.743 L
344.952 323.747 L
345.51 324.755 L
346.068 325.765 L
346.626 326.775 L
347.184 327.785 L
347.742 328.794 L
348.3 329.801 L
348.858 330.805 L
349.416 331.804 L
349.974 332.799 L
350.532 333.788 L
351.09 334.77 L
351.648 335.744 L
352.206 336.709 L
352.764 337.665 L
353.322 338.611 L
353.88 339.545 L
354.438 340.468 L
354.996 341.378 L
355.554 342.274 L
356.112 343.156 L
356.67 344.023 L
357.228 344.874 L
357.786 345.708 L
358.344 346.526 L
358.902 347.326 L
359.46 348.107 L
360.018 348.869 L
360.576 349.612 L
361.134 350.334 L
361.692 351.036 L
362.25 351.716 L
362.808 352.374 L
363.366 353.01 L
363.924 353.623 L
364.482 354.212 L
365.04 354.778 L
365.598 355.32 L
366.156 355.837 L
366.714 356.329 L
367.272 356.795 L
367.83 357.236 L
368.388 357.651 L
368.946 358.039 L
369.504 358.401 L
370.062 358.735 L
370.62 359.043 L
371.178 359.323 L
371.736 359.576 L
372.294 359.801 L
372.852 359.998 L
373.41 360.167 L
373.968 360.308 L
374.526 360.421 L
375.084 360.505 L
375.642 360.561 L
376.2 360.588 L
376.758 360.587 L
377.316 360.557 L
377.874 360.499 L
378.432 360.413 L
378.99 360.298 L
379.548 360.155 L
380.106 359.983 L
380.664 359.784 L
381.222 359.557 L
381.78 359.302 L
382.338 359.019 L
382.896 358.709 L
383.454 358.372 L
384.012 358.008 L
384.57 357.618 L
385.128 357.201 L
385.686 356.758 L
386.244 356.29 L
386.802 355.796 L
387.36 355.277 L
387.918 354.733 L
388.476 354.165 L
389.034 353.574 L
389.592 352.959 L
390.15 352.321 L
390.708 351.661 L
391.266 350.98 L
391.824 350.276 L
392.382 349.552 L
392.94 348.808 L
393.498 348.044 L
394.056 347.262 L
394.614 346.46 L
395.172 345.641 L
395.73 344.805 L
396.288 343.953 L
396.846 343.085 L
397.404 342.202 L
397.962 341.304 L
398.52 340.393 L
399.078 339.47 L
399.636 338.534 L
400.194 337.588 L
400.752 336.631 L
401.31 335.665 L
401.868 334.69 L
402.426 333.708 L
402.984 332.718 L
403.542 331.723 L
404.1 330.723 L
404.658 329.719 L
405.216 328.712 L
405.774 327.703 L
406.332 326.693 L
406.89 325.683 L
407.448 324.673 L
408.006 323.666 L
408.564 322.661 L
409.122 321.66 L
409.68 320.665 L
410.238 319.675 L
410.796 318.693 L
411.354 317.718 L
411.912 316.753 L
412.47 315.798 L
413.028 314.854 L
413.586 313.923 L
414.144 313.005 L
414.702 312.101 L
415.26 311.213 L
415.818 310.342 L
416.376 309.488 L
416.934 308.653 L
417.492 307.837 L
418.05 307.042 L
418.608 306.268 L
419.166 305.517 L
419.724 304.79 L
420.282 304.087 L
420.84 303.409 L
421.398 302.757 L
421.956 302.133 L
422.514 301.536 L
423.072 300.968 L
423.63 300.429 L
424.188 299.92 L
424.746 299.442 L
425.304 298.996 L
425.862 298.581 L
426.42 298.199 L
426.978 297.851 L
427.536 297.535 L
428.094 297.254 L
428.652 297.008 L
429.21 296.796 L
429.768 296.619 L
430.326 296.478 L
430.884 296.372 L
431.442 296.302 L
432 296.267 L
432.558 296.269 L
433.116 296.306 L
433.674 296.379 L
434.232 296.488 L
434.79 296.632 L
435.348 296.812 L
435.906 297.026 L
436.464 297.276 L
437.022 297.56 L
437.58 297.878 L
438.138 298.229 L
438.696 298.614 L
439.254 299.031 L
439.812 299.48 L
440.37 299.96 L
440.928 300.472 L
441.486 301.013 L
442.044 301.583 L
442.602 302.182 L
443.16 302.809 L
443.718 303.463 L
444.276 304.143 L
444.834 304.848 L
445.392 305.578 L
445.95 306.33 L
446.508 307.106 L
447.066 307.903 L
447.624 308.72 L
448.182 309.557 L
448.74 310.412 L
449.298 311.285 L
449.856 312.174 L
450.414 313.079 L
450.972 313.998 L
451.53 314.93 L
452.088 315.875 L
452.646 316.831 L
453.204 317.797 L
453.762 318.772 L
454.32 319.755 L
454.878 320.745 L
455.436 321.741 L
455.994 322.742 L
456.552 323.747 L
457.11 324.755 L
457.668 325.765 L
458.226 326.775 L
458.784 327.785 L
459.342 328.794 L
459.9 329.801 L
460.458 330.805 L
461.016 331.804 L
461.574 332.799 L
462.132 333.788 L
462.69 334.77 L
463.248 335.744 L
463.806 336.709 L
464.364 337.665 L
464.922 338.611 L
465.48 339.545 L
466.038 340.468 L
466.596 341.378 L
467.154 342.274 L
467.712 343.156 L
468.27 344.023 L
468.828 344.874 L
469.386 345.708 L
469.944 346.526 L
470.502 347.326 L
471.06 348.107 L
471.618 348.869 L
472.176 349.612 L
472.734 350.334 L
473.292 351.036 L
473.85 351.716 L
474.408 352.374 L
474.966 353.01 L
475.524 353.623 L
476.082 354.212 L
476.64 354.778 L
477.198 355.32 L
477.756 355.837 L
478.314 356.329 L
478.872 356.795 L
479.43 357.236 L
479.988 357.651 L
480.546 358.039 L
481.104 358.401 L
481.662 358.735 L
482.22 359.043 L
482.778 359.323 L
483.336 359.576 L
483.894 359.801 L
484.452 359.998 L
485.01 360.167 L
485.568 360.308 L
486.126 360.421 L
486.684 360.505 L
487.242 360.561 L
487.8 360.588 L
488.358 360.587 L
488.916 360.557 L
489.474 360.499 L
490.032 360.413 L
490.59 360.298 L
491.148 360.155 L
491.706 359.983 L
492.264 359.784 L
492.822 359.557 L
493.38 359.302 L
493.938 359.019 L
494.496 358.709 L
495.054 358.372 L
495.612 358.008 L
496.17 357.618 L
496.728 357.201 L
497.286 356.758 L
497.844 356.29 L
498.402 355.796 L
498.96 355.277 L
499.518 354.733 L
500.076 354.165 L
500.634 353.574 L
501.192 352.959 L
501.75 352.321 L
502.308 351.661 L
502.866 350.98 L
503.424 350.276 L
503.982 349.552 L
504.54 348.808 L
505.098 348.044 L
505.656 347.262 L
506.214 346.46 L
506.772 345.641 L
507.33 344.805 L
507.888 343.953 L
508.446 343.085 L
509.004 342.202 L
509.562 341.304 L
510.12 340.393 L
510.678 339.47 L
511.236 338.534 L
511.794 337.588 L
512.352 336.631 L
512.91 335.665 L
513.468 334.69 L
514.026 333.708 L
514.584 332.718 L
515.142 331.723 L
515.7 330.723 L
516.258 329.719 L
516.816 328.712 L
517.374 327.703 L
517.932 326.693 L
518.49 325.683 L
519.048 324.673 L
519.606 323.666 L
520.164 322.661 L
520.722 321.66 L
521.28 320.665 LE
1 1 1 C
518.538 50.2617 518.538 135.285 518.538 50.2617 T
518.538 50.2617 518.538 135.285 518.538 135.285 T
397.18 135.285 518.538 135.285 397.18 135.285 T
397.18 135.285 518.538 135.285 518.538 135.285 T
397.18 135.285 518.538 50.2617 397.18 50.2617 T
397.18 135.285 518.538 135.285 518.538 50.2617 T
[16 0] 0 setdash
0 0 0 C
397.18 50.2617 LS
518.538 50.2617 LE
397.18 135.285 LS
518.538 135.285 LE
397.18 135.285 LS
518.538 135.285 LE
397.18 50.2617 LS
518.538 50.2617 LE
397.18 50.2617 LS
397.18 135.285 LE
518.538 50.2617 LS
518.538 135.285 LE
518.538 50.2617 LS
518.538 135.285 LE
397.18 50.2617 LS
397.18 135.285 L
397.18 135.285 LE
518.538 135.285 LS
518.538 135.285 LE
518.538 50.2617 LS
518.538 50.2617 LE
397.18 50.2617 LS
397.18 50.2617 LE
(RK2) 423.225 124.657 15 /Helvetica SCL
(AB2+EXACT) 423.225 103.402 15 /Helvetica SCL
(AB2+EULER) 423.225 82.1456 15 /Helvetica SCL
(AB2+RK2) 423.225 60.8896 15 /Helvetica SCL
0.5 W
[] 0 setdash
0 0 1 C
399.921 124.657 LS
420.484 124.657 LE
1 0 0 C
399.921 103.402 LS
420.484 103.402 LE
0 1 0 C
399.921 82.1456 LS
420.484 82.1456 LE
1 0 1 C
399.921 60.8896 LS
420.484 60.8896 LE
grestore
showpage
cleartomark
%%PageTrailer
%%Trailer
end
%%EOF
