%!PS-Adobe-3.0 EPSF-3.0
%%Title: glps_renderer figure
%%Creator: GL2PS 1.3.8, (C) 1999-2012 C. Geuzaine
%%For: Octave
%%CreationDate: Mon Nov  9 08:35:58 2015
%%LanguageLevel: 3
%%DocumentData: Clean7Bit
%%Pages: 1
%%BoundingBox: 0 0 576 432
%%EndComments
%%BeginProlog
/gl2psdict 64 dict def gl2psdict begin
0 setlinecap 0 setlinejoin
/tryPS3shading false def % set to false to force subdivision
/rThreshold 0.064 def % red component subdivision threshold
/gThreshold 0.034 def % green component subdivision threshold
/bThreshold 0.1 def % blue component subdivision threshold
/BD { bind def } bind def
/C  { setrgbcolor } BD
/G  { 0.082 mul exch 0.6094 mul add exch 0.3086 mul add neg 1.0 add setgray } BD
/W  { setlinewidth } BD
/FC { findfont exch /SH exch def SH scalefont setfont } BD
/SW { dup stringwidth pop } BD
/S  { FC moveto show } BD
/SBC{ FC moveto SW -2 div 0 rmoveto show } BD
/SBR{ FC moveto SW neg 0 rmoveto show } BD
/SCL{ FC moveto 0 SH -2 div rmoveto show } BD
/SCC{ FC moveto SW -2 div SH -2 div rmoveto show } BD
/SCR{ FC moveto SW neg SH -2 div rmoveto show } BD
/STL{ FC moveto 0 SH neg rmoveto show } BD
/STC{ FC moveto SW -2 div SH neg rmoveto show } BD
/STR{ FC moveto SW neg SH neg rmoveto show } BD
/FCT { FC translate 0 0 } BD
/SR  { gsave FCT moveto rotate show grestore } BD
/SBCR{ gsave FCT moveto rotate SW -2 div 0 rmoveto show grestore } BD
/SBRR{ gsave FCT moveto rotate SW neg 0 rmoveto show grestore } BD
/SCLR{ gsave FCT moveto rotate 0 SH -2 div rmoveto show grestore} BD
/SCCR{ gsave FCT moveto rotate SW -2 div SH -2 div rmoveto show grestore} BD
/SCRR{ gsave FCT moveto rotate SW neg SH -2 div rmoveto show grestore} BD
/STLR{ gsave FCT moveto rotate 0 SH neg rmoveto show grestore } BD
/STCR{ gsave FCT moveto rotate SW -2 div SH neg rmoveto show grestore } BD
/STRR{ gsave FCT moveto rotate SW neg SH neg rmoveto show grestore } BD
/P  { newpath 0.0 360.0 arc closepath fill } BD
/LS { newpath moveto } BD
/L  { lineto } BD
/LE { lineto stroke } BD
/T  { newpath moveto lineto lineto closepath fill } BD
/STshfill {
      /b1 exch def /g1 exch def /r1 exch def /y1 exch def /x1 exch def
      /b2 exch def /g2 exch def /r2 exch def /y2 exch def /x2 exch def
      /b3 exch def /g3 exch def /r3 exch def /y3 exch def /x3 exch def
      gsave << /ShadingType 4 /ColorSpace [/DeviceRGB]
      /DataSource [ 0 x1 y1 r1 g1 b1 0 x2 y2 r2 g2 b2 0 x3 y3 r3 g3 b3 ] >>
      shfill grestore } BD
/Tm { 3 -1 roll 8 -1 roll 13 -1 roll add add 3 div
      3 -1 roll 7 -1 roll 11 -1 roll add add 3 div
      3 -1 roll 6 -1 roll 9 -1 roll add add 3 div C T } BD
/STsplit {
      4 index 15 index add 0.5 mul
      4 index 15 index add 0.5 mul
      4 index 15 index add 0.5 mul
      4 index 15 index add 0.5 mul
      4 index 15 index add 0.5 mul
      5 copy 5 copy 25 15 roll
      9 index 30 index add 0.5 mul
      9 index 30 index add 0.5 mul
      9 index 30 index add 0.5 mul
      9 index 30 index add 0.5 mul
      9 index 30 index add 0.5 mul
      5 copy 5 copy 35 5 roll 25 5 roll 15 5 roll
      4 index 10 index add 0.5 mul
      4 index 10 index add 0.5 mul
      4 index 10 index add 0.5 mul
      4 index 10 index add 0.5 mul
      4 index 10 index add 0.5 mul
      5 copy 5 copy 40 5 roll 25 5 roll 15 5 roll 25 5 roll
      STnoshfill STnoshfill STnoshfill STnoshfill } BD
/STnoshfill {
      2 index 8 index sub abs rThreshold gt
      { STsplit }
      { 1 index 7 index sub abs gThreshold gt
        { STsplit }
        { dup 6 index sub abs bThreshold gt
          { STsplit }
          { 2 index 13 index sub abs rThreshold gt
            { STsplit }
            { 1 index 12 index sub abs gThreshold gt
              { STsplit }
              { dup 11 index sub abs bThreshold gt
                { STsplit }
                { 7 index 13 index sub abs rThreshold gt
                  { STsplit }
                  { 6 index 12 index sub abs gThreshold gt
                    { STsplit }
                    { 5 index 11 index sub abs bThreshold gt
                      { STsplit }
                      { Tm }
                      ifelse }
                    ifelse }
                  ifelse }
                ifelse }
              ifelse }
            ifelse }
          ifelse }
        ifelse }
      ifelse } BD
tryPS3shading
{ /shfill where
  { /ST { STshfill } BD }
  { /ST { STnoshfill } BD }
  ifelse }
{ /ST { STnoshfill } BD }
ifelse
end
%%EndProlog
%%BeginSetup
/DeviceRGB setcolorspace
gl2psdict begin
%%EndSetup
%%Page: 1 1
%%BeginPageSetup
%%EndPageSetup
mark
gsave
1.0 1.0 scale
1 1 1 C
521.28 47.52 521.28 399.6 521.28 47.52 T
521.28 47.52 521.28 399.6 521.28 399.6 T
74.88 399.6 521.28 399.6 74.88 399.6 T
74.88 399.6 521.28 399.6 521.28 399.6 T
74.88 399.6 521.28 47.52 74.88 47.52 T
74.88 399.6 521.28 399.6 521.28 47.52 T
0.5 W
[16 0] 0 setdash
0 0 0 C
74.88 47.52 LS
521.28 47.52 LE
74.88 399.6 LS
521.28 399.6 LE
74.88 399.6 LS
521.28 399.6 LE
74.88 47.52 LS
521.28 47.52 LE
74.88 47.52 LS
74.88 399.6 LE
521.28 47.52 LS
521.28 399.6 LE
521.28 47.52 LS
521.28 399.6 LE
74.88 47.52 LS
74.88 399.6 L
74.88 399.6 LE
521.28 399.6 LS
521.28 399.6 LE
521.28 47.52 LS
521.28 47.52 LE
74.88 47.52 LS
74.88 47.52 L
74.88 51.985 LE
74.88 399.6 LS
74.88 395.135 LE
164.16 47.52 LS
164.16 51.985 LE
164.16 399.6 LS
164.16 395.135 LE
253.44 47.52 LS
253.44 51.985 LE
253.44 399.6 LS
253.44 395.135 LE
342.72 47.52 LS
342.72 51.985 LE
342.72 399.6 LS
342.72 395.135 LE
432 47.52 LS
432 51.985 LE
432 399.6 LS
432 395.135 LE
521.28 47.52 LS
521.28 51.985 LE
521.28 399.6 LS
521.28 395.135 LE
(0) 74.88 42.5189 12 /Helvetica STC
(0.2) 164.16 42.5189 12 /Helvetica STC
(0.4) 253.44 42.5189 12 /Helvetica STC
(0.6) 342.72 42.5189 12 /Helvetica STC
(0.8) 432 42.5189 12 /Helvetica STC
(1) 521.28 42.5189 12 /Helvetica STC
74.88 47.52 LS
79.348 47.52 LE
521.28 47.52 LS
516.812 47.52 LE
74.88 97.8171 LS
79.348 97.8171 LE
521.28 97.8171 LS
516.812 97.8171 LE
74.88 148.114 LS
79.348 148.114 LE
521.28 148.114 LS
516.812 148.114 LE
74.88 198.411 LS
79.348 198.411 LE
521.28 198.411 LS
516.812 198.411 LE
74.88 248.709 LS
79.348 248.709 LE
521.28 248.709 LS
516.812 248.709 LE
74.88 299.006 LS
79.348 299.006 LE
521.28 299.006 LS
516.812 299.006 LE
74.88 349.303 LS
79.348 349.303 LE
521.28 349.303 LS
516.812 349.303 LE
74.88 399.6 LS
79.348 399.6 LE
521.28 399.6 LS
516.812 399.6 LE
(0) 69.8755 47.52 12 /Helvetica SCR
(0.002) 69.8755 97.8171 12 /Helvetica SCR
(0.004) 69.8755 148.114 12 /Helvetica SCR
(0.006) 69.8755 198.411 12 /Helvetica SCR
(0.008) 69.8755 248.709 12 /Helvetica SCR
(0.01) 69.8755 299.006 12 /Helvetica SCR
(0.012) 69.8755 349.303 12 /Helvetica SCR
(0.014) 69.8755 399.6 12 /Helvetica SCR
(t) 298.08 28.5189 15 /Helvetica STC
(L_inf norm) 90 34.8755 223.56 15 /Helvetica SBCR
2 W
[] 0 setdash
0 0 1 C
75.996 49.3849 LS
77.112 51.1758 L
78.228 52.9755 L
79.344 54.8853 L
80.46 56.6241 L
81.576 58.6291 L
82.692 60.4103 L
83.808 62.2165 L
84.924 64.0065 L
86.04 65.9285 L
87.156 67.8049 L
88.272 69.3812 L
89.388 71.3032 L
90.504 72.9814 L
91.62 74.9942 L
92.736 76.739 L
93.852 78.3965 L
94.968 80.2247 L
96.084 81.9464 L
97.2 83.8821 L
98.316 85.5246 L
99.432 87.2799 L
100.548 89.0312 L
101.664 90.7842 L
102.78 92.6565 L
103.896 94.2231 L
105.012 96.0658 L
106.128 97.7583 L
107.244 99.5331 L
108.36 101.357 L
109.476 102.869 L
110.592 104.78 L
111.708 106.429 L
112.824 108.219 L
113.94 110.008 L
115.056 111.515 L
116.172 113.442 L
117.288 115.06 L
118.404 116.858 L
119.52 118.624 L
120.636 120.152 L
121.752 122.063 L
122.868 123.662 L
123.984 125.461 L
125.1 127.213 L
126.216 128.749 L
127.332 130.654 L
128.448 132.242 L
129.564 134.036 L
130.68 135.783 L
131.796 137.317 L
132.912 139.221 L
134.028 140.805 L
135.144 142.59 L
136.26 144.337 L
137.376 145.86 L
138.492 147.77 L
139.608 149.356 L
140.724 151.125 L
141.84 152.878 L
142.956 154.459 L
144.072 156.305 L
145.188 157.965 L
146.304 159.76 L
147.42 161.513 L
148.536 163.224 L
149.652 165.035 L
150.768 166.729 L
151.884 168.528 L
153 170.28 L
154.116 171.989 L
155.232 173.803 L
156.348 175.492 L
157.464 177.295 L
158.58 179.047 L
159.696 180.754 L
160.812 182.572 L
161.928 184.256 L
163.044 186.063 L
164.16 187.814 L
165.276 189.519 L
166.392 191.34 L
167.508 193.019 L
168.624 194.831 L
169.74 196.581 L
170.856 198.284 L
171.972 200.108 L
173.088 201.782 L
174.204 203.599 L
175.32 205.348 L
176.436 207.049 L
177.552 208.877 L
178.668 210.544 L
179.784 212.366 L
180.9 214.114 L
182.016 215.814 L
183.132 217.645 L
184.248 219.307 L
185.364 220.795 L
186.48 222.105 L
187.596 223.231 L
188.712 224.292 L
189.828 226.055 L
190.944 227.505 L
192.06 229.467 L
193.176 231.06 L
194.292 232.771 L
195.408 234.565 L
196.524 235.985 L
197.64 237.961 L
198.756 239.583 L
199.872 241.248 L
200.988 243.073 L
202.104 244.521 L
203.22 246.454 L
204.336 248.106 L
205.452 249.723 L
206.568 251.581 L
207.684 253.057 L
208.8 254.946 L
209.916 256.628 L
211.032 258.196 L
212.148 260.089 L
213.264 261.593 L
214.38 263.436 L
215.496 265.151 L
216.612 266.668 L
217.728 268.596 L
218.844 270.13 L
219.96 271.926 L
221.076 273.674 L
222.192 275.139 L
223.308 277.103 L
224.424 278.668 L
225.54 280.415 L
226.656 282.197 L
227.772 283.608 L
228.888 285.61 L
230.004 287.206 L
231.12 288.904 L
232.236 290.721 L
233.352 292.128 L
234.468 294.117 L
235.584 295.745 L
236.7 297.393 L
237.816 299.244 L
238.932 300.681 L
240.048 302.624 L
241.164 304.284 L
242.28 305.881 L
243.396 307.768 L
244.512 309.235 L
245.628 311.131 L
246.744 312.825 L
247.86 314.369 L
248.976 316.293 L
250.092 317.79 L
251.208 319.638 L
252.324 321.365 L
253.44 322.857 L
254.556 324.818 L
255.672 326.346 L
256.788 328.146 L
257.904 329.907 L
259.02 331.346 L
260.136 333.344 L
261.252 334.903 L
262.368 336.653 L
263.484 338.449 L
264.6 339.834 L
265.716 341.87 L
266.832 343.46 L
267.948 345.162 L
269.064 346.992 L
270.18 348.375 L
271.296 350.397 L
272.412 352.019 L
273.528 353.67 L
274.644 355.536 L
275.76 356.948 L
276.876 358.924 L
277.992 360.578 L
279.108 362.179 L
280.224 364.081 L
281.34 365.521 L
282.456 367.452 L
283.572 369.139 L
284.688 370.688 L
285.804 372.626 L
286.92 374.095 L
288.036 375.98 L
289.152 377.7 L
290.268 378.949 L
291.384 379.732 L
292.5 380.052 L
293.616 379.914 L
294.732 379.326 L
295.848 378.295 L
296.964 376.828 L
298.08 374.934 L
299.196 372.623 L
300.312 369.903 L
301.428 366.784 L
302.544 363.276 L
303.66 359.389 L
304.776 355.134 L
305.892 350.519 L
307.008 345.555 L
308.124 340.252 L
309.24 334.62 L
310.356 328.669 L
311.472 322.409 L
312.588 315.849 L
313.704 309 L
314.82 301.871 L
315.936 294.472 L
317.052 286.813 L
318.168 280.172 L
319.284 281.779 L
320.4 283.394 L
321.516 284.776 L
322.632 286.499 L
323.748 288.057 L
324.864 289.484 L
325.98 291.221 L
327.096 292.718 L
328.212 294.267 L
329.328 295.943 L
330.444 297.374 L
331.56 299.049 L
332.676 300.661 L
333.792 302.035 L
334.908 303.83 L
336.024 305.372 L
337.14 306.879 L
338.256 308.605 L
339.372 310.073 L
340.488 311.718 L
341.604 313.37 L
342.72 314.76 L
343.836 316.55 L
344.952 318.124 L
346.068 319.608 L
347.184 321.37 L
348.3 322.862 L
349.416 324.496 L
350.532 326.176 L
351.648 327.582 L
352.764 329.371 L
353.88 330.966 L
354.996 332.443 L
356.112 334.23 L
357.228 335.734 L
358.344 337.373 L
359.46 339.069 L
360.576 340.479 L
361.692 342.284 L
362.808 343.887 L
363.924 345.375 L
365.04 347.175 L
366.156 348.678 L
367.272 350.339 L
368.388 352.04 L
369.504 353.44 L
370.62 355.28 L
371.736 356.878 L
372.852 358.396 L
373.968 360.194 L
375.084 361.685 L
376.2 363.387 L
377.316 365.079 L
378.432 366.457 L
379.548 368.35 L
380.664 369.93 L
381.78 371.495 L
382.896 373.28 L
384.012 374.744 L
385.128 376.506 L
386.244 378.176 L
387.36 379.604 L
388.476 381.483 L
389.592 383.032 L
390.708 384.663 L
391.824 386.422 L
392.94 387.847 L
394.056 389.686 L
395.172 391.321 L
396.288 392.617 L
397.404 393.573 L
398.52 394.187 L
399.636 394.458 L
400.752 394.388 L
401.868 393.975 L
402.984 393.22 L
404.1 392.124 L
405.216 390.688 L
406.332 388.913 L
407.448 386.801 L
408.564 384.355 L
409.68 381.576 L
410.796 378.467 L
411.912 375.032 L
413.028 371.273 L
414.144 367.196 L
415.26 362.802 L
416.376 358.098 L
417.492 353.086 L
418.608 347.774 L
419.724 342.165 L
420.84 336.265 L
421.956 330.081 L
423.072 323.617 L
424.188 316.881 L
425.304 309.879 L
426.42 302.618 L
427.536 295.106 L
428.652 287.349 L
429.768 280.172 L
430.884 281.779 L
432 283.394 L
433.116 284.776 L
434.232 286.499 L
435.348 288.057 L
436.464 289.484 L
437.58 291.221 L
438.696 292.718 L
439.812 294.267 L
440.928 295.943 L
442.044 297.374 L
443.16 299.049 L
444.276 300.661 L
445.392 302.035 L
446.508 303.83 L
447.624 305.372 L
448.74 306.879 L
449.856 308.605 L
450.972 310.073 L
452.088 311.718 L
453.204 313.37 L
454.32 314.76 L
455.436 316.55 L
456.552 318.124 L
457.668 319.608 L
458.784 321.37 L
459.9 322.862 L
461.016 324.496 L
462.132 326.176 L
463.248 327.582 L
464.364 329.371 L
465.48 330.966 L
466.596 332.443 L
467.712 334.23 L
468.828 335.734 L
469.944 337.373 L
471.06 339.069 L
472.176 340.479 L
473.292 342.284 L
474.408 343.887 L
475.524 345.375 L
476.64 347.175 L
477.756 348.678 L
478.872 350.339 L
479.988 352.04 L
481.104 353.44 L
482.22 355.28 L
483.336 356.878 L
484.452 358.396 L
485.568 360.194 L
486.684 361.685 L
487.8 363.387 L
488.916 365.079 L
490.032 366.457 L
491.148 368.35 L
492.264 369.93 L
493.38 371.495 L
494.496 373.28 L
495.612 374.744 L
496.728 376.506 L
497.844 378.176 L
498.96 379.604 L
500.076 381.483 L
501.192 383.032 L
502.308 384.663 L
503.424 386.422 L
504.54 387.847 L
505.656 389.686 L
506.772 391.321 L
507.888 392.617 L
509.004 393.573 L
510.12 394.187 L
511.236 394.458 L
512.352 394.388 L
513.468 393.975 L
514.584 393.22 L
515.7 392.124 L
516.816 390.688 L
517.932 388.913 L
519.048 386.801 L
520.164 384.355 L
521.28 381.576 LE
1 0 0 C
75.996 48.3719 LS
76.554 49.281 L
77.112 50.1681 L
77.67 51.0766 L
78.228 51.9369 L
78.786 52.8224 L
79.344 53.7652 L
79.902 54.6681 L
80.46 55.5075 L
81.018 56.4026 L
81.576 57.3568 L
82.134 58.2662 L
82.692 59.112 L
83.25 59.9435 L
83.808 60.9156 L
84.366 61.8424 L
84.924 62.7085 L
85.482 63.5006 L
86.04 64.4259 L
86.598 65.377 L
87.156 66.2711 L
87.714 67.0961 L
88.272 67.8807 L
88.83 68.8605 L
89.388 69.787 L
89.946 70.6493 L
90.504 71.4379 L
91.062 72.2885 L
91.62 73.2504 L
92.178 74.1525 L
92.736 74.986 L
93.294 75.7431 L
93.852 76.6583 L
94.41 77.602 L
94.968 78.4816 L
95.526 79.2896 L
96.084 80.0196 L
96.642 80.9952 L
97.2 81.9217 L
97.758 82.7811 L
98.316 83.5668 L
98.874 84.3304 L
99.432 85.3043 L
99.99 86.2151 L
100.548 87.0565 L
101.106 87.823 L
101.664 88.6274 L
102.222 89.5898 L
102.78 90.4867 L
103.338 91.3125 L
103.896 92.0623 L
104.454 92.9033 L
105.012 93.8555 L
105.57 94.7402 L
106.128 95.5523 L
106.686 96.2879 L
107.244 97.1612 L
107.802 98.1043 L
108.36 98.9783 L
108.918 99.7788 L
109.476 100.502 L
110.034 101.403 L
110.592 102.339 L
111.15 103.204 L
111.708 103.994 L
112.266 104.707 L
112.824 105.632 L
113.382 106.561 L
113.94 107.418 L
114.498 108.2 L
115.056 108.904 L
115.614 109.848 L
116.172 110.772 L
116.73 111.623 L
117.288 112.398 L
117.846 113.095 L
118.404 114.055 L
118.962 114.974 L
119.52 115.819 L
120.078 116.589 L
120.636 117.28 L
121.194 118.252 L
121.752 119.167 L
122.31 120.009 L
122.868 120.774 L
123.426 121.46 L
123.984 122.44 L
124.542 123.354 L
125.1 124.192 L
125.658 124.954 L
126.216 125.638 L
126.774 126.622 L
127.332 127.534 L
127.89 128.37 L
128.448 129.129 L
129.006 129.813 L
129.564 130.797 L
130.122 131.709 L
130.68 132.544 L
131.238 133.3 L
131.796 133.982 L
132.354 134.967 L
132.912 135.878 L
133.47 136.713 L
134.028 137.468 L
134.586 138.144 L
135.144 139.131 L
135.702 140.043 L
136.26 140.878 L
136.818 141.633 L
137.376 142.309 L
137.934 143.291 L
138.492 144.204 L
139.05 145.04 L
139.608 145.796 L
140.166 146.471 L
140.724 147.447 L
141.282 148.362 L
141.84 149.199 L
142.398 149.956 L
142.956 150.641 L
143.514 151.598 L
144.072 152.516 L
144.63 153.355 L
145.188 154.113 L
145.746 154.902 L
146.304 155.789 L
146.862 156.667 L
147.42 157.509 L
147.978 158.291 L
148.536 159.163 L
149.094 160.052 L
149.652 160.913 L
150.21 161.746 L
150.768 162.551 L
151.326 163.424 L
151.884 164.314 L
152.442 165.175 L
153 166.008 L
153.558 166.81 L
154.116 167.685 L
154.674 168.576 L
155.232 169.437 L
155.79 170.269 L
156.348 171.069 L
156.906 171.945 L
157.464 172.838 L
158.022 173.7 L
158.58 174.53 L
159.138 175.329 L
159.696 176.206 L
160.254 177.1 L
160.812 177.962 L
161.37 178.792 L
161.928 179.588 L
162.486 180.467 L
163.044 181.362 L
163.602 182.224 L
164.16 183.053 L
164.718 183.847 L
165.276 184.728 L
165.834 185.624 L
166.392 186.486 L
166.95 187.314 L
167.508 188.107 L
168.066 188.989 L
168.624 189.886 L
169.182 190.748 L
169.74 191.575 L
170.298 192.366 L
170.856 193.25 L
171.414 194.148 L
171.972 195.01 L
172.53 195.836 L
173.088 196.625 L
173.646 197.51 L
174.204 198.41 L
174.762 199.272 L
175.32 200.097 L
175.878 200.884 L
176.436 201.771 L
176.994 202.672 L
177.552 203.534 L
178.11 204.358 L
178.668 205.143 L
179.226 206.032 L
179.784 206.934 L
180.342 207.796 L
180.9 208.619 L
181.458 209.402 L
182.016 210.293 L
182.574 211.196 L
183.132 212.058 L
183.69 212.88 L
184.248 213.66 L
184.806 214.399 L
185.364 215.094 L
185.922 215.747 L
186.48 216.355 L
187.038 216.919 L
187.596 217.438 L
188.154 217.912 L
188.712 218.72 L
189.27 219.642 L
189.828 220.475 L
190.386 221.22 L
190.944 221.874 L
191.502 222.848 L
192.06 223.777 L
192.618 224.618 L
193.176 225.368 L
193.734 226.028 L
194.292 226.975 L
194.85 227.912 L
195.408 228.759 L
195.966 229.516 L
196.524 230.182 L
197.082 231.102 L
197.64 232.047 L
198.198 232.901 L
198.756 233.664 L
199.314 234.336 L
199.872 235.228 L
200.43 236.181 L
200.988 237.042 L
201.546 237.812 L
202.104 238.49 L
202.662 239.353 L
203.22 240.314 L
203.778 241.183 L
204.336 241.96 L
204.894 242.644 L
205.452 243.478 L
206.01 244.448 L
206.568 245.324 L
207.126 246.108 L
207.684 246.798 L
208.242 247.603 L
208.8 248.581 L
209.358 249.465 L
209.916 250.256 L
210.474 250.952 L
211.032 251.727 L
211.59 252.713 L
212.148 253.605 L
212.706 254.403 L
213.264 255.107 L
213.822 255.851 L
214.38 256.846 L
214.938 257.746 L
215.496 258.551 L
216.054 259.261 L
216.612 259.974 L
217.17 260.978 L
217.728 261.886 L
218.286 262.699 L
218.844 263.415 L
219.402 264.098 L
219.96 265.11 L
220.518 266.026 L
221.076 266.846 L
221.634 267.57 L
222.192 268.22 L
222.75 269.242 L
223.308 270.167 L
223.866 270.994 L
224.424 271.725 L
224.982 272.358 L
225.54 273.374 L
226.098 274.307 L
226.656 275.142 L
227.214 275.879 L
227.772 276.519 L
228.33 277.505 L
228.888 278.447 L
229.446 279.29 L
230.004 280.034 L
230.562 280.68 L
231.12 281.636 L
231.678 282.586 L
232.236 283.437 L
232.794 284.189 L
233.352 284.841 L
233.91 285.768 L
234.468 286.726 L
235.026 287.585 L
235.584 288.344 L
236.142 289.003 L
236.7 289.899 L
237.258 290.866 L
237.816 291.733 L
238.374 292.499 L
238.932 293.165 L
239.49 294.03 L
240.048 295.006 L
240.606 295.881 L
241.164 296.655 L
241.722 297.327 L
242.28 298.161 L
242.838 299.146 L
243.396 300.029 L
243.954 300.81 L
244.512 301.489 L
245.07 302.292 L
245.628 303.286 L
246.186 304.177 L
246.744 304.966 L
247.302 305.651 L
247.86 306.423 L
248.418 307.426 L
248.976 308.326 L
249.534 309.121 L
250.092 309.814 L
250.65 310.553 L
251.208 311.566 L
251.766 312.474 L
252.324 313.277 L
252.882 313.976 L
253.44 314.684 L
253.998 315.706 L
254.556 316.622 L
255.114 317.433 L
255.672 318.139 L
256.23 318.815 L
256.788 319.846 L
257.346 320.771 L
257.904 321.589 L
258.462 322.302 L
259.02 322.946 L
259.578 323.986 L
260.136 324.919 L
260.694 325.746 L
261.252 326.466 L
261.81 327.079 L
262.368 328.126 L
262.926 329.068 L
263.484 329.902 L
264.042 330.629 L
264.6 331.249 L
265.158 332.266 L
265.716 333.217 L
266.274 334.059 L
266.832 334.793 L
267.39 335.419 L
267.948 336.406 L
268.506 337.365 L
269.064 338.216 L
269.622 338.957 L
270.18 339.589 L
270.738 340.546 L
271.296 341.514 L
271.854 342.372 L
272.412 343.121 L
272.97 343.76 L
273.528 344.687 L
274.086 345.663 L
274.644 346.529 L
275.202 347.285 L
275.76 347.93 L
276.318 348.827 L
276.876 349.813 L
277.434 350.687 L
277.992 351.45 L
278.55 352.101 L
279.108 352.968 L
279.666 353.962 L
280.224 354.844 L
280.782 355.614 L
281.34 356.272 L
281.898 357.108 L
282.456 358.111 L
283.014 359.002 L
283.572 359.779 L
284.13 360.443 L
284.688 361.249 L
285.246 362.261 L
285.804 363.159 L
286.362 363.944 L
286.92 364.615 L
287.478 365.389 L
288.036 366.41 L
288.594 367.317 L
289.152 368.109 L
289.71 368.787 L
290.268 369.35 L
290.826 369.8 L
291.384 370.137 L
291.942 370.361 L
292.5 370.472 L
293.058 370.473 L
293.616 370.363 L
294.174 370.143 L
294.732 369.814 L
295.29 369.377 L
295.848 368.833 L
296.406 368.183 L
296.964 367.428 L
297.522 366.569 L
298.08 365.607 L
298.638 364.543 L
299.196 363.379 L
299.754 362.115 L
300.312 360.753 L
300.87 359.293 L
301.428 357.738 L
301.986 356.088 L
302.544 354.344 L
303.102 352.509 L
303.66 350.582 L
304.218 348.565 L
304.776 346.46 L
305.334 344.268 L
305.892 341.989 L
306.45 339.626 L
307.008 337.179 L
307.566 334.65 L
308.124 332.039 L
308.682 329.348 L
309.24 326.579 L
309.798 323.732 L
310.356 320.808 L
310.914 317.81 L
311.472 314.737 L
312.03 311.592 L
312.588 308.375 L
313.146 305.088 L
313.704 301.732 L
314.262 298.308 L
314.82 294.817 L
315.378 291.26 L
315.936 287.639 L
316.494 283.955 L
317.052 280.208 L
317.61 276.401 L
318.168 273.045 L
318.726 273.711 L
319.284 274.589 L
319.842 275.41 L
320.4 276.175 L
320.958 276.883 L
321.516 277.535 L
322.074 278.34 L
322.632 279.191 L
323.19 279.985 L
323.748 280.722 L
324.306 281.401 L
324.864 282.091 L
325.422 282.973 L
325.98 283.796 L
326.538 284.561 L
327.096 285.267 L
327.654 285.915 L
328.212 286.755 L
328.77 287.607 L
329.328 288.4 L
329.886 289.134 L
330.444 289.808 L
331.002 290.537 L
331.56 291.418 L
332.118 292.239 L
332.676 293 L
333.234 293.701 L
333.792 294.34 L
334.35 295.23 L
334.908 296.079 L
335.466 296.867 L
336.024 297.594 L
336.582 298.258 L
337.14 299.042 L
337.698 299.919 L
338.256 300.734 L
338.814 301.487 L
339.372 302.177 L
339.93 302.854 L
340.488 303.759 L
341.046 304.602 L
341.604 305.381 L
342.162 306.096 L
342.72 306.747 L
343.278 307.6 L
343.836 308.469 L
344.394 309.274 L
344.952 310.015 L
345.51 310.691 L
346.068 311.44 L
346.626 312.337 L
347.184 313.168 L
347.742 313.934 L
348.3 314.634 L
348.858 315.281 L
349.416 316.205 L
349.974 317.063 L
350.532 317.854 L
351.09 318.578 L
351.648 319.235 L
352.206 320.073 L
352.764 320.957 L
353.322 321.773 L
353.88 322.522 L
354.438 323.203 L
354.996 323.942 L
355.554 324.852 L
356.112 325.693 L
356.67 326.466 L
357.228 327.17 L
357.786 327.811 L
358.344 328.747 L
358.902 329.614 L
359.46 330.411 L
360.018 331.138 L
360.576 331.795 L
361.134 332.642 L
361.692 333.534 L
362.25 334.355 L
362.808 335.105 L
363.366 335.785 L
363.924 336.538 L
364.482 337.455 L
365.04 338.3 L
365.598 339.074 L
366.156 339.775 L
366.714 340.433 L
367.272 341.376 L
367.83 342.245 L
368.388 343.042 L
368.946 343.766 L
369.504 344.417 L
370.062 345.296 L
370.62 346.19 L
371.178 347.01 L
371.736 347.756 L
372.294 348.429 L
372.852 349.218 L
373.41 350.136 L
373.968 350.979 L
374.526 351.747 L
375.084 352.441 L
375.642 353.139 L
376.2 354.082 L
376.758 354.948 L
377.316 355.739 L
377.874 356.453 L
378.432 357.091 L
378.99 358.027 L
379.548 358.917 L
380.106 359.73 L
380.664 360.466 L
381.222 361.124 L
381.78 361.973 L
382.338 362.886 L
382.896 363.721 L
383.454 364.478 L
384.012 365.157 L
384.57 365.92 L
385.128 366.856 L
385.686 367.713 L
386.244 368.491 L
386.802 369.19 L
387.36 369.866 L
387.918 370.826 L
388.476 371.705 L
389.034 372.504 L
389.592 373.223 L
390.15 373.862 L
390.708 374.795 L
391.266 375.697 L
391.824 376.517 L
392.382 377.257 L
392.94 377.915 L
393.498 378.766 L
394.056 379.689 L
394.614 380.531 L
395.172 381.29 L
395.73 381.967 L
396.288 382.562 L
396.846 383.074 L
397.404 383.503 L
397.962 383.849 L
398.52 384.112 L
399.078 384.293 L
399.636 384.39 L
400.194 384.404 L
400.752 384.335 L
401.31 384.182 L
401.868 383.947 L
402.426 383.629 L
402.984 383.228 L
403.542 382.743 L
404.1 382.177 L
404.658 381.527 L
405.216 380.796 L
405.774 379.982 L
406.332 379.086 L
406.89 378.108 L
407.448 377.048 L
408.006 375.908 L
408.564 374.686 L
409.122 373.383 L
409.68 372.001 L
410.238 370.538 L
410.796 368.995 L
411.354 367.373 L
411.912 365.672 L
412.47 363.893 L
413.028 362.036 L
413.586 360.1 L
414.144 358.088 L
414.702 356 L
415.26 353.835 L
415.818 351.594 L
416.376 349.279 L
416.934 346.889 L
417.492 344.425 L
418.05 341.888 L
418.608 339.278 L
419.166 336.597 L
419.724 333.844 L
420.282 331.02 L
420.84 328.126 L
421.398 325.163 L
421.956 322.132 L
422.514 319.033 L
423.072 315.867 L
423.63 312.634 L
424.188 309.337 L
424.746 305.975 L
425.304 302.548 L
425.862 299.06 L
426.42 295.508 L
426.978 291.896 L
427.536 288.224 L
428.094 284.492 L
428.652 280.701 L
429.21 276.853 L
429.768 273.045 L
430.326 273.711 L
430.884 274.589 L
431.442 275.41 L
432 276.175 L
432.558 276.883 L
433.116 277.535 L
433.674 278.34 L
434.232 279.191 L
434.79 279.985 L
435.348 280.722 L
435.906 281.401 L
436.464 282.091 L
437.022 282.973 L
437.58 283.796 L
438.138 284.561 L
438.696 285.267 L
439.254 285.915 L
439.812 286.755 L
440.37 287.607 L
440.928 288.4 L
441.486 289.134 L
442.044 289.808 L
442.602 290.537 L
443.16 291.418 L
443.718 292.239 L
444.276 293 L
444.834 293.701 L
445.392 294.34 L
445.95 295.23 L
446.508 296.079 L
447.066 296.867 L
447.624 297.594 L
448.182 298.258 L
448.74 299.042 L
449.298 299.919 L
449.856 300.734 L
450.414 301.487 L
450.972 302.177 L
451.53 302.854 L
452.088 303.759 L
452.646 304.602 L
453.204 305.381 L
453.762 306.096 L
454.32 306.747 L
454.878 307.6 L
455.436 308.469 L
455.994 309.274 L
456.552 310.015 L
457.11 310.691 L
457.668 311.44 L
458.226 312.337 L
458.784 313.168 L
459.342 313.934 L
459.9 314.634 L
460.458 315.281 L
461.016 316.205 L
461.574 317.063 L
462.132 317.854 L
462.69 318.578 L
463.248 319.235 L
463.806 320.073 L
464.364 320.957 L
464.922 321.773 L
465.48 322.522 L
466.038 323.203 L
466.596 323.942 L
467.154 324.852 L
467.712 325.693 L
468.27 326.466 L
468.828 327.17 L
469.386 327.811 L
469.944 328.747 L
470.502 329.614 L
471.06 330.411 L
471.618 331.138 L
472.176 331.795 L
472.734 332.642 L
473.292 333.534 L
473.85 334.355 L
474.408 335.105 L
474.966 335.785 L
475.524 336.538 L
476.082 337.455 L
476.64 338.3 L
477.198 339.074 L
477.756 339.775 L
478.314 340.433 L
478.872 341.376 L
479.43 342.245 L
479.988 343.042 L
480.546 343.766 L
481.104 344.417 L
481.662 345.296 L
482.22 346.19 L
482.778 347.01 L
483.336 347.756 L
483.894 348.429 L
484.452 349.218 L
485.01 350.136 L
485.568 350.979 L
486.126 351.747 L
486.684 352.441 L
487.242 353.139 L
487.8 354.082 L
488.358 354.948 L
488.916 355.739 L
489.474 356.453 L
490.032 357.091 L
490.59 358.027 L
491.148 358.917 L
491.706 359.73 L
492.264 360.466 L
492.822 361.124 L
493.38 361.973 L
493.938 362.886 L
494.496 363.721 L
495.054 364.478 L
495.612 365.157 L
496.17 365.92 L
496.728 366.856 L
497.286 367.713 L
497.844 368.491 L
498.402 369.19 L
498.96 369.866 L
499.518 370.826 L
500.076 371.705 L
500.634 372.504 L
501.192 373.223 L
501.75 373.862 L
502.308 374.795 L
502.866 375.697 L
503.424 376.517 L
503.982 377.257 L
504.54 377.915 L
505.098 378.766 L
505.656 379.689 L
506.214 380.531 L
506.772 381.29 L
507.33 381.967 L
507.888 382.562 L
508.446 383.074 L
509.004 383.503 L
509.562 383.849 L
510.12 384.112 L
510.678 384.293 L
511.236 384.39 L
511.794 384.404 L
512.352 384.335 L
512.91 384.182 L
513.468 383.947 L
514.026 383.629 L
514.584 383.228 L
515.142 382.743 L
515.7 382.177 L
516.258 381.527 L
516.816 380.796 L
517.374 379.982 L
517.932 379.086 L
518.49 378.108 L
519.048 377.048 L
519.606 375.908 L
520.164 374.686 L
520.722 373.383 L
521.28 372.001 LE
0 1 0 C
75.438 50.6844 LS
75.996 50.9638 L
76.554 51.4087 L
77.112 51.9732 L
77.67 52.6188 L
78.228 53.3177 L
78.786 54.0525 L
79.344 54.8147 L
79.902 55.5953 L
80.46 56.3851 L
81.018 57.1899 L
81.576 58.0011 L
82.134 58.8175 L
82.692 59.6389 L
83.25 60.4675 L
83.808 61.2874 L
84.366 62.1288 L
84.924 62.9611 L
85.482 63.7904 L
86.04 64.6369 L
86.598 65.4746 L
87.156 66.3777 L
87.714 67.2237 L
88.272 68.0007 L
88.83 68.9005 L
89.388 69.8568 L
89.946 70.7431 L
90.504 71.5505 L
91.062 72.2891 L
91.62 73.2832 L
92.178 74.2123 L
92.736 75.0677 L
93.294 75.842 L
93.852 76.6537 L
94.41 77.627 L
94.968 78.5315 L
95.526 79.3599 L
96.084 80.1061 L
96.642 80.9846 L
97.2 81.9389 L
97.758 82.8215 L
98.316 83.6265 L
98.874 84.3488 L
99.432 85.2874 L
99.99 86.2245 L
100.548 87.0881 L
101.106 87.8729 L
101.664 88.5754 L
102.222 89.5666 L
102.78 90.4885 L
103.338 91.3355 L
103.896 92.1031 L
104.454 92.8463 L
105.012 93.8261 L
105.57 94.7346 L
106.128 95.5673 L
106.686 96.3201 L
107.244 97.099 L
107.802 98.0687 L
108.36 98.9659 L
108.918 99.7862 L
109.476 100.526 L
110.034 101.336 L
110.592 102.297 L
111.15 103.184 L
111.708 103.994 L
112.266 104.724 L
112.824 105.56 L
113.382 106.513 L
113.94 107.392 L
114.498 108.193 L
115.056 108.914 L
115.614 109.771 L
116.172 110.719 L
116.73 111.591 L
117.288 112.385 L
117.846 113.098 L
118.404 113.973 L
118.962 114.915 L
119.52 115.782 L
120.078 116.57 L
120.636 117.287 L
121.194 118.165 L
121.752 119.104 L
122.31 119.966 L
122.868 120.749 L
123.426 121.544 L
123.984 122.378 L
124.542 123.285 L
125.1 124.144 L
125.658 124.952 L
126.216 125.802 L
126.774 126.631 L
127.332 127.461 L
127.89 128.345 L
128.448 129.213 L
129.006 130.06 L
129.564 130.885 L
130.122 131.719 L
130.68 132.607 L
131.238 133.473 L
131.796 134.317 L
132.354 135.139 L
132.912 135.982 L
133.47 136.869 L
134.028 137.734 L
134.586 138.575 L
135.144 139.392 L
135.702 140.245 L
136.26 141.132 L
136.818 141.994 L
137.376 142.832 L
137.934 143.646 L
138.492 144.509 L
139.05 145.394 L
139.608 146.254 L
140.166 147.09 L
140.724 147.899 L
141.282 148.771 L
141.84 149.656 L
142.398 150.515 L
142.956 151.347 L
143.514 152.152 L
144.072 153.034 L
144.63 153.918 L
145.188 154.775 L
145.746 155.604 L
146.304 156.406 L
146.862 157.297 L
147.42 158.18 L
147.978 159.035 L
148.536 159.861 L
149.094 160.659 L
149.652 161.56 L
150.21 162.442 L
150.768 163.295 L
151.326 164.118 L
151.884 164.913 L
152.442 165.823 L
153 166.704 L
153.558 167.555 L
154.116 168.375 L
154.674 169.175 L
155.232 170.086 L
155.79 170.966 L
156.348 171.815 L
156.906 172.632 L
157.464 173.438 L
158.022 174.349 L
158.58 175.228 L
159.138 176.075 L
159.696 176.889 L
160.254 177.7 L
160.812 178.611 L
161.37 179.49 L
161.928 180.335 L
162.486 181.146 L
163.044 181.963 L
163.602 182.874 L
164.16 183.751 L
164.718 184.594 L
165.276 185.403 L
165.834 186.226 L
166.392 187.137 L
166.95 188.013 L
167.508 188.854 L
168.066 189.659 L
168.624 190.488 L
169.182 191.399 L
169.74 192.275 L
170.298 193.114 L
170.856 193.916 L
171.414 194.751 L
171.972 195.662 L
172.53 196.536 L
173.088 197.373 L
173.646 198.173 L
174.204 199.013 L
174.762 199.924 L
175.32 200.798 L
175.878 201.633 L
176.436 202.429 L
176.994 203.276 L
177.552 204.187 L
178.11 205.059 L
178.668 205.892 L
179.226 206.685 L
179.784 207.538 L
180.342 208.449 L
180.9 209.321 L
181.458 210.152 L
182.016 210.941 L
182.574 211.8 L
183.132 212.712 L
183.69 213.582 L
184.248 214.411 L
184.806 215.198 L
185.364 215.941 L
185.922 216.641 L
186.48 217.298 L
187.038 217.909 L
187.596 218.475 L
188.154 218.996 L
188.712 219.47 L
189.27 219.897 L
189.828 220.36 L
190.386 221.119 L
190.944 221.787 L
191.502 222.696 L
192.06 223.643 L
192.618 224.499 L
193.176 225.264 L
193.734 225.938 L
194.292 226.821 L
194.85 227.775 L
195.408 228.639 L
195.966 229.41 L
196.524 230.09 L
197.082 230.945 L
197.64 231.907 L
198.198 232.778 L
198.756 233.555 L
199.314 234.241 L
199.872 235.069 L
200.43 236.039 L
200.988 236.916 L
201.546 237.701 L
202.104 238.393 L
202.662 239.192 L
203.22 240.17 L
203.778 241.055 L
204.336 241.846 L
204.894 242.544 L
205.452 243.315 L
206.01 244.301 L
206.568 245.194 L
207.126 245.992 L
207.684 246.696 L
208.242 247.437 L
208.8 248.432 L
209.358 249.332 L
209.916 250.137 L
210.474 250.848 L
211.032 251.559 L
211.59 252.562 L
212.148 253.47 L
212.706 254.283 L
213.264 255 L
213.822 255.681 L
214.38 256.693 L
214.938 257.609 L
215.496 258.428 L
216.054 259.152 L
216.612 259.802 L
217.17 260.823 L
217.728 261.747 L
218.286 262.574 L
218.844 263.304 L
219.402 263.938 L
219.96 264.953 L
220.518 265.885 L
221.076 266.719 L
221.634 267.457 L
222.192 268.096 L
222.75 269.082 L
223.308 270.023 L
223.866 270.865 L
224.424 271.609 L
224.982 272.255 L
225.54 273.212 L
226.098 274.161 L
226.656 275.011 L
227.214 275.762 L
227.772 276.414 L
228.33 277.341 L
228.888 278.299 L
229.446 279.156 L
230.004 279.914 L
230.562 280.573 L
231.12 281.471 L
231.678 282.437 L
232.236 283.302 L
232.794 284.067 L
233.352 284.733 L
233.91 285.6 L
234.468 286.575 L
235.026 287.448 L
235.584 288.22 L
236.142 288.892 L
236.7 289.729 L
237.258 290.713 L
237.816 291.594 L
238.374 292.374 L
238.932 293.052 L
239.49 293.859 L
240.048 294.851 L
240.606 295.74 L
241.164 296.527 L
241.722 297.212 L
242.28 297.988 L
242.838 298.989 L
243.396 299.886 L
243.954 300.681 L
244.512 301.372 L
245.07 302.117 L
245.628 303.127 L
246.186 304.032 L
246.744 304.835 L
247.302 305.533 L
247.86 306.246 L
248.418 307.265 L
248.976 308.179 L
249.534 308.988 L
250.092 309.694 L
250.65 310.375 L
251.208 311.403 L
251.766 312.325 L
252.324 313.142 L
252.882 313.854 L
253.44 314.504 L
253.998 315.541 L
254.556 316.472 L
255.114 317.297 L
255.672 318.016 L
256.23 318.633 L
256.788 319.679 L
257.346 320.619 L
257.904 321.451 L
258.462 322.177 L
259.02 322.796 L
259.578 323.818 L
260.136 324.766 L
260.694 325.606 L
261.252 326.339 L
261.81 326.964 L
262.368 327.956 L
262.926 328.912 L
263.484 329.761 L
264.042 330.501 L
264.6 331.132 L
265.158 332.094 L
265.716 333.06 L
266.274 333.916 L
266.832 334.663 L
267.39 335.301 L
267.948 336.233 L
268.506 337.207 L
269.064 338.071 L
269.622 338.825 L
270.18 339.469 L
270.738 340.372 L
271.296 341.354 L
271.854 342.226 L
272.412 342.987 L
272.97 343.638 L
273.528 344.51 L
274.086 345.502 L
274.644 346.381 L
275.202 347.15 L
275.76 347.807 L
276.318 348.649 L
276.876 349.649 L
277.434 350.537 L
277.992 351.313 L
278.55 351.976 L
279.108 352.788 L
279.666 353.797 L
280.224 354.693 L
280.782 355.476 L
281.34 356.146 L
281.898 356.927 L
282.456 357.945 L
283.014 358.849 L
283.572 359.639 L
284.13 360.316 L
284.688 361.066 L
285.246 362.093 L
285.804 363.005 L
286.362 363.803 L
286.92 364.486 L
287.478 365.205 L
288.036 366.241 L
288.594 367.161 L
289.152 367.966 L
289.71 368.656 L
290.268 369.231 L
290.826 369.691 L
291.384 370.037 L
291.942 370.271 L
292.5 370.391 L
293.058 370.399 L
293.616 370.296 L
294.174 370.083 L
294.732 369.76 L
295.29 369.329 L
295.848 368.79 L
296.406 368.145 L
296.964 367.394 L
297.522 366.539 L
298.08 365.58 L
298.638 364.52 L
299.196 363.358 L
299.754 362.097 L
300.312 360.737 L
300.87 359.28 L
301.428 357.727 L
301.986 356.079 L
302.544 354.337 L
303.102 352.503 L
303.66 350.577 L
304.218 348.562 L
304.776 346.458 L
305.334 344.266 L
305.892 341.988 L
306.45 339.625 L
307.008 337.179 L
307.566 334.65 L
308.124 332.04 L
308.682 329.349 L
309.24 326.58 L
309.798 323.733 L
310.356 320.81 L
310.914 317.812 L
311.472 314.739 L
312.03 311.594 L
312.588 308.378 L
313.146 305.09 L
313.704 301.734 L
314.262 298.31 L
314.82 294.819 L
315.378 291.262 L
315.936 287.641 L
316.494 283.957 L
317.052 280.21 L
317.61 276.403 L
318.168 273.045 L
318.726 273.711 L
319.284 274.589 L
319.842 275.41 L
320.4 276.175 L
320.958 276.883 L
321.516 277.535 L
322.074 278.34 L
322.632 279.191 L
323.19 279.985 L
323.748 280.722 L
324.306 281.401 L
324.864 282.091 L
325.422 282.973 L
325.98 283.796 L
326.538 284.561 L
327.096 285.267 L
327.654 285.915 L
328.212 286.755 L
328.77 287.607 L
329.328 288.4 L
329.886 289.134 L
330.444 289.808 L
331.002 290.537 L
331.56 291.418 L
332.118 292.239 L
332.676 293 L
333.234 293.701 L
333.792 294.34 L
334.35 295.23 L
334.908 296.079 L
335.466 296.867 L
336.024 297.594 L
336.582 298.258 L
337.14 299.042 L
337.698 299.919 L
338.256 300.734 L
338.814 301.487 L
339.372 302.177 L
339.93 302.854 L
340.488 303.759 L
341.046 304.602 L
341.604 305.381 L
342.162 306.096 L
342.72 306.747 L
343.278 307.6 L
343.836 308.469 L
344.394 309.274 L
344.952 310.015 L
345.51 310.691 L
346.068 311.44 L
346.626 312.337 L
347.184 313.168 L
347.742 313.934 L
348.3 314.634 L
348.858 315.281 L
349.416 316.205 L
349.974 317.063 L
350.532 317.854 L
351.09 318.578 L
351.648 319.235 L
352.206 320.073 L
352.764 320.957 L
353.322 321.773 L
353.88 322.522 L
354.438 323.203 L
354.996 323.942 L
355.554 324.852 L
356.112 325.693 L
356.67 326.466 L
357.228 327.17 L
357.786 327.811 L
358.344 328.747 L
358.902 329.614 L
359.46 330.411 L
360.018 331.138 L
360.576 331.795 L
361.134 332.642 L
361.692 333.534 L
362.25 334.355 L
362.808 335.105 L
363.366 335.785 L
363.924 336.538 L
364.482 337.455 L
365.04 338.3 L
365.598 339.074 L
366.156 339.775 L
366.714 340.433 L
367.272 341.376 L
367.83 342.245 L
368.388 343.042 L
368.946 343.766 L
369.504 344.417 L
370.062 345.296 L
370.62 346.19 L
371.178 347.01 L
371.736 347.756 L
372.294 348.429 L
372.852 349.218 L
373.41 350.136 L
373.968 350.979 L
374.526 351.747 L
375.084 352.441 L
375.642 353.139 L
376.2 354.082 L
376.758 354.948 L
377.316 355.739 L
377.874 356.453 L
378.432 357.091 L
378.99 358.027 L
379.548 358.917 L
380.106 359.73 L
380.664 360.466 L
381.222 361.124 L
381.78 361.973 L
382.338 362.886 L
382.896 363.721 L
383.454 364.478 L
384.012 365.157 L
384.57 365.92 L
385.128 366.856 L
385.686 367.713 L
386.244 368.491 L
386.802 369.19 L
387.36 369.866 L
387.918 370.826 L
388.476 371.705 L
389.034 372.504 L
389.592 373.223 L
390.15 373.862 L
390.708 374.795 L
391.266 375.697 L
391.824 376.517 L
392.382 377.257 L
392.94 377.915 L
393.498 378.766 L
394.056 379.689 L
394.614 380.531 L
395.172 381.29 L
395.73 381.967 L
396.288 382.562 L
396.846 383.074 L
397.404 383.503 L
397.962 383.849 L
398.52 384.112 L
399.078 384.293 L
399.636 384.39 L
400.194 384.404 L
400.752 384.335 L
401.31 384.182 L
401.868 383.947 L
402.426 383.629 L
402.984 383.228 L
403.542 382.743 L
404.1 382.177 L
404.658 381.527 L
405.216 380.796 L
405.774 379.982 L
406.332 379.086 L
406.89 378.108 L
407.448 377.048 L
408.006 375.908 L
408.564 374.686 L
409.122 373.383 L
409.68 372.001 L
410.238 370.538 L
410.796 368.995 L
411.354 367.373 L
411.912 365.672 L
412.47 363.893 L
413.028 362.036 L
413.586 360.1 L
414.144 358.088 L
414.702 356 L
415.26 353.835 L
415.818 351.594 L
416.376 349.279 L
416.934 346.889 L
417.492 344.425 L
418.05 341.888 L
418.608 339.278 L
419.166 336.597 L
419.724 333.844 L
420.282 331.02 L
420.84 328.126 L
421.398 325.163 L
421.956 322.132 L
422.514 319.033 L
423.072 315.867 L
423.63 312.634 L
424.188 309.337 L
424.746 305.975 L
425.304 302.548 L
425.862 299.06 L
426.42 295.508 L
426.978 291.896 L
427.536 288.224 L
428.094 284.492 L
428.652 280.701 L
429.21 276.853 L
429.768 273.045 L
430.326 273.711 L
430.884 274.589 L
431.442 275.41 L
432 276.175 L
432.558 276.883 L
433.116 277.535 L
433.674 278.34 L
434.232 279.191 L
434.79 279.985 L
435.348 280.722 L
435.906 281.401 L
436.464 282.091 L
437.022 282.973 L
437.58 283.796 L
438.138 284.561 L
438.696 285.267 L
439.254 285.915 L
439.812 286.755 L
440.37 287.607 L
440.928 288.4 L
441.486 289.134 L
442.044 289.808 L
442.602 290.537 L
443.16 291.418 L
443.718 292.239 L
444.276 293 L
444.834 293.701 L
445.392 294.34 L
445.95 295.23 L
446.508 296.079 L
447.066 296.867 L
447.624 297.594 L
448.182 298.258 L
448.74 299.042 L
449.298 299.919 L
449.856 300.734 L
450.414 301.487 L
450.972 302.177 L
451.53 302.854 L
452.088 303.759 L
452.646 304.602 L
453.204 305.381 L
453.762 306.096 L
454.32 306.747 L
454.878 307.6 L
455.436 308.469 L
455.994 309.274 L
456.552 310.015 L
457.11 310.691 L
457.668 311.44 L
458.226 312.337 L
458.784 313.168 L
459.342 313.934 L
459.9 314.634 L
460.458 315.281 L
461.016 316.205 L
461.574 317.063 L
462.132 317.854 L
462.69 318.578 L
463.248 319.235 L
463.806 320.073 L
464.364 320.957 L
464.922 321.773 L
465.48 322.522 L
466.038 323.203 L
466.596 323.942 L
467.154 324.852 L
467.712 325.693 L
468.27 326.466 L
468.828 327.17 L
469.386 327.811 L
469.944 328.747 L
470.502 329.614 L
471.06 330.411 L
471.618 331.138 L
472.176 331.795 L
472.734 332.642 L
473.292 333.534 L
473.85 334.355 L
474.408 335.105 L
474.966 335.785 L
475.524 336.538 L
476.082 337.455 L
476.64 338.3 L
477.198 339.074 L
477.756 339.775 L
478.314 340.433 L
478.872 341.376 L
479.43 342.245 L
479.988 343.042 L
480.546 343.766 L
481.104 344.417 L
481.662 345.296 L
482.22 346.19 L
482.778 347.01 L
483.336 347.756 L
483.894 348.429 L
484.452 349.218 L
485.01 350.136 L
485.568 350.979 L
486.126 351.747 L
486.684 352.441 L
487.242 353.139 L
487.8 354.082 L
488.358 354.948 L
488.916 355.739 L
489.474 356.453 L
490.032 357.091 L
490.59 358.027 L
491.148 358.917 L
491.706 359.73 L
492.264 360.466 L
492.822 361.124 L
493.38 361.973 L
493.938 362.886 L
494.496 363.721 L
495.054 364.478 L
495.612 365.157 L
496.17 365.92 L
496.728 366.856 L
497.286 367.713 L
497.844 368.491 L
498.402 369.19 L
498.96 369.866 L
499.518 370.826 L
500.076 371.705 L
500.634 372.504 L
501.192 373.223 L
501.75 373.862 L
502.308 374.795 L
502.866 375.697 L
503.424 376.517 L
503.982 377.257 L
504.54 377.915 L
505.098 378.766 L
505.656 379.689 L
506.214 380.531 L
506.772 381.29 L
507.33 381.967 L
507.888 382.562 L
508.446 383.074 L
509.004 383.503 L
509.562 383.849 L
510.12 384.112 L
510.678 384.293 L
511.236 384.39 L
511.794 384.404 L
512.352 384.335 L
512.91 384.182 L
513.468 383.947 L
514.026 383.629 L
514.584 383.228 L
515.142 382.743 L
515.7 382.177 L
516.258 381.527 L
516.816 380.796 L
517.374 379.982 L
517.932 379.086 L
518.49 378.108 L
519.048 377.048 L
519.606 375.908 L
520.164 374.686 L
520.722 373.383 L
521.28 372.001 LE
1 0 1 C
75.438 48.3724 LS
75.996 49.2536 L
76.554 50.1261 L
77.112 51.0443 L
77.67 51.9249 L
78.228 52.762 L
78.786 53.7101 L
79.344 54.6305 L
79.902 55.4985 L
80.46 56.3185 L
81.018 57.2849 L
81.576 58.2157 L
82.134 59.092 L
82.692 59.8971 L
83.25 60.8237 L
83.808 61.7733 L
84.366 62.6698 L
84.924 63.4992 L
85.482 64.3114 L
86.04 65.2855 L
86.598 66.2091 L
87.156 67.0699 L
87.714 67.857 L
88.272 68.7437 L
88.83 69.6987 L
89.388 70.5951 L
89.946 71.4229 L
90.504 72.1734 L
91.062 73.1336 L
91.62 74.0683 L
92.178 74.939 L
92.736 75.7375 L
93.294 76.5112 L
93.852 77.4859 L
94.41 78.401 L
94.968 79.2485 L
95.526 80.0216 L
96.084 80.8458 L
96.642 81.8062 L
97.2 82.7034 L
97.758 83.5304 L
98.316 84.2815 L
98.874 85.1526 L
99.432 86.0997 L
99.99 86.9809 L
100.548 87.79 L
101.106 88.5222 L
101.664 89.4357 L
102.222 90.3708 L
102.78 91.2378 L
103.338 92.0315 L
103.896 92.7476 L
104.454 93.6986 L
105.012 94.6231 L
105.57 95.4778 L
106.128 96.2582 L
106.686 96.9625 L
107.244 97.9441 L
107.802 98.8593 L
108.36 99.7036 L
108.918 100.473 L
109.476 101.199 L
110.034 102.175 L
110.592 103.082 L
111.15 103.917 L
111.708 104.677 L
112.266 105.422 L
112.824 106.392 L
113.382 107.293 L
113.94 108.121 L
114.498 108.872 L
115.056 109.632 L
115.614 110.598 L
116.172 111.494 L
116.73 112.316 L
117.288 113.061 L
117.846 113.832 L
118.404 114.795 L
118.962 115.686 L
119.52 116.503 L
120.078 117.243 L
120.636 118.022 L
121.194 118.983 L
121.752 119.871 L
122.31 120.684 L
122.868 121.42 L
123.426 122.204 L
123.984 123.163 L
124.542 124.049 L
125.1 124.859 L
125.658 125.592 L
126.216 126.378 L
126.774 127.336 L
127.332 128.221 L
127.89 129.03 L
128.448 129.76 L
129.006 130.545 L
129.564 131.504 L
130.122 132.388 L
130.68 133.196 L
131.238 133.924 L
131.796 134.706 L
132.354 135.666 L
132.912 136.551 L
133.47 137.358 L
134.028 138.086 L
134.586 138.862 L
135.144 139.823 L
135.702 140.709 L
136.26 141.517 L
136.818 142.245 L
137.376 143.012 L
137.934 143.976 L
138.492 144.863 L
139.05 145.672 L
139.608 146.401 L
140.166 147.208 L
140.724 148.125 L
141.282 149.015 L
141.84 149.825 L
142.398 150.599 L
142.956 151.469 L
143.514 152.355 L
144.072 153.216 L
144.63 154.051 L
145.188 154.859 L
145.746 155.73 L
146.304 156.618 L
146.862 157.479 L
147.42 158.312 L
147.978 159.118 L
148.536 159.991 L
149.094 160.88 L
149.652 161.741 L
150.21 162.574 L
150.768 163.378 L
151.326 164.252 L
151.884 165.142 L
152.442 166.003 L
153 166.835 L
153.558 167.637 L
154.116 168.513 L
154.674 169.404 L
155.232 170.266 L
155.79 171.097 L
156.348 171.897 L
156.906 172.774 L
157.464 173.666 L
158.022 174.528 L
158.58 175.358 L
159.138 176.156 L
159.696 177.034 L
160.254 177.928 L
160.812 178.79 L
161.37 179.619 L
161.928 180.415 L
162.486 181.295 L
163.044 182.19 L
163.602 183.052 L
164.16 183.881 L
164.718 184.675 L
165.276 185.556 L
165.834 186.452 L
166.392 187.314 L
166.95 188.142 L
167.508 188.934 L
168.066 189.817 L
168.624 190.714 L
169.182 191.576 L
169.74 192.403 L
170.298 193.193 L
170.856 194.078 L
171.414 194.976 L
171.972 195.838 L
172.53 196.664 L
173.088 197.452 L
173.646 198.339 L
174.204 199.238 L
174.762 200.1 L
175.32 200.925 L
175.878 201.711 L
176.436 202.599 L
176.994 203.5 L
177.552 204.362 L
178.11 205.186 L
178.668 205.97 L
179.226 206.86 L
179.784 207.762 L
180.342 208.624 L
180.9 209.447 L
181.458 210.229 L
182.016 211.121 L
182.574 212.024 L
183.132 212.886 L
183.69 213.708 L
184.248 214.487 L
184.806 215.225 L
185.364 215.92 L
185.922 216.571 L
186.48 217.178 L
187.038 217.74 L
187.596 218.258 L
188.154 218.729 L
188.712 219.299 L
189.27 220.199 L
189.828 221.01 L
190.386 221.732 L
190.944 222.426 L
191.502 223.423 L
192.06 224.331 L
192.618 225.149 L
193.176 225.878 L
193.734 226.542 L
194.292 227.547 L
194.85 228.463 L
195.408 229.288 L
195.966 230.023 L
196.524 230.668 L
197.082 231.671 L
197.64 232.595 L
198.198 233.427 L
198.756 234.169 L
199.314 234.82 L
199.872 235.794 L
200.43 236.726 L
200.988 237.566 L
201.546 238.315 L
202.104 238.972 L
202.662 239.917 L
203.22 240.857 L
203.778 241.705 L
204.336 242.46 L
204.894 243.124 L
205.452 244.039 L
206.01 244.988 L
206.568 245.843 L
207.126 246.606 L
207.684 247.276 L
208.242 248.161 L
208.8 249.118 L
209.358 249.982 L
209.916 250.751 L
210.474 251.428 L
211.032 252.283 L
211.59 253.248 L
212.148 254.12 L
212.706 254.897 L
213.264 255.58 L
213.822 256.404 L
214.38 257.378 L
214.938 258.258 L
215.496 259.043 L
216.054 259.733 L
216.612 260.525 L
217.17 261.508 L
217.728 262.396 L
218.286 263.188 L
218.844 263.885 L
219.402 264.646 L
219.96 265.638 L
220.518 266.534 L
221.076 267.334 L
221.634 268.038 L
222.192 268.766 L
222.75 269.768 L
223.308 270.672 L
223.866 271.48 L
224.424 272.191 L
224.982 272.886 L
225.54 273.897 L
226.098 274.81 L
226.656 275.626 L
227.214 276.344 L
227.772 277.006 L
228.33 278.026 L
228.888 278.948 L
229.446 279.772 L
230.004 280.497 L
230.562 281.126 L
231.12 282.156 L
231.678 283.086 L
232.236 283.918 L
232.794 284.65 L
233.352 285.284 L
233.91 286.285 L
234.468 287.224 L
235.026 288.064 L
235.584 288.804 L
236.142 289.444 L
236.7 290.414 L
237.258 291.362 L
237.816 292.21 L
238.374 292.957 L
238.932 293.604 L
239.49 294.543 L
240.048 295.5 L
240.606 296.356 L
241.164 297.111 L
241.722 297.765 L
242.28 298.672 L
242.838 299.638 L
243.396 300.503 L
243.954 301.265 L
244.512 301.925 L
245.07 302.801 L
245.628 303.777 L
246.186 304.649 L
246.744 305.419 L
247.302 306.086 L
247.86 306.93 L
248.418 307.915 L
248.976 308.796 L
249.534 309.573 L
250.092 310.248 L
250.65 311.059 L
251.208 312.053 L
251.766 312.943 L
252.324 313.728 L
252.882 314.409 L
253.44 315.188 L
253.998 316.191 L
254.556 317.09 L
255.114 317.883 L
255.672 318.571 L
256.23 319.317 L
256.788 320.33 L
257.346 321.237 L
257.904 322.037 L
258.462 322.732 L
259.02 323.446 L
259.578 324.468 L
260.136 325.384 L
260.694 326.192 L
261.252 326.894 L
261.81 327.576 L
262.368 328.607 L
262.926 329.531 L
263.484 330.347 L
264.042 331.057 L
264.6 331.705 L
265.158 332.746 L
265.716 333.678 L
266.274 334.503 L
266.832 335.219 L
267.39 335.834 L
267.948 336.884 L
268.506 337.826 L
269.064 338.658 L
269.622 339.382 L
270.18 339.997 L
270.738 341.023 L
271.296 341.973 L
271.854 342.814 L
272.412 343.545 L
272.97 344.167 L
273.528 345.162 L
274.086 346.121 L
274.644 346.97 L
275.202 347.708 L
275.76 348.336 L
276.318 349.301 L
276.876 350.269 L
277.434 351.126 L
277.992 351.872 L
278.55 352.506 L
279.108 353.44 L
279.666 354.417 L
280.224 355.282 L
280.782 356.035 L
281.34 356.676 L
281.898 357.579 L
282.456 358.565 L
283.014 359.438 L
283.572 360.199 L
284.13 360.847 L
284.688 361.718 L
285.246 362.713 L
285.804 363.595 L
286.362 364.363 L
286.92 365.017 L
287.478 365.858 L
288.036 366.862 L
288.594 367.752 L
289.152 368.527 L
289.71 369.188 L
290.268 369.736 L
290.826 370.169 L
291.384 370.491 L
291.942 370.699 L
292.5 370.796 L
293.058 370.782 L
293.616 370.658 L
294.174 370.424 L
294.732 370.082 L
295.29 369.632 L
295.848 369.075 L
296.406 368.413 L
296.964 367.646 L
297.522 366.776 L
298.08 365.803 L
298.638 364.728 L
299.196 363.554 L
299.754 362.28 L
300.312 360.909 L
300.87 359.44 L
301.428 357.877 L
301.986 356.219 L
302.544 354.468 L
303.102 352.624 L
303.66 350.691 L
304.218 348.668 L
304.776 346.556 L
305.334 344.358 L
305.892 342.073 L
306.45 339.705 L
307.008 337.252 L
307.566 334.718 L
308.124 332.103 L
308.682 329.408 L
309.24 326.634 L
309.798 323.783 L
310.356 320.857 L
310.914 317.855 L
311.472 314.779 L
312.03 311.631 L
312.588 308.411 L
313.146 305.122 L
313.704 301.763 L
314.262 298.336 L
314.82 294.843 L
315.378 291.285 L
315.936 287.662 L
316.494 283.976 L
317.052 280.228 L
317.61 276.419 L
318.168 273.045 L
318.726 273.711 L
319.284 274.589 L
319.842 275.41 L
320.4 276.175 L
320.958 276.883 L
321.516 277.535 L
322.074 278.34 L
322.632 279.191 L
323.19 279.985 L
323.748 280.722 L
324.306 281.401 L
324.864 282.091 L
325.422 282.973 L
325.98 283.796 L
326.538 284.561 L
327.096 285.267 L
327.654 285.915 L
328.212 286.755 L
328.77 287.607 L
329.328 288.4 L
329.886 289.134 L
330.444 289.808 L
331.002 290.537 L
331.56 291.418 L
332.118 292.239 L
332.676 293 L
333.234 293.701 L
333.792 294.34 L
334.35 295.23 L
334.908 296.079 L
335.466 296.867 L
336.024 297.594 L
336.582 298.258 L
337.14 299.042 L
337.698 299.919 L
338.256 300.734 L
338.814 301.487 L
339.372 302.177 L
339.93 302.854 L
340.488 303.759 L
341.046 304.602 L
341.604 305.381 L
342.162 306.096 L
342.72 306.747 L
343.278 307.6 L
343.836 308.469 L
344.394 309.274 L
344.952 310.015 L
345.51 310.691 L
346.068 311.44 L
346.626 312.337 L
347.184 313.168 L
347.742 313.934 L
348.3 314.634 L
348.858 315.281 L
349.416 316.205 L
349.974 317.063 L
350.532 317.854 L
351.09 318.578 L
351.648 319.235 L
352.206 320.073 L
352.764 320.957 L
353.322 321.773 L
353.88 322.522 L
354.438 323.203 L
354.996 323.942 L
355.554 324.852 L
356.112 325.693 L
356.67 326.466 L
357.228 327.17 L
357.786 327.811 L
358.344 328.747 L
358.902 329.614 L
359.46 330.411 L
360.018 331.138 L
360.576 331.795 L
361.134 332.642 L
361.692 333.534 L
362.25 334.355 L
362.808 335.105 L
363.366 335.785 L
363.924 336.538 L
364.482 337.455 L
365.04 338.3 L
365.598 339.074 L
366.156 339.775 L
366.714 340.433 L
367.272 341.376 L
367.83 342.245 L
368.388 343.042 L
368.946 343.766 L
369.504 344.417 L
370.062 345.296 L
370.62 346.19 L
371.178 347.01 L
371.736 347.756 L
372.294 348.429 L
372.852 349.218 L
373.41 350.136 L
373.968 350.979 L
374.526 351.747 L
375.084 352.441 L
375.642 353.139 L
376.2 354.082 L
376.758 354.948 L
377.316 355.739 L
377.874 356.453 L
378.432 357.091 L
378.99 358.027 L
379.548 358.917 L
380.106 359.73 L
380.664 360.466 L
381.222 361.124 L
381.78 361.973 L
382.338 362.886 L
382.896 363.721 L
383.454 364.478 L
384.012 365.157 L
384.57 365.92 L
385.128 366.856 L
385.686 367.713 L
386.244 368.491 L
386.802 369.19 L
387.36 369.866 L
387.918 370.826 L
388.476 371.705 L
389.034 372.504 L
389.592 373.223 L
390.15 373.862 L
390.708 374.795 L
391.266 375.697 L
391.824 376.517 L
392.382 377.257 L
392.94 377.915 L
393.498 378.766 L
394.056 379.689 L
394.614 380.531 L
395.172 381.29 L
395.73 381.967 L
396.288 382.562 L
396.846 383.074 L
397.404 383.503 L
397.962 383.849 L
398.52 384.112 L
399.078 384.293 L
399.636 384.39 L
400.194 384.404 L
400.752 384.335 L
401.31 384.182 L
401.868 383.947 L
402.426 383.629 L
402.984 383.228 L
403.542 382.743 L
404.1 382.177 L
404.658 381.527 L
405.216 380.796 L
405.774 379.982 L
406.332 379.086 L
406.89 378.108 L
407.448 377.048 L
408.006 375.908 L
408.564 374.686 L
409.122 373.383 L
409.68 372.001 L
410.238 370.538 L
410.796 368.995 L
411.354 367.373 L
411.912 365.672 L
412.47 363.893 L
413.028 362.036 L
413.586 360.1 L
414.144 358.088 L
414.702 356 L
415.26 353.835 L
415.818 351.594 L
416.376 349.279 L
416.934 346.889 L
417.492 344.425 L
418.05 341.888 L
418.608 339.278 L
419.166 336.597 L
419.724 333.844 L
420.282 331.02 L
420.84 328.126 L
421.398 325.163 L
421.956 322.132 L
422.514 319.033 L
423.072 315.867 L
423.63 312.634 L
424.188 309.337 L
424.746 305.975 L
425.304 302.548 L
425.862 299.06 L
426.42 295.508 L
426.978 291.896 L
427.536 288.224 L
428.094 284.492 L
428.652 280.701 L
429.21 276.853 L
429.768 273.045 L
430.326 273.711 L
430.884 274.589 L
431.442 275.41 L
432 276.175 L
432.558 276.883 L
433.116 277.535 L
433.674 278.34 L
434.232 279.191 L
434.79 279.985 L
435.348 280.722 L
435.906 281.401 L
436.464 282.091 L
437.022 282.973 L
437.58 283.796 L
438.138 284.561 L
438.696 285.267 L
439.254 285.915 L
439.812 286.755 L
440.37 287.607 L
440.928 288.4 L
441.486 289.134 L
442.044 289.808 L
442.602 290.537 L
443.16 291.418 L
443.718 292.239 L
444.276 293 L
444.834 293.701 L
445.392 294.34 L
445.95 295.23 L
446.508 296.079 L
447.066 296.867 L
447.624 297.594 L
448.182 298.258 L
448.74 299.042 L
449.298 299.919 L
449.856 300.734 L
450.414 301.487 L
450.972 302.177 L
451.53 302.854 L
452.088 303.759 L
452.646 304.602 L
453.204 305.381 L
453.762 306.096 L
454.32 306.747 L
454.878 307.6 L
455.436 308.469 L
455.994 309.274 L
456.552 310.015 L
457.11 310.691 L
457.668 311.44 L
458.226 312.337 L
458.784 313.168 L
459.342 313.934 L
459.9 314.634 L
460.458 315.281 L
461.016 316.205 L
461.574 317.063 L
462.132 317.854 L
462.69 318.578 L
463.248 319.235 L
463.806 320.073 L
464.364 320.957 L
464.922 321.773 L
465.48 322.522 L
466.038 323.203 L
466.596 323.942 L
467.154 324.852 L
467.712 325.693 L
468.27 326.466 L
468.828 327.17 L
469.386 327.811 L
469.944 328.747 L
470.502 329.614 L
471.06 330.411 L
471.618 331.138 L
472.176 331.795 L
472.734 332.642 L
473.292 333.534 L
473.85 334.355 L
474.408 335.105 L
474.966 335.785 L
475.524 336.538 L
476.082 337.455 L
476.64 338.3 L
477.198 339.074 L
477.756 339.775 L
478.314 340.433 L
478.872 341.376 L
479.43 342.245 L
479.988 343.042 L
480.546 343.766 L
481.104 344.417 L
481.662 345.296 L
482.22 346.19 L
482.778 347.01 L
483.336 347.756 L
483.894 348.429 L
484.452 349.218 L
485.01 350.136 L
485.568 350.979 L
486.126 351.747 L
486.684 352.441 L
487.242 353.139 L
487.8 354.082 L
488.358 354.948 L
488.916 355.739 L
489.474 356.453 L
490.032 357.091 L
490.59 358.027 L
491.148 358.917 L
491.706 359.73 L
492.264 360.466 L
492.822 361.124 L
493.38 361.973 L
493.938 362.886 L
494.496 363.721 L
495.054 364.478 L
495.612 365.157 L
496.17 365.92 L
496.728 366.856 L
497.286 367.713 L
497.844 368.491 L
498.402 369.19 L
498.96 369.866 L
499.518 370.826 L
500.076 371.705 L
500.634 372.504 L
501.192 373.223 L
501.75 373.862 L
502.308 374.795 L
502.866 375.697 L
503.424 376.517 L
503.982 377.257 L
504.54 377.915 L
505.098 378.766 L
505.656 379.689 L
506.214 380.531 L
506.772 381.29 L
507.33 381.967 L
507.888 382.562 L
508.446 383.074 L
509.004 383.503 L
509.562 383.849 L
510.12 384.112 L
510.678 384.293 L
511.236 384.39 L
511.794 384.404 L
512.352 384.335 L
512.91 384.182 L
513.468 383.947 L
514.026 383.629 L
514.584 383.228 L
515.142 382.743 L
515.7 382.177 L
516.258 381.527 L
516.816 380.796 L
517.374 379.982 L
517.932 379.086 L
518.49 378.108 L
519.048 377.048 L
519.606 375.908 L
520.164 374.686 L
520.722 373.383 L
521.28 372.001 LE
1 1 1 C
518.538 50.2617 518.538 135.285 518.538 50.2617 T
518.538 50.2617 518.538 135.285 518.538 135.285 T
397.18 135.285 518.538 135.285 397.18 135.285 T
397.18 135.285 518.538 135.285 518.538 135.285 T
397.18 135.285 518.538 50.2617 397.18 50.2617 T
397.18 135.285 518.538 135.285 518.538 50.2617 T
[16 0] 0 setdash
0 0 0 C
397.18 50.2617 LS
518.538 50.2617 LE
397.18 135.285 LS
518.538 135.285 LE
397.18 135.285 LS
518.538 135.285 LE
397.18 50.2617 LS
518.538 50.2617 LE
397.18 50.2617 LS
397.18 135.285 LE
518.538 50.2617 LS
518.538 135.285 LE
518.538 50.2617 LS
518.538 135.285 LE
397.18 50.2617 LS
397.18 135.285 L
397.18 135.285 LE
518.538 135.285 LS
518.538 135.285 LE
518.538 50.2617 LS
518.538 50.2617 LE
397.18 50.2617 LS
397.18 50.2617 LE
(RK2) 423.225 124.657 15 /Helvetica SCL
(AB2+EXACT) 423.225 103.402 15 /Helvetica SCL
(AB2+EULER) 423.225 82.1456 15 /Helvetica SCL
(AB2+RK2) 423.225 60.8896 15 /Helvetica SCL
0.5 W
[] 0 setdash
0 0 1 C
399.921 124.657 LS
420.484 124.657 LE
1 0 0 C
399.921 103.402 LS
420.484 103.402 LE
0 1 0 C
399.921 82.1456 LS
420.484 82.1456 LE
1 0 1 C
399.921 60.8896 LS
420.484 60.8896 LE
grestore
showpage
cleartomark
%%PageTrailer
%%Trailer
end
%%EOF
