%!PS-Adobe-3.0 EPSF-3.0
%%Title: glps_renderer figure
%%Creator: GL2PS 1.3.8, (C) 1999-2012 C. Geuzaine
%%For: Octave
%%CreationDate: Sun Nov 29 15:40:56 2015
%%LanguageLevel: 3
%%DocumentData: Clean7Bit
%%Pages: 1
%%BoundingBox: 0 0 576 432
%%EndComments
%%BeginProlog
/gl2psdict 64 dict def gl2psdict begin
0 setlinecap 0 setlinejoin
/tryPS3shading false def % set to false to force subdivision
/rThreshold 0.064 def % red component subdivision threshold
/gThreshold 0.034 def % green component subdivision threshold
/bThreshold 0.1 def % blue component subdivision threshold
/BD { bind def } bind def
/C  { setrgbcolor } BD
/G  { 0.082 mul exch 0.6094 mul add exch 0.3086 mul add neg 1.0 add setgray } BD
/W  { setlinewidth } BD
/FC { findfont exch /SH exch def SH scalefont setfont } BD
/SW { dup stringwidth pop } BD
/S  { FC moveto show } BD
/SBC{ FC moveto SW -2 div 0 rmoveto show } BD
/SBR{ FC moveto SW neg 0 rmoveto show } BD
/SCL{ FC moveto 0 SH -2 div rmoveto show } BD
/SCC{ FC moveto SW -2 div SH -2 div rmoveto show } BD
/SCR{ FC moveto SW neg SH -2 div rmoveto show } BD
/STL{ FC moveto 0 SH neg rmoveto show } BD
/STC{ FC moveto SW -2 div SH neg rmoveto show } BD
/STR{ FC moveto SW neg SH neg rmoveto show } BD
/FCT { FC translate 0 0 } BD
/SR  { gsave FCT moveto rotate show grestore } BD
/SBCR{ gsave FCT moveto rotate SW -2 div 0 rmoveto show grestore } BD
/SBRR{ gsave FCT moveto rotate SW neg 0 rmoveto show grestore } BD
/SCLR{ gsave FCT moveto rotate 0 SH -2 div rmoveto show grestore} BD
/SCCR{ gsave FCT moveto rotate SW -2 div SH -2 div rmoveto show grestore} BD
/SCRR{ gsave FCT moveto rotate SW neg SH -2 div rmoveto show grestore} BD
/STLR{ gsave FCT moveto rotate 0 SH neg rmoveto show grestore } BD
/STCR{ gsave FCT moveto rotate SW -2 div SH neg rmoveto show grestore } BD
/STRR{ gsave FCT moveto rotate SW neg SH neg rmoveto show grestore } BD
/P  { newpath 0.0 360.0 arc closepath fill } BD
/LS { newpath moveto } BD
/L  { lineto } BD
/LE { lineto stroke } BD
/T  { newpath moveto lineto lineto closepath fill } BD
/STshfill {
      /b1 exch def /g1 exch def /r1 exch def /y1 exch def /x1 exch def
      /b2 exch def /g2 exch def /r2 exch def /y2 exch def /x2 exch def
      /b3 exch def /g3 exch def /r3 exch def /y3 exch def /x3 exch def
      gsave << /ShadingType 4 /ColorSpace [/DeviceRGB]
      /DataSource [ 0 x1 y1 r1 g1 b1 0 x2 y2 r2 g2 b2 0 x3 y3 r3 g3 b3 ] >>
      shfill grestore } BD
/Tm { 3 -1 roll 8 -1 roll 13 -1 roll add add 3 div
      3 -1 roll 7 -1 roll 11 -1 roll add add 3 div
      3 -1 roll 6 -1 roll 9 -1 roll add add 3 div C T } BD
/STsplit {
      4 index 15 index add 0.5 mul
      4 index 15 index add 0.5 mul
      4 index 15 index add 0.5 mul
      4 index 15 index add 0.5 mul
      4 index 15 index add 0.5 mul
      5 copy 5 copy 25 15 roll
      9 index 30 index add 0.5 mul
      9 index 30 index add 0.5 mul
      9 index 30 index add 0.5 mul
      9 index 30 index add 0.5 mul
      9 index 30 index add 0.5 mul
      5 copy 5 copy 35 5 roll 25 5 roll 15 5 roll
      4 index 10 index add 0.5 mul
      4 index 10 index add 0.5 mul
      4 index 10 index add 0.5 mul
      4 index 10 index add 0.5 mul
      4 index 10 index add 0.5 mul
      5 copy 5 copy 40 5 roll 25 5 roll 15 5 roll 25 5 roll
      STnoshfill STnoshfill STnoshfill STnoshfill } BD
/STnoshfill {
      2 index 8 index sub abs rThreshold gt
      { STsplit }
      { 1 index 7 index sub abs gThreshold gt
        { STsplit }
        { dup 6 index sub abs bThreshold gt
          { STsplit }
          { 2 index 13 index sub abs rThreshold gt
            { STsplit }
            { 1 index 12 index sub abs gThreshold gt
              { STsplit }
              { dup 11 index sub abs bThreshold gt
                { STsplit }
                { 7 index 13 index sub abs rThreshold gt
                  { STsplit }
                  { 6 index 12 index sub abs gThreshold gt
                    { STsplit }
                    { 5 index 11 index sub abs bThreshold gt
                      { STsplit }
                      { Tm }
                      ifelse }
                    ifelse }
                  ifelse }
                ifelse }
              ifelse }
            ifelse }
          ifelse }
        ifelse }
      ifelse } BD
tryPS3shading
{ /shfill where
  { /ST { STshfill } BD }
  { /ST { STnoshfill } BD }
  ifelse }
{ /ST { STnoshfill } BD }
ifelse
end
%%EndProlog
%%BeginSetup
/DeviceRGB setcolorspace
gl2psdict begin
%%EndSetup
%%Page: 1 1
%%BeginPageSetup
%%EndPageSetup
mark
gsave
1.0 1.0 scale
1 1 1 C
521.28 47.52 521.28 399.6 521.28 47.52 T
521.28 47.52 521.28 399.6 521.28 399.6 T
87.0032 399.6 521.28 399.6 87.0032 399.6 T
87.0032 399.6 521.28 399.6 521.28 399.6 T
87.0032 399.6 521.28 47.52 87.0032 47.52 T
87.0032 399.6 521.28 399.6 521.28 47.52 T
0.5 W
[16 0] 0 setdash
0 0 0 C
87.0032 47.52 LS
521.28 47.52 LE
87.0032 399.6 LS
521.28 399.6 LE
87.0032 399.6 LS
521.28 399.6 LE
87.0032 47.52 LS
521.28 47.52 LE
87.0032 47.52 LS
87.0032 399.6 LE
521.28 47.52 LS
521.28 399.6 LE
521.28 47.52 LS
521.28 399.6 LE
87.0032 47.52 LS
87.0032 399.6 L
87.0032 399.6 LE
521.28 399.6 LS
521.28 399.6 LE
521.28 47.52 LS
521.28 47.52 LE
87.0032 47.52 LS
87.0032 47.52 L
87.0032 51.8637 LE
87.0032 399.6 LS
87.0032 395.256 LE
304.142 47.52 LS
304.142 51.8637 LE
304.142 399.6 LS
304.142 395.256 LE
521.28 47.52 LS
521.28 51.8637 LE
521.28 399.6 LS
521.28 395.256 LE
(10) 87.0032 42.5189 15 /Helvetica STC
(100) 304.142 42.5189 15 /Helvetica STC
(1000) 521.28 42.5189 15 /Helvetica STC
87.0032 47.52 LS
91.3487 47.52 LE
521.28 47.52 LS
516.934 47.52 LE
87.0032 106.2 LS
91.3487 106.2 LE
521.28 106.2 LS
516.934 106.2 LE
87.0032 164.88 LS
91.3487 164.88 LE
521.28 164.88 LS
516.934 164.88 LE
87.0032 223.56 LS
91.3487 223.56 LE
521.28 223.56 LS
516.934 223.56 LE
87.0032 282.24 LS
91.3487 282.24 LE
521.28 282.24 LS
516.934 282.24 LE
87.0032 340.92 LS
91.3487 340.92 LE
521.28 340.92 LS
516.934 340.92 LE
87.0032 399.6 LS
91.3487 399.6 LE
521.28 399.6 LS
516.934 399.6 LE
(0.001) 82 47.52 15 /Helvetica SCR
(0.010) 82 106.2 15 /Helvetica SCR
(0.100) 82 164.88 15 /Helvetica SCR
(1.000) 82 223.56 15 /Helvetica SCR
(10.000) 82 282.24 15 /Helvetica SCR
(100.000) 82 340.92 15 /Helvetica SCR
(1000.000) 82 399.6 15 /Helvetica SCR
(NX) 304.142 24.5188 15 /Helvetica STC
(Run time (s)) 90 18 223.56 15 /Helvetica SBCR
2 W
[] 0 setdash
1 0 0 C
173.411 111.476 LS
238.776 112.491 L
304.142 156.008 L
369.507 223.123 L
434.872 293.244 LE
176.411 111.476 LS
175.838 109.712 L
174.338 108.622 L
172.484 108.622 L
170.984 109.712 L
170.411 111.476 L
170.984 113.239 L
172.484 114.329 L
174.338 114.329 L
175.838 113.239 L
176.411 111.476 LE
241.776 112.491 LS
241.203 110.728 L
239.703 109.638 L
237.849 109.638 L
236.349 110.728 L
235.776 112.491 L
236.349 114.254 L
237.849 115.344 L
239.703 115.344 L
241.203 114.254 L
241.776 112.491 LE
307.142 156.008 LS
306.569 154.245 L
305.069 153.155 L
303.215 153.155 L
301.715 154.245 L
301.142 156.008 L
301.715 157.771 L
303.215 158.861 L
305.069 158.861 L
306.569 157.771 L
307.142 156.008 LE
372.507 223.123 LS
371.934 221.36 L
370.434 220.27 L
368.58 220.27 L
367.08 221.36 L
366.507 223.123 L
367.08 224.886 L
368.58 225.976 L
370.434 225.976 L
371.934 224.886 L
372.507 223.123 LE
437.872 293.244 LS
437.299 291.48 L
435.799 290.391 L
433.945 290.391 L
432.445 291.48 L
431.872 293.244 L
432.445 295.007 L
433.945 296.097 L
435.799 296.097 L
437.299 295.007 L
437.872 293.244 LE
0 0 1 C
173.411 99.2396 LS
238.776 114.775 L
304.142 146.069 L
369.507 204.749 L
434.872 267.69 LE
173.411 102.24 LS
170.411 96.2397 L
176.411 96.2397 L
173.411 102.24 LE
238.776 117.775 LS
235.776 111.775 L
241.776 111.775 L
238.776 117.775 LE
304.142 149.069 LS
301.142 143.069 L
307.142 143.069 L
304.142 149.069 LE
369.507 207.749 LS
366.507 201.749 L
372.507 201.749 L
369.507 207.749 LE
434.872 270.69 LS
431.872 264.69 L
437.872 264.69 L
434.872 270.69 LE
0 1 0 C
173.411 251.129 LS
238.776 306.394 L
304.142 305.489 L
369.507 308.479 L
434.872 353.989 LE
170.411 254.129 LS
170.411 248.129 L
176.411 248.129 L
176.411 254.129 L
170.411 254.129 LE
235.776 309.394 LS
235.776 303.394 L
241.776 303.394 L
241.776 309.394 L
235.776 309.394 LE
301.142 308.489 LS
301.142 302.489 L
307.142 302.489 L
307.142 308.489 L
301.142 308.489 LE
366.507 311.479 LS
366.507 305.479 L
372.507 305.479 L
372.507 311.479 L
366.507 311.479 LE
431.872 356.989 LS
431.872 350.989 L
437.872 350.989 L
437.872 356.989 L
431.872 356.989 LE
1 1 1 C
518.534 50.2658 518.534 132.56 518.534 50.2658 T
518.534 50.2658 518.534 132.56 518.534 132.56 T
316.903 132.56 518.534 132.56 316.903 132.56 T
316.903 132.56 518.534 132.56 518.534 132.56 T
316.903 132.56 518.534 50.2658 316.903 50.2658 T
316.903 132.56 518.534 132.56 518.534 50.2658 T
[16 0] 0 setdash
0 0 0 C
316.903 50.2658 LS
518.534 50.2658 LE
316.903 132.56 LS
518.534 132.56 LE
316.903 132.56 LS
518.534 132.56 LE
316.903 50.2658 LS
518.534 50.2658 LE
316.903 50.2658 LS
316.903 132.56 LE
518.534 50.2658 LS
518.534 132.56 LE
518.534 50.2658 LS
518.534 132.56 LE
316.903 50.2658 LS
316.903 132.56 L
316.903 132.56 LE
518.534 132.56 LS
518.534 132.56 LE
518.534 50.2658 LS
518.534 50.2658 LE
316.903 50.2658 LS
316.903 50.2658 LE
(RK2) 342.988 118.845 20 /Helvetica SCL
(Implicit, dt=0.1) 342.988 91.4131 20 /Helvetica SCL
(Implicit, Huge dt) 342.988 63.9816 20 /Helvetica SCL
0.5 W
[] 0 setdash
1 0 0 C
319.649 118.845 LS
340.243 118.845 LE
332.946 118.845 LS
332.373 117.081 L
330.873 115.991 L
329.019 115.991 L
327.519 117.081 L
326.946 118.845 L
327.519 120.608 L
329.019 121.698 L
330.873 121.698 L
332.373 120.608 L
332.946 118.845 LE
0 0 1 C
319.649 91.4131 LS
340.243 91.4131 LE
329.946 94.4131 LS
326.946 88.4131 L
332.946 88.4131 L
329.946 94.4131 LE
0 1 0 C
319.649 63.9816 LS
340.243 63.9816 LE
326.946 66.9816 LS
326.946 60.9816 L
332.946 60.9816 L
332.946 66.9816 L
326.946 66.9816 LE
grestore
showpage
cleartomark
%%PageTrailer
%%Trailer
end
%%EOF
