%!PS-Adobe-3.0 EPSF-3.0
%%Title: glps_renderer figure
%%Creator: GL2PS 1.3.8, (C) 1999-2012 C. Geuzaine
%%For: Octave
%%CreationDate: Sun Nov 29 15:40:57 2015
%%LanguageLevel: 3
%%DocumentData: Clean7Bit
%%Pages: 1
%%BoundingBox: 0 0 560 420
%%EndComments
%%BeginProlog
/gl2psdict 64 dict def gl2psdict begin
0 setlinecap 0 setlinejoin
/tryPS3shading false def % set to false to force subdivision
/rThreshold 0.064 def % red component subdivision threshold
/gThreshold 0.034 def % green component subdivision threshold
/bThreshold 0.1 def % blue component subdivision threshold
/BD { bind def } bind def
/C  { setrgbcolor } BD
/G  { 0.082 mul exch 0.6094 mul add exch 0.3086 mul add neg 1.0 add setgray } BD
/W  { setlinewidth } BD
/FC { findfont exch /SH exch def SH scalefont setfont } BD
/SW { dup stringwidth pop } BD
/S  { FC moveto show } BD
/SBC{ FC moveto SW -2 div 0 rmoveto show } BD
/SBR{ FC moveto SW neg 0 rmoveto show } BD
/SCL{ FC moveto 0 SH -2 div rmoveto show } BD
/SCC{ FC moveto SW -2 div SH -2 div rmoveto show } BD
/SCR{ FC moveto SW neg SH -2 div rmoveto show } BD
/STL{ FC moveto 0 SH neg rmoveto show } BD
/STC{ FC moveto SW -2 div SH neg rmoveto show } BD
/STR{ FC moveto SW neg SH neg rmoveto show } BD
/FCT { FC translate 0 0 } BD
/SR  { gsave FCT moveto rotate show grestore } BD
/SBCR{ gsave FCT moveto rotate SW -2 div 0 rmoveto show grestore } BD
/SBRR{ gsave FCT moveto rotate SW neg 0 rmoveto show grestore } BD
/SCLR{ gsave FCT moveto rotate 0 SH -2 div rmoveto show grestore} BD
/SCCR{ gsave FCT moveto rotate SW -2 div SH -2 div rmoveto show grestore} BD
/SCRR{ gsave FCT moveto rotate SW neg SH -2 div rmoveto show grestore} BD
/STLR{ gsave FCT moveto rotate 0 SH neg rmoveto show grestore } BD
/STCR{ gsave FCT moveto rotate SW -2 div SH neg rmoveto show grestore } BD
/STRR{ gsave FCT moveto rotate SW neg SH neg rmoveto show grestore } BD
/P  { newpath 0.0 360.0 arc closepath fill } BD
/LS { newpath moveto } BD
/L  { lineto } BD
/LE { lineto stroke } BD
/T  { newpath moveto lineto lineto closepath fill } BD
/STshfill {
      /b1 exch def /g1 exch def /r1 exch def /y1 exch def /x1 exch def
      /b2 exch def /g2 exch def /r2 exch def /y2 exch def /x2 exch def
      /b3 exch def /g3 exch def /r3 exch def /y3 exch def /x3 exch def
      gsave << /ShadingType 4 /ColorSpace [/DeviceRGB]
      /DataSource [ 0 x1 y1 r1 g1 b1 0 x2 y2 r2 g2 b2 0 x3 y3 r3 g3 b3 ] >>
      shfill grestore } BD
/Tm { 3 -1 roll 8 -1 roll 13 -1 roll add add 3 div
      3 -1 roll 7 -1 roll 11 -1 roll add add 3 div
      3 -1 roll 6 -1 roll 9 -1 roll add add 3 div C T } BD
/STsplit {
      4 index 15 index add 0.5 mul
      4 index 15 index add 0.5 mul
      4 index 15 index add 0.5 mul
      4 index 15 index add 0.5 mul
      4 index 15 index add 0.5 mul
      5 copy 5 copy 25 15 roll
      9 index 30 index add 0.5 mul
      9 index 30 index add 0.5 mul
      9 index 30 index add 0.5 mul
      9 index 30 index add 0.5 mul
      9 index 30 index add 0.5 mul
      5 copy 5 copy 35 5 roll 25 5 roll 15 5 roll
      4 index 10 index add 0.5 mul
      4 index 10 index add 0.5 mul
      4 index 10 index add 0.5 mul
      4 index 10 index add 0.5 mul
      4 index 10 index add 0.5 mul
      5 copy 5 copy 40 5 roll 25 5 roll 15 5 roll 25 5 roll
      STnoshfill STnoshfill STnoshfill STnoshfill } BD
/STnoshfill {
      2 index 8 index sub abs rThreshold gt
      { STsplit }
      { 1 index 7 index sub abs gThreshold gt
        { STsplit }
        { dup 6 index sub abs bThreshold gt
          { STsplit }
          { 2 index 13 index sub abs rThreshold gt
            { STsplit }
            { 1 index 12 index sub abs gThreshold gt
              { STsplit }
              { dup 11 index sub abs bThreshold gt
                { STsplit }
                { 7 index 13 index sub abs rThreshold gt
                  { STsplit }
                  { 6 index 12 index sub abs gThreshold gt
                    { STsplit }
                    { 5 index 11 index sub abs bThreshold gt
                      { STsplit }
                      { Tm }
                      ifelse }
                    ifelse }
                  ifelse }
                ifelse }
              ifelse }
            ifelse }
          ifelse }
        ifelse }
      ifelse } BD
tryPS3shading
{ /shfill where
  { /ST { STshfill } BD }
  { /ST { STnoshfill } BD }
  ifelse }
{ /ST { STnoshfill } BD }
ifelse
end
%%EndProlog
%%BeginSetup
/DeviceRGB setcolorspace
gl2psdict begin
%%EndSetup
%%Page: 1 1
%%BeginPageSetup
%%EndPageSetup
mark
gsave
1.0 1.0 scale
1 1 1 C
506.8 46.2 506.8 388.5 506.8 46.2 T
506.8 46.2 506.8 388.5 506.8 388.5 T
83.0012 388.5 506.8 388.5 83.0012 388.5 T
83.0012 388.5 506.8 388.5 506.8 388.5 T
83.0012 388.5 506.8 46.2 83.0012 46.2 T
83.0012 388.5 506.8 388.5 506.8 46.2 T
0.5 W
[16 0] 0 setdash
0 0 0 C
83.0012 46.2 LS
506.8 46.2 LE
83.0012 388.5 LS
506.8 388.5 LE
83.0012 388.5 LS
506.8 388.5 LE
83.0012 46.2 LS
506.8 46.2 LE
83.0012 46.2 LS
83.0012 388.5 LE
506.8 46.2 LS
506.8 388.5 LE
506.8 46.2 LS
506.8 388.5 LE
83.0012 46.2 LS
83.0012 388.5 L
83.0012 388.5 LE
506.8 388.5 LS
506.8 388.5 LE
506.8 46.2 LS
506.8 46.2 LE
83.0012 46.2 LS
83.0012 46.2 L
83.0012 50.4417 LE
83.0012 388.5 LS
83.0012 384.258 LE
294.901 46.2 LS
294.901 50.4417 LE
294.901 388.5 LS
294.901 384.258 LE
506.8 46.2 LS
506.8 50.4417 LE
506.8 388.5 LS
506.8 384.258 LE
(10) 83.0012 41.1956 15 /Helvetica STC
(100) 294.901 41.1956 15 /Helvetica STC
(1000) 506.8 41.1956 15 /Helvetica STC
83.0012 46.2 LS
87.2372 46.2 LE
506.8 46.2 LS
502.564 46.2 LE
83.0012 114.66 LS
87.2372 114.66 LE
506.8 114.66 LS
502.564 114.66 LE
83.0012 183.12 LS
87.2372 183.12 LE
506.8 183.12 LS
502.564 183.12 LE
83.0012 251.58 LS
87.2372 251.58 LE
506.8 251.58 LS
502.564 251.58 LE
83.0012 320.04 LS
87.2372 320.04 LE
506.8 320.04 LS
502.564 320.04 LE
83.0012 388.5 LS
87.2372 388.5 LE
506.8 388.5 LS
502.564 388.5 LE
(10) 78.0036 46.2 15 /Helvetica SCR
(100) 78.0036 114.66 15 /Helvetica SCR
(1000) 78.0036 183.12 15 /Helvetica SCR
(10000) 78.0036 251.58 15 /Helvetica SCR
(100000) 78.0036 320.04 15 /Helvetica SCR
(1000000) 78.0036 388.5 15 /Helvetica SCR
(NX) 294.901 23.1956 15 /Helvetica STC
(Number of iterations) 90 18.0036 217.35 15 /Helvetica SBCR
2 W
[] 0 setdash
1 0 0 C
167.324 177.328 LS
231.113 142.258 L
294.901 158.096 L
358.689 198.349 L
422.477 238.602 LE
170.324 177.328 LS
169.751 175.565 L
168.251 174.475 L
166.397 174.475 L
164.897 175.565 L
164.324 177.328 L
164.897 179.092 L
166.397 180.181 L
168.251 180.181 L
169.751 179.092 L
170.324 177.328 LE
234.113 142.258 LS
233.54 140.494 L
232.04 139.404 L
230.185 139.404 L
228.685 140.494 L
228.113 142.258 L
228.685 144.021 L
230.185 145.111 L
232.04 145.111 L
233.54 144.021 L
234.113 142.258 LE
297.901 158.096 LS
297.328 156.333 L
295.828 155.243 L
293.974 155.243 L
292.474 156.333 L
291.901 158.096 L
292.474 159.86 L
293.974 160.949 L
295.828 160.949 L
297.328 159.86 L
297.901 158.096 LE
361.689 198.349 LS
361.116 196.586 L
359.616 195.496 L
357.762 195.496 L
356.262 196.586 L
355.689 198.349 L
356.262 200.113 L
357.762 201.203 L
359.616 201.203 L
361.116 200.113 L
361.689 198.349 LE
425.477 238.602 LS
424.904 236.839 L
423.404 235.749 L
421.55 235.749 L
420.05 236.839 L
419.477 238.602 L
420.05 240.366 L
421.55 241.455 L
423.404 241.455 L
424.904 240.366 L
425.477 238.602 LE
0 0 1 C
167.324 106.5 LS
231.113 99.4722 L
294.901 100.447 L
358.689 129.368 L
422.477 161.545 LE
167.324 109.5 LS
164.324 103.5 L
170.324 103.5 L
167.324 109.5 LE
231.113 102.472 LS
228.113 96.4722 L
234.113 96.4722 L
231.113 102.472 LE
294.901 103.447 LS
291.901 97.4471 L
297.901 97.4471 L
294.901 103.447 LE
358.689 132.368 LS
355.689 126.368 L
361.689 126.368 L
358.689 132.368 LE
422.477 164.545 LS
419.477 158.545 L
425.477 158.545 L
422.477 164.545 LE
0 1 0 C
167.324 306.587 LS
231.113 330.139 L
294.901 288.759 L
358.689 250.659 L
422.477 261.846 LE
164.324 309.587 LS
164.324 303.587 L
170.324 303.587 L
170.324 309.587 L
164.324 309.587 LE
228.113 333.139 LS
228.113 327.139 L
234.113 327.139 L
234.113 333.139 L
228.113 333.139 LE
291.901 291.759 LS
291.901 285.759 L
297.901 285.759 L
297.901 291.759 L
291.901 291.759 LE
355.689 253.659 LS
355.689 247.659 L
361.689 247.659 L
361.689 253.659 L
355.689 253.659 LE
419.477 264.846 LS
419.477 258.846 L
425.477 258.846 L
425.477 264.846 L
419.477 264.846 LE
1 1 1 C
504.13 305.822 504.13 385.83 504.13 305.822 T
504.13 305.822 504.13 385.83 504.13 385.83 T
308.1 385.83 504.13 385.83 308.1 385.83 T
308.1 385.83 504.13 385.83 504.13 385.83 T
308.1 385.83 504.13 305.822 308.1 305.822 T
308.1 385.83 504.13 385.83 504.13 305.822 T
[16 0] 0 setdash
0 0 0 C
308.1 305.822 LS
504.13 305.822 LE
308.1 385.83 LS
504.13 385.83 LE
308.1 385.83 LS
504.13 385.83 LE
308.1 305.822 LS
504.13 305.822 LE
308.1 305.822 LS
308.1 385.83 LE
504.13 305.822 LS
504.13 385.83 LE
504.13 305.822 LS
504.13 385.83 LE
308.1 305.822 LS
308.1 385.83 L
308.1 385.83 LE
504.13 385.83 LS
504.13 385.83 LE
504.13 305.822 LS
504.13 305.822 LE
308.1 305.822 LS
308.1 305.822 LE
(RK2) 333.461 372.496 20 /Helvetica SCL
(Implicit, dt=0.1) 333.461 345.826 20 /Helvetica SCL
(Implicit, Huge dt) 333.461 319.157 20 /Helvetica SCL
0.5 W
[] 0 setdash
1 0 0 C
310.77 372.496 LS
330.791 372.496 LE
323.781 372.496 LS
323.208 370.732 L
321.708 369.643 L
319.854 369.643 L
318.354 370.732 L
317.781 372.496 L
318.354 374.259 L
319.854 375.349 L
321.708 375.349 L
323.208 374.259 L
323.781 372.496 LE
0 0 1 C
310.77 345.826 LS
330.791 345.826 LE
320.781 348.826 LS
317.781 342.826 L
323.781 342.826 L
320.781 348.826 LE
0 1 0 C
310.77 319.157 LS
330.791 319.157 LE
317.781 322.157 LS
317.781 316.157 L
323.781 316.157 L
323.781 322.157 L
317.781 322.157 LE
grestore
showpage
cleartomark
%%PageTrailer
%%Trailer
end
%%EOF
