%!PS-Adobe-3.0 EPSF-3.0
%%Title: glps_renderer figure
%%Creator: GL2PS 1.3.8, (C) 1999-2012 C. Geuzaine
%%For: Octave
%%CreationDate: Sun Nov 29 15:33:34 2015
%%LanguageLevel: 3
%%DocumentData: Clean7Bit
%%Pages: 1
%%BoundingBox: 0 0 576 432
%%EndComments
%%BeginProlog
/gl2psdict 64 dict def gl2psdict begin
0 setlinecap 0 setlinejoin
/tryPS3shading false def % set to false to force subdivision
/rThreshold 0.064 def % red component subdivision threshold
/gThreshold 0.034 def % green component subdivision threshold
/bThreshold 0.1 def % blue component subdivision threshold
/BD { bind def } bind def
/C  { setrgbcolor } BD
/G  { 0.082 mul exch 0.6094 mul add exch 0.3086 mul add neg 1.0 add setgray } BD
/W  { setlinewidth } BD
/FC { findfont exch /SH exch def SH scalefont setfont } BD
/SW { dup stringwidth pop } BD
/S  { FC moveto show } BD
/SBC{ FC moveto SW -2 div 0 rmoveto show } BD
/SBR{ FC moveto SW neg 0 rmoveto show } BD
/SCL{ FC moveto 0 SH -2 div rmoveto show } BD
/SCC{ FC moveto SW -2 div SH -2 div rmoveto show } BD
/SCR{ FC moveto SW neg SH -2 div rmoveto show } BD
/STL{ FC moveto 0 SH neg rmoveto show } BD
/STC{ FC moveto SW -2 div SH neg rmoveto show } BD
/STR{ FC moveto SW neg SH neg rmoveto show } BD
/FCT { FC translate 0 0 } BD
/SR  { gsave FCT moveto rotate show grestore } BD
/SBCR{ gsave FCT moveto rotate SW -2 div 0 rmoveto show grestore } BD
/SBRR{ gsave FCT moveto rotate SW neg 0 rmoveto show grestore } BD
/SCLR{ gsave FCT moveto rotate 0 SH -2 div rmoveto show grestore} BD
/SCCR{ gsave FCT moveto rotate SW -2 div SH -2 div rmoveto show grestore} BD
/SCRR{ gsave FCT moveto rotate SW neg SH -2 div rmoveto show grestore} BD
/STLR{ gsave FCT moveto rotate 0 SH neg rmoveto show grestore } BD
/STCR{ gsave FCT moveto rotate SW -2 div SH neg rmoveto show grestore } BD
/STRR{ gsave FCT moveto rotate SW neg SH neg rmoveto show grestore } BD
/P  { newpath 0.0 360.0 arc closepath fill } BD
/LS { newpath moveto } BD
/L  { lineto } BD
/LE { lineto stroke } BD
/T  { newpath moveto lineto lineto closepath fill } BD
/STshfill {
      /b1 exch def /g1 exch def /r1 exch def /y1 exch def /x1 exch def
      /b2 exch def /g2 exch def /r2 exch def /y2 exch def /x2 exch def
      /b3 exch def /g3 exch def /r3 exch def /y3 exch def /x3 exch def
      gsave << /ShadingType 4 /ColorSpace [/DeviceRGB]
      /DataSource [ 0 x1 y1 r1 g1 b1 0 x2 y2 r2 g2 b2 0 x3 y3 r3 g3 b3 ] >>
      shfill grestore } BD
/Tm { 3 -1 roll 8 -1 roll 13 -1 roll add add 3 div
      3 -1 roll 7 -1 roll 11 -1 roll add add 3 div
      3 -1 roll 6 -1 roll 9 -1 roll add add 3 div C T } BD
/STsplit {
      4 index 15 index add 0.5 mul
      4 index 15 index add 0.5 mul
      4 index 15 index add 0.5 mul
      4 index 15 index add 0.5 mul
      4 index 15 index add 0.5 mul
      5 copy 5 copy 25 15 roll
      9 index 30 index add 0.5 mul
      9 index 30 index add 0.5 mul
      9 index 30 index add 0.5 mul
      9 index 30 index add 0.5 mul
      9 index 30 index add 0.5 mul
      5 copy 5 copy 35 5 roll 25 5 roll 15 5 roll
      4 index 10 index add 0.5 mul
      4 index 10 index add 0.5 mul
      4 index 10 index add 0.5 mul
      4 index 10 index add 0.5 mul
      4 index 10 index add 0.5 mul
      5 copy 5 copy 40 5 roll 25 5 roll 15 5 roll 25 5 roll
      STnoshfill STnoshfill STnoshfill STnoshfill } BD
/STnoshfill {
      2 index 8 index sub abs rThreshold gt
      { STsplit }
      { 1 index 7 index sub abs gThreshold gt
        { STsplit }
        { dup 6 index sub abs bThreshold gt
          { STsplit }
          { 2 index 13 index sub abs rThreshold gt
            { STsplit }
            { 1 index 12 index sub abs gThreshold gt
              { STsplit }
              { dup 11 index sub abs bThreshold gt
                { STsplit }
                { 7 index 13 index sub abs rThreshold gt
                  { STsplit }
                  { 6 index 12 index sub abs gThreshold gt
                    { STsplit }
                    { 5 index 11 index sub abs bThreshold gt
                      { STsplit }
                      { Tm }
                      ifelse }
                    ifelse }
                  ifelse }
                ifelse }
              ifelse }
            ifelse }
          ifelse }
        ifelse }
      ifelse } BD
tryPS3shading
{ /shfill where
  { /ST { STshfill } BD }
  { /ST { STnoshfill } BD }
  ifelse }
{ /ST { STnoshfill } BD }
ifelse
end
%%EndProlog
%%BeginSetup
/DeviceRGB setcolorspace
gl2psdict begin
%%EndSetup
%%Page: 1 1
%%BeginPageSetup
%%EndPageSetup
mark
gsave
1.0 1.0 scale
1 1 1 C
521.28 47.52 521.28 399.6 521.28 47.52 T
521.28 47.52 521.28 399.6 521.28 399.6 T
74.8799 399.6 521.28 399.6 74.8799 399.6 T
74.8799 399.6 521.28 399.6 521.28 399.6 T
74.8799 399.6 521.28 47.52 74.8799 47.52 T
74.8799 399.6 521.28 399.6 521.28 47.52 T
0.5 W
[16 0] 0 setdash
0 0 0 C
74.8799 47.52 LS
521.28 47.52 LE
74.8799 399.6 LS
521.28 399.6 LE
74.8799 399.6 LS
521.28 399.6 LE
74.8799 47.52 LS
521.28 47.52 LE
74.8799 47.52 LS
74.8799 399.6 LE
521.28 47.52 LS
521.28 399.6 LE
521.28 47.52 LS
521.28 399.6 LE
74.8799 47.52 LS
74.8799 399.6 L
74.8799 399.6 LE
521.28 399.6 LS
521.28 399.6 LE
521.28 47.52 LS
521.28 47.52 LE
74.8799 47.52 LS
74.8799 47.52 L
74.8799 51.985 LE
74.8799 399.6 LS
74.8799 395.135 LE
521.28 47.52 LS
521.28 51.985 LE
521.28 399.6 LS
521.28 395.135 LE
(100) 74.88 42.5189 15 /Helvetica STC
(1000) 521.28 42.5189 15 /Helvetica STC
74.8799 47.52 LS
79.348 47.52 LE
521.28 47.52 LS
516.812 47.52 LE
74.8799 223.56 LS
79.348 223.56 LE
521.28 223.56 LS
516.812 223.56 LE
74.8799 399.6 LS
79.348 399.6 LE
521.28 399.6 LS
516.812 399.6 LE
(1e-4) 69.8755 47.52 15 /Helvetica SCR
(1e-3) 69.8755 223.56 15 /Helvetica SCR
(1e-2) 69.8755 399.6 15 /Helvetica SCR
(N) 298.08 24.5188 15 /Helvetica STC
(Error Norm) 90 36.8755 223.56 15 /Helvetica SBCR
(Error norms for the exit temperature profile (X=120)) 298.08 409.6 15 /Helvetica SBC
2 W
[] 0 setdash
428.604 94.4514 LS
294.224 217.35 L
159.844 326.861 LE
[12 4] 0 setdash
428.604 107.661 LS
294.224 223.419 L
159.844 331.78 LE
[4 5 1 6] 0 setdash
428.604 159.713 LS
294.224 264.552 L
159.844 367.957 LE
1 1 1 C
315.257 50.2658 315.257 132.56 315.257 50.2658 T
315.257 50.2658 315.257 132.56 315.257 132.56 T
77.6258 132.56 315.257 132.56 77.6258 132.56 T
77.6258 132.56 315.257 132.56 315.257 132.56 T
77.6258 132.56 315.257 50.2658 77.6258 50.2658 T
77.6258 132.56 315.257 132.56 315.257 50.2658 T
[16 0] 0 setdash
0 0 0 C
77.6258 50.2658 LS
315.257 50.2658 LE
77.6258 132.56 LS
315.257 132.56 LE
77.6258 132.56 LS
315.257 132.56 LE
77.6258 50.2658 LS
315.257 50.2658 LE
77.6258 50.2658 LS
77.6258 132.56 LE
315.257 50.2658 LS
315.257 132.56 LE
315.257 50.2658 LS
315.257 132.56 LE
77.6258 50.2658 LS
77.6258 132.56 L
77.6258 132.56 LE
315.257 132.56 LS
315.257 132.56 LE
315.257 50.2658 LS
315.257 50.2658 LE
77.6258 50.2658 LS
77.6258 50.2658 LE
(L1, slope =-2.1928) 103.711 118.845 20 /Helvetica SCL
(L2, slope =-2.1146) 103.711 91.4131 20 /Helvetica SCL
(Linf, slope =-1.9648) 103.711 63.9816 20 /Helvetica SCL
0.5 W
[] 0 setdash
80.3716 118.845 LS
100.965 118.845 LE
[12 4] 0 setdash
80.3716 91.4131 LS
100.965 91.4131 LE
[4 5 1 6] 0 setdash
80.3716 63.9816 LS
100.965 63.9816 LE
grestore
showpage
cleartomark
%%PageTrailer
%%Trailer
end
%%EOF
