%!PS-Adobe-3.0 EPSF-3.0
%%Title: glps_renderer figure
%%Creator: GL2PS 1.3.8, (C) 1999-2012 C. Geuzaine
%%For: Octave
%%CreationDate: Sun Nov 29 18:29:34 2015
%%LanguageLevel: 3
%%DocumentData: Clean7Bit
%%Pages: 1
%%BoundingBox: 0 0 576 432
%%EndComments
%%BeginProlog
/gl2psdict 64 dict def gl2psdict begin
0 setlinecap 0 setlinejoin
/tryPS3shading false def % set to false to force subdivision
/rThreshold 0.064 def % red component subdivision threshold
/gThreshold 0.034 def % green component subdivision threshold
/bThreshold 0.1 def % blue component subdivision threshold
/BD { bind def } bind def
/C  { setrgbcolor } BD
/G  { 0.082 mul exch 0.6094 mul add exch 0.3086 mul add neg 1.0 add setgray } BD
/W  { setlinewidth } BD
/FC { findfont exch /SH exch def SH scalefont setfont } BD
/SW { dup stringwidth pop } BD
/S  { FC moveto show } BD
/SBC{ FC moveto SW -2 div 0 rmoveto show } BD
/SBR{ FC moveto SW neg 0 rmoveto show } BD
/SCL{ FC moveto 0 SH -2 div rmoveto show } BD
/SCC{ FC moveto SW -2 div SH -2 div rmoveto show } BD
/SCR{ FC moveto SW neg SH -2 div rmoveto show } BD
/STL{ FC moveto 0 SH neg rmoveto show } BD
/STC{ FC moveto SW -2 div SH neg rmoveto show } BD
/STR{ FC moveto SW neg SH neg rmoveto show } BD
/FCT { FC translate 0 0 } BD
/SR  { gsave FCT moveto rotate show grestore } BD
/SBCR{ gsave FCT moveto rotate SW -2 div 0 rmoveto show grestore } BD
/SBRR{ gsave FCT moveto rotate SW neg 0 rmoveto show grestore } BD
/SCLR{ gsave FCT moveto rotate 0 SH -2 div rmoveto show grestore} BD
/SCCR{ gsave FCT moveto rotate SW -2 div SH -2 div rmoveto show grestore} BD
/SCRR{ gsave FCT moveto rotate SW neg SH -2 div rmoveto show grestore} BD
/STLR{ gsave FCT moveto rotate 0 SH neg rmoveto show grestore } BD
/STCR{ gsave FCT moveto rotate SW -2 div SH neg rmoveto show grestore } BD
/STRR{ gsave FCT moveto rotate SW neg SH neg rmoveto show grestore } BD
/P  { newpath 0.0 360.0 arc closepath fill } BD
/LS { newpath moveto } BD
/L  { lineto } BD
/LE { lineto stroke } BD
/T  { newpath moveto lineto lineto closepath fill } BD
/STshfill {
      /b1 exch def /g1 exch def /r1 exch def /y1 exch def /x1 exch def
      /b2 exch def /g2 exch def /r2 exch def /y2 exch def /x2 exch def
      /b3 exch def /g3 exch def /r3 exch def /y3 exch def /x3 exch def
      gsave << /ShadingType 4 /ColorSpace [/DeviceRGB]
      /DataSource [ 0 x1 y1 r1 g1 b1 0 x2 y2 r2 g2 b2 0 x3 y3 r3 g3 b3 ] >>
      shfill grestore } BD
/Tm { 3 -1 roll 8 -1 roll 13 -1 roll add add 3 div
      3 -1 roll 7 -1 roll 11 -1 roll add add 3 div
      3 -1 roll 6 -1 roll 9 -1 roll add add 3 div C T } BD
/STsplit {
      4 index 15 index add 0.5 mul
      4 index 15 index add 0.5 mul
      4 index 15 index add 0.5 mul
      4 index 15 index add 0.5 mul
      4 index 15 index add 0.5 mul
      5 copy 5 copy 25 15 roll
      9 index 30 index add 0.5 mul
      9 index 30 index add 0.5 mul
      9 index 30 index add 0.5 mul
      9 index 30 index add 0.5 mul
      9 index 30 index add 0.5 mul
      5 copy 5 copy 35 5 roll 25 5 roll 15 5 roll
      4 index 10 index add 0.5 mul
      4 index 10 index add 0.5 mul
      4 index 10 index add 0.5 mul
      4 index 10 index add 0.5 mul
      4 index 10 index add 0.5 mul
      5 copy 5 copy 40 5 roll 25 5 roll 15 5 roll 25 5 roll
      STnoshfill STnoshfill STnoshfill STnoshfill } BD
/STnoshfill {
      2 index 8 index sub abs rThreshold gt
      { STsplit }
      { 1 index 7 index sub abs gThreshold gt
        { STsplit }
        { dup 6 index sub abs bThreshold gt
          { STsplit }
          { 2 index 13 index sub abs rThreshold gt
            { STsplit }
            { 1 index 12 index sub abs gThreshold gt
              { STsplit }
              { dup 11 index sub abs bThreshold gt
                { STsplit }
                { 7 index 13 index sub abs rThreshold gt
                  { STsplit }
                  { 6 index 12 index sub abs gThreshold gt
                    { STsplit }
                    { 5 index 11 index sub abs bThreshold gt
                      { STsplit }
                      { Tm }
                      ifelse }
                    ifelse }
                  ifelse }
                ifelse }
              ifelse }
            ifelse }
          ifelse }
        ifelse }
      ifelse } BD
tryPS3shading
{ /shfill where
  { /ST { STshfill } BD }
  { /ST { STnoshfill } BD }
  ifelse }
{ /ST { STnoshfill } BD }
ifelse
end
%%EndProlog
%%BeginSetup
/DeviceRGB setcolorspace
gl2psdict begin
%%EndSetup
%%Page: 1 1
%%BeginPageSetup
%%EndPageSetup
mark
gsave
1.0 1.0 scale
1 1 1 C
521.28 47.52 521.28 399.6 521.28 47.52 T
521.28 47.52 521.28 399.6 521.28 399.6 T
74.88 399.6 521.28 399.6 74.88 399.6 T
74.88 399.6 521.28 399.6 521.28 399.6 T
74.88 399.6 521.28 47.52 74.88 47.52 T
74.88 399.6 521.28 399.6 521.28 47.52 T
0.5 W
[16 0] 0 setdash
0 0 0 C
74.88 47.52 LS
521.28 47.52 LE
74.88 399.6 LS
521.28 399.6 LE
74.88 399.6 LS
521.28 399.6 LE
74.88 47.52 LS
521.28 47.52 LE
74.88 47.52 LS
74.88 399.6 LE
521.28 47.52 LS
521.28 399.6 LE
521.28 47.52 LS
521.28 399.6 LE
74.88 47.52 LS
74.88 399.6 L
74.88 399.6 LE
521.28 399.6 LS
521.28 399.6 LE
521.28 47.52 LS
521.28 47.52 LE
74.88 47.52 LS
74.88 47.52 L
74.88 51.985 LE
74.88 399.6 LS
74.88 395.135 LE
149.28 47.52 LS
149.28 51.985 LE
149.28 399.6 LS
149.28 395.135 LE
223.68 47.52 LS
223.68 51.985 LE
223.68 399.6 LS
223.68 395.135 LE
298.08 47.52 LS
298.08 51.985 LE
298.08 399.6 LS
298.08 395.135 LE
372.48 47.52 LS
372.48 51.985 LE
372.48 399.6 LS
372.48 395.135 LE
446.88 47.52 LS
446.88 51.985 LE
446.88 399.6 LS
446.88 395.135 LE
521.28 47.52 LS
521.28 51.985 LE
521.28 399.6 LS
521.28 395.135 LE
(0) 74.88 42.5189 15 /Helvetica STC
(20) 149.28 42.5189 15 /Helvetica STC
(40) 223.68 42.5189 15 /Helvetica STC
(60) 298.08 42.5189 15 /Helvetica STC
(80) 372.48 42.5189 15 /Helvetica STC
(100) 446.88 42.5189 15 /Helvetica STC
(120) 521.28 42.5189 15 /Helvetica STC
74.88 47.52 LS
79.348 47.52 LE
521.28 47.52 LS
516.812 47.52 LE
74.88 117.936 LS
79.348 117.936 LE
521.28 117.936 LS
516.812 117.936 LE
74.88 188.352 LS
79.348 188.352 LE
521.28 188.352 LS
516.812 188.352 LE
74.88 258.768 LS
79.348 258.768 LE
521.28 258.768 LS
516.812 258.768 LE
74.88 329.184 LS
79.348 329.184 LE
521.28 329.184 LS
516.812 329.184 LE
74.88 399.6 LS
79.348 399.6 LE
521.28 399.6 LS
516.812 399.6 LE
(0) 69.8755 47.52 15 /Helvetica SCR
(2) 69.8755 117.936 15 /Helvetica SCR
(4) 69.8755 188.352 15 /Helvetica SCR
(6) 69.8755 258.768 15 /Helvetica SCR
(8) 69.8755 329.184 15 /Helvetica SCR
(10) 69.8755 399.6 15 /Helvetica SCR
(X) 298.08 24.5188 15 /Helvetica STC
(Wall Temperature Gradient) 90 49.8755 223.56 15 /Helvetica SBCR
(H=1, T*=2, Ec=0.2) 298.08 409.6 15 /Helvetica SBC
2 W
[] 0 setdash
74.9265 110.917 LS
75.0195 131.934 L
75.1125 144.063 L
75.2055 152.569 L
75.2985 159.138 L
75.3915 164.505 L
75.4845 169.053 L
75.5775 173.007 L
75.6705 176.509 L
75.7635 179.656 L
75.8565 182.514 L
75.9495 185.136 L
76.0425 187.557 L
76.1355 189.807 L
76.2285 191.91 L
76.3215 193.884 L
76.4145 195.743 L
76.5075 197.501 L
76.6005 199.169 L
76.6935 200.755 L
76.7865 202.267 L
76.8795 203.711 L
76.9725 205.094 L
77.0655 206.419 L
77.1585 207.693 L
77.2515 208.918 L
77.3445 210.098 L
77.4375 211.237 L
77.5305 212.337 L
77.6235 213.4 L
77.7165 214.429 L
77.8095 215.425 L
77.9025 216.392 L
77.9955 217.33 L
78.0885 218.241 L
78.1815 219.126 L
78.2745 219.988 L
78.3675 220.826 L
78.4605 221.643 L
78.5535 222.439 L
78.6465 223.215 L
78.7395 223.972 L
78.8325 224.711 L
78.9255 225.433 L
79.0185 226.138 L
79.1115 226.828 L
79.2045 227.502 L
79.2975 228.162 L
79.3905 228.808 L
79.4835 229.441 L
79.5765 230.061 L
79.6695 230.668 L
79.7625 231.263 L
79.8555 231.847 L
79.9485 232.42 L
80.0415 232.982 L
80.1345 233.533 L
80.2275 234.075 L
80.3205 234.606 L
80.4135 235.129 L
80.5065 235.642 L
80.5995 236.147 L
80.6925 236.643 L
80.7855 237.131 L
80.8785 237.611 L
80.9715 238.083 L
81.0645 238.548 L
81.1575 239.005 L
81.2505 239.456 L
81.3435 239.899 L
81.4365 240.336 L
81.5295 240.766 L
81.6225 241.19 L
81.7155 241.608 L
81.8085 242.019 L
81.9015 242.425 L
81.9945 242.826 L
82.0875 243.22 L
82.1805 243.61 L
82.2735 243.994 L
82.3665 244.373 L
82.4595 244.747 L
82.5525 245.116 L
82.6455 245.481 L
82.7385 245.841 L
82.8315 246.196 L
82.9245 246.547 L
83.0175 246.894 L
83.1105 247.236 L
83.2035 247.575 L
83.2965 247.909 L
83.3895 248.24 L
83.4825 248.566 L
83.5755 248.889 L
83.6685 249.209 L
83.7615 249.525 L
83.8545 249.837 L
83.9475 250.146 L
84.0405 250.452 L
84.1335 250.754 L
84.2265 251.053 L
84.3195 251.35 L
84.4125 251.643 L
84.5055 251.933 L
84.5985 252.22 L
84.6915 252.505 L
84.7845 252.787 L
84.8775 253.066 L
84.9705 253.342 L
85.0635 253.616 L
85.1565 253.887 L
85.2495 254.156 L
85.3425 254.422 L
85.4355 254.686 L
85.5285 254.948 L
85.6215 255.207 L
85.7145 255.465 L
85.8075 255.72 L
85.9005 255.972 L
85.9935 256.223 L
86.0865 256.472 L
86.1795 256.719 L
86.2725 256.964 L
86.3655 257.206 L
86.4585 257.447 L
86.5515 257.687 L
86.6445 257.924 L
86.7375 258.16 L
86.8305 258.394 L
86.9235 258.626 L
87.0165 258.856 L
87.1095 259.085 L
87.2025 259.313 L
87.2955 259.539 L
87.3885 259.763 L
87.4815 259.986 L
87.5745 260.207 L
87.6675 260.427 L
87.7605 260.646 L
87.8535 260.863 L
87.9465 261.079 L
88.0395 261.294 L
88.1325 261.507 L
88.2255 261.719 L
88.3185 261.93 L
88.4115 262.14 L
88.5045 262.348 L
88.5975 262.556 L
88.6905 262.762 L
88.7835 262.967 L
88.8765 263.171 L
88.9695 263.374 L
89.0625 263.576 L
89.1555 263.777 L
89.2485 263.977 L
89.3415 264.176 L
89.4345 264.374 L
89.5275 264.572 L
89.6205 264.768 L
89.7135 264.963 L
89.8065 265.158 L
89.8995 265.352 L
89.9925 265.544 L
90.0855 265.736 L
90.1785 265.928 L
90.2715 266.118 L
90.3645 266.308 L
90.4575 266.497 L
90.5505 266.685 L
90.6435 266.872 L
90.7365 267.059 L
90.8295 267.245 L
90.9225 267.431 L
91.0155 267.616 L
91.1085 267.8 L
91.2015 267.983 L
91.2945 268.166 L
91.3875 268.349 L
91.4805 268.53 L
91.5735 268.711 L
91.6665 268.892 L
91.7595 269.072 L
91.8525 269.251 L
91.9455 269.43 L
92.0385 269.609 L
92.1315 269.787 L
92.2245 269.964 L
92.3175 270.141 L
92.4105 270.317 L
92.5035 270.493 L
92.5965 270.669 L
92.6895 270.844 L
92.7825 271.018 L
92.8755 271.193 L
92.9685 271.366 L
93.0615 271.54 L
93.1545 271.713 L
93.2475 271.885 L
93.3405 272.057 L
93.4335 272.229 L
93.5265 272.4 L
93.6195 272.571 L
93.7125 272.742 L
93.8055 272.912 L
93.8985 273.082 L
93.9915 273.252 L
94.0845 273.421 L
94.1775 273.59 L
94.2705 273.758 L
94.3635 273.927 L
94.4565 274.094 L
94.5495 274.262 L
94.6425 274.429 L
94.7355 274.596 L
94.8285 274.763 L
94.9215 274.93 L
95.0145 275.096 L
95.1075 275.262 L
95.2005 275.427 L
95.2935 275.593 L
95.3865 275.758 L
95.4795 275.923 L
95.5725 276.087 L
95.6655 276.252 L
95.7585 276.416 L
95.8515 276.58 L
95.9445 276.743 L
96.0375 276.907 L
96.1305 277.07 L
96.2235 277.233 L
96.3165 277.395 L
96.4095 277.558 L
96.5025 277.72 L
96.5955 277.882 L
96.6885 278.044 L
96.7815 278.206 L
96.8745 278.367 L
96.9675 278.528 L
97.0605 278.689 L
97.1535 278.85 L
97.2465 279.011 L
97.3395 279.171 L
97.4325 279.331 L
97.5255 279.492 L
97.6185 279.651 L
97.7115 279.811 L
97.8045 279.971 L
97.8975 280.13 L
97.9905 280.289 L
98.0835 280.448 L
98.1765 280.607 L
98.2695 280.765 L
98.3625 280.924 L
98.4555 281.082 L
98.5485 281.24 L
98.6415 281.398 L
98.7345 281.556 L
98.8275 281.714 L
98.9205 281.871 L
99.0135 282.028 L
99.1065 282.185 L
99.1995 282.342 L
99.2925 282.499 L
99.3855 282.656 L
99.4785 282.812 L
99.5715 282.969 L
99.6645 283.125 L
99.7575 283.281 L
99.8505 283.437 L
99.9435 283.593 L
100.036 283.748 L
100.13 283.904 L
100.223 284.059 L
100.315 284.214 L
100.408 284.369 L
100.502 284.524 L
100.594 284.679 L
100.688 284.833 L
100.781 284.988 L
100.873 285.142 L
100.967 285.296 L
101.059 285.45 L
101.152 285.604 L
101.245 285.757 L
101.339 285.911 L
101.432 286.064 L
101.525 286.218 L
101.617 286.371 L
101.71 286.524 L
101.803 286.677 L
101.896 286.829 L
101.99 286.982 L
102.083 287.134 L
102.175 287.287 L
102.268 287.439 L
102.362 287.591 L
102.454 287.743 L
102.548 287.894 L
102.64 288.046 L
102.733 288.197 L
102.827 288.349 L
102.919 288.5 L
103.012 288.651 L
103.105 288.802 L
103.198 288.952 L
103.292 289.103 L
103.385 289.253 L
103.477 289.404 L
103.57 289.554 L
103.663 289.704 L
103.757 289.854 L
103.85 290.004 L
103.942 290.153 L
104.035 290.303 L
104.129 290.452 L
104.221 290.601 L
104.314 290.75 L
104.408 290.899 L
104.5 291.048 L
104.594 291.197 L
104.686 291.345 L
104.779 291.493 L
104.872 291.642 L
104.965 291.79 L
105.059 291.938 L
105.152 292.085 L
105.244 292.233 L
105.337 292.38 L
105.431 292.528 L
105.523 292.675 L
105.617 292.822 L
105.71 292.969 L
105.802 293.116 L
105.896 293.262 L
105.989 293.409 L
106.081 293.555 L
106.174 293.701 L
106.267 293.847 L
106.361 293.993 L
106.454 294.139 L
106.546 294.284 L
106.639 294.43 L
106.732 294.575 L
106.826 294.72 L
106.919 294.865 L
107.012 295.01 L
107.104 295.155 L
107.197 295.299 L
107.29 295.444 L
107.383 295.588 L
107.477 295.732 L
107.57 295.876 L
107.662 296.02 L
107.756 296.164 L
107.848 296.307 L
107.941 296.45 L
108.035 296.594 L
108.127 296.737 L
108.221 296.879 L
108.314 297.022 L
108.406 297.165 L
108.499 297.307 L
108.592 297.449 L
108.686 297.592 L
108.779 297.734 L
108.871 297.875 L
108.964 298.017 L
109.057 298.158 L
109.15 298.3 L
109.243 298.441 L
109.337 298.582 L
109.429 298.723 L
109.522 298.863 L
109.616 299.004 L
109.708 299.144 L
109.801 299.285 L
109.895 299.425 L
109.987 299.565 L
110.081 299.704 L
110.174 299.844 L
110.266 299.983 L
110.359 300.123 L
110.452 300.262 L
110.546 300.401 L
110.639 300.539 L
110.731 300.678 L
110.824 300.817 L
110.918 300.955 L
111.01 301.093 L
111.104 301.231 L
111.197 301.369 L
111.289 301.506 L
111.383 301.644 L
111.475 301.781 L
111.568 301.918 L
111.661 302.055 L
111.755 302.192 L
111.848 302.329 L
111.941 302.465 L
112.033 302.602 L
112.126 302.738 L
112.22 302.874 L
112.312 303.01 L
112.406 303.145 L
112.498 303.281 L
112.591 303.416 L
112.685 303.551 L
112.778 303.686 L
112.87 303.821 L
112.964 303.956 L
113.056 304.09 L
113.15 304.225 L
113.243 304.359 L
113.335 304.493 L
113.428 304.627 L
113.521 304.76 L
113.615 304.894 L
113.708 305.027 L
113.801 305.16 L
113.893 305.293 L
113.986 305.426 L
114.079 305.559 L
114.173 305.691 L
114.266 305.823 L
114.359 305.955 L
114.451 306.087 L
114.545 306.219 L
114.637 306.351 L
114.73 306.482 L
114.824 306.613 L
114.916 306.745 L
115.01 306.875 L
115.102 307.006 L
115.195 307.137 L
115.288 307.267 L
115.382 307.397 L
115.475 307.527 L
115.568 307.657 L
115.66 307.787 L
115.753 307.917 L
115.846 308.046 L
115.94 308.175 L
116.033 308.304 L
116.125 308.433 L
116.218 308.562 L
116.311 308.69 L
116.405 308.818 L
116.497 308.947 L
116.59 309.075 L
116.683 309.202 L
116.776 309.33 L
116.87 309.457 L
116.963 309.585 L
117.055 309.712 L
117.148 309.839 L
117.241 309.965 L
117.335 310.092 L
117.428 310.218 L
117.52 310.345 L
117.613 310.471 L
117.706 310.596 L
117.799 310.722 L
117.893 310.848 L
117.986 310.973 L
118.078 311.098 L
118.172 311.223 L
118.264 311.348 L
118.357 311.473 L
118.451 311.597 L
118.544 311.721 L
118.637 311.845 L
118.73 311.969 L
118.822 312.093 L
118.915 312.217 L
119.009 312.34 L
119.102 312.463 L
119.195 312.586 L
119.287 312.709 L
119.38 312.832 L
119.474 312.954 L
119.567 313.077 L
119.66 313.199 L
119.753 313.321 L
119.845 313.443 L
119.939 313.564 L
120.032 313.686 L
120.125 313.807 L
120.217 313.928 L
120.31 314.049 L
120.404 314.17 L
120.497 314.29 L
120.59 314.411 L
120.682 314.531 L
120.775 314.651 L
120.868 314.771 L
120.962 314.891 L
121.055 315.01 L
121.148 315.129 L
121.24 315.249 L
121.334 315.367 L
121.426 315.486 L
121.52 315.605 L
121.613 315.723 L
121.705 315.842 L
121.799 315.96 L
121.891 316.078 L
121.984 316.195 L
122.077 316.313 L
122.17 316.43 L
122.264 316.548 L
122.357 316.665 L
122.449 316.781 L
122.542 316.898 L
122.635 317.015 L
122.729 317.131 L
122.822 317.247 L
122.915 317.363 L
123.007 317.479 L
123.1 317.594 L
123.194 317.71 L
123.286 317.825 L
123.38 317.94 L
123.472 318.055 L
123.565 318.17 L
123.659 318.285 L
123.751 318.399 L
123.844 318.513 L
123.938 318.627 L
124.03 318.741 L
124.124 318.855 L
124.217 318.968 L
124.309 319.082 L
124.402 319.195 L
124.495 319.308 L
124.589 319.421 L
124.682 319.533 L
124.775 319.646 L
124.867 319.758 L
124.961 319.87 L
125.053 319.982 L
125.146 320.094 L
125.24 320.205 L
125.332 320.317 L
125.426 320.428 L
125.519 320.539 L
125.611 320.65 L
125.704 320.761 L
125.798 320.871 L
125.891 320.982 L
125.984 321.092 L
126.076 321.202 L
126.169 321.312 L
126.263 321.421 L
126.355 321.531 L
126.449 321.64 L
126.542 321.749 L
126.634 321.858 L
126.728 321.967 L
126.821 322.076 L
126.913 322.184 L
127.007 322.293 L
127.099 322.401 L
127.193 322.509 L
127.286 322.617 L
127.379 322.724 L
127.471 322.832 L
127.564 322.939 L
127.658 323.046 L
127.751 323.153 L
127.844 323.26 L
127.936 323.366 L
128.029 323.473 L
128.122 323.579 L
128.215 323.685 L
128.309 323.791 L
128.402 323.897 L
128.494 324.002 L
128.588 324.108 L
128.68 324.213 L
128.773 324.318 L
128.867 324.423 L
128.96 324.527 L
129.053 324.632 L
129.145 324.736 L
129.238 324.841 L
129.331 324.945 L
129.424 325.049 L
129.518 325.152 L
129.611 325.256 L
129.703 325.359 L
129.796 325.462 L
129.889 325.565 L
129.983 325.668 L
130.076 325.771 L
130.169 325.873 L
130.261 325.976 L
130.354 326.078 L
130.448 326.18 L
130.54 326.282 L
130.633 326.384 L
130.726 326.485 L
130.819 326.587 L
130.913 326.688 L
131.006 326.789 L
131.098 326.89 L
131.191 326.99 L
131.284 327.091 L
131.378 327.191 L
131.471 327.291 L
131.564 327.391 L
131.656 327.491 L
131.75 327.591 L
131.842 327.691 L
131.936 327.79 L
132.029 327.889 L
132.121 327.988 L
132.215 328.087 L
132.307 328.186 L
132.4 328.284 L
132.493 328.383 L
132.587 328.481 L
132.68 328.579 L
132.773 328.677 L
132.865 328.775 L
132.958 328.872 L
133.052 328.97 L
133.145 329.067 L
133.238 329.164 L
133.33 329.261 L
133.423 329.358 L
133.517 329.455 L
133.61 329.551 L
133.702 329.647 L
133.796 329.743 L
133.888 329.839 L
133.982 329.935 L
134.075 330.031 L
134.168 330.126 L
134.26 330.222 L
134.354 330.317 L
134.447 330.412 L
134.54 330.507 L
134.633 330.602 L
134.725 330.696 L
134.818 330.79 L
134.912 330.885 L
135.005 330.979 L
135.098 331.073 L
135.191 331.166 L
135.283 331.26 L
135.377 331.353 L
135.469 331.447 L
135.562 331.54 L
135.656 331.633 L
135.748 331.726 L
135.842 331.818 L
135.935 331.911 L
136.027 332.003 L
136.12 332.095 L
136.213 332.187 L
136.307 332.279 L
136.4 332.371 L
136.492 332.462 L
136.585 332.554 L
136.678 332.645 L
136.772 332.736 L
136.865 332.827 L
136.958 332.918 L
137.05 333.009 L
137.143 333.099 L
137.237 333.189 L
137.329 333.28 L
137.423 333.37 L
137.515 333.46 L
137.608 333.549 L
137.702 333.639 L
137.795 333.728 L
137.887 333.817 L
137.98 333.907 L
138.073 333.996 L
138.167 334.084 L
138.26 334.173 L
138.352 334.261 L
138.445 334.35 L
138.538 334.438 L
138.632 334.526 L
138.725 334.614 L
138.818 334.702 L
138.91 334.789 L
139.004 334.877 L
139.097 334.964 L
139.189 335.051 L
139.283 335.138 L
139.375 335.225 L
139.469 335.312 L
139.562 335.398 L
139.654 335.485 L
139.747 335.571 L
139.841 335.657 L
139.934 335.743 L
140.027 335.829 L
140.12 335.915 L
140.212 336 L
140.306 336.086 L
140.398 336.171 L
140.492 336.256 L
140.585 336.341 L
140.677 336.426 L
140.771 336.51 L
140.864 336.595 L
140.957 336.679 L
141.049 336.763 L
141.142 336.848 L
141.236 336.931 L
141.329 337.015 L
141.422 337.099 L
141.514 337.182 L
141.607 337.266 L
141.701 337.349 L
141.794 337.432 L
141.887 337.515 L
141.98 337.598 L
142.072 337.68 L
142.165 337.763 L
142.258 337.845 L
142.352 337.927 L
142.445 338.009 L
142.537 338.091 L
142.631 338.173 L
142.723 338.255 L
142.816 338.336 L
142.91 338.418 L
143.003 338.499 L
143.096 338.58 L
143.188 338.661 L
143.281 338.742 L
143.374 338.822 L
143.467 338.903 L
143.561 338.983 L
143.654 339.064 L
143.747 339.144 L
143.839 339.224 L
143.932 339.303 L
144.025 339.383 L
144.118 339.463 L
144.212 339.542 L
144.305 339.621 L
144.397 339.701 L
144.491 339.78 L
144.583 339.858 L
144.676 339.937 L
144.77 340.016 L
144.862 340.094 L
144.956 340.172 L
145.048 340.251 L
145.142 340.329 L
145.234 340.407 L
145.327 340.484 L
145.421 340.562 L
145.514 340.64 L
145.607 340.717 L
145.699 340.794 L
145.793 340.871 L
145.885 340.948 L
145.979 341.025 L
146.072 341.102 L
146.165 341.178 L
146.258 341.255 L
146.35 341.331 L
146.443 341.407 L
146.536 341.483 L
146.63 341.559 L
146.723 341.635 L
146.816 341.711 L
146.909 341.786 L
147.002 341.861 L
147.095 341.937 L
147.188 342.012 L
147.281 342.087 L
147.374 342.162 L
147.467 342.236 L
147.56 342.311 L
147.652 342.385 L
147.745 342.46 L
147.839 342.534 L
147.932 342.608 L
148.025 342.682 L
148.118 342.756 L
148.21 342.829 L
148.303 342.903 L
148.396 342.976 L
148.49 343.05 L
148.583 343.123 L
148.675 343.196 L
148.768 343.269 L
148.861 343.341 L
148.954 343.414 L
149.048 343.487 L
149.141 343.559 L
149.234 343.631 L
149.327 343.703 L
149.42 343.775 L
149.512 343.847 L
149.605 343.919 L
149.699 343.991 L
149.792 344.062 L
149.885 344.134 L
149.977 344.205 L
150.071 344.276 L
150.163 344.347 L
150.257 344.418 L
150.35 344.489 L
150.443 344.559 L
150.536 344.63 L
150.628 344.7 L
150.721 344.771 L
150.814 344.841 L
150.908 344.911 L
151.001 344.981 L
151.093 345.05 L
151.186 345.12 L
151.28 345.19 L
151.372 345.259 L
151.465 345.328 L
151.559 345.397 L
151.652 345.466 L
151.745 345.535 L
151.837 345.604 L
151.93 345.673 L
152.023 345.741 L
152.117 345.81 L
152.21 345.878 L
152.303 345.946 L
152.396 346.014 L
152.488 346.082 L
152.582 346.15 L
152.674 346.218 L
152.768 346.286 L
152.861 346.353 L
152.953 346.42 L
153.047 346.488 L
153.139 346.555 L
153.232 346.622 L
153.326 346.689 L
153.419 346.755 L
153.512 346.822 L
153.605 346.889 L
153.698 346.955 L
153.79 347.021 L
153.883 347.088 L
153.977 347.154 L
154.07 347.22 L
154.163 347.285 L
154.255 347.351 L
154.349 347.417 L
154.441 347.482 L
154.535 347.548 L
154.628 347.613 L
154.721 347.678 L
154.814 347.743 L
154.907 347.808 L
154.999 347.873 L
155.092 347.937 L
155.186 348.002 L
155.279 348.066 L
155.372 348.131 L
155.464 348.195 L
155.558 348.259 L
155.65 348.323 L
155.743 348.387 L
155.837 348.451 L
155.93 348.514 L
156.023 348.578 L
156.115 348.641 L
156.208 348.705 L
156.301 348.768 L
156.395 348.831 L
156.488 348.894 L
156.581 348.957 L
156.674 349.02 L
156.767 349.082 L
156.86 349.145 L
156.952 349.207 L
157.046 349.27 L
157.139 349.332 L
157.232 349.394 L
157.325 349.456 L
157.417 349.518 L
157.51 349.58 L
157.604 349.641 L
157.697 349.703 L
157.79 349.764 L
157.883 349.826 L
157.975 349.887 L
158.068 349.948 L
158.161 350.009 L
158.255 350.07 L
158.348 350.131 L
158.44 350.191 L
158.533 350.252 L
158.626 350.312 L
158.719 350.373 L
158.812 350.433 L
158.906 350.493 L
158.999 350.553 L
159.092 350.613 L
159.185 350.673 L
159.277 350.733 L
159.37 350.792 L
159.464 350.852 L
159.557 350.911 L
159.65 350.971 L
159.742 351.03 L
159.836 351.089 L
159.928 351.148 L
160.022 351.207 L
160.115 351.265 L
160.208 351.324 L
160.301 351.383 L
160.393 351.441 L
160.487 351.5 L
160.579 351.558 L
160.673 351.616 L
160.766 351.674 L
160.859 351.732 L
160.952 351.79 L
161.045 351.848 L
161.138 351.905 L
161.23 351.963 L
161.324 352.02 L
161.417 352.077 L
161.51 352.135 L
161.603 352.192 L
161.695 352.249 L
161.788 352.306 L
161.882 352.363 L
161.975 352.419 L
162.068 352.476 L
162.161 352.533 L
162.254 352.589 L
162.346 352.645 L
162.44 352.701 L
162.533 352.758 L
162.626 352.814 L
162.719 352.87 L
162.811 352.925 L
162.905 352.981 L
162.997 353.037 L
163.091 353.092 L
163.184 353.148 L
163.277 353.203 L
163.37 353.258 L
163.462 353.313 L
163.556 353.368 L
163.648 353.423 L
163.742 353.478 L
163.835 353.533 L
163.927 353.588 L
164.021 353.642 L
164.113 353.697 L
164.206 353.751 L
164.299 353.805 L
164.393 353.859 L
164.486 353.913 L
164.578 353.967 L
164.672 354.021 L
164.764 354.075 L
164.857 354.129 L
164.951 354.182 L
165.043 354.236 L
165.137 354.289 L
165.229 354.343 L
165.323 354.396 L
165.415 354.449 L
165.508 354.502 L
165.602 354.555 L
165.695 354.608 L
165.788 354.66 L
165.88 354.713 L
165.973 354.766 L
166.066 354.818 L
166.16 354.87 L
166.253 354.923 L
166.346 354.975 L
166.439 355.027 L
166.532 355.079 L
166.625 355.131 L
166.717 355.183 L
166.811 355.234 L
166.904 355.286 L
166.997 355.337 L
167.09 355.389 L
167.182 355.44 L
167.275 355.491 L
167.368 355.543 L
167.462 355.594 L
167.555 355.645 L
167.648 355.696 L
167.741 355.746 L
167.833 355.797 L
167.927 355.848 L
168.02 355.898 L
168.113 355.949 L
168.206 355.999 L
168.298 356.049 L
168.392 356.099 L
168.484 356.149 L
168.578 356.199 L
168.671 356.249 L
168.764 356.299 L
168.857 356.349 L
168.95 356.398 L
169.043 356.448 L
169.135 356.497 L
169.229 356.547 L
169.322 356.596 L
169.415 356.645 L
169.508 356.694 L
169.6 356.743 L
169.694 356.792 L
169.786 356.841 L
169.88 356.89 L
169.973 356.939 L
170.065 356.987 L
170.159 357.036 L
170.251 357.084 L
170.345 357.132 L
170.438 357.181 L
170.53 357.229 L
170.624 357.277 L
170.716 357.325 L
170.81 357.373 L
170.902 357.421 L
170.995 357.468 L
171.089 357.516 L
171.182 357.563 L
171.275 357.611 L
171.367 357.658 L
171.46 357.706 L
171.553 357.753 L
171.646 357.8 L
171.74 357.847 L
171.833 357.894 L
171.926 357.941 L
172.018 357.988 L
172.112 358.034 L
172.204 358.081 L
172.298 358.127 L
172.391 358.174 L
172.483 358.22 L
172.577 358.267 L
172.669 358.313 L
172.762 358.359 L
172.855 358.405 L
172.949 358.451 L
173.042 358.497 L
173.135 358.543 L
173.228 358.588 L
173.32 358.634 L
173.413 358.68 L
173.507 358.725 L
173.6 358.77 L
173.693 358.816 L
173.785 358.861 L
173.879 358.906 L
173.971 358.951 L
174.065 358.996 L
174.158 359.041 L
174.251 359.086 L
174.344 359.131 L
174.437 359.175 L
174.53 359.22 L
174.622 359.264 L
174.715 359.309 L
174.809 359.353 L
174.902 359.397 L
174.995 359.442 L
175.088 359.486 L
175.181 359.53 L
175.273 359.574 L
175.367 359.618 L
175.46 359.661 L
175.553 359.705 L
175.646 359.749 L
175.738 359.792 L
175.832 359.836 L
175.924 359.879 L
176.018 359.923 L
176.111 359.966 L
176.204 360.009 L
176.297 360.052 L
176.389 360.095 L
176.483 360.138 L
176.576 360.181 L
176.669 360.224 L
176.762 360.266 L
176.854 360.309 L
176.948 360.352 L
177.04 360.394 L
177.134 360.437 L
177.227 360.479 L
177.32 360.521 L
177.413 360.563 L
177.505 360.605 L
177.599 360.647 L
177.691 360.689 L
177.785 360.731 L
177.878 360.773 L
177.97 360.815 L
178.064 360.856 L
178.156 360.898 L
178.249 360.94 L
178.342 360.981 L
178.436 361.022 L
178.529 361.064 L
178.622 361.105 L
178.715 361.146 L
178.807 361.187 L
178.9 361.228 L
178.993 361.269 L
179.087 361.31 L
179.18 361.351 L
179.272 361.391 L
179.366 361.432 L
179.458 361.472 L
179.552 361.513 L
179.645 361.553 L
179.738 361.594 L
179.831 361.634 L
179.923 361.674 L
180.017 361.714 L
180.109 361.754 L
180.202 361.794 L
180.296 361.834 L
180.389 361.874 L
180.482 361.914 L
180.575 361.953 L
180.668 361.993 L
180.76 362.033 L
180.854 362.072 L
180.947 362.112 L
181.04 362.151 L
181.133 362.19 L
181.225 362.229 L
181.318 362.268 L
181.411 362.308 L
181.505 362.347 L
181.598 362.385 L
181.691 362.424 L
181.784 362.463 L
181.877 362.502 L
181.97 362.54 L
182.062 362.579 L
182.156 362.617 L
182.249 362.656 L
182.342 362.694 L
182.435 362.733 L
182.527 362.771 L
182.621 362.809 L
182.714 362.847 L
182.807 362.885 L
182.9 362.923 L
182.993 362.961 L
183.086 362.999 L
183.178 363.037 L
183.272 363.074 L
183.365 363.112 L
183.458 363.149 L
183.551 363.187 L
183.643 363.224 L
183.737 363.262 L
183.829 363.299 L
183.923 363.336 L
184.016 363.373 L
184.108 363.41 L
184.202 363.447 L
184.294 363.484 L
184.388 363.521 L
184.48 363.558 L
184.573 363.595 L
184.667 363.631 L
184.76 363.668 L
184.853 363.705 L
184.945 363.741 L
185.038 363.778 L
185.132 363.814 L
185.225 363.85 L
185.318 363.886 L
185.41 363.923 L
185.503 363.959 L
185.596 363.995 L
185.689 364.031 L
185.783 364.067 L
185.876 364.102 L
185.969 364.138 L
186.062 364.174 L
186.155 364.21 L
186.247 364.245 L
186.34 364.281 L
186.434 364.316 L
186.527 364.352 L
186.62 364.387 L
186.712 364.422 L
186.805 364.457 L
186.898 364.492 L
186.992 364.528 L
187.085 364.563 L
187.178 364.598 L
187.271 364.632 L
187.363 364.667 L
187.457 364.702 L
187.549 364.737 L
187.643 364.771 L
187.736 364.806 L
187.828 364.84 L
187.922 364.875 L
188.015 364.909 L
188.108 364.944 L
188.201 364.978 L
188.294 365.012 L
188.387 365.046 L
188.48 365.08 L
188.573 365.114 L
188.665 365.148 L
188.758 365.182 L
188.852 365.216 L
188.945 365.25 L
189.038 365.284 L
189.131 365.317 L
189.224 365.351 L
189.317 365.384 L
189.41 365.418 L
189.503 365.451 L
189.596 365.485 L
189.689 365.518 L
189.782 365.551 L
189.875 365.584 L
189.967 365.618 L
190.061 365.651 L
190.154 365.684 L
190.247 365.716 L
190.34 365.749 L
190.432 365.782 L
190.526 365.815 L
190.618 365.848 L
190.712 365.88 L
190.805 365.913 L
190.897 365.945 L
190.991 365.978 L
191.083 366.01 L
191.177 366.043 L
191.27 366.075 L
191.363 366.107 L
191.456 366.14 L
191.548 366.172 L
191.642 366.204 L
191.734 366.236 L
191.827 366.268 L
191.921 366.3 L
192.013 366.331 L
192.107 366.363 L
192.199 366.395 L
192.292 366.427 L
192.385 366.458 L
192.479 366.49 L
192.572 366.521 L
192.665 366.553 L
192.758 366.584 L
192.85 366.615 L
192.943 366.647 L
193.036 366.678 L
193.13 366.709 L
193.223 366.74 L
193.315 366.771 L
193.409 366.802 L
193.502 366.833 L
193.595 366.864 L
193.688 366.895 L
193.781 366.926 L
193.874 366.956 L
193.967 366.987 L
194.059 367.018 L
194.152 367.048 L
194.246 367.079 L
194.339 367.109 L
194.432 367.14 L
194.525 367.17 L
194.618 367.2 L
194.711 367.23 L
194.803 367.261 L
194.897 367.291 L
194.99 367.321 L
195.083 367.351 L
195.176 367.381 L
195.268 367.411 L
195.362 367.441 L
195.454 367.47 L
195.548 367.5 L
195.641 367.53 L
195.734 367.559 L
195.827 367.589 L
195.919 367.619 L
196.013 367.648 L
196.106 367.677 L
196.199 367.707 L
196.292 367.736 L
196.384 367.765 L
196.478 367.795 L
196.571 367.824 L
196.664 367.853 L
196.757 367.882 L
196.85 367.911 L
196.943 367.94 L
197.036 367.969 L
197.129 367.998 L
197.221 368.027 L
197.314 368.055 L
197.408 368.084 L
197.501 368.113 L
197.594 368.141 L
197.686 368.17 L
197.78 368.198 L
197.872 368.227 L
197.966 368.255 L
198.059 368.283 L
198.152 368.312 L
198.245 368.34 L
198.337 368.368 L
198.431 368.396 L
198.523 368.424 L
198.617 368.452 L
198.71 368.48 L
198.803 368.508 L
198.896 368.536 L
198.988 368.564 L
199.082 368.592 L
199.174 368.62 L
199.268 368.647 L
199.361 368.675 L
199.453 368.703 L
199.547 368.73 L
199.639 368.758 L
199.732 368.785 L
199.826 368.812 L
199.919 368.84 L
200.012 368.867 L
200.104 368.894 L
200.198 368.921 L
200.291 368.949 L
200.383 368.976 L
200.477 369.003 L
200.569 369.03 L
200.663 369.057 L
200.756 369.084 L
200.848 369.11 L
200.941 369.137 L
201.035 369.164 L
201.128 369.191 L
201.221 369.217 L
201.314 369.244 L
201.407 369.271 L
201.499 369.297 L
201.592 369.324 L
201.686 369.35 L
201.779 369.376 L
201.872 369.403 L
201.965 369.429 L
202.058 369.455 L
202.151 369.481 L
202.243 369.508 L
202.337 369.534 L
202.43 369.56 L
202.523 369.586 L
202.616 369.612 L
202.708 369.638 L
202.802 369.663 L
202.895 369.689 L
202.988 369.715 L
203.081 369.741 L
203.174 369.766 L
203.267 369.792 L
203.359 369.818 L
203.453 369.843 L
203.546 369.869 L
203.639 369.894 L
203.732 369.92 L
203.824 369.945 L
203.918 369.97 L
204.01 369.995 L
204.104 370.021 L
204.197 370.046 L
204.29 370.071 L
204.383 370.096 L
204.476 370.121 L
204.569 370.146 L
204.661 370.171 L
204.755 370.196 L
204.848 370.221 L
204.941 370.246 L
205.034 370.27 L
205.126 370.295 L
205.22 370.32 L
205.312 370.345 L
205.406 370.369 L
205.499 370.394 L
205.592 370.418 L
205.685 370.443 L
205.777 370.467 L
205.871 370.491 L
205.964 370.516 L
206.057 370.54 L
206.15 370.564 L
206.242 370.589 L
206.336 370.613 L
206.428 370.637 L
206.522 370.661 L
206.615 370.685 L
206.708 370.709 L
206.801 370.733 L
206.893 370.757 L
206.987 370.781 L
207.079 370.804 L
207.173 370.828 L
207.266 370.852 L
207.358 370.876 L
207.452 370.899 L
207.544 370.923 L
207.638 370.946 L
207.731 370.97 L
207.824 370.993 L
207.917 371.017 L
208.009 371.04 L
208.103 371.064 L
208.196 371.087 L
208.288 371.11 L
208.382 371.133 L
208.475 371.157 L
208.568 371.18 L
208.661 371.203 L
208.754 371.226 L
208.847 371.249 L
208.939 371.272 L
209.033 371.295 L
209.126 371.318 L
209.219 371.341 L
209.312 371.363 L
209.404 371.386 L
209.497 371.409 L
209.591 371.432 L
209.684 371.454 L
209.777 371.477 L
209.87 371.499 L
209.963 371.522 L
210.056 371.544 L
210.148 371.567 L
210.242 371.589 L
210.335 371.612 L
210.428 371.634 L
210.521 371.656 L
210.613 371.678 L
210.707 371.701 L
210.799 371.723 L
210.893 371.745 L
210.986 371.767 L
211.079 371.789 L
211.172 371.811 L
211.264 371.833 L
211.358 371.855 L
211.451 371.877 L
211.544 371.899 L
211.637 371.921 L
211.729 371.942 L
211.823 371.964 L
211.915 371.986 L
212.009 372.007 L
212.102 372.029 L
212.194 372.051 L
212.288 372.072 L
212.381 372.094 L
212.474 372.115 L
212.566 372.137 L
212.659 372.158 L
212.753 372.179 L
212.846 372.201 L
212.939 372.222 L
213.032 372.243 L
213.124 372.264 L
213.217 372.285 L
213.311 372.307 L
213.404 372.328 L
213.497 372.349 L
213.589 372.37 L
213.682 372.391 L
213.776 372.412 L
213.868 372.432 L
213.962 372.453 L
214.055 372.474 L
214.148 372.495 L
214.241 372.516 L
214.333 372.536 L
214.427 372.557 L
214.52 372.578 L
214.613 372.598 L
214.706 372.619 L
214.798 372.639 L
214.892 372.66 L
214.984 372.68 L
215.078 372.701 L
215.171 372.721 L
215.264 372.741 L
215.357 372.762 L
215.449 372.782 L
215.543 372.802 L
215.636 372.822 L
215.729 372.843 L
215.822 372.863 L
215.914 372.883 L
216.008 372.903 L
216.101 372.923 L
216.194 372.943 L
216.287 372.963 L
216.38 372.983 L
216.473 373.003 L
216.566 373.022 L
216.659 373.042 L
216.752 373.062 L
216.844 373.082 L
216.938 373.101 L
217.031 373.121 L
217.124 373.141 L
217.217 373.16 L
217.31 373.18 L
217.403 373.199 L
217.496 373.219 L
217.589 373.238 L
217.682 373.258 L
217.775 373.277 L
217.868 373.296 L
217.961 373.316 L
218.053 373.335 L
218.147 373.354 L
218.24 373.373 L
218.333 373.393 L
218.426 373.412 L
218.518 373.431 L
218.612 373.45 L
218.704 373.469 L
218.798 373.488 L
218.891 373.507 L
218.984 373.526 L
219.077 373.545 L
219.169 373.563 L
219.263 373.582 L
219.356 373.601 L
219.449 373.62 L
219.542 373.639 L
219.634 373.657 L
219.728 373.676 L
219.821 373.695 L
219.913 373.713 L
220.007 373.732 L
220.099 373.75 L
220.193 373.769 L
220.286 373.787 L
220.378 373.806 L
220.471 373.824 L
220.564 373.842 L
220.658 373.861 L
220.751 373.879 L
220.843 373.897 L
220.936 373.915 L
221.03 373.934 L
221.123 373.952 L
221.216 373.97 L
221.309 373.988 L
221.402 374.006 L
221.495 374.024 L
221.588 374.042 L
221.681 374.06 L
221.773 374.078 L
221.867 374.096 L
221.96 374.114 L
222.053 374.132 L
222.146 374.15 L
222.238 374.167 L
222.332 374.185 L
222.424 374.203 L
222.518 374.22 L
222.611 374.238 L
222.703 374.256 L
222.797 374.273 L
222.889 374.291 L
222.982 374.308 L
223.076 374.326 L
223.169 374.343 L
223.262 374.361 L
223.355 374.378 L
223.448 374.396 L
223.541 374.413 L
223.634 374.43 L
223.727 374.447 L
223.82 374.465 L
223.913 374.482 L
224.006 374.499 L
224.099 374.516 L
224.192 374.533 L
224.285 374.55 L
224.378 374.568 L
224.471 374.585 L
224.564 374.602 L
224.657 374.618 L
224.749 374.635 L
224.842 374.652 L
224.936 374.669 L
225.029 374.686 L
225.122 374.703 L
225.215 374.72 L
225.308 374.736 L
225.401 374.753 L
225.493 374.77 L
225.587 374.786 L
225.68 374.803 L
225.773 374.82 L
225.866 374.836 L
225.958 374.853 L
226.052 374.869 L
226.145 374.886 L
226.238 374.902 L
226.331 374.919 L
226.423 374.935 L
226.517 374.952 L
226.609 374.968 L
226.702 374.984 L
226.796 375 L
226.888 375.017 L
226.982 375.033 L
227.074 375.049 L
227.167 375.065 L
227.26 375.081 L
227.353 375.098 L
227.447 375.114 L
227.54 375.13 L
227.633 375.146 L
227.726 375.162 L
227.819 375.178 L
227.912 375.194 L
228.005 375.21 L
228.098 375.225 L
228.191 375.241 L
228.284 375.257 L
228.377 375.273 L
228.469 375.289 L
228.562 375.304 L
228.656 375.32 L
228.749 375.336 L
228.842 375.351 L
228.934 375.367 L
229.027 375.383 L
229.121 375.398 L
229.214 375.414 L
229.307 375.429 L
229.399 375.445 L
229.492 375.46 L
229.586 375.476 L
229.679 375.491 L
229.772 375.506 L
229.865 375.522 L
229.958 375.537 L
230.051 375.552 L
230.144 375.568 L
230.237 375.583 L
230.329 375.598 L
230.423 375.613 L
230.516 375.628 L
230.609 375.643 L
230.702 375.659 L
230.794 375.674 L
230.888 375.689 L
230.981 375.704 L
231.074 375.719 L
231.167 375.734 L
231.259 375.749 L
231.353 375.764 L
231.446 375.778 L
231.538 375.793 L
231.632 375.808 L
231.725 375.823 L
231.818 375.838 L
231.911 375.852 L
232.004 375.867 L
232.097 375.882 L
232.19 375.897 L
232.283 375.911 L
232.376 375.926 L
232.469 375.94 L
232.562 375.955 L
232.655 375.97 L
232.747 375.984 L
232.841 375.999 L
232.934 376.013 L
233.027 376.027 L
233.12 376.042 L
233.212 376.056 L
233.306 376.071 L
233.398 376.085 L
233.492 376.099 L
233.585 376.113 L
233.677 376.128 L
233.771 376.142 L
233.863 376.156 L
233.956 376.17 L
234.049 376.185 L
234.143 376.199 L
234.236 376.213 L
234.329 376.227 L
234.422 376.241 L
234.514 376.255 L
234.608 376.269 L
234.701 376.283 L
234.794 376.297 L
234.887 376.311 L
234.979 376.325 L
235.073 376.339 L
235.166 376.352 L
235.258 376.366 L
235.352 376.38 L
235.444 376.394 L
235.538 376.408 L
235.631 376.421 L
235.723 376.435 L
235.816 376.449 L
235.909 376.462 L
236.003 376.476 L
236.096 376.49 L
236.189 376.503 L
236.282 376.517 L
236.375 376.53 L
236.468 376.544 L
236.561 376.557 L
236.654 376.571 L
236.747 376.584 L
236.84 376.598 L
236.933 376.611 L
237.026 376.624 L
237.118 376.638 L
237.212 376.651 L
237.305 376.664 L
237.398 376.678 L
237.491 376.691 L
237.583 376.704 L
237.677 376.717 L
237.77 376.73 L
237.863 376.744 L
237.956 376.757 L
238.048 376.77 L
238.142 376.783 L
238.235 376.796 L
238.328 376.809 L
238.421 376.822 L
238.514 376.835 L
238.607 376.848 L
238.7 376.861 L
238.793 376.874 L
238.886 376.887 L
238.979 376.9 L
239.072 376.912 L
239.165 376.925 L
239.258 376.938 L
239.351 376.951 L
239.444 376.964 L
239.536 376.976 L
239.63 376.989 L
239.723 377.002 L
239.816 377.014 L
239.909 377.027 L
240.001 377.04 L
240.094 377.052 L
240.188 377.065 L
240.281 377.077 L
240.374 377.09 L
240.466 377.102 L
240.56 377.115 L
240.653 377.127 L
240.746 377.14 L
240.839 377.152 L
240.932 377.165 L
241.025 377.177 L
241.118 377.189 L
241.211 377.202 L
241.303 377.214 L
241.397 377.226 L
241.49 377.238 L
241.583 377.251 L
241.676 377.263 L
241.768 377.275 L
241.862 377.287 L
241.954 377.299 L
242.048 377.312 L
242.141 377.324 L
242.233 377.336 L
242.327 377.348 L
242.419 377.36 L
242.512 377.372 L
242.605 377.384 L
242.699 377.396 L
242.792 377.408 L
242.885 377.42 L
242.978 377.432 L
243.071 377.444 L
243.164 377.456 L
243.257 377.467 L
243.35 377.479 L
243.443 377.491 L
243.536 377.503 L
243.629 377.515 L
243.722 377.526 L
243.814 377.538 L
243.908 377.55 L
244.001 377.561 L
244.094 377.573 L
244.187 377.585 L
244.279 377.596 L
244.372 377.608 L
244.466 377.62 L
244.559 377.631 L
244.652 377.643 L
244.745 377.654 L
244.838 377.666 L
244.931 377.677 L
245.024 377.689 L
245.117 377.7 L
245.21 377.711 L
245.303 377.723 L
245.396 377.734 L
245.489 377.746 L
245.582 377.757 L
245.674 377.768 L
245.768 377.779 L
245.861 377.791 L
245.954 377.802 L
246.047 377.813 L
246.139 377.824 L
246.233 377.836 L
246.326 377.847 L
246.419 377.858 L
246.512 377.869 L
246.604 377.88 L
246.698 377.891 L
246.79 377.902 L
246.884 377.913 L
246.977 377.924 L
247.07 377.935 L
247.163 377.946 L
247.256 377.957 L
247.349 377.968 L
247.442 377.979 L
247.535 377.99 L
247.628 378.001 L
247.721 378.012 L
247.814 378.023 L
247.907 378.034 L
247.999 378.044 L
248.092 378.055 L
248.186 378.066 L
248.279 378.077 L
248.372 378.087 L
248.464 378.098 L
248.557 378.109 L
248.651 378.12 L
248.743 378.13 L
248.837 378.141 L
248.929 378.152 L
249.022 378.162 L
249.116 378.173 L
249.209 378.183 L
249.302 378.194 L
249.395 378.204 L
249.488 378.215 L
249.581 378.225 L
249.674 378.236 L
249.767 378.246 L
249.859 378.257 L
249.953 378.267 L
250.046 378.278 L
250.139 378.288 L
250.232 378.298 L
250.324 378.309 L
250.418 378.319 L
250.511 378.329 L
250.604 378.339 L
250.697 378.35 L
250.789 378.36 L
250.883 378.37 L
250.976 378.38 L
251.068 378.391 L
251.161 378.401 L
251.255 378.411 L
251.348 378.421 L
251.441 378.431 L
251.534 378.441 L
251.627 378.451 L
251.72 378.462 L
251.813 378.472 L
251.906 378.482 L
251.999 378.492 L
252.092 378.502 L
252.185 378.512 L
252.278 378.522 L
252.371 378.531 L
252.464 378.541 L
252.557 378.551 L
252.65 378.561 L
252.743 378.571 L
252.836 378.581 L
252.928 378.591 L
253.022 378.601 L
253.115 378.61 L
253.208 378.62 L
253.301 378.63 L
253.394 378.64 L
253.487 378.649 L
253.579 378.659 L
253.673 378.669 L
253.766 378.678 L
253.859 378.688 L
253.952 378.698 L
254.044 378.707 L
254.138 378.717 L
254.231 378.727 L
254.324 378.736 L
254.417 378.746 L
254.509 378.755 L
254.603 378.765 L
254.696 378.774 L
254.788 378.784 L
254.882 378.793 L
254.974 378.803 L
255.068 378.812 L
255.161 378.822 L
255.253 378.831 L
255.346 378.84 L
255.439 378.85 L
255.533 378.859 L
255.626 378.868 L
255.719 378.878 L
255.812 378.887 L
255.905 378.896 L
255.998 378.906 L
256.091 378.915 L
256.184 378.924 L
256.277 378.933 L
256.37 378.943 L
256.463 378.952 L
256.556 378.961 L
256.648 378.97 L
256.742 378.979 L
256.835 378.988 L
256.927 378.997 L
257.021 379.006 L
257.113 379.016 L
257.207 379.025 L
257.299 379.034 L
257.393 379.043 L
257.486 379.052 L
257.578 379.061 L
257.672 379.07 L
257.764 379.079 L
257.858 379.088 L
257.951 379.096 L
258.044 379.105 L
258.137 379.114 L
258.229 379.123 L
258.323 379.132 L
258.416 379.141 L
258.509 379.15 L
258.602 379.158 L
258.694 379.167 L
258.788 379.176 L
258.881 379.185 L
258.974 379.194 L
259.066 379.202 L
259.159 379.211 L
259.253 379.22 L
259.346 379.228 L
259.439 379.237 L
259.531 379.246 L
259.624 379.254 L
259.717 379.263 L
259.811 379.272 L
259.904 379.28 L
259.996 379.289 L
260.09 379.297 L
260.183 379.306 L
260.276 379.314 L
260.368 379.323 L
260.462 379.331 L
260.555 379.34 L
260.648 379.348 L
260.741 379.357 L
260.833 379.365 L
260.927 379.374 L
261.02 379.382 L
261.113 379.391 L
261.206 379.399 L
261.298 379.407 L
261.392 379.416 L
261.484 379.424 L
261.578 379.432 L
261.671 379.441 L
261.763 379.449 L
261.857 379.457 L
261.95 379.466 L
262.043 379.474 L
262.135 379.482 L
262.229 379.49 L
262.322 379.498 L
262.415 379.507 L
262.508 379.515 L
262.601 379.523 L
262.694 379.531 L
262.786 379.539 L
262.88 379.547 L
262.973 379.555 L
263.066 379.564 L
263.159 379.572 L
263.252 379.58 L
263.345 379.588 L
263.438 379.596 L
263.531 379.604 L
263.624 379.612 L
263.716 379.62 L
263.81 379.628 L
263.902 379.636 L
263.996 379.644 L
264.089 379.651 L
264.182 379.659 L
264.275 379.667 L
264.368 379.675 L
264.461 379.683 L
264.553 379.691 L
264.647 379.699 L
264.74 379.707 L
264.833 379.714 L
264.926 379.722 L
265.018 379.73 L
265.112 379.738 L
265.204 379.746 L
265.298 379.753 L
265.391 379.761 L
265.483 379.769 L
265.577 379.776 L
265.669 379.784 L
265.763 379.792 L
265.855 379.799 L
265.948 379.807 L
266.042 379.815 L
266.134 379.822 L
266.228 379.83 L
266.32 379.838 L
266.414 379.845 L
266.507 379.853 L
266.6 379.86 L
266.693 379.868 L
266.786 379.875 L
266.879 379.883 L
266.972 379.89 L
267.065 379.898 L
267.158 379.905 L
267.251 379.913 L
267.344 379.92 L
267.437 379.928 L
267.53 379.935 L
267.622 379.943 L
267.716 379.95 L
267.809 379.957 L
267.902 379.965 L
267.995 379.972 L
268.087 379.979 L
268.181 379.987 L
268.273 379.994 L
268.367 380.001 L
268.46 380.009 L
268.552 380.016 L
268.646 380.023 L
268.739 380.03 L
268.832 380.038 L
268.924 380.045 L
269.018 380.052 L
269.111 380.059 L
269.204 380.066 L
269.297 380.074 L
269.389 380.081 L
269.483 380.088 L
269.576 380.095 L
269.669 380.102 L
269.762 380.109 L
269.854 380.116 L
269.948 380.123 L
270.041 380.13 L
270.134 380.138 L
270.227 380.145 L
270.319 380.152 L
270.413 380.159 L
270.505 380.166 L
270.599 380.173 L
270.691 380.18 L
270.785 380.187 L
270.878 380.194 L
270.971 380.201 L
271.064 380.207 L
271.157 380.214 L
271.25 380.221 L
271.342 380.228 L
271.436 380.235 L
271.529 380.242 L
271.622 380.249 L
271.715 380.256 L
271.807 380.262 L
271.901 380.269 L
271.993 380.276 L
272.087 380.283 L
272.18 380.29 L
272.272 380.296 L
272.366 380.303 L
272.458 380.31 L
272.552 380.317 L
272.645 380.323 L
272.737 380.33 L
272.831 380.337 L
272.924 380.343 L
273.017 380.35 L
273.109 380.357 L
273.203 380.363 L
273.296 380.37 L
273.389 380.377 L
273.482 380.383 L
273.574 380.39 L
273.668 380.397 L
273.761 380.403 L
273.854 380.41 L
273.947 380.416 L
274.039 380.423 L
274.133 380.429 L
274.226 380.436 L
274.319 380.442 L
274.411 380.449 L
274.504 380.455 L
274.598 380.462 L
274.691 380.468 L
274.784 380.475 L
274.876 380.481 L
274.97 380.488 L
275.062 380.494 L
275.156 380.5 L
275.249 380.507 L
275.342 380.513 L
275.435 380.52 L
275.528 380.526 L
275.621 380.532 L
275.714 380.539 L
275.807 380.545 L
275.9 380.551 L
275.993 380.558 L
276.086 380.564 L
276.178 380.57 L
276.272 380.576 L
276.365 380.583 L
276.458 380.589 L
276.551 380.595 L
276.643 380.601 L
276.737 380.608 L
276.829 380.614 L
276.923 380.62 L
277.016 380.626 L
277.108 380.632 L
277.202 380.638 L
277.294 380.645 L
277.388 380.651 L
277.481 380.657 L
277.574 380.663 L
277.667 380.669 L
277.76 380.675 L
277.853 380.681 L
277.946 380.687 L
278.039 380.693 L
278.132 380.699 L
278.224 380.705 L
278.318 380.711 L
278.411 380.717 L
278.504 380.723 L
278.596 380.729 L
278.69 380.735 L
278.783 380.741 L
278.876 380.747 L
278.969 380.753 L
279.061 380.759 L
279.154 380.765 L
279.247 380.771 L
279.341 380.777 L
279.434 380.783 L
279.527 380.789 L
279.62 380.795 L
279.713 380.801 L
279.806 380.806 L
279.898 380.812 L
279.992 380.818 L
280.085 380.824 L
280.178 380.83 L
280.271 380.836 L
280.363 380.841 L
280.457 380.847 L
280.549 380.853 L
280.643 380.859 L
280.736 380.864 L
280.828 380.87 L
280.922 380.876 L
281.014 380.882 L
281.108 380.887 L
281.201 380.893 L
281.293 380.899 L
281.387 380.904 L
281.48 380.91 L
281.573 380.916 L
281.665 380.921 L
281.759 380.927 L
281.852 380.933 L
281.945 380.938 L
282.038 380.944 L
282.131 380.949 L
282.224 380.955 L
282.317 380.961 L
282.41 380.966 L
282.503 380.972 L
282.596 380.977 L
282.689 380.983 L
282.782 380.988 L
282.875 380.994 L
282.967 380.999 L
283.061 381.005 L
283.154 381.01 L
283.247 381.016 L
283.34 381.021 L
283.432 381.027 L
283.526 381.032 L
283.618 381.038 L
283.712 381.043 L
283.805 381.049 L
283.898 381.054 L
283.991 381.059 L
284.083 381.065 L
284.177 381.07 L
284.27 381.076 L
284.363 381.081 L
284.456 381.086 L
284.549 381.092 L
284.642 381.097 L
284.734 381.102 L
284.828 381.108 L
284.921 381.113 L
285.013 381.118 L
285.107 381.123 L
285.199 381.129 L
285.293 381.134 L
285.385 381.139 L
285.479 381.144 L
285.572 381.15 L
285.664 381.155 L
285.758 381.16 L
285.85 381.165 L
285.944 381.171 L
286.037 381.176 L
286.13 381.181 L
286.223 381.186 L
286.316 381.191 L
286.409 381.196 L
286.502 381.202 L
286.595 381.207 L
286.688 381.212 L
286.781 381.217 L
286.874 381.222 L
286.967 381.227 L
287.06 381.232 L
287.152 381.237 L
287.246 381.242 L
287.339 381.247 L
287.432 381.253 L
287.525 381.258 L
287.617 381.263 L
287.711 381.268 L
287.803 381.273 L
287.897 381.278 L
287.99 381.283 L
288.083 381.288 L
288.176 381.293 L
288.269 381.298 L
288.362 381.303 L
288.454 381.307 L
288.548 381.312 L
288.641 381.317 L
288.734 381.322 L
288.827 381.327 L
288.919 381.332 L
289.013 381.337 L
289.106 381.342 L
289.199 381.347 L
289.292 381.352 L
289.384 381.357 L
289.478 381.361 L
289.571 381.366 L
289.664 381.371 L
289.757 381.376 L
289.849 381.381 L
289.943 381.386 L
290.036 381.39 L
290.129 381.395 L
290.221 381.4 L
290.315 381.405 L
290.408 381.41 L
290.501 381.414 L
290.594 381.419 L
290.687 381.424 L
290.78 381.429 L
290.872 381.433 L
290.966 381.438 L
291.059 381.443 L
291.152 381.447 L
291.245 381.452 L
291.338 381.457 L
291.431 381.461 L
291.523 381.466 L
291.617 381.471 L
291.71 381.475 L
291.802 381.48 L
291.896 381.485 L
291.988 381.489 L
292.082 381.494 L
292.174 381.499 L
292.268 381.503 L
292.361 381.508 L
292.454 381.512 L
292.547 381.517 L
292.639 381.522 L
292.733 381.526 L
292.826 381.531 L
292.919 381.535 L
293.012 381.54 L
293.104 381.544 L
293.198 381.549 L
293.291 381.553 L
293.384 381.558 L
293.477 381.562 L
293.569 381.567 L
293.663 381.571 L
293.756 381.576 L
293.849 381.58 L
293.941 381.585 L
294.034 381.589 L
294.128 381.594 L
294.221 381.598 L
294.314 381.602 L
294.406 381.607 L
294.5 381.611 L
294.593 381.616 L
294.686 381.62 L
294.779 381.624 L
294.872 381.629 L
294.965 381.633 L
295.058 381.638 L
295.151 381.642 L
295.243 381.646 L
295.337 381.651 L
295.43 381.655 L
295.523 381.659 L
295.616 381.664 L
295.708 381.668 L
295.802 381.672 L
295.895 381.676 L
295.988 381.681 L
296.081 381.685 L
296.173 381.689 L
296.267 381.694 L
296.359 381.698 L
296.453 381.702 L
296.546 381.706 L
296.638 381.711 L
296.732 381.715 L
296.825 381.719 L
296.918 381.723 L
297.011 381.727 L
297.104 381.732 L
297.197 381.736 L
297.29 381.74 L
297.383 381.744 L
297.476 381.748 L
297.569 381.752 L
297.661 381.757 L
297.755 381.761 L
297.848 381.765 L
297.941 381.769 L
298.034 381.773 L
298.127 381.777 L
298.22 381.781 L
298.312 381.785 L
298.406 381.789 L
298.499 381.794 L
298.591 381.798 L
298.685 381.802 L
298.777 381.806 L
298.871 381.81 L
298.964 381.814 L
299.057 381.818 L
299.15 381.822 L
299.243 381.826 L
299.336 381.83 L
299.428 381.834 L
299.522 381.838 L
299.615 381.842 L
299.708 381.846 L
299.801 381.85 L
299.893 381.854 L
299.987 381.858 L
300.079 381.862 L
300.173 381.866 L
300.266 381.87 L
300.358 381.874 L
300.452 381.878 L
300.544 381.882 L
300.638 381.886 L
300.73 381.889 L
300.823 381.893 L
300.917 381.897 L
301.01 381.901 L
301.103 381.905 L
301.195 381.909 L
301.289 381.913 L
301.382 381.917 L
301.475 381.92 L
301.568 381.924 L
301.661 381.928 L
301.754 381.932 L
301.847 381.936 L
301.94 381.94 L
302.033 381.943 L
302.126 381.947 L
302.219 381.951 L
302.312 381.955 L
302.405 381.959 L
302.497 381.962 L
302.591 381.966 L
302.684 381.97 L
302.777 381.974 L
302.87 381.977 L
302.962 381.981 L
303.056 381.985 L
303.149 381.989 L
303.242 381.992 L
303.335 381.996 L
303.428 382 L
303.521 382.004 L
303.614 382.007 L
303.707 382.011 L
303.799 382.015 L
303.893 382.018 L
303.986 382.022 L
304.079 382.026 L
304.172 382.029 L
304.264 382.033 L
304.358 382.037 L
304.451 382.04 L
304.544 382.044 L
304.637 382.047 L
304.729 382.051 L
304.823 382.055 L
304.916 382.058 L
305.009 382.062 L
305.102 382.065 L
305.194 382.069 L
305.288 382.073 L
305.38 382.076 L
305.474 382.08 L
305.567 382.083 L
305.66 382.087 L
305.753 382.09 L
305.846 382.094 L
305.939 382.098 L
306.032 382.101 L
306.125 382.105 L
306.217 382.108 L
306.311 382.112 L
306.404 382.115 L
306.497 382.119 L
306.59 382.122 L
306.682 382.126 L
306.776 382.129 L
306.868 382.133 L
306.962 382.136 L
307.055 382.14 L
307.147 382.143 L
307.241 382.146 L
307.333 382.15 L
307.427 382.153 L
307.52 382.157 L
307.613 382.16 L
307.706 382.164 L
307.799 382.167 L
307.892 382.17 L
307.984 382.174 L
308.078 382.177 L
308.171 382.181 L
308.264 382.184 L
308.357 382.187 L
308.449 382.191 L
308.543 382.194 L
308.636 382.197 L
308.729 382.201 L
308.822 382.204 L
308.914 382.207 L
309.008 382.211 L
309.101 382.214 L
309.194 382.217 L
309.286 382.221 L
309.379 382.224 L
309.473 382.227 L
309.566 382.231 L
309.659 382.234 L
309.751 382.237 L
309.845 382.24 L
309.938 382.244 L
310.031 382.247 L
310.124 382.25 L
310.217 382.254 L
310.31 382.257 L
310.403 382.26 L
310.496 382.263 L
310.589 382.267 L
310.682 382.27 L
310.775 382.273 L
310.868 382.276 L
310.961 382.279 L
311.053 382.283 L
311.147 382.286 L
311.24 382.289 L
311.333 382.292 L
311.426 382.295 L
311.518 382.299 L
311.612 382.302 L
311.704 382.305 L
311.798 382.308 L
311.891 382.311 L
311.984 382.314 L
312.077 382.318 L
312.169 382.321 L
312.263 382.324 L
312.356 382.327 L
312.449 382.33 L
312.542 382.333 L
312.635 382.336 L
312.728 382.339 L
312.821 382.342 L
312.914 382.346 L
313.007 382.349 L
313.099 382.352 L
313.193 382.355 L
313.286 382.358 L
313.379 382.361 L
313.471 382.364 L
313.565 382.367 L
313.658 382.37 L
313.751 382.373 L
313.844 382.376 L
313.936 382.379 L
314.03 382.382 L
314.123 382.385 L
314.216 382.388 L
314.309 382.391 L
314.401 382.394 L
314.495 382.397 L
314.588 382.4 L
314.681 382.403 L
314.774 382.406 L
314.866 382.409 L
314.96 382.412 L
315.053 382.415 L
315.146 382.418 L
315.239 382.421 L
315.331 382.424 L
315.424 382.427 L
315.518 382.43 L
315.611 382.433 L
315.704 382.436 L
315.796 382.439 L
315.889 382.442 L
315.983 382.444 L
316.076 382.447 L
316.169 382.45 L
316.262 382.453 L
316.355 382.456 L
316.448 382.459 L
316.541 382.462 L
316.634 382.465 L
316.727 382.468 L
316.82 382.47 L
316.913 382.473 L
317.006 382.476 L
317.099 382.479 L
317.191 382.482 L
317.285 382.485 L
317.378 382.488 L
317.471 382.49 L
317.564 382.493 L
317.656 382.496 L
317.75 382.499 L
317.842 382.502 L
317.936 382.504 L
318.029 382.507 L
318.122 382.51 L
318.215 382.513 L
318.307 382.516 L
318.401 382.518 L
318.494 382.521 L
318.587 382.524 L
318.68 382.527 L
318.773 382.53 L
318.866 382.532 L
318.959 382.535 L
319.052 382.538 L
319.145 382.54 L
319.238 382.543 L
319.331 382.546 L
319.424 382.549 L
319.517 382.551 L
319.609 382.554 L
319.703 382.557 L
319.796 382.56 L
319.889 382.562 L
319.982 382.565 L
320.074 382.568 L
320.168 382.57 L
320.26 382.573 L
320.354 382.576 L
320.447 382.578 L
320.54 382.581 L
320.633 382.584 L
320.726 382.586 L
320.819 382.589 L
320.911 382.592 L
321.005 382.594 L
321.098 382.597 L
321.191 382.6 L
321.284 382.602 L
321.376 382.605 L
321.47 382.607 L
321.562 382.61 L
321.656 382.613 L
321.749 382.615 L
321.841 382.618 L
321.935 382.62 L
322.027 382.623 L
322.121 382.626 L
322.214 382.628 L
322.306 382.631 L
322.4 382.633 L
322.492 382.636 L
322.586 382.639 L
322.679 382.641 L
322.772 382.644 L
322.865 382.646 L
322.958 382.649 L
323.051 382.651 L
323.144 382.654 L
323.237 382.656 L
323.329 382.659 L
323.423 382.661 L
323.516 382.664 L
323.609 382.666 L
323.702 382.669 L
323.794 382.671 L
323.888 382.674 L
323.981 382.676 L
324.074 382.679 L
324.167 382.681 L
324.259 382.684 L
324.353 382.686 L
324.445 382.689 L
324.539 382.691 L
324.632 382.694 L
324.725 382.696 L
324.818 382.699 L
324.911 382.701 L
325.004 382.704 L
325.096 382.706 L
325.19 382.709 L
325.283 382.711 L
325.376 382.713 L
325.469 382.716 L
325.561 382.718 L
325.655 382.721 L
325.747 382.723 L
325.841 382.725 L
325.934 382.728 L
326.026 382.73 L
326.12 382.733 L
326.213 382.735 L
326.306 382.737 L
326.399 382.74 L
326.491 382.742 L
326.585 382.745 L
326.677 382.747 L
326.771 382.749 L
326.864 382.752 L
326.957 382.754 L
327.049 382.756 L
327.143 382.759 L
327.236 382.761 L
327.329 382.763 L
327.422 382.766 L
327.515 382.768 L
327.608 382.77 L
327.701 382.773 L
327.794 382.775 L
327.887 382.777 L
327.979 382.78 L
328.073 382.782 L
328.166 382.784 L
328.259 382.787 L
328.352 382.789 L
328.445 382.791 L
328.538 382.793 L
328.631 382.796 L
328.724 382.798 L
328.816 382.8 L
328.909 382.803 L
329.003 382.805 L
329.096 382.807 L
329.189 382.809 L
329.281 382.812 L
329.375 382.814 L
329.468 382.816 L
329.561 382.818 L
329.654 382.821 L
329.746 382.823 L
329.84 382.825 L
329.933 382.827 L
330.026 382.83 L
330.119 382.832 L
330.211 382.834 L
330.305 382.836 L
330.398 382.838 L
330.491 382.841 L
330.584 382.843 L
330.676 382.845 L
330.77 382.847 L
330.863 382.849 L
330.956 382.852 L
331.049 382.854 L
331.142 382.856 L
331.234 382.858 L
331.328 382.86 L
331.421 382.862 L
331.514 382.865 L
331.607 382.867 L
331.7 382.869 L
331.793 382.871 L
331.886 382.873 L
331.979 382.875 L
332.072 382.877 L
332.164 382.88 L
332.258 382.882 L
332.351 382.884 L
332.444 382.886 L
332.536 382.888 L
332.63 382.89 L
332.723 382.892 L
332.816 382.894 L
332.909 382.896 L
333.001 382.899 L
333.094 382.901 L
333.188 382.903 L
333.281 382.905 L
333.374 382.907 L
333.466 382.909 L
333.56 382.911 L
333.653 382.913 L
333.746 382.915 L
333.839 382.917 L
333.932 382.919 L
334.025 382.921 L
334.118 382.923 L
334.211 382.925 L
334.304 382.928 L
334.396 382.93 L
334.49 382.932 L
334.583 382.934 L
334.676 382.936 L
334.769 382.938 L
334.862 382.94 L
334.954 382.942 L
335.048 382.944 L
335.141 382.946 L
335.234 382.948 L
335.326 382.95 L
335.419 382.952 L
335.513 382.954 L
335.605 382.956 L
335.699 382.958 L
335.792 382.96 L
335.885 382.962 L
335.978 382.964 L
336.071 382.966 L
336.164 382.968 L
336.257 382.97 L
336.35 382.972 L
336.443 382.974 L
336.536 382.976 L
336.629 382.978 L
336.721 382.979 L
336.815 382.981 L
336.908 382.983 L
337.001 382.985 L
337.094 382.987 L
337.186 382.989 L
337.28 382.991 L
337.372 382.993 L
337.466 382.995 L
337.559 382.997 L
337.652 382.999 L
337.745 383.001 L
337.837 383.003 L
337.931 383.005 L
338.023 383.006 L
338.117 383.008 L
338.21 383.01 L
338.303 383.012 L
338.396 383.014 L
338.489 383.016 L
338.582 383.018 L
338.674 383.02 L
338.768 383.022 L
338.861 383.023 L
338.954 383.025 L
339.047 383.027 L
339.139 383.029 L
339.233 383.031 L
339.326 383.033 L
339.419 383.035 L
339.512 383.036 L
339.604 383.038 L
339.698 383.04 L
339.791 383.042 L
339.884 383.044 L
339.977 383.046 L
340.07 383.047 L
340.163 383.049 L
340.256 383.051 L
340.349 383.053 L
340.441 383.055 L
340.535 383.057 L
340.628 383.058 L
340.721 383.06 L
340.814 383.062 L
340.906 383.064 L
341 383.066 L
341.093 383.067 L
341.186 383.069 L
341.279 383.071 L
341.371 383.073 L
341.465 383.075 L
341.557 383.076 L
341.651 383.078 L
341.744 383.08 L
341.836 383.082 L
341.93 383.083 L
342.023 383.085 L
342.116 383.087 L
342.209 383.089 L
342.302 383.09 L
342.395 383.092 L
342.488 383.094 L
342.581 383.096 L
342.674 383.097 L
342.767 383.099 L
342.859 383.101 L
342.953 383.103 L
343.046 383.104 L
343.139 383.106 L
343.232 383.108 L
343.324 383.11 L
343.418 383.111 L
343.511 383.113 L
343.604 383.115 L
343.697 383.116 L
343.789 383.118 L
343.883 383.12 L
343.976 383.122 L
344.069 383.123 L
344.161 383.125 L
344.255 383.127 L
344.348 383.128 L
344.441 383.13 L
344.534 383.132 L
344.626 383.133 L
344.72 383.135 L
344.812 383.137 L
344.906 383.138 L
344.999 383.14 L
345.091 383.142 L
345.185 383.143 L
345.278 383.145 L
345.371 383.147 L
345.464 383.148 L
345.556 383.15 L
345.65 383.152 L
345.742 383.153 L
345.836 383.155 L
345.929 383.156 L
346.021 383.158 L
346.115 383.16 L
346.208 383.161 L
346.301 383.163 L
346.394 383.165 L
346.487 383.166 L
346.58 383.168 L
346.673 383.169 L
346.766 383.171 L
346.859 383.173 L
346.952 383.174 L
347.044 383.176 L
347.138 383.177 L
347.231 383.179 L
347.324 383.181 L
347.417 383.182 L
347.51 383.184 L
347.603 383.185 L
347.696 383.187 L
347.789 383.189 L
347.882 383.19 L
347.974 383.192 L
348.068 383.193 L
348.161 383.195 L
348.254 383.196 L
348.346 383.198 L
348.44 383.199 L
348.533 383.201 L
348.626 383.203 L
348.719 383.204 L
348.812 383.206 L
348.905 383.207 L
348.998 383.209 L
349.091 383.21 L
349.184 383.212 L
349.276 383.213 L
349.37 383.215 L
349.463 383.216 L
349.556 383.218 L
349.649 383.22 L
349.742 383.221 L
349.835 383.223 L
349.928 383.224 L
350.021 383.226 L
350.114 383.227 L
350.206 383.229 L
350.299 383.23 L
350.393 383.232 L
350.486 383.233 L
350.579 383.235 L
350.672 383.236 L
350.765 383.238 L
350.858 383.239 L
350.951 383.241 L
351.044 383.242 L
351.137 383.243 L
351.23 383.245 L
351.323 383.246 L
351.416 383.248 L
351.509 383.249 L
351.602 383.251 L
351.695 383.252 L
351.788 383.254 L
351.881 383.255 L
351.974 383.257 L
352.066 383.258 L
352.159 383.26 L
352.253 383.261 L
352.346 383.262 L
352.439 383.264 L
352.531 383.265 L
352.625 383.267 L
352.717 383.268 L
352.811 383.27 L
352.904 383.271 L
352.997 383.272 L
353.09 383.274 L
353.183 383.275 L
353.276 383.277 L
353.369 383.278 L
353.461 383.28 L
353.555 383.281 L
353.648 383.282 L
353.741 383.284 L
353.834 383.285 L
353.927 383.287 L
354.02 383.288 L
354.113 383.289 L
354.206 383.291 L
354.299 383.292 L
354.391 383.294 L
354.484 383.295 L
354.578 383.296 L
354.671 383.298 L
354.764 383.299 L
354.857 383.301 L
354.949 383.302 L
355.043 383.303 L
355.135 383.305 L
355.229 383.306 L
355.322 383.307 L
355.415 383.309 L
355.508 383.31 L
355.601 383.311 L
355.694 383.313 L
355.786 383.314 L
355.88 383.315 L
355.973 383.317 L
356.066 383.318 L
356.159 383.319 L
356.251 383.321 L
356.345 383.322 L
356.438 383.324 L
356.531 383.325 L
356.624 383.326 L
356.716 383.328 L
356.81 383.329 L
356.903 383.33 L
356.996 383.332 L
357.089 383.333 L
357.182 383.334 L
357.275 383.335 L
357.368 383.337 L
357.461 383.338 L
357.554 383.339 L
357.647 383.341 L
357.74 383.342 L
357.833 383.343 L
357.926 383.345 L
358.019 383.346 L
358.112 383.347 L
358.204 383.348 L
358.298 383.35 L
358.391 383.351 L
358.484 383.352 L
358.577 383.354 L
358.669 383.355 L
358.763 383.356 L
358.856 383.357 L
358.949 383.359 L
359.042 383.36 L
359.134 383.361 L
359.228 383.362 L
359.32 383.364 L
359.414 383.365 L
359.507 383.366 L
359.6 383.367 L
359.693 383.369 L
359.786 383.37 L
359.879 383.371 L
359.971 383.372 L
360.065 383.374 L
360.158 383.375 L
360.251 383.376 L
360.344 383.377 L
360.436 383.379 L
360.53 383.38 L
360.622 383.381 L
360.716 383.382 L
360.809 383.384 L
360.901 383.385 L
360.995 383.386 L
361.088 383.387 L
361.181 383.389 L
361.274 383.39 L
361.367 383.391 L
361.46 383.392 L
361.552 383.393 L
361.646 383.395 L
361.739 383.396 L
361.832 383.397 L
361.924 383.398 L
362.018 383.399 L
362.111 383.401 L
362.204 383.402 L
362.297 383.403 L
362.39 383.404 L
362.483 383.405 L
362.576 383.407 L
362.669 383.408 L
362.762 383.409 L
362.854 383.41 L
362.948 383.411 L
363.041 383.412 L
363.134 383.414 L
363.227 383.415 L
363.32 383.416 L
363.413 383.417 L
363.506 383.418 L
363.599 383.419 L
363.692 383.421 L
363.785 383.422 L
363.878 383.423 L
363.971 383.424 L
364.064 383.425 L
364.156 383.426 L
364.25 383.427 L
364.343 383.429 L
364.436 383.43 L
364.529 383.431 L
364.622 383.432 L
364.715 383.433 L
364.807 383.434 L
364.901 383.436 L
364.994 383.437 L
365.086 383.438 L
365.18 383.439 L
365.273 383.44 L
365.366 383.441 L
365.459 383.442 L
365.552 383.443 L
365.645 383.445 L
365.737 383.446 L
365.831 383.447 L
365.924 383.448 L
366.016 383.449 L
366.109 383.45 L
366.203 383.451 L
366.296 383.452 L
366.389 383.453 L
366.482 383.454 L
366.574 383.456 L
366.667 383.457 L
366.76 383.458 L
366.854 383.459 L
366.947 383.46 L
367.04 383.461 L
367.133 383.462 L
367.226 383.463 L
367.319 383.464 L
367.411 383.465 L
367.505 383.466 L
367.598 383.467 L
367.691 383.469 L
367.784 383.47 L
367.877 383.471 L
367.97 383.472 L
368.063 383.473 L
368.156 383.474 L
368.249 383.475 L
368.341 383.476 L
368.435 383.477 L
368.528 383.478 L
368.621 383.479 L
368.714 383.48 L
368.807 383.481 L
368.9 383.482 L
368.993 383.483 L
369.086 383.484 L
369.179 383.486 L
369.271 383.487 L
369.365 383.488 L
369.458 383.489 L
369.551 383.49 L
369.644 383.491 L
369.737 383.492 L
369.829 383.493 L
369.923 383.494 L
370.016 383.495 L
370.109 383.496 L
370.201 383.497 L
370.294 383.498 L
370.388 383.499 L
370.481 383.5 L
370.574 383.501 L
370.667 383.502 L
370.759 383.503 L
370.853 383.504 L
370.945 383.505 L
371.039 383.506 L
371.132 383.507 L
371.224 383.508 L
371.318 383.509 L
371.411 383.51 L
371.504 383.511 L
371.596 383.512 L
371.69 383.513 L
371.783 383.514 L
371.876 383.515 L
371.969 383.516 L
372.062 383.517 L
372.155 383.518 L
372.248 383.519 L
372.341 383.52 L
372.434 383.521 L
372.526 383.522 L
372.62 383.523 L
372.713 383.524 L
372.806 383.525 L
372.899 383.526 L
372.992 383.527 L
373.085 383.528 L
373.178 383.529 L
373.271 383.53 L
373.364 383.531 L
373.456 383.532 L
373.549 383.533 L
373.643 383.534 L
373.736 383.534 L
373.829 383.535 L
373.922 383.536 L
374.014 383.537 L
374.108 383.538 L
374.201 383.539 L
374.294 383.54 L
374.386 383.541 L
374.479 383.542 L
374.573 383.543 L
374.666 383.544 L
374.759 383.545 L
374.852 383.546 L
374.944 383.547 L
375.038 383.548 L
375.13 383.549 L
375.224 383.549 L
375.316 383.55 L
375.409 383.551 L
375.503 383.552 L
375.596 383.553 L
375.689 383.554 L
375.782 383.555 L
375.875 383.556 L
375.968 383.557 L
376.061 383.558 L
376.154 383.559 L
376.247 383.56 L
376.34 383.561 L
376.433 383.561 L
376.526 383.562 L
376.619 383.563 L
376.712 383.564 L
376.805 383.565 L
376.898 383.566 L
376.991 383.567 L
377.084 383.568 L
377.177 383.569 L
377.27 383.57 L
377.363 383.57 L
377.456 383.571 L
377.549 383.572 L
377.642 383.573 L
377.734 383.574 L
377.828 383.575 L
377.921 383.576 L
378.014 383.577 L
378.107 383.578 L
378.2 383.578 L
378.293 383.579 L
378.385 383.58 L
378.479 383.581 L
378.572 383.582 L
378.664 383.583 L
378.758 383.584 L
378.851 383.585 L
378.944 383.585 L
379.036 383.586 L
379.13 383.587 L
379.223 383.588 L
379.315 383.589 L
379.409 383.59 L
379.501 383.591 L
379.594 383.591 L
379.688 383.592 L
379.781 383.593 L
379.874 383.594 L
379.967 383.595 L
380.06 383.596 L
380.153 383.596 L
380.246 383.597 L
380.339 383.598 L
380.432 383.599 L
380.525 383.6 L
380.618 383.601 L
380.711 383.601 L
380.804 383.602 L
380.897 383.603 L
380.99 383.604 L
381.083 383.605 L
381.176 383.606 L
381.269 383.607 L
381.362 383.607 L
381.455 383.608 L
381.548 383.609 L
381.641 383.61 L
381.734 383.611 L
381.827 383.611 L
381.919 383.612 L
382.013 383.613 L
382.106 383.614 L
382.199 383.615 L
382.292 383.615 L
382.385 383.616 L
382.478 383.617 L
382.571 383.618 L
382.664 383.619 L
382.757 383.62 L
382.849 383.62 L
382.943 383.621 L
383.036 383.622 L
383.129 383.623 L
383.221 383.623 L
383.315 383.624 L
383.408 383.625 L
383.501 383.626 L
383.594 383.627 L
383.686 383.627 L
383.779 383.628 L
383.872 383.629 L
383.966 383.63 L
384.059 383.631 L
384.152 383.631 L
384.245 383.632 L
384.337 383.633 L
384.431 383.634 L
384.523 383.635 L
384.617 383.635 L
384.71 383.636 L
384.803 383.637 L
384.896 383.638 L
384.989 383.638 L
385.082 383.639 L
385.174 383.64 L
385.268 383.641 L
385.361 383.641 L
385.454 383.642 L
385.547 383.643 L
385.64 383.644 L
385.733 383.644 L
385.826 383.645 L
385.919 383.646 L
386.012 383.647 L
386.104 383.648 L
386.198 383.648 L
386.291 383.649 L
386.384 383.65 L
386.477 383.651 L
386.57 383.651 L
386.663 383.652 L
386.756 383.653 L
386.849 383.654 L
386.941 383.654 L
387.034 383.655 L
387.128 383.656 L
387.221 383.656 L
387.314 383.657 L
387.406 383.658 L
387.5 383.659 L
387.592 383.659 L
387.686 383.66 L
387.779 383.661 L
387.871 383.662 L
387.964 383.662 L
388.057 383.663 L
388.151 383.664 L
388.244 383.664 L
388.336 383.665 L
388.43 383.666 L
388.522 383.667 L
388.616 383.667 L
388.708 383.668 L
388.802 383.669 L
388.895 383.669 L
388.988 383.67 L
389.081 383.671 L
389.174 383.672 L
389.267 383.672 L
389.36 383.673 L
389.453 383.674 L
389.546 383.674 L
389.639 383.675 L
389.732 383.676 L
389.825 383.677 L
389.918 383.677 L
390.011 383.678 L
390.104 383.679 L
390.197 383.679 L
390.29 383.68 L
390.383 383.681 L
390.476 383.681 L
390.569 383.682 L
390.661 383.683 L
390.755 383.683 L
390.848 383.684 L
390.941 383.685 L
391.034 383.686 L
391.126 383.686 L
391.22 383.687 L
391.312 383.688 L
391.406 383.688 L
391.499 383.689 L
391.591 383.69 L
391.685 383.69 L
391.778 383.691 L
391.871 383.692 L
391.964 383.692 L
392.056 383.693 L
392.15 383.694 L
392.242 383.694 L
392.336 383.695 L
392.429 383.696 L
392.521 383.696 L
392.615 383.697 L
392.708 383.698 L
392.801 383.698 L
392.893 383.699 L
392.987 383.7 L
393.08 383.7 L
393.173 383.701 L
393.266 383.702 L
393.359 383.702 L
393.452 383.703 L
393.545 383.704 L
393.638 383.704 L
393.731 383.705 L
393.824 383.706 L
393.917 383.706 L
394.01 383.707 L
394.103 383.707 L
394.196 383.708 L
394.289 383.709 L
394.382 383.709 L
394.475 383.71 L
394.568 383.711 L
394.661 383.711 L
394.754 383.712 L
394.846 383.713 L
394.94 383.713 L
395.033 383.714 L
395.126 383.715 L
395.219 383.715 L
395.311 383.716 L
395.405 383.716 L
395.497 383.717 L
395.591 383.718 L
395.684 383.718 L
395.776 383.719 L
395.87 383.719 L
395.963 383.72 L
396.056 383.721 L
396.149 383.721 L
396.241 383.722 L
396.335 383.723 L
396.427 383.723 L
396.521 383.724 L
396.614 383.724 L
396.706 383.725 L
396.799 383.726 L
396.893 383.726 L
396.986 383.727 L
397.079 383.728 L
397.172 383.728 L
397.265 383.729 L
397.357 383.729 L
397.451 383.73 L
397.544 383.731 L
397.637 383.731 L
397.73 383.732 L
397.823 383.732 L
397.916 383.733 L
398.009 383.734 L
398.102 383.734 L
398.195 383.735 L
398.288 383.735 L
398.381 383.736 L
398.474 383.737 L
398.567 383.737 L
398.66 383.738 L
398.753 383.738 L
398.846 383.739 L
398.939 383.739 L
399.031 383.74 L
399.125 383.741 L
399.218 383.741 L
399.311 383.742 L
399.404 383.742 L
399.497 383.743 L
399.59 383.744 L
399.682 383.744 L
399.776 383.745 L
399.869 383.745 L
399.961 383.746 L
400.055 383.746 L
400.148 383.747 L
400.241 383.748 L
400.334 383.748 L
400.427 383.749 L
400.52 383.749 L
400.612 383.75 L
400.706 383.75 L
400.799 383.751 L
400.891 383.752 L
400.984 383.752 L
401.078 383.753 L
401.171 383.753 L
401.264 383.754 L
401.357 383.754 L
401.449 383.755 L
401.542 383.756 L
401.635 383.756 L
401.729 383.757 L
401.822 383.757 L
401.915 383.758 L
402.008 383.758 L
402.101 383.759 L
402.194 383.759 L
402.286 383.76 L
402.38 383.76 L
402.473 383.761 L
402.566 383.762 L
402.659 383.762 L
402.752 383.763 L
402.845 383.763 L
402.938 383.764 L
403.031 383.764 L
403.124 383.765 L
403.216 383.765 L
403.31 383.766 L
403.403 383.767 L
403.496 383.767 L
403.589 383.768 L
403.682 383.768 L
403.775 383.769 L
403.868 383.769 L
403.961 383.77 L
404.054 383.77 L
404.146 383.771 L
404.24 383.771 L
404.333 383.772 L
404.426 383.772 L
404.519 383.773 L
404.612 383.773 L
404.704 383.774 L
404.798 383.774 L
404.891 383.775 L
404.984 383.776 L
405.076 383.776 L
405.169 383.777 L
405.263 383.777 L
405.356 383.778 L
405.449 383.778 L
405.542 383.779 L
405.634 383.779 L
405.728 383.78 L
405.82 383.78 L
405.914 383.781 L
406.007 383.781 L
406.1 383.782 L
406.193 383.782 L
406.286 383.783 L
406.379 383.783 L
406.471 383.784 L
406.565 383.784 L
406.658 383.785 L
406.751 383.785 L
406.844 383.786 L
406.937 383.786 L
407.03 383.787 L
407.123 383.787 L
407.216 383.788 L
407.309 383.788 L
407.401 383.789 L
407.495 383.789 L
407.588 383.79 L
407.681 383.79 L
407.774 383.791 L
407.867 383.791 L
407.96 383.792 L
408.053 383.792 L
408.146 383.793 L
408.239 383.793 L
408.331 383.794 L
408.424 383.794 L
408.518 383.795 L
408.611 383.795 L
408.704 383.796 L
408.797 383.796 L
408.889 383.797 L
408.983 383.797 L
409.076 383.798 L
409.169 383.798 L
409.261 383.799 L
409.354 383.799 L
409.448 383.8 L
409.541 383.8 L
409.634 383.801 L
409.727 383.801 L
409.819 383.801 L
409.913 383.802 L
410.005 383.802 L
410.099 383.803 L
410.192 383.803 L
410.285 383.804 L
410.378 383.804 L
410.471 383.805 L
410.564 383.805 L
410.657 383.806 L
410.75 383.806 L
410.843 383.807 L
410.936 383.807 L
411.029 383.808 L
411.122 383.808 L
411.215 383.809 L
411.308 383.809 L
411.401 383.809 L
411.494 383.81 L
411.587 383.81 L
411.68 383.811 L
411.773 383.811 L
411.866 383.812 L
411.959 383.812 L
412.052 383.813 L
412.145 383.813 L
412.238 383.814 L
412.331 383.814 L
412.424 383.815 L
412.517 383.815 L
412.609 383.815 L
412.703 383.816 L
412.796 383.816 L
412.889 383.817 L
412.982 383.817 L
413.075 383.818 L
413.168 383.818 L
413.26 383.819 L
413.354 383.819 L
413.447 383.819 L
413.539 383.82 L
413.633 383.82 L
413.726 383.821 L
413.819 383.821 L
413.911 383.822 L
414.005 383.822 L
414.098 383.823 L
414.19 383.823 L
414.284 383.823 L
414.376 383.824 L
414.469 383.824 L
414.562 383.825 L
414.656 383.825 L
414.749 383.826 L
414.842 383.826 L
414.935 383.826 L
415.028 383.827 L
415.121 383.827 L
415.214 383.828 L
415.307 383.828 L
415.4 383.829 L
415.493 383.829 L
415.586 383.829 L
415.679 383.83 L
415.772 383.83 L
415.865 383.831 L
415.958 383.831 L
416.051 383.832 L
416.144 383.832 L
416.237 383.832 L
416.33 383.833 L
416.423 383.833 L
416.516 383.834 L
416.609 383.834 L
416.702 383.835 L
416.794 383.835 L
416.888 383.835 L
416.981 383.836 L
417.074 383.836 L
417.167 383.837 L
417.26 383.837 L
417.353 383.837 L
417.446 383.838 L
417.539 383.838 L
417.632 383.839 L
417.724 383.839 L
417.818 383.839 L
417.911 383.84 L
418.004 383.84 L
418.096 383.841 L
418.19 383.841 L
418.283 383.841 L
418.376 383.842 L
418.469 383.842 L
418.561 383.843 L
418.654 383.843 L
418.747 383.843 L
418.841 383.844 L
418.934 383.844 L
419.027 383.845 L
419.12 383.845 L
419.213 383.845 L
419.306 383.846 L
419.399 383.846 L
419.492 383.847 L
419.585 383.847 L
419.678 383.847 L
419.771 383.848 L
419.864 383.848 L
419.957 383.849 L
420.049 383.849 L
420.143 383.849 L
420.236 383.85 L
420.329 383.85 L
420.422 383.851 L
420.515 383.851 L
420.608 383.851 L
420.701 383.852 L
420.794 383.852 L
420.887 383.852 L
420.979 383.853 L
421.073 383.853 L
421.166 383.854 L
421.259 383.854 L
421.352 383.854 L
421.445 383.855 L
421.538 383.855 L
421.631 383.856 L
421.724 383.856 L
421.816 383.856 L
421.909 383.857 L
422.003 383.857 L
422.096 383.857 L
422.189 383.858 L
422.281 383.858 L
422.375 383.859 L
422.467 383.859 L
422.561 383.859 L
422.654 383.86 L
422.746 383.86 L
422.839 383.86 L
422.932 383.861 L
423.026 383.861 L
423.119 383.862 L
423.212 383.862 L
423.305 383.862 L
423.398 383.863 L
423.491 383.863 L
423.583 383.863 L
423.677 383.864 L
423.77 383.864 L
423.863 383.864 L
423.956 383.865 L
424.049 383.865 L
424.142 383.866 L
424.235 383.866 L
424.328 383.866 L
424.421 383.867 L
424.514 383.867 L
424.607 383.867 L
424.7 383.868 L
424.793 383.868 L
424.886 383.868 L
424.979 383.869 L
425.072 383.869 L
425.165 383.87 L
425.258 383.87 L
425.351 383.87 L
425.444 383.871 L
425.536 383.871 L
425.63 383.871 L
425.723 383.872 L
425.816 383.872 L
425.909 383.872 L
426.001 383.873 L
426.095 383.873 L
426.188 383.873 L
426.281 383.874 L
426.374 383.874 L
426.466 383.874 L
426.56 383.875 L
426.653 383.875 L
426.746 383.875 L
426.839 383.876 L
426.931 383.876 L
427.025 383.876 L
427.117 383.877 L
427.211 383.877 L
427.304 383.877 L
427.397 383.878 L
427.49 383.878 L
427.583 383.878 L
427.676 383.879 L
427.768 383.879 L
427.862 383.88 L
427.955 383.88 L
428.048 383.88 L
428.141 383.88 L
428.234 383.881 L
428.327 383.881 L
428.42 383.881 L
428.513 383.882 L
428.606 383.882 L
428.699 383.883 L
428.792 383.883 L
428.885 383.883 L
428.978 383.883 L
429.071 383.884 L
429.164 383.884 L
429.257 383.885 L
429.35 383.885 L
429.443 383.885 L
429.536 383.885 L
429.629 383.886 L
429.721 383.886 L
429.815 383.886 L
429.908 383.887 L
430.001 383.887 L
430.094 383.887 L
430.186 383.888 L
430.28 383.888 L
430.372 383.888 L
430.466 383.889 L
430.559 383.889 L
430.651 383.889 L
430.745 383.89 L
430.838 383.89 L
430.931 383.89 L
431.024 383.891 L
431.116 383.891 L
431.21 383.891 L
431.302 383.892 L
431.396 383.892 L
431.489 383.892 L
431.581 383.892 L
431.674 383.893 L
431.768 383.893 L
431.861 383.893 L
431.954 383.894 L
432.047 383.894 L
432.14 383.894 L
432.233 383.895 L
432.326 383.895 L
432.419 383.895 L
432.512 383.896 L
432.605 383.896 L
432.698 383.896 L
432.791 383.896 L
432.884 383.897 L
432.977 383.897 L
433.07 383.897 L
433.163 383.898 L
433.256 383.898 L
433.349 383.898 L
433.442 383.899 L
433.535 383.899 L
433.628 383.899 L
433.721 383.9 L
433.814 383.9 L
433.906 383.9 L
434 383.9 L
434.093 383.901 L
434.186 383.901 L
434.279 383.901 L
434.372 383.902 L
434.465 383.902 L
434.557 383.902 L
434.651 383.902 L
434.744 383.903 L
434.836 383.903 L
434.93 383.903 L
435.023 383.904 L
435.116 383.904 L
435.209 383.904 L
435.302 383.905 L
435.395 383.905 L
435.487 383.905 L
435.581 383.905 L
435.674 383.906 L
435.766 383.906 L
435.859 383.906 L
435.953 383.907 L
436.046 383.907 L
436.139 383.907 L
436.232 383.907 L
436.325 383.908 L
436.418 383.908 L
436.511 383.908 L
436.604 383.909 L
436.697 383.909 L
436.79 383.909 L
436.883 383.909 L
436.976 383.91 L
437.069 383.91 L
437.161 383.91 L
437.255 383.911 L
437.348 383.911 L
437.441 383.911 L
437.534 383.911 L
437.627 383.912 L
437.72 383.912 L
437.813 383.912 L
437.906 383.912 L
437.999 383.913 L
438.091 383.913 L
438.185 383.913 L
438.278 383.914 L
438.371 383.914 L
438.464 383.914 L
438.557 383.914 L
438.65 383.915 L
438.743 383.915 L
438.836 383.915 L
438.929 383.916 L
439.021 383.916 L
439.115 383.916 L
439.208 383.916 L
439.301 383.917 L
439.394 383.917 L
439.487 383.917 L
439.579 383.917 L
439.673 383.918 L
439.766 383.918 L
439.859 383.918 L
439.951 383.918 L
440.044 383.919 L
440.138 383.919 L
440.231 383.919 L
440.324 383.92 L
440.417 383.92 L
440.51 383.92 L
440.603 383.92 L
440.695 383.921 L
440.789 383.921 L
440.882 383.921 L
440.975 383.921 L
441.068 383.922 L
441.161 383.922 L
441.254 383.922 L
441.346 383.922 L
441.44 383.923 L
441.533 383.923 L
441.626 383.923 L
441.719 383.923 L
441.812 383.924 L
441.905 383.924 L
441.998 383.924 L
442.091 383.924 L
442.184 383.925 L
442.276 383.925 L
442.37 383.925 L
442.463 383.925 L
442.556 383.926 L
442.649 383.926 L
442.742 383.926 L
442.835 383.927 L
442.928 383.927 L
443.021 383.927 L
443.114 383.927 L
443.206 383.927 L
443.299 383.928 L
443.393 383.928 L
443.486 383.928 L
443.579 383.928 L
443.672 383.929 L
443.764 383.929 L
443.858 383.929 L
443.951 383.93 L
444.044 383.93 L
444.136 383.93 L
444.229 383.93 L
444.323 383.93 L
444.416 383.931 L
444.509 383.931 L
444.602 383.931 L
444.694 383.931 L
444.788 383.932 L
444.88 383.932 L
444.974 383.932 L
445.067 383.932 L
445.16 383.933 L
445.253 383.933 L
445.346 383.933 L
445.439 383.933 L
445.532 383.934 L
445.625 383.934 L
445.718 383.934 L
445.811 383.934 L
445.904 383.935 L
445.997 383.935 L
446.09 383.935 L
446.183 383.935 L
446.276 383.936 L
446.369 383.936 L
446.462 383.936 L
446.555 383.936 L
446.648 383.936 L
446.741 383.937 L
446.834 383.937 L
446.927 383.937 L
447.02 383.937 L
447.113 383.938 L
447.206 383.938 L
447.299 383.938 L
447.392 383.938 L
447.484 383.939 L
447.578 383.939 L
447.671 383.939 L
447.764 383.939 L
447.857 383.939 L
447.95 383.94 L
448.043 383.94 L
448.135 383.94 L
448.229 383.94 L
448.322 383.941 L
448.414 383.941 L
448.508 383.941 L
448.601 383.941 L
448.694 383.942 L
448.786 383.942 L
448.88 383.942 L
448.973 383.942 L
449.065 383.942 L
449.159 383.943 L
449.252 383.943 L
449.345 383.943 L
449.438 383.943 L
449.531 383.944 L
449.624 383.944 L
449.717 383.944 L
449.81 383.944 L
449.903 383.944 L
449.996 383.945 L
450.089 383.945 L
450.182 383.945 L
450.275 383.945 L
450.368 383.945 L
450.461 383.946 L
450.554 383.946 L
450.647 383.946 L
450.74 383.946 L
450.833 383.947 L
450.926 383.947 L
451.019 383.947 L
451.112 383.947 L
451.205 383.947 L
451.298 383.948 L
451.391 383.948 L
451.484 383.948 L
451.577 383.948 L
451.669 383.949 L
451.763 383.949 L
451.856 383.949 L
451.949 383.949 L
452.042 383.949 L
452.135 383.95 L
452.228 383.95 L
452.321 383.95 L
452.414 383.95 L
452.507 383.95 L
452.599 383.951 L
452.693 383.951 L
452.786 383.951 L
452.879 383.951 L
452.971 383.951 L
453.065 383.952 L
453.158 383.952 L
453.251 383.952 L
453.344 383.952 L
453.437 383.952 L
453.53 383.953 L
453.622 383.953 L
453.716 383.953 L
453.809 383.953 L
453.902 383.953 L
453.995 383.954 L
454.088 383.954 L
454.181 383.954 L
454.274 383.954 L
454.367 383.955 L
454.46 383.955 L
454.553 383.955 L
454.646 383.955 L
454.739 383.955 L
454.832 383.956 L
454.924 383.956 L
455.018 383.956 L
455.111 383.956 L
455.204 383.956 L
455.297 383.957 L
455.39 383.957 L
455.483 383.957 L
455.576 383.957 L
455.669 383.957 L
455.762 383.958 L
455.854 383.958 L
455.948 383.958 L
456.041 383.958 L
456.134 383.958 L
456.227 383.958 L
456.32 383.959 L
456.413 383.959 L
456.506 383.959 L
456.599 383.959 L
456.691 383.959 L
456.784 383.96 L
456.878 383.96 L
456.971 383.96 L
457.064 383.96 L
457.156 383.96 L
457.25 383.961 L
457.342 383.961 L
457.436 383.961 L
457.529 383.961 L
457.621 383.961 L
457.714 383.962 L
457.807 383.962 L
457.901 383.962 L
457.994 383.962 L
458.087 383.962 L
458.18 383.962 L
458.273 383.963 L
458.366 383.963 L
458.459 383.963 L
458.552 383.963 L
458.645 383.963 L
458.738 383.964 L
458.831 383.964 L
458.924 383.964 L
459.017 383.964 L
459.11 383.964 L
459.203 383.965 L
459.296 383.965 L
459.389 383.965 L
459.482 383.965 L
459.575 383.965 L
459.668 383.965 L
459.761 383.966 L
459.854 383.966 L
459.947 383.966 L
460.04 383.966 L
460.133 383.966 L
460.226 383.967 L
460.319 383.967 L
460.411 383.967 L
460.505 383.967 L
460.598 383.967 L
460.691 383.967 L
460.784 383.968 L
460.876 383.968 L
460.97 383.968 L
461.062 383.968 L
461.156 383.968 L
461.249 383.968 L
461.341 383.969 L
461.435 383.969 L
461.528 383.969 L
461.621 383.969 L
461.714 383.969 L
461.806 383.97 L
461.9 383.97 L
461.992 383.97 L
462.086 383.97 L
462.179 383.97 L
462.272 383.97 L
462.365 383.971 L
462.458 383.971 L
462.551 383.971 L
462.644 383.971 L
462.737 383.971 L
462.83 383.971 L
462.923 383.972 L
463.016 383.972 L
463.109 383.972 L
463.202 383.972 L
463.295 383.972 L
463.388 383.972 L
463.481 383.973 L
463.574 383.973 L
463.667 383.973 L
463.76 383.973 L
463.853 383.973 L
463.946 383.973 L
464.039 383.974 L
464.132 383.974 L
464.225 383.974 L
464.318 383.974 L
464.411 383.974 L
464.504 383.974 L
464.596 383.975 L
464.69 383.975 L
464.783 383.975 L
464.876 383.975 L
464.969 383.975 L
465.061 383.975 L
465.155 383.976 L
465.247 383.976 L
465.341 383.976 L
465.434 383.976 L
465.526 383.976 L
465.62 383.976 L
465.713 383.977 L
465.806 383.977 L
465.899 383.977 L
465.991 383.977 L
466.085 383.977 L
466.177 383.977 L
466.271 383.978 L
466.364 383.978 L
466.457 383.978 L
466.55 383.978 L
466.643 383.978 L
466.736 383.978 L
466.829 383.979 L
466.922 383.979 L
467.015 383.979 L
467.108 383.979 L
467.201 383.979 L
467.294 383.979 L
467.387 383.979 L
467.48 383.98 L
467.573 383.98 L
467.666 383.98 L
467.759 383.98 L
467.852 383.98 L
467.945 383.98 L
468.038 383.981 L
468.131 383.981 L
468.224 383.981 L
468.317 383.981 L
468.41 383.981 L
468.503 383.981 L
468.596 383.981 L
468.689 383.982 L
468.781 383.982 L
468.875 383.982 L
468.968 383.982 L
469.061 383.982 L
469.154 383.982 L
469.247 383.983 L
469.34 383.983 L
469.432 383.983 L
469.526 383.983 L
469.619 383.983 L
469.711 383.983 L
469.805 383.983 L
469.898 383.984 L
469.991 383.984 L
470.084 383.984 L
470.177 383.984 L
470.27 383.984 L
470.362 383.984 L
470.456 383.984 L
470.549 383.985 L
470.641 383.985 L
470.734 383.985 L
470.828 383.985 L
470.921 383.985 L
471.014 383.985 L
471.107 383.986 L
471.2 383.986 L
471.293 383.986 L
471.386 383.986 L
471.479 383.986 L
471.572 383.986 L
471.665 383.986 L
471.758 383.987 L
471.851 383.987 L
471.944 383.987 L
472.036 383.987 L
472.13 383.987 L
472.223 383.987 L
472.316 383.987 L
472.409 383.988 L
472.502 383.988 L
472.595 383.988 L
472.688 383.988 L
472.781 383.988 L
472.874 383.988 L
472.966 383.988 L
473.06 383.989 L
473.153 383.989 L
473.246 383.989 L
473.339 383.989 L
473.432 383.989 L
473.525 383.989 L
473.618 383.989 L
473.711 383.99 L
473.804 383.99 L
473.896 383.99 L
473.99 383.99 L
474.083 383.99 L
474.176 383.99 L
474.269 383.99 L
474.362 383.991 L
474.454 383.991 L
474.548 383.991 L
474.641 383.991 L
474.734 383.991 L
474.826 383.991 L
474.919 383.991 L
475.013 383.991 L
475.106 383.992 L
475.199 383.992 L
475.292 383.992 L
475.385 383.992 L
475.478 383.992 L
475.571 383.992 L
475.664 383.992 L
475.757 383.993 L
475.85 383.993 L
475.943 383.993 L
476.036 383.993 L
476.129 383.993 L
476.221 383.993 L
476.315 383.993 L
476.408 383.993 L
476.501 383.994 L
476.594 383.994 L
476.687 383.994 L
476.78 383.994 L
476.873 383.994 L
476.966 383.994 L
477.059 383.994 L
477.151 383.994 L
477.245 383.995 L
477.338 383.995 L
477.431 383.995 L
477.524 383.995 L
477.617 383.995 L
477.71 383.995 L
477.803 383.995 L
477.896 383.996 L
477.989 383.996 L
478.081 383.996 L
478.174 383.996 L
478.268 383.996 L
478.361 383.996 L
478.454 383.996 L
478.547 383.996 L
478.639 383.997 L
478.733 383.997 L
478.826 383.997 L
478.919 383.997 L
479.011 383.997 L
479.104 383.997 L
479.198 383.997 L
479.291 383.997 L
479.384 383.997 L
479.477 383.998 L
479.57 383.998 L
479.663 383.998 L
479.755 383.998 L
479.849 383.998 L
479.942 383.998 L
480.035 383.998 L
480.128 383.999 L
480.221 383.999 L
480.314 383.999 L
480.407 383.999 L
480.5 383.999 L
480.593 383.999 L
480.686 383.999 L
480.779 383.999 L
480.872 384 L
480.965 384 L
481.058 384 L
481.151 384 L
481.244 384 L
481.337 384 L
481.43 384 L
481.523 384 L
481.616 384 L
481.709 384.001 L
481.802 384.001 L
481.895 384.001 L
481.988 384.001 L
482.081 384.001 L
482.174 384.001 L
482.267 384.001 L
482.359 384.001 L
482.453 384.002 L
482.546 384.002 L
482.639 384.002 L
482.732 384.002 L
482.825 384.002 L
482.918 384.002 L
483.01 384.002 L
483.104 384.002 L
483.197 384.002 L
483.289 384.003 L
483.383 384.003 L
483.476 384.003 L
483.569 384.003 L
483.662 384.003 L
483.755 384.003 L
483.848 384.003 L
483.94 384.003 L
484.034 384.003 L
484.127 384.004 L
484.22 384.004 L
484.313 384.004 L
484.406 384.004 L
484.499 384.004 L
484.592 384.004 L
484.685 384.004 L
484.778 384.004 L
484.871 384.005 L
484.964 384.005 L
485.057 384.005 L
485.15 384.005 L
485.243 384.005 L
485.336 384.005 L
485.429 384.005 L
485.522 384.005 L
485.615 384.005 L
485.708 384.005 L
485.801 384.006 L
485.894 384.006 L
485.987 384.006 L
486.08 384.006 L
486.173 384.006 L
486.266 384.006 L
486.359 384.006 L
486.452 384.006 L
486.544 384.006 L
486.638 384.007 L
486.731 384.007 L
486.824 384.007 L
486.917 384.007 L
487.01 384.007 L
487.103 384.007 L
487.196 384.007 L
487.289 384.007 L
487.382 384.007 L
487.474 384.008 L
487.568 384.008 L
487.661 384.008 L
487.754 384.008 L
487.846 384.008 L
487.94 384.008 L
488.033 384.008 L
488.126 384.008 L
488.219 384.008 L
488.312 384.009 L
488.405 384.009 L
488.498 384.009 L
488.591 384.009 L
488.684 384.009 L
488.777 384.009 L
488.87 384.009 L
488.963 384.009 L
489.056 384.009 L
489.149 384.009 L
489.242 384.01 L
489.335 384.01 L
489.428 384.01 L
489.521 384.01 L
489.614 384.01 L
489.707 384.01 L
489.799 384.01 L
489.893 384.01 L
489.986 384.01 L
490.079 384.01 L
490.172 384.011 L
490.265 384.011 L
490.358 384.011 L
490.451 384.011 L
490.544 384.011 L
490.637 384.011 L
490.729 384.011 L
490.823 384.011 L
490.916 384.011 L
491.009 384.012 L
491.102 384.012 L
491.195 384.012 L
491.288 384.012 L
491.381 384.012 L
491.474 384.012 L
491.566 384.012 L
491.659 384.012 L
491.753 384.012 L
491.846 384.012 L
491.939 384.012 L
492.031 384.013 L
492.125 384.013 L
492.217 384.013 L
492.311 384.013 L
492.404 384.013 L
492.497 384.013 L
492.59 384.013 L
492.683 384.013 L
492.776 384.013 L
492.869 384.013 L
492.962 384.014 L
493.055 384.014 L
493.148 384.014 L
493.241 384.014 L
493.334 384.014 L
493.427 384.014 L
493.52 384.014 L
493.613 384.014 L
493.706 384.014 L
493.799 384.014 L
493.892 384.014 L
493.985 384.015 L
494.078 384.015 L
494.171 384.015 L
494.264 384.015 L
494.357 384.015 L
494.45 384.015 L
494.543 384.015 L
494.636 384.015 L
494.729 384.015 L
494.822 384.015 L
494.915 384.016 L
495.008 384.016 L
495.101 384.016 L
495.194 384.016 L
495.286 384.016 L
495.38 384.016 L
495.473 384.016 L
495.566 384.016 L
495.659 384.016 L
495.751 384.016 L
495.845 384.016 L
495.938 384.016 L
496.031 384.017 L
496.124 384.017 L
496.216 384.017 L
496.31 384.017 L
496.403 384.017 L
496.496 384.017 L
496.589 384.017 L
496.682 384.017 L
496.775 384.017 L
496.867 384.017 L
496.961 384.017 L
497.054 384.018 L
497.147 384.018 L
497.24 384.018 L
497.333 384.018 L
497.426 384.018 L
497.519 384.018 L
497.612 384.018 L
497.705 384.018 L
497.798 384.018 L
497.891 384.018 L
497.984 384.018 L
498.077 384.018 L
498.17 384.019 L
498.263 384.019 L
498.356 384.019 L
498.449 384.019 L
498.542 384.019 L
498.635 384.019 L
498.728 384.019 L
498.821 384.019 L
498.914 384.019 L
499.007 384.019 L
499.1 384.019 L
499.193 384.02 L
499.286 384.02 L
499.379 384.02 L
499.471 384.02 L
499.565 384.02 L
499.658 384.02 L
499.751 384.02 L
499.844 384.02 L
499.936 384.02 L
500.03 384.02 L
500.122 384.02 L
500.216 384.021 L
500.309 384.021 L
500.401 384.021 L
500.495 384.021 L
500.588 384.021 L
500.681 384.021 L
500.774 384.021 L
500.866 384.021 L
500.96 384.021 L
501.052 384.021 L
501.146 384.021 L
501.239 384.021 L
501.332 384.021 L
501.425 384.022 L
501.518 384.022 L
501.611 384.022 L
501.704 384.022 L
501.797 384.022 L
501.89 384.022 L
501.983 384.022 L
502.076 384.022 L
502.169 384.022 L
502.262 384.022 L
502.355 384.022 L
502.448 384.022 L
502.541 384.023 L
502.634 384.023 L
502.727 384.023 L
502.82 384.023 L
502.913 384.023 L
503.006 384.023 L
503.099 384.023 L
503.192 384.023 L
503.285 384.023 L
503.378 384.023 L
503.471 384.023 L
503.564 384.023 L
503.656 384.023 L
503.75 384.024 L
503.843 384.024 L
503.936 384.024 L
504.029 384.024 L
504.122 384.024 L
504.215 384.024 L
504.307 384.024 L
504.401 384.024 L
504.494 384.024 L
504.586 384.024 L
504.68 384.024 L
504.773 384.024 L
504.866 384.024 L
504.959 384.025 L
505.052 384.025 L
505.145 384.025 L
505.237 384.025 L
505.331 384.025 L
505.424 384.025 L
505.517 384.025 L
505.61 384.025 L
505.703 384.025 L
505.796 384.025 L
505.889 384.025 L
505.982 384.025 L
506.075 384.025 L
506.168 384.026 L
506.261 384.026 L
506.354 384.026 L
506.447 384.026 L
506.54 384.026 L
506.633 384.026 L
506.726 384.026 L
506.819 384.026 L
506.911 384.026 L
507.005 384.026 L
507.098 384.026 L
507.191 384.026 L
507.284 384.026 L
507.377 384.026 L
507.47 384.027 L
507.563 384.027 L
507.656 384.027 L
507.749 384.027 L
507.841 384.027 L
507.935 384.027 L
508.028 384.027 L
508.121 384.027 L
508.214 384.027 L
508.307 384.027 L
508.4 384.027 L
508.493 384.027 L
508.586 384.027 L
508.679 384.027 L
508.771 384.028 L
508.865 384.028 L
508.958 384.028 L
509.051 384.028 L
509.144 384.028 L
509.237 384.028 L
509.329 384.028 L
509.423 384.028 L
509.516 384.028 L
509.609 384.028 L
509.702 384.028 L
509.795 384.028 L
509.888 384.028 L
509.981 384.028 L
510.074 384.029 L
510.167 384.029 L
510.26 384.029 L
510.353 384.029 L
510.446 384.029 L
510.539 384.029 L
510.632 384.029 L
510.725 384.029 L
510.818 384.029 L
510.911 384.029 L
511.004 384.029 L
511.096 384.029 L
511.19 384.029 L
511.283 384.029 L
511.376 384.029 L
511.469 384.03 L
511.562 384.03 L
511.655 384.03 L
511.748 384.03 L
511.841 384.03 L
511.934 384.03 L
512.026 384.03 L
512.12 384.03 L
512.213 384.03 L
512.306 384.03 L
512.399 384.03 L
512.492 384.03 L
512.584 384.03 L
512.677 384.03 L
512.771 384.03 L
512.864 384.031 L
512.956 384.031 L
513.049 384.031 L
513.143 384.031 L
513.236 384.031 L
513.328 384.031 L
513.422 384.031 L
513.515 384.031 L
513.608 384.031 L
513.701 384.031 L
513.794 384.031 L
513.886 384.031 L
513.979 384.031 L
514.073 384.031 L
514.166 384.031 L
514.259 384.031 L
514.352 384.032 L
514.445 384.032 L
514.538 384.032 L
514.631 384.032 L
514.724 384.032 L
514.817 384.032 L
514.91 384.032 L
515.003 384.032 L
515.096 384.032 L
515.189 384.032 L
515.281 384.032 L
515.375 384.032 L
515.468 384.032 L
515.561 384.032 L
515.654 384.032 L
515.747 384.033 L
515.84 384.033 L
515.932 384.033 L
516.026 384.033 L
516.119 384.033 L
516.212 384.033 L
516.305 384.033 L
516.398 384.033 L
516.491 384.033 L
516.583 384.033 L
516.677 384.033 L
516.77 384.033 L
516.863 384.033 L
516.956 384.033 L
517.049 384.033 L
517.141 384.033 L
517.234 384.034 L
517.328 384.034 L
517.421 384.034 L
517.514 384.034 L
517.607 384.034 L
517.7 384.034 L
517.792 384.034 L
517.885 384.034 L
517.979 384.034 L
518.072 384.034 L
518.164 384.034 L
518.258 384.034 L
518.351 384.034 L
518.443 384.034 L
518.536 384.034 L
518.63 384.034 L
518.723 384.034 L
518.816 384.034 L
518.909 384.035 L
519.002 384.035 L
519.095 384.035 L
519.188 384.035 L
519.281 384.035 L
519.374 384.035 L
519.467 384.035 L
519.56 384.035 L
519.653 384.035 L
519.746 384.035 L
519.839 384.035 L
519.932 384.035 L
520.025 384.035 L
520.118 384.035 L
520.211 384.035 L
520.304 384.035 L
520.396 384.035 L
520.49 384.035 L
520.583 384.036 L
520.676 384.036 L
520.769 384.036 L
520.862 384.036 L
520.955 384.036 L
521.047 384.036 L
521.141 384.036 L
521.234 384.036 LE
[12 4] 0 setdash
261.578 47.52 LS
261.578 379.432 LE
grestore
showpage
cleartomark
%%PageTrailer
%%Trailer
end
%%EOF
