%!PS-Adobe-3.0 EPSF-3.0
%%Title: glps_renderer figure
%%Creator: GL2PS 1.3.8, (C) 1999-2012 C. Geuzaine
%%For: Octave
%%CreationDate: Sun Nov 29 18:29:34 2015
%%LanguageLevel: 3
%%DocumentData: Clean7Bit
%%Pages: 1
%%BoundingBox: 0 0 560 420
%%EndComments
%%BeginProlog
/gl2psdict 64 dict def gl2psdict begin
0 setlinecap 0 setlinejoin
/tryPS3shading false def % set to false to force subdivision
/rThreshold 0.064 def % red component subdivision threshold
/gThreshold 0.034 def % green component subdivision threshold
/bThreshold 0.1 def % blue component subdivision threshold
/BD { bind def } bind def
/C  { setrgbcolor } BD
/G  { 0.082 mul exch 0.6094 mul add exch 0.3086 mul add neg 1.0 add setgray } BD
/W  { setlinewidth } BD
/FC { findfont exch /SH exch def SH scalefont setfont } BD
/SW { dup stringwidth pop } BD
/S  { FC moveto show } BD
/SBC{ FC moveto SW -2 div 0 rmoveto show } BD
/SBR{ FC moveto SW neg 0 rmoveto show } BD
/SCL{ FC moveto 0 SH -2 div rmoveto show } BD
/SCC{ FC moveto SW -2 div SH -2 div rmoveto show } BD
/SCR{ FC moveto SW neg SH -2 div rmoveto show } BD
/STL{ FC moveto 0 SH neg rmoveto show } BD
/STC{ FC moveto SW -2 div SH neg rmoveto show } BD
/STR{ FC moveto SW neg SH neg rmoveto show } BD
/FCT { FC translate 0 0 } BD
/SR  { gsave FCT moveto rotate show grestore } BD
/SBCR{ gsave FCT moveto rotate SW -2 div 0 rmoveto show grestore } BD
/SBRR{ gsave FCT moveto rotate SW neg 0 rmoveto show grestore } BD
/SCLR{ gsave FCT moveto rotate 0 SH -2 div rmoveto show grestore} BD
/SCCR{ gsave FCT moveto rotate SW -2 div SH -2 div rmoveto show grestore} BD
/SCRR{ gsave FCT moveto rotate SW neg SH -2 div rmoveto show grestore} BD
/STLR{ gsave FCT moveto rotate 0 SH neg rmoveto show grestore } BD
/STCR{ gsave FCT moveto rotate SW -2 div SH neg rmoveto show grestore } BD
/STRR{ gsave FCT moveto rotate SW neg SH neg rmoveto show grestore } BD
/P  { newpath 0.0 360.0 arc closepath fill } BD
/LS { newpath moveto } BD
/L  { lineto } BD
/LE { lineto stroke } BD
/T  { newpath moveto lineto lineto closepath fill } BD
/STshfill {
      /b1 exch def /g1 exch def /r1 exch def /y1 exch def /x1 exch def
      /b2 exch def /g2 exch def /r2 exch def /y2 exch def /x2 exch def
      /b3 exch def /g3 exch def /r3 exch def /y3 exch def /x3 exch def
      gsave << /ShadingType 4 /ColorSpace [/DeviceRGB]
      /DataSource [ 0 x1 y1 r1 g1 b1 0 x2 y2 r2 g2 b2 0 x3 y3 r3 g3 b3 ] >>
      shfill grestore } BD
/Tm { 3 -1 roll 8 -1 roll 13 -1 roll add add 3 div
      3 -1 roll 7 -1 roll 11 -1 roll add add 3 div
      3 -1 roll 6 -1 roll 9 -1 roll add add 3 div C T } BD
/STsplit {
      4 index 15 index add 0.5 mul
      4 index 15 index add 0.5 mul
      4 index 15 index add 0.5 mul
      4 index 15 index add 0.5 mul
      4 index 15 index add 0.5 mul
      5 copy 5 copy 25 15 roll
      9 index 30 index add 0.5 mul
      9 index 30 index add 0.5 mul
      9 index 30 index add 0.5 mul
      9 index 30 index add 0.5 mul
      9 index 30 index add 0.5 mul
      5 copy 5 copy 35 5 roll 25 5 roll 15 5 roll
      4 index 10 index add 0.5 mul
      4 index 10 index add 0.5 mul
      4 index 10 index add 0.5 mul
      4 index 10 index add 0.5 mul
      4 index 10 index add 0.5 mul
      5 copy 5 copy 40 5 roll 25 5 roll 15 5 roll 25 5 roll
      STnoshfill STnoshfill STnoshfill STnoshfill } BD
/STnoshfill {
      2 index 8 index sub abs rThreshold gt
      { STsplit }
      { 1 index 7 index sub abs gThreshold gt
        { STsplit }
        { dup 6 index sub abs bThreshold gt
          { STsplit }
          { 2 index 13 index sub abs rThreshold gt
            { STsplit }
            { 1 index 12 index sub abs gThreshold gt
              { STsplit }
              { dup 11 index sub abs bThreshold gt
                { STsplit }
                { 7 index 13 index sub abs rThreshold gt
                  { STsplit }
                  { 6 index 12 index sub abs gThreshold gt
                    { STsplit }
                    { 5 index 11 index sub abs bThreshold gt
                      { STsplit }
                      { Tm }
                      ifelse }
                    ifelse }
                  ifelse }
                ifelse }
              ifelse }
            ifelse }
          ifelse }
        ifelse }
      ifelse } BD
tryPS3shading
{ /shfill where
  { /ST { STshfill } BD }
  { /ST { STnoshfill } BD }
  ifelse }
{ /ST { STnoshfill } BD }
ifelse
end
%%EndProlog
%%BeginSetup
/DeviceRGB setcolorspace
gl2psdict begin
%%EndSetup
%%Page: 1 1
%%BeginPageSetup
%%EndPageSetup
mark
gsave
1.0 1.0 scale
1 1 1 C
506.8 46.2 506.8 388.5 506.8 46.2 T
506.8 46.2 506.8 388.5 506.8 388.5 T
72.8 388.5 506.8 388.5 72.8 388.5 T
72.8 388.5 506.8 388.5 506.8 388.5 T
72.8 388.5 506.8 46.2 72.8 46.2 T
72.8 388.5 506.8 388.5 506.8 46.2 T
0.5 W
[16 0] 0 setdash
0 0 0 C
72.8 46.2 LS
506.8 46.2 LE
72.8 388.5 LS
506.8 388.5 LE
72.8 388.5 LS
506.8 388.5 LE
72.8 46.2 LS
506.8 46.2 LE
72.8 46.2 LS
72.8 388.5 LE
506.8 46.2 LS
506.8 388.5 LE
506.8 46.2 LS
506.8 388.5 LE
72.8 46.2 LS
72.8 388.5 L
72.8 388.5 LE
506.8 388.5 LS
506.8 388.5 LE
506.8 46.2 LS
506.8 46.2 LE
72.8 46.2 LS
72.8 46.2 L
72.8 50.5438 LE
72.8 388.5 LS
72.8 384.156 LE
134.8 46.2 LS
134.8 50.5438 LE
134.8 388.5 LS
134.8 384.156 LE
196.8 46.2 LS
196.8 50.5438 LE
196.8 388.5 LS
196.8 384.156 LE
258.8 46.2 LS
258.8 50.5438 LE
258.8 388.5 LS
258.8 384.156 LE
320.8 46.2 LS
320.8 50.5438 LE
320.8 388.5 LS
320.8 384.156 LE
382.8 46.2 LS
382.8 50.5438 LE
382.8 388.5 LS
382.8 384.156 LE
444.8 46.2 LS
444.8 50.5438 LE
444.8 388.5 LS
444.8 384.156 LE
506.8 46.2 LS
506.8 50.5438 LE
506.8 388.5 LS
506.8 384.156 LE
(0) 72.8 41.1956 15 /Helvetica STC
(20) 134.8 41.1956 15 /Helvetica STC
(40) 196.8 41.1956 15 /Helvetica STC
(60) 258.8 41.1956 15 /Helvetica STC
(80) 320.8 41.1956 15 /Helvetica STC
(100) 382.8 41.1956 15 /Helvetica STC
(120) 444.8 41.1956 15 /Helvetica STC
(140) 506.8 41.1956 15 /Helvetica STC
72.8 46.2 LS
77.14 46.2 LE
506.8 46.2 LS
502.46 46.2 LE
72.8 114.66 LS
77.14 114.66 LE
506.8 114.66 LS
502.46 114.66 LE
72.8 183.12 LS
77.14 183.12 LE
506.8 183.12 LS
502.46 183.12 LE
72.8 251.58 LS
77.14 251.58 LE
506.8 251.58 LS
502.46 251.58 LE
72.8 320.04 LS
77.14 320.04 LE
506.8 320.04 LS
502.46 320.04 LE
72.8 388.5 LS
77.14 388.5 LE
506.8 388.5 LS
502.46 388.5 LE
(0) 67.8 46.2 15 /Helvetica SCR
(0.5) 67.8 114.66 15 /Helvetica SCR
(1) 67.8 183.12 15 /Helvetica SCR
(1.5) 67.8 251.58 15 /Helvetica SCR
(2) 67.8 320.04 15 /Helvetica SCR
(2.5) 67.8 388.5 15 /Helvetica SCR
(X) 289.8 23.1956 15 /Helvetica STC
(Wall Temperature Gradient) 90 43.8 217.35 15 /Helvetica SBCR
(H=2, T*=1, Ec=0.1) 289.8 398.5 15 /Helvetica SBC
2 W
[] 0 setdash
72.8403 131.242 LS
72.9209 144.871 L
73.0015 153.161 L
73.0821 159.135 L
73.1627 163.825 L
73.2433 167.701 L
73.3239 171.017 L
73.4045 173.921 L
73.4851 176.511 L
73.5657 178.854 L
73.6463 180.995 L
73.7269 182.97 L
73.8075 184.805 L
73.8881 186.519 L
73.9687 188.129 L
74.0493 189.648 L
74.1299 191.087 L
74.2105 192.454 L
74.2911 193.757 L
74.3717 195.001 L
74.4523 196.193 L
74.5329 197.337 L
74.6135 198.437 L
74.6941 199.496 L
74.7747 200.518 L
74.8553 201.505 L
74.9359 202.46 L
75.0165 203.385 L
75.0971 204.282 L
75.1777 205.152 L
75.2583 205.998 L
75.3389 206.82 L
75.4195 207.621 L
75.5001 208.401 L
75.5807 209.161 L
75.6613 209.903 L
75.7419 210.626 L
75.8225 211.333 L
75.9031 212.024 L
75.9837 212.7 L
76.0643 213.361 L
76.1449 214.009 L
76.2255 214.643 L
76.3061 215.264 L
76.3867 215.873 L
76.4673 216.47 L
76.5479 217.056 L
76.6285 217.631 L
76.7091 218.195 L
76.7897 218.75 L
76.8703 219.294 L
76.9509 219.83 L
77.0315 220.356 L
77.1121 220.874 L
77.1927 221.383 L
77.2733 221.884 L
77.3539 222.377 L
77.4345 222.863 L
77.5151 223.341 L
77.5957 223.812 L
77.6763 224.276 L
77.7569 224.733 L
77.8375 225.184 L
77.9181 225.628 L
77.9987 226.066 L
78.0793 226.499 L
78.1599 226.925 L
78.2405 227.345 L
78.3211 227.76 L
78.4017 228.17 L
78.4823 228.574 L
78.5629 228.974 L
78.6435 229.368 L
78.7241 229.757 L
78.8047 230.142 L
78.8853 230.522 L
78.9659 230.897 L
79.0465 231.268 L
79.1271 231.635 L
79.2077 231.998 L
79.2883 232.356 L
79.3689 232.71 L
79.4495 233.061 L
79.5301 233.407 L
79.6107 233.75 L
79.6913 234.089 L
79.7719 234.425 L
79.8525 234.757 L
79.9331 235.085 L
80.0137 235.41 L
80.0943 235.732 L
80.1749 236.05 L
80.2555 236.366 L
80.3361 236.678 L
80.4167 236.987 L
80.4973 237.293 L
80.5779 237.596 L
80.6585 237.896 L
80.7391 238.194 L
80.8197 238.488 L
80.9003 238.78 L
80.9809 239.069 L
81.0615 239.355 L
81.1421 239.639 L
81.2227 239.921 L
81.3033 240.2 L
81.3839 240.476 L
81.4645 240.75 L
81.5451 241.021 L
81.6257 241.291 L
81.7063 241.557 L
81.7869 241.822 L
81.8675 242.084 L
81.9481 242.345 L
82.0287 242.603 L
82.1093 242.859 L
82.1899 243.112 L
82.2705 243.364 L
82.3511 243.614 L
82.4317 243.862 L
82.5123 244.107 L
82.5929 244.351 L
82.6735 244.593 L
82.7541 244.833 L
82.8347 245.072 L
82.9153 245.308 L
82.9959 245.542 L
83.0765 245.775 L
83.1571 246.006 L
83.2377 246.236 L
83.3183 246.463 L
83.3989 246.689 L
83.4795 246.914 L
83.5601 247.136 L
83.6407 247.358 L
83.7213 247.577 L
83.8019 247.795 L
83.8825 248.011 L
83.9631 248.226 L
84.0437 248.44 L
84.1243 248.652 L
84.2049 248.862 L
84.2855 249.071 L
84.3661 249.279 L
84.4467 249.485 L
84.5273 249.69 L
84.6079 249.893 L
84.6885 250.096 L
84.7691 250.296 L
84.8497 250.496 L
84.9303 250.694 L
85.0109 250.891 L
85.0915 251.086 L
85.1721 251.281 L
85.2527 251.474 L
85.3333 251.666 L
85.4139 251.856 L
85.4945 252.046 L
85.5751 252.234 L
85.6557 252.421 L
85.7363 252.607 L
85.8169 252.792 L
85.8975 252.976 L
85.9781 253.158 L
86.0587 253.34 L
86.1393 253.52 L
86.2199 253.7 L
86.3005 253.878 L
86.3811 254.055 L
86.4617 254.231 L
86.5423 254.406 L
86.6229 254.581 L
86.7035 254.754 L
86.7841 254.926 L
86.8647 255.097 L
86.9453 255.267 L
87.0259 255.436 L
87.1065 255.604 L
87.1871 255.772 L
87.2677 255.938 L
87.3483 256.104 L
87.4289 256.268 L
87.5095 256.432 L
87.5901 256.594 L
87.6707 256.756 L
87.7513 256.917 L
87.8319 257.077 L
87.9125 257.236 L
87.9931 257.395 L
88.0737 257.552 L
88.1543 257.709 L
88.2349 257.865 L
88.3155 258.02 L
88.3961 258.174 L
88.4767 258.327 L
88.5573 258.48 L
88.6379 258.632 L
88.7185 258.783 L
88.7991 258.933 L
88.8797 259.083 L
88.9603 259.232 L
89.0409 259.379 L
89.1215 259.527 L
89.2021 259.673 L
89.2827 259.819 L
89.3633 259.964 L
89.4439 260.108 L
89.5245 260.252 L
89.6051 260.395 L
89.6857 260.537 L
89.7663 260.679 L
89.8469 260.82 L
89.9275 260.96 L
90.0081 261.099 L
90.0887 261.238 L
90.1693 261.376 L
90.2499 261.514 L
90.3305 261.651 L
90.4111 261.787 L
90.4917 261.922 L
90.5723 262.057 L
90.6529 262.192 L
90.7335 262.325 L
90.8141 262.458 L
90.8947 262.591 L
90.9753 262.723 L
91.0559 262.854 L
91.1365 262.985 L
91.2171 263.115 L
91.2977 263.244 L
91.3783 263.373 L
91.4589 263.501 L
91.5395 263.629 L
91.6201 263.756 L
91.7007 263.883 L
91.7813 264.009 L
91.8619 264.135 L
91.9425 264.26 L
92.0231 264.384 L
92.1037 264.508 L
92.1843 264.631 L
92.2649 264.754 L
92.3455 264.876 L
92.4261 264.998 L
92.5067 265.119 L
92.5873 265.24 L
92.6679 265.36 L
92.7485 265.48 L
92.8291 265.599 L
92.9097 265.718 L
92.9903 265.836 L
93.0709 265.954 L
93.1515 266.071 L
93.2321 266.188 L
93.3127 266.304 L
93.3933 266.42 L
93.4739 266.535 L
93.5545 266.65 L
93.6351 266.765 L
93.7157 266.879 L
93.7963 266.992 L
93.8769 267.105 L
93.9575 267.218 L
94.0381 267.33 L
94.1187 267.441 L
94.1993 267.553 L
94.2799 267.664 L
94.3605 267.774 L
94.4411 267.884 L
94.5217 267.993 L
94.6023 268.102 L
94.6829 268.211 L
94.7635 268.319 L
94.8441 268.427 L
94.9247 268.535 L
95.0053 268.641 L
95.0859 268.748 L
95.1665 268.854 L
95.2471 268.96 L
95.3277 269.065 L
95.4083 269.17 L
95.4889 269.275 L
95.5695 269.379 L
95.6501 269.483 L
95.7307 269.586 L
95.8113 269.689 L
95.8919 269.792 L
95.9725 269.894 L
96.0531 269.996 L
96.1337 270.098 L
96.2143 270.199 L
96.2949 270.3 L
96.3755 270.4 L
96.4561 270.5 L
96.5367 270.6 L
96.6173 270.699 L
96.6979 270.798 L
96.7785 270.897 L
96.8591 270.995 L
96.9397 271.093 L
97.0203 271.191 L
97.1009 271.288 L
97.1815 271.385 L
97.2621 271.482 L
97.3427 271.578 L
97.4233 271.674 L
97.5039 271.769 L
97.5845 271.865 L
97.6651 271.959 L
97.7457 272.054 L
97.8263 272.148 L
97.9069 272.242 L
97.9875 272.336 L
98.0681 272.429 L
98.1487 272.522 L
98.2293 272.615 L
98.3099 272.707 L
98.3905 272.799 L
98.4711 272.891 L
98.5517 272.983 L
98.6323 273.074 L
98.7129 273.164 L
98.7935 273.255 L
98.8741 273.345 L
98.9547 273.435 L
99.0353 273.525 L
99.1159 273.614 L
99.1965 273.703 L
99.2771 273.792 L
99.3577 273.881 L
99.4383 273.969 L
99.5189 274.057 L
99.5995 274.144 L
99.6801 274.232 L
99.7607 274.319 L
99.8413 274.406 L
99.9219 274.492 L
100.002 274.578 L
100.083 274.664 L
100.164 274.75 L
100.244 274.836 L
100.325 274.921 L
100.406 275.006 L
100.486 275.09 L
100.567 275.175 L
100.647 275.259 L
100.728 275.343 L
100.809 275.427 L
100.889 275.51 L
100.97 275.593 L
101.05 275.676 L
101.131 275.758 L
101.212 275.841 L
101.292 275.923 L
101.373 276.005 L
101.453 276.086 L
101.534 276.168 L
101.614 276.249 L
101.695 276.33 L
101.776 276.41 L
101.856 276.491 L
101.937 276.571 L
102.018 276.651 L
102.098 276.731 L
102.179 276.81 L
102.259 276.89 L
102.34 276.969 L
102.421 277.047 L
102.501 277.126 L
102.582 277.204 L
102.662 277.282 L
102.743 277.36 L
102.824 277.438 L
102.904 277.515 L
102.985 277.592 L
103.065 277.67 L
103.146 277.746 L
103.227 277.823 L
103.307 277.899 L
103.388 277.975 L
103.468 278.051 L
103.549 278.127 L
103.629 278.203 L
103.71 278.278 L
103.791 278.353 L
103.871 278.428 L
103.952 278.503 L
104.032 278.577 L
104.113 278.651 L
104.194 278.725 L
104.274 278.799 L
104.355 278.873 L
104.436 278.946 L
104.516 279.02 L
104.597 279.093 L
104.677 279.166 L
104.758 279.238 L
104.839 279.311 L
104.919 279.383 L
105 279.455 L
105.08 279.527 L
105.161 279.599 L
105.242 279.671 L
105.322 279.742 L
105.403 279.813 L
105.483 279.884 L
105.564 279.955 L
105.645 280.025 L
105.725 280.096 L
105.806 280.166 L
105.886 280.236 L
105.967 280.306 L
106.048 280.376 L
106.128 280.445 L
106.209 280.515 L
106.289 280.584 L
106.37 280.653 L
106.451 280.722 L
106.531 280.791 L
106.612 280.859 L
106.692 280.927 L
106.773 280.995 L
106.854 281.064 L
106.934 281.131 L
107.015 281.199 L
107.095 281.266 L
107.176 281.334 L
107.257 281.401 L
107.337 281.468 L
107.418 281.535 L
107.498 281.602 L
107.579 281.668 L
107.659 281.734 L
107.74 281.8 L
107.821 281.867 L
107.901 281.932 L
107.982 281.998 L
108.062 282.064 L
108.143 282.129 L
108.224 282.194 L
108.304 282.259 L
108.385 282.324 L
108.465 282.389 L
108.546 282.454 L
108.627 282.518 L
108.707 282.583 L
108.788 282.647 L
108.868 282.711 L
108.949 282.775 L
109.03 282.838 L
109.11 282.902 L
109.191 282.965 L
109.271 283.029 L
109.352 283.092 L
109.433 283.155 L
109.513 283.218 L
109.594 283.281 L
109.674 283.343 L
109.755 283.406 L
109.836 283.468 L
109.916 283.53 L
109.997 283.592 L
110.077 283.654 L
110.158 283.716 L
110.239 283.777 L
110.319 283.839 L
110.4 283.9 L
110.48 283.961 L
110.561 284.022 L
110.642 284.084 L
110.722 284.144 L
110.803 284.205 L
110.883 284.266 L
110.964 284.326 L
111.045 284.386 L
111.125 284.446 L
111.206 284.507 L
111.286 284.566 L
111.367 284.626 L
111.448 284.686 L
111.528 284.745 L
111.609 284.805 L
111.689 284.864 L
111.77 284.923 L
111.851 284.982 L
111.931 285.041 L
112.012 285.1 L
112.092 285.159 L
112.173 285.217 L
112.254 285.275 L
112.334 285.334 L
112.415 285.392 L
112.495 285.45 L
112.576 285.508 L
112.657 285.566 L
112.737 285.624 L
112.818 285.681 L
112.898 285.739 L
112.979 285.796 L
113.06 285.853 L
113.14 285.91 L
113.221 285.967 L
113.301 286.024 L
113.382 286.081 L
113.463 286.138 L
113.543 286.194 L
113.624 286.251 L
113.704 286.307 L
113.785 286.363 L
113.866 286.419 L
113.946 286.475 L
114.027 286.531 L
114.107 286.587 L
114.188 286.643 L
114.269 286.698 L
114.349 286.754 L
114.43 286.809 L
114.51 286.864 L
114.591 286.92 L
114.672 286.975 L
114.752 287.03 L
114.833 287.084 L
114.913 287.139 L
114.994 287.194 L
115.075 287.248 L
115.155 287.303 L
115.236 287.357 L
115.316 287.411 L
115.397 287.465 L
115.478 287.519 L
115.558 287.573 L
115.639 287.627 L
115.719 287.681 L
115.8 287.735 L
115.881 287.788 L
115.961 287.841 L
116.042 287.895 L
116.122 287.948 L
116.203 288.001 L
116.284 288.054 L
116.364 288.107 L
116.445 288.16 L
116.525 288.213 L
116.606 288.266 L
116.687 288.318 L
116.767 288.371 L
116.848 288.423 L
116.928 288.475 L
117.009 288.527 L
117.09 288.58 L
117.17 288.632 L
117.251 288.684 L
117.331 288.735 L
117.412 288.787 L
117.493 288.839 L
117.573 288.89 L
117.654 288.942 L
117.734 288.993 L
117.815 289.045 L
117.896 289.096 L
117.976 289.147 L
118.057 289.198 L
118.137 289.249 L
118.218 289.3 L
118.299 289.351 L
118.379 289.401 L
118.46 289.452 L
118.54 289.502 L
118.621 289.553 L
118.702 289.603 L
118.782 289.654 L
118.863 289.704 L
118.943 289.754 L
119.024 289.804 L
119.105 289.854 L
119.185 289.904 L
119.266 289.953 L
119.346 290.003 L
119.427 290.053 L
119.508 290.102 L
119.588 290.152 L
119.669 290.201 L
119.749 290.251 L
119.83 290.3 L
119.911 290.349 L
119.991 290.398 L
120.072 290.447 L
120.152 290.496 L
120.233 290.545 L
120.314 290.594 L
120.394 290.642 L
120.475 290.691 L
120.555 290.739 L
120.636 290.788 L
120.717 290.836 L
120.797 290.885 L
120.878 290.933 L
120.958 290.981 L
121.039 291.029 L
121.12 291.077 L
121.2 291.125 L
121.281 291.173 L
121.361 291.221 L
121.442 291.268 L
121.523 291.316 L
121.603 291.364 L
121.684 291.411 L
121.764 291.459 L
121.845 291.506 L
121.926 291.553 L
122.006 291.601 L
122.087 291.648 L
122.167 291.695 L
122.248 291.742 L
122.329 291.789 L
122.409 291.836 L
122.49 291.882 L
122.57 291.929 L
122.651 291.976 L
122.732 292.022 L
122.812 292.069 L
122.893 292.116 L
122.973 292.162 L
123.054 292.208 L
123.135 292.255 L
123.215 292.301 L
123.296 292.347 L
123.377 292.393 L
123.457 292.439 L
123.538 292.485 L
123.618 292.531 L
123.699 292.577 L
123.779 292.622 L
123.86 292.668 L
123.941 292.714 L
124.021 292.759 L
124.102 292.805 L
124.182 292.85 L
124.263 292.896 L
124.344 292.941 L
124.424 292.986 L
124.505 293.031 L
124.585 293.076 L
124.666 293.122 L
124.747 293.166 L
124.827 293.211 L
124.908 293.256 L
124.988 293.301 L
125.069 293.346 L
125.15 293.391 L
125.23 293.435 L
125.311 293.48 L
125.391 293.524 L
125.472 293.569 L
125.553 293.613 L
125.633 293.658 L
125.714 293.702 L
125.794 293.746 L
125.875 293.79 L
125.956 293.834 L
126.036 293.878 L
126.117 293.922 L
126.197 293.966 L
126.278 294.01 L
126.359 294.054 L
126.439 294.098 L
126.52 294.142 L
126.6 294.185 L
126.681 294.229 L
126.762 294.272 L
126.842 294.316 L
126.923 294.359 L
127.004 294.403 L
127.084 294.446 L
127.165 294.489 L
127.245 294.532 L
127.326 294.576 L
127.406 294.619 L
127.487 294.662 L
127.568 294.705 L
127.648 294.748 L
127.729 294.791 L
127.809 294.834 L
127.89 294.876 L
127.971 294.919 L
128.051 294.962 L
128.132 295.004 L
128.212 295.047 L
128.293 295.089 L
128.374 295.132 L
128.454 295.174 L
128.535 295.217 L
128.615 295.259 L
128.696 295.301 L
128.777 295.344 L
128.857 295.386 L
128.938 295.428 L
129.019 295.47 L
129.099 295.512 L
129.18 295.554 L
129.26 295.596 L
129.341 295.638 L
129.421 295.68 L
129.502 295.721 L
129.583 295.763 L
129.663 295.805 L
129.744 295.846 L
129.824 295.888 L
129.905 295.93 L
129.986 295.971 L
130.066 296.013 L
130.147 296.054 L
130.227 296.095 L
130.308 296.137 L
130.389 296.178 L
130.469 296.219 L
130.55 296.26 L
130.63 296.301 L
130.711 296.342 L
130.792 296.384 L
130.872 296.424 L
130.953 296.465 L
131.034 296.506 L
131.114 296.547 L
131.195 296.588 L
131.275 296.629 L
131.356 296.669 L
131.437 296.71 L
131.517 296.751 L
131.598 296.791 L
131.678 296.832 L
131.759 296.872 L
131.839 296.913 L
131.92 296.953 L
132.001 296.993 L
132.081 297.034 L
132.162 297.074 L
132.242 297.114 L
132.323 297.155 L
132.404 297.195 L
132.484 297.235 L
132.565 297.275 L
132.645 297.315 L
132.726 297.355 L
132.807 297.395 L
132.887 297.435 L
132.968 297.474 L
133.049 297.514 L
133.129 297.554 L
133.21 297.594 L
133.29 297.633 L
133.371 297.673 L
133.452 297.713 L
133.532 297.752 L
133.613 297.792 L
133.693 297.831 L
133.774 297.87 L
133.854 297.91 L
133.935 297.949 L
134.016 297.989 L
134.096 298.028 L
134.177 298.067 L
134.257 298.106 L
134.338 298.145 L
134.419 298.185 L
134.499 298.224 L
134.58 298.263 L
134.66 298.302 L
134.741 298.34 L
134.822 298.38 L
134.902 298.418 L
134.983 298.457 L
135.064 298.496 L
135.144 298.535 L
135.225 298.574 L
135.305 298.612 L
135.386 298.651 L
135.467 298.689 L
135.547 298.728 L
135.628 298.766 L
135.708 298.805 L
135.789 298.844 L
135.869 298.882 L
135.95 298.92 L
136.031 298.959 L
136.111 298.997 L
136.192 299.035 L
136.272 299.073 L
136.353 299.112 L
136.434 299.15 L
136.514 299.188 L
136.595 299.226 L
136.675 299.264 L
136.756 299.302 L
136.837 299.34 L
136.917 299.378 L
136.998 299.416 L
137.079 299.454 L
137.159 299.492 L
137.24 299.53 L
137.32 299.567 L
137.401 299.605 L
137.482 299.643 L
137.562 299.68 L
137.643 299.718 L
137.723 299.756 L
137.804 299.793 L
137.884 299.831 L
137.965 299.868 L
138.046 299.906 L
138.126 299.943 L
138.207 299.981 L
138.287 300.018 L
138.368 300.055 L
138.449 300.093 L
138.529 300.13 L
138.61 300.167 L
138.69 300.204 L
138.771 300.241 L
138.852 300.278 L
138.932 300.316 L
139.013 300.353 L
139.094 300.39 L
139.174 300.427 L
139.255 300.464 L
139.335 300.501 L
139.416 300.537 L
139.497 300.574 L
139.577 300.611 L
139.658 300.648 L
139.738 300.685 L
139.819 300.721 L
139.899 300.758 L
139.98 300.795 L
140.061 300.831 L
140.141 300.868 L
140.222 300.905 L
140.302 300.941 L
140.383 300.978 L
140.464 301.014 L
140.544 301.051 L
140.625 301.087 L
140.706 301.123 L
140.786 301.16 L
140.867 301.196 L
140.947 301.232 L
141.028 301.269 L
141.109 301.305 L
141.189 301.341 L
141.27 301.377 L
141.35 301.413 L
141.431 301.45 L
141.512 301.486 L
141.592 301.522 L
141.673 301.558 L
141.753 301.594 L
141.834 301.63 L
141.914 301.666 L
141.995 301.701 L
142.076 301.737 L
142.156 301.773 L
142.237 301.809 L
142.317 301.845 L
142.398 301.881 L
142.479 301.916 L
142.559 301.952 L
142.64 301.988 L
142.721 302.023 L
142.801 302.059 L
142.882 302.095 L
142.962 302.13 L
143.043 302.166 L
143.123 302.201 L
143.204 302.237 L
143.285 302.272 L
143.365 302.307 L
143.446 302.343 L
143.527 302.378 L
143.607 302.413 L
143.688 302.449 L
143.768 302.484 L
143.849 302.519 L
143.929 302.554 L
144.01 302.59 L
144.091 302.625 L
144.171 302.66 L
144.252 302.695 L
144.333 302.73 L
144.413 302.765 L
144.494 302.8 L
144.574 302.835 L
144.655 302.87 L
144.736 302.905 L
144.816 302.94 L
144.897 302.975 L
144.977 303.01 L
145.058 303.045 L
145.138 303.08 L
145.219 303.114 L
145.3 303.149 L
145.38 303.184 L
145.461 303.219 L
145.542 303.253 L
145.622 303.288 L
145.703 303.322 L
145.783 303.357 L
145.864 303.392 L
145.944 303.426 L
146.025 303.461 L
146.106 303.495 L
146.186 303.53 L
146.267 303.564 L
146.348 303.599 L
146.428 303.633 L
146.509 303.667 L
146.589 303.702 L
146.67 303.736 L
146.751 303.77 L
146.831 303.804 L
146.912 303.839 L
146.992 303.873 L
147.073 303.907 L
147.154 303.941 L
147.234 303.975 L
147.315 304.01 L
147.395 304.044 L
147.476 304.078 L
147.557 304.112 L
147.637 304.146 L
147.718 304.18 L
147.798 304.214 L
147.879 304.248 L
147.96 304.282 L
148.04 304.315 L
148.121 304.349 L
148.201 304.383 L
148.282 304.417 L
148.363 304.451 L
148.443 304.484 L
148.524 304.518 L
148.604 304.552 L
148.685 304.586 L
148.766 304.619 L
148.846 304.653 L
148.927 304.687 L
149.007 304.72 L
149.088 304.754 L
149.169 304.787 L
149.249 304.821 L
149.33 304.854 L
149.41 304.888 L
149.491 304.921 L
149.572 304.955 L
149.652 304.988 L
149.733 305.022 L
149.813 305.055 L
149.894 305.088 L
149.975 305.122 L
150.055 305.155 L
150.136 305.188 L
150.216 305.221 L
150.297 305.255 L
150.378 305.288 L
150.458 305.321 L
150.539 305.354 L
150.619 305.387 L
150.7 305.421 L
150.781 305.454 L
150.861 305.487 L
150.942 305.52 L
151.022 305.553 L
151.103 305.586 L
151.184 305.619 L
151.264 305.652 L
151.345 305.685 L
151.425 305.717 L
151.506 305.75 L
151.587 305.783 L
151.667 305.816 L
151.748 305.849 L
151.828 305.882 L
151.909 305.915 L
151.99 305.947 L
152.07 305.98 L
152.151 306.013 L
152.231 306.045 L
152.312 306.078 L
152.393 306.111 L
152.473 306.143 L
152.554 306.176 L
152.634 306.209 L
152.715 306.241 L
152.796 306.274 L
152.876 306.306 L
152.957 306.339 L
153.037 306.371 L
153.118 306.404 L
153.199 306.436 L
153.279 306.469 L
153.36 306.501 L
153.44 306.533 L
153.521 306.566 L
153.602 306.598 L
153.682 306.63 L
153.763 306.663 L
153.843 306.695 L
153.924 306.727 L
154.005 306.759 L
154.085 306.791 L
154.166 306.824 L
154.246 306.856 L
154.327 306.888 L
154.408 306.92 L
154.488 306.952 L
154.569 306.984 L
154.649 307.016 L
154.73 307.048 L
154.81 307.08 L
154.891 307.112 L
154.972 307.144 L
155.052 307.176 L
155.133 307.208 L
155.214 307.24 L
155.294 307.272 L
155.375 307.304 L
155.455 307.336 L
155.536 307.367 L
155.616 307.399 L
155.697 307.431 L
155.778 307.463 L
155.858 307.495 L
155.939 307.526 L
156.02 307.558 L
156.1 307.59 L
156.181 307.622 L
156.261 307.653 L
156.342 307.685 L
156.423 307.716 L
156.503 307.748 L
156.584 307.78 L
156.664 307.811 L
156.745 307.843 L
156.826 307.874 L
156.906 307.906 L
156.987 307.937 L
157.067 307.969 L
157.148 308 L
157.229 308.031 L
157.309 308.063 L
157.39 308.094 L
157.47 308.126 L
157.551 308.157 L
157.632 308.188 L
157.712 308.22 L
157.793 308.251 L
157.873 308.282 L
157.954 308.313 L
158.035 308.345 L
158.115 308.376 L
158.196 308.407 L
158.276 308.438 L
158.357 308.469 L
158.438 308.501 L
158.518 308.532 L
158.599 308.563 L
158.679 308.594 L
158.76 308.625 L
158.84 308.656 L
158.921 308.687 L
159.002 308.718 L
159.082 308.749 L
159.163 308.78 L
159.243 308.811 L
159.324 308.842 L
159.405 308.873 L
159.485 308.903 L
159.566 308.934 L
159.646 308.965 L
159.727 308.996 L
159.808 309.027 L
159.888 309.058 L
159.969 309.088 L
160.049 309.119 L
160.13 309.15 L
160.211 309.181 L
160.291 309.211 L
160.372 309.242 L
160.452 309.273 L
160.533 309.303 L
160.614 309.334 L
160.694 309.365 L
160.775 309.395 L
160.855 309.426 L
160.936 309.456 L
161.017 309.487 L
161.097 309.517 L
161.178 309.548 L
161.258 309.578 L
161.339 309.609 L
161.42 309.639 L
161.5 309.67 L
161.581 309.7 L
161.661 309.731 L
161.742 309.761 L
161.823 309.791 L
161.903 309.822 L
161.984 309.852 L
162.064 309.882 L
162.145 309.913 L
162.226 309.943 L
162.306 309.973 L
162.387 310.003 L
162.467 310.034 L
162.548 310.064 L
162.629 310.094 L
162.709 310.124 L
162.79 310.154 L
162.87 310.185 L
162.951 310.215 L
163.032 310.245 L
163.112 310.275 L
163.193 310.305 L
163.273 310.335 L
163.354 310.365 L
163.435 310.395 L
163.515 310.425 L
163.596 310.455 L
163.676 310.485 L
163.757 310.515 L
163.838 310.545 L
163.918 310.575 L
163.999 310.605 L
164.079 310.635 L
164.16 310.664 L
164.241 310.694 L
164.321 310.724 L
164.402 310.754 L
164.483 310.784 L
164.563 310.814 L
164.644 310.843 L
164.724 310.873 L
164.805 310.903 L
164.885 310.932 L
164.966 310.962 L
165.047 310.992 L
165.127 311.021 L
165.208 311.051 L
165.288 311.081 L
165.369 311.11 L
165.45 311.14 L
165.53 311.169 L
165.611 311.199 L
165.691 311.229 L
165.772 311.258 L
165.853 311.288 L
165.933 311.317 L
166.014 311.347 L
166.094 311.376 L
166.175 311.406 L
166.256 311.435 L
166.336 311.464 L
166.417 311.494 L
166.497 311.523 L
166.578 311.553 L
166.659 311.582 L
166.739 311.611 L
166.82 311.641 L
166.9 311.67 L
166.981 311.699 L
167.062 311.728 L
167.142 311.758 L
167.223 311.787 L
167.303 311.816 L
167.384 311.845 L
167.465 311.875 L
167.545 311.904 L
167.626 311.933 L
167.706 311.962 L
167.787 311.991 L
167.868 312.02 L
167.948 312.049 L
168.029 312.078 L
168.109 312.108 L
168.19 312.137 L
168.271 312.166 L
168.351 312.195 L
168.432 312.224 L
168.513 312.253 L
168.593 312.282 L
168.674 312.31 L
168.754 312.339 L
168.835 312.368 L
168.915 312.397 L
168.996 312.426 L
169.077 312.455 L
169.157 312.484 L
169.238 312.513 L
169.318 312.542 L
169.399 312.57 L
169.48 312.599 L
169.56 312.628 L
169.641 312.657 L
169.721 312.685 L
169.802 312.714 L
169.883 312.743 L
169.963 312.772 L
170.044 312.8 L
170.124 312.829 L
170.205 312.858 L
170.286 312.886 L
170.366 312.915 L
170.447 312.943 L
170.527 312.972 L
170.608 313.001 L
170.689 313.029 L
170.769 313.058 L
170.85 313.086 L
170.93 313.115 L
171.011 313.143 L
171.092 313.172 L
171.172 313.2 L
171.253 313.229 L
171.333 313.257 L
171.414 313.286 L
171.495 313.314 L
171.575 313.342 L
171.656 313.371 L
171.736 313.399 L
171.817 313.427 L
171.898 313.456 L
171.978 313.484 L
172.059 313.512 L
172.139 313.541 L
172.22 313.569 L
172.301 313.597 L
172.381 313.626 L
172.462 313.654 L
172.542 313.682 L
172.623 313.71 L
172.704 313.738 L
172.784 313.766 L
172.865 313.795 L
172.945 313.823 L
173.026 313.851 L
173.107 313.879 L
173.187 313.907 L
173.268 313.935 L
173.349 313.963 L
173.429 313.991 L
173.51 314.019 L
173.59 314.047 L
173.671 314.076 L
173.751 314.103 L
173.832 314.131 L
173.913 314.159 L
173.993 314.187 L
174.074 314.215 L
174.154 314.243 L
174.235 314.271 L
174.316 314.299 L
174.396 314.327 L
174.477 314.355 L
174.557 314.383 L
174.638 314.41 L
174.719 314.438 L
174.799 314.466 L
174.88 314.494 L
174.961 314.522 L
175.041 314.549 L
175.122 314.577 L
175.202 314.605 L
175.283 314.633 L
175.363 314.66 L
175.444 314.688 L
175.525 314.716 L
175.605 314.743 L
175.686 314.771 L
175.766 314.799 L
175.847 314.826 L
175.928 314.854 L
176.008 314.881 L
176.089 314.909 L
176.169 314.937 L
176.25 314.964 L
176.331 314.992 L
176.411 315.019 L
176.492 315.047 L
176.572 315.074 L
176.653 315.102 L
176.734 315.129 L
176.814 315.157 L
176.895 315.184 L
176.975 315.211 L
177.056 315.239 L
177.137 315.266 L
177.217 315.294 L
177.298 315.321 L
177.379 315.348 L
177.459 315.376 L
177.54 315.403 L
177.62 315.43 L
177.701 315.458 L
177.782 315.485 L
177.862 315.512 L
177.943 315.539 L
178.023 315.567 L
178.104 315.594 L
178.184 315.621 L
178.265 315.648 L
178.346 315.675 L
178.426 315.703 L
178.507 315.73 L
178.587 315.757 L
178.668 315.784 L
178.749 315.811 L
178.829 315.838 L
178.91 315.865 L
178.991 315.892 L
179.071 315.919 L
179.152 315.947 L
179.232 315.973 L
179.313 316.001 L
179.393 316.028 L
179.474 316.055 L
179.555 316.082 L
179.635 316.108 L
179.716 316.135 L
179.796 316.162 L
179.877 316.189 L
179.958 316.216 L
180.038 316.243 L
180.119 316.27 L
180.199 316.297 L
180.28 316.324 L
180.361 316.351 L
180.441 316.377 L
180.522 316.404 L
180.603 316.431 L
180.683 316.458 L
180.764 316.484 L
180.844 316.511 L
180.925 316.538 L
181.005 316.565 L
181.086 316.592 L
181.167 316.618 L
181.247 316.645 L
181.328 316.671 L
181.409 316.698 L
181.489 316.725 L
181.57 316.751 L
181.65 316.778 L
181.731 316.805 L
181.812 316.831 L
181.892 316.858 L
181.973 316.885 L
182.053 316.911 L
182.134 316.938 L
182.214 316.964 L
182.295 316.991 L
182.376 317.017 L
182.456 317.044 L
182.537 317.07 L
182.617 317.097 L
182.698 317.123 L
182.779 317.149 L
182.859 317.176 L
182.94 317.202 L
183.021 317.229 L
183.101 317.255 L
183.182 317.281 L
183.262 317.308 L
183.343 317.334 L
183.423 317.36 L
183.504 317.387 L
183.585 317.413 L
183.665 317.439 L
183.746 317.466 L
183.826 317.492 L
183.907 317.518 L
183.988 317.544 L
184.068 317.571 L
184.149 317.597 L
184.229 317.623 L
184.31 317.649 L
184.391 317.676 L
184.471 317.702 L
184.552 317.728 L
184.633 317.754 L
184.713 317.78 L
184.794 317.806 L
184.874 317.832 L
184.955 317.858 L
185.035 317.884 L
185.116 317.91 L
185.197 317.936 L
185.277 317.962 L
185.358 317.989 L
185.439 318.015 L
185.519 318.041 L
185.6 318.067 L
185.68 318.093 L
185.761 318.118 L
185.841 318.144 L
185.922 318.17 L
186.003 318.196 L
186.083 318.222 L
186.164 318.248 L
186.245 318.274 L
186.325 318.3 L
186.406 318.326 L
186.486 318.352 L
186.567 318.377 L
186.647 318.403 L
186.728 318.429 L
186.809 318.455 L
186.889 318.481 L
186.97 318.506 L
187.05 318.532 L
187.131 318.558 L
187.212 318.584 L
187.292 318.609 L
187.373 318.635 L
187.453 318.661 L
187.534 318.686 L
187.615 318.712 L
187.695 318.738 L
187.776 318.763 L
187.857 318.789 L
187.937 318.815 L
188.018 318.84 L
188.098 318.866 L
188.179 318.891 L
188.259 318.917 L
188.34 318.942 L
188.421 318.968 L
188.501 318.994 L
188.582 319.019 L
188.663 319.044 L
188.743 319.07 L
188.824 319.095 L
188.904 319.121 L
188.985 319.146 L
189.065 319.172 L
189.146 319.197 L
189.227 319.223 L
189.307 319.248 L
189.388 319.273 L
189.469 319.299 L
189.549 319.324 L
189.63 319.35 L
189.71 319.375 L
189.791 319.4 L
189.871 319.426 L
189.952 319.451 L
190.033 319.476 L
190.113 319.501 L
190.194 319.527 L
190.275 319.552 L
190.355 319.577 L
190.436 319.602 L
190.516 319.628 L
190.597 319.653 L
190.678 319.678 L
190.758 319.703 L
190.839 319.728 L
190.919 319.753 L
191 319.779 L
191.08 319.804 L
191.161 319.829 L
191.242 319.854 L
191.322 319.879 L
191.403 319.904 L
191.483 319.929 L
191.564 319.954 L
191.645 319.979 L
191.725 320.004 L
191.806 320.029 L
191.887 320.054 L
191.967 320.079 L
192.048 320.104 L
192.128 320.129 L
192.209 320.154 L
192.289 320.179 L
192.37 320.204 L
192.451 320.229 L
192.531 320.254 L
192.612 320.279 L
192.693 320.304 L
192.773 320.329 L
192.854 320.354 L
192.934 320.378 L
193.015 320.403 L
193.095 320.428 L
193.176 320.453 L
193.257 320.478 L
193.337 320.502 L
193.418 320.527 L
193.499 320.552 L
193.579 320.577 L
193.66 320.602 L
193.74 320.626 L
193.821 320.651 L
193.901 320.676 L
193.982 320.7 L
194.063 320.725 L
194.143 320.75 L
194.224 320.774 L
194.305 320.799 L
194.385 320.824 L
194.466 320.848 L
194.546 320.873 L
194.627 320.898 L
194.708 320.922 L
194.788 320.947 L
194.869 320.971 L
194.949 320.996 L
195.03 321.02 L
195.111 321.045 L
195.191 321.069 L
195.272 321.094 L
195.352 321.118 L
195.433 321.143 L
195.513 321.167 L
195.594 321.192 L
195.675 321.216 L
195.755 321.241 L
195.836 321.265 L
195.917 321.289 L
195.997 321.314 L
196.078 321.338 L
196.158 321.363 L
196.239 321.387 L
196.32 321.411 L
196.4 321.436 L
196.481 321.46 L
196.561 321.484 L
196.642 321.509 L
196.723 321.533 L
196.803 321.557 L
196.884 321.581 L
196.964 321.606 L
197.045 321.63 L
197.125 321.654 L
197.206 321.678 L
197.287 321.703 L
197.367 321.727 L
197.448 321.751 L
197.529 321.775 L
197.609 321.799 L
197.69 321.824 L
197.77 321.848 L
197.851 321.872 L
197.932 321.896 L
198.012 321.92 L
198.093 321.944 L
198.173 321.968 L
198.254 321.992 L
198.335 322.016 L
198.415 322.04 L
198.496 322.064 L
198.576 322.088 L
198.657 322.112 L
198.738 322.136 L
198.818 322.16 L
198.899 322.184 L
198.979 322.208 L
199.06 322.232 L
199.141 322.256 L
199.221 322.28 L
199.302 322.304 L
199.382 322.328 L
199.463 322.352 L
199.543 322.376 L
199.624 322.4 L
199.705 322.424 L
199.785 322.447 L
199.866 322.471 L
199.947 322.495 L
200.027 322.519 L
200.108 322.543 L
200.188 322.567 L
200.269 322.59 L
200.35 322.614 L
200.43 322.638 L
200.511 322.662 L
200.591 322.685 L
200.672 322.709 L
200.753 322.733 L
200.833 322.756 L
200.914 322.78 L
200.994 322.804 L
201.075 322.828 L
201.155 322.851 L
201.236 322.875 L
201.317 322.898 L
201.397 322.922 L
201.478 322.946 L
201.559 322.969 L
201.639 322.993 L
201.72 323.017 L
201.8 323.04 L
201.881 323.064 L
201.962 323.087 L
202.042 323.111 L
202.123 323.134 L
202.203 323.158 L
202.284 323.181 L
202.365 323.205 L
202.445 323.228 L
202.526 323.252 L
202.606 323.275 L
202.687 323.299 L
202.768 323.322 L
202.848 323.346 L
202.929 323.369 L
203.009 323.392 L
203.09 323.416 L
203.171 323.439 L
203.251 323.462 L
203.332 323.486 L
203.412 323.509 L
203.493 323.532 L
203.574 323.556 L
203.654 323.579 L
203.735 323.602 L
203.815 323.626 L
203.896 323.649 L
203.977 323.672 L
204.057 323.695 L
204.138 323.719 L
204.218 323.742 L
204.299 323.765 L
204.379 323.788 L
204.46 323.812 L
204.541 323.835 L
204.621 323.858 L
204.702 323.881 L
204.783 323.904 L
204.863 323.927 L
204.944 323.951 L
205.024 323.974 L
205.105 323.997 L
205.186 324.02 L
205.266 324.043 L
205.347 324.066 L
205.427 324.089 L
205.508 324.112 L
205.589 324.135 L
205.669 324.158 L
205.75 324.181 L
205.83 324.204 L
205.911 324.227 L
205.992 324.25 L
206.072 324.273 L
206.153 324.296 L
206.233 324.319 L
206.314 324.342 L
206.395 324.365 L
206.475 324.388 L
206.556 324.411 L
206.636 324.434 L
206.717 324.457 L
206.797 324.48 L
206.878 324.503 L
206.959 324.525 L
207.039 324.548 L
207.12 324.571 L
207.201 324.594 L
207.281 324.617 L
207.362 324.64 L
207.442 324.662 L
207.523 324.685 L
207.604 324.708 L
207.684 324.731 L
207.765 324.753 L
207.845 324.776 L
207.926 324.799 L
208.007 324.822 L
208.087 324.844 L
208.168 324.867 L
208.248 324.89 L
208.329 324.912 L
208.409 324.935 L
208.49 324.958 L
208.571 324.98 L
208.651 325.003 L
208.732 325.026 L
208.812 325.048 L
208.893 325.071 L
208.974 325.094 L
209.054 325.116 L
209.135 325.139 L
209.215 325.161 L
209.296 325.184 L
209.377 325.206 L
209.457 325.229 L
209.538 325.251 L
209.618 325.274 L
209.699 325.296 L
209.78 325.319 L
209.86 325.341 L
209.941 325.364 L
210.021 325.386 L
210.102 325.409 L
210.183 325.431 L
210.263 325.454 L
210.344 325.476 L
210.424 325.498 L
210.505 325.521 L
210.586 325.543 L
210.666 325.566 L
210.747 325.588 L
210.828 325.61 L
210.908 325.633 L
210.989 325.655 L
211.069 325.677 L
211.15 325.7 L
211.23 325.722 L
211.311 325.744 L
211.392 325.766 L
211.472 325.789 L
211.553 325.811 L
211.633 325.833 L
211.714 325.855 L
211.795 325.878 L
211.875 325.9 L
211.956 325.922 L
212.036 325.944 L
212.117 325.966 L
212.198 325.989 L
212.278 326.011 L
212.359 326.033 L
212.439 326.055 L
212.52 326.077 L
212.601 326.099 L
212.681 326.121 L
212.762 326.143 L
212.842 326.166 L
212.923 326.188 L
213.004 326.21 L
213.084 326.232 L
213.165 326.254 L
213.245 326.276 L
213.326 326.298 L
213.407 326.32 L
213.487 326.342 L
213.568 326.364 L
213.648 326.386 L
213.729 326.408 L
213.81 326.43 L
213.89 326.452 L
213.971 326.474 L
214.051 326.496 L
214.132 326.518 L
214.213 326.539 L
214.293 326.561 L
214.374 326.583 L
214.454 326.605 L
214.535 326.627 L
214.616 326.649 L
214.696 326.671 L
214.777 326.693 L
214.858 326.714 L
214.938 326.736 L
215.019 326.758 L
215.099 326.78 L
215.18 326.802 L
215.26 326.823 L
215.341 326.845 L
215.422 326.867 L
215.502 326.889 L
215.583 326.91 L
215.663 326.932 L
215.744 326.954 L
215.825 326.976 L
215.905 326.997 L
215.986 327.019 L
216.066 327.041 L
216.147 327.062 L
216.228 327.084 L
216.308 327.105 L
216.389 327.127 L
216.47 327.149 L
216.55 327.17 L
216.631 327.192 L
216.711 327.214 L
216.792 327.235 L
216.872 327.257 L
216.953 327.278 L
217.034 327.3 L
217.114 327.321 L
217.195 327.343 L
217.275 327.364 L
217.356 327.386 L
217.437 327.407 L
217.517 327.429 L
217.598 327.45 L
217.678 327.472 L
217.759 327.493 L
217.84 327.515 L
217.92 327.536 L
218.001 327.558 L
218.082 327.579 L
218.162 327.6 L
218.243 327.622 L
218.323 327.643 L
218.404 327.665 L
218.484 327.686 L
218.565 327.707 L
218.646 327.729 L
218.726 327.75 L
218.807 327.771 L
218.888 327.793 L
218.968 327.814 L
219.049 327.835 L
219.129 327.857 L
219.21 327.878 L
219.29 327.899 L
219.371 327.92 L
219.452 327.942 L
219.532 327.963 L
219.613 327.984 L
219.693 328.005 L
219.774 328.027 L
219.855 328.048 L
219.935 328.069 L
220.016 328.09 L
220.096 328.111 L
220.177 328.133 L
220.258 328.154 L
220.338 328.175 L
220.419 328.196 L
220.5 328.217 L
220.58 328.238 L
220.661 328.259 L
220.741 328.28 L
220.822 328.301 L
220.902 328.322 L
220.983 328.344 L
221.064 328.365 L
221.144 328.386 L
221.225 328.407 L
221.305 328.428 L
221.386 328.449 L
221.467 328.47 L
221.547 328.491 L
221.628 328.512 L
221.708 328.533 L
221.789 328.554 L
221.87 328.574 L
221.95 328.595 L
222.031 328.616 L
222.112 328.637 L
222.192 328.658 L
222.273 328.679 L
222.353 328.7 L
222.434 328.721 L
222.514 328.742 L
222.595 328.763 L
222.676 328.784 L
222.756 328.804 L
222.837 328.825 L
222.918 328.846 L
222.998 328.867 L
223.079 328.888 L
223.159 328.908 L
223.24 328.929 L
223.32 328.95 L
223.401 328.971 L
223.482 328.992 L
223.562 329.012 L
223.643 329.033 L
223.723 329.054 L
223.804 329.074 L
223.885 329.095 L
223.965 329.116 L
224.046 329.137 L
224.126 329.157 L
224.207 329.178 L
224.288 329.199 L
224.368 329.219 L
224.449 329.24 L
224.53 329.26 L
224.61 329.281 L
224.691 329.302 L
224.771 329.322 L
224.852 329.343 L
224.932 329.363 L
225.013 329.384 L
225.094 329.405 L
225.174 329.425 L
225.255 329.446 L
225.335 329.466 L
225.416 329.487 L
225.497 329.507 L
225.577 329.528 L
225.658 329.548 L
225.738 329.569 L
225.819 329.589 L
225.9 329.61 L
225.98 329.63 L
226.061 329.651 L
226.141 329.671 L
226.222 329.691 L
226.303 329.712 L
226.383 329.732 L
226.464 329.753 L
226.544 329.773 L
226.625 329.793 L
226.706 329.814 L
226.786 329.834 L
226.867 329.855 L
226.948 329.875 L
227.028 329.895 L
227.109 329.915 L
227.189 329.936 L
227.27 329.956 L
227.35 329.976 L
227.431 329.997 L
227.512 330.017 L
227.592 330.037 L
227.673 330.057 L
227.753 330.078 L
227.834 330.098 L
227.915 330.118 L
227.995 330.138 L
228.076 330.159 L
228.157 330.179 L
228.237 330.199 L
228.318 330.219 L
228.398 330.239 L
228.479 330.26 L
228.56 330.28 L
228.64 330.3 L
228.721 330.32 L
228.801 330.34 L
228.882 330.36 L
228.962 330.38 L
229.043 330.4 L
229.124 330.42 L
229.204 330.441 L
229.285 330.461 L
229.365 330.481 L
229.446 330.501 L
229.527 330.521 L
229.607 330.541 L
229.688 330.561 L
229.768 330.581 L
229.849 330.601 L
229.93 330.621 L
230.01 330.641 L
230.091 330.661 L
230.171 330.681 L
230.252 330.701 L
230.333 330.721 L
230.413 330.741 L
230.494 330.761 L
230.574 330.78 L
230.655 330.8 L
230.736 330.82 L
230.816 330.84 L
230.897 330.86 L
230.978 330.88 L
231.058 330.9 L
231.139 330.92 L
231.219 330.939 L
231.3 330.959 L
231.38 330.979 L
231.461 330.999 L
231.542 331.019 L
231.622 331.039 L
231.703 331.058 L
231.783 331.078 L
231.864 331.098 L
231.945 331.118 L
232.025 331.137 L
232.106 331.157 L
232.187 331.177 L
232.267 331.197 L
232.348 331.216 L
232.428 331.236 L
232.509 331.256 L
232.589 331.275 L
232.67 331.295 L
232.751 331.315 L
232.831 331.334 L
232.912 331.354 L
232.992 331.374 L
233.073 331.393 L
233.154 331.413 L
233.234 331.432 L
233.315 331.452 L
233.395 331.472 L
233.476 331.491 L
233.557 331.511 L
233.637 331.53 L
233.718 331.55 L
233.799 331.57 L
233.879 331.589 L
233.96 331.609 L
234.04 331.628 L
234.121 331.648 L
234.201 331.667 L
234.282 331.687 L
234.363 331.706 L
234.443 331.726 L
234.524 331.745 L
234.604 331.764 L
234.685 331.784 L
234.766 331.803 L
234.846 331.823 L
234.927 331.842 L
235.008 331.862 L
235.088 331.881 L
235.169 331.9 L
235.249 331.92 L
235.33 331.939 L
235.411 331.958 L
235.491 331.978 L
235.572 331.997 L
235.652 332.017 L
235.733 332.036 L
235.813 332.055 L
235.894 332.074 L
235.975 332.094 L
236.055 332.113 L
236.136 332.132 L
236.217 332.152 L
236.297 332.171 L
236.378 332.19 L
236.458 332.209 L
236.539 332.229 L
236.62 332.248 L
236.7 332.267 L
236.781 332.286 L
236.861 332.306 L
236.942 332.325 L
237.022 332.344 L
237.103 332.363 L
237.184 332.382 L
237.264 332.401 L
237.345 332.421 L
237.425 332.44 L
237.506 332.459 L
237.587 332.478 L
237.667 332.497 L
237.748 332.516 L
237.829 332.535 L
237.909 332.554 L
237.99 332.573 L
238.07 332.592 L
238.151 332.612 L
238.232 332.631 L
238.312 332.65 L
238.393 332.669 L
238.473 332.688 L
238.554 332.707 L
238.634 332.726 L
238.715 332.745 L
238.796 332.764 L
238.876 332.783 L
238.957 332.802 L
239.038 332.821 L
239.118 332.84 L
239.199 332.858 L
239.279 332.877 L
239.36 332.896 L
239.44 332.915 L
239.521 332.934 L
239.602 332.953 L
239.682 332.972 L
239.763 332.991 L
239.843 333.01 L
239.924 333.029 L
240.005 333.047 L
240.085 333.066 L
240.166 333.085 L
240.247 333.104 L
240.327 333.123 L
240.408 333.142 L
240.488 333.16 L
240.569 333.179 L
240.65 333.198 L
240.73 333.217 L
240.811 333.236 L
240.891 333.254 L
240.972 333.273 L
241.052 333.292 L
241.133 333.31 L
241.214 333.329 L
241.294 333.348 L
241.375 333.367 L
241.455 333.385 L
241.536 333.404 L
241.617 333.423 L
241.697 333.441 L
241.778 333.46 L
241.859 333.479 L
241.939 333.497 L
242.02 333.516 L
242.1 333.535 L
242.181 333.553 L
242.262 333.572 L
242.342 333.59 L
242.423 333.609 L
242.503 333.628 L
242.584 333.646 L
242.664 333.665 L
242.745 333.683 L
242.826 333.702 L
242.906 333.72 L
242.987 333.739 L
243.068 333.757 L
243.148 333.776 L
243.229 333.794 L
243.309 333.813 L
243.39 333.831 L
243.47 333.85 L
243.551 333.868 L
243.632 333.887 L
243.712 333.905 L
243.793 333.924 L
243.874 333.942 L
243.954 333.961 L
244.035 333.979 L
244.115 333.997 L
244.196 334.016 L
244.277 334.034 L
244.357 334.053 L
244.438 334.071 L
244.518 334.089 L
244.599 334.108 L
244.68 334.126 L
244.76 334.144 L
244.841 334.163 L
244.921 334.181 L
245.002 334.199 L
245.082 334.218 L
245.163 334.236 L
245.244 334.254 L
245.324 334.273 L
245.405 334.291 L
245.486 334.309 L
245.566 334.327 L
245.647 334.346 L
245.727 334.364 L
245.808 334.382 L
245.888 334.4 L
245.969 334.419 L
246.05 334.437 L
246.13 334.455 L
246.211 334.473 L
246.292 334.491 L
246.372 334.509 L
246.453 334.528 L
246.533 334.546 L
246.614 334.564 L
246.694 334.582 L
246.775 334.6 L
246.856 334.618 L
246.936 334.636 L
247.017 334.655 L
247.098 334.673 L
247.178 334.691 L
247.259 334.709 L
247.339 334.727 L
247.42 334.745 L
247.5 334.763 L
247.581 334.781 L
247.662 334.799 L
247.742 334.817 L
247.823 334.835 L
247.904 334.853 L
247.984 334.871 L
248.065 334.889 L
248.145 334.907 L
248.226 334.925 L
248.307 334.943 L
248.387 334.961 L
248.468 334.979 L
248.548 334.997 L
248.629 335.015 L
248.71 335.033 L
248.79 335.051 L
248.871 335.069 L
248.951 335.086 L
249.032 335.104 L
249.112 335.122 L
249.193 335.14 L
249.274 335.158 L
249.354 335.176 L
249.435 335.194 L
249.516 335.212 L
249.596 335.229 L
249.677 335.247 L
249.757 335.265 L
249.838 335.283 L
249.918 335.301 L
249.999 335.318 L
250.08 335.336 L
250.16 335.354 L
250.241 335.372 L
250.322 335.39 L
250.402 335.407 L
250.483 335.425 L
250.563 335.443 L
250.644 335.46 L
250.725 335.478 L
250.805 335.496 L
250.886 335.514 L
250.966 335.531 L
251.047 335.549 L
251.128 335.567 L
251.208 335.584 L
251.289 335.602 L
251.369 335.62 L
251.45 335.637 L
251.53 335.655 L
251.611 335.673 L
251.692 335.69 L
251.772 335.708 L
251.853 335.725 L
251.934 335.743 L
252.014 335.761 L
252.095 335.778 L
252.175 335.796 L
252.256 335.813 L
252.337 335.831 L
252.417 335.848 L
252.498 335.866 L
252.578 335.883 L
252.659 335.901 L
252.74 335.918 L
252.82 335.936 L
252.901 335.953 L
252.981 335.971 L
253.062 335.988 L
253.142 336.006 L
253.223 336.023 L
253.304 336.041 L
253.384 336.058 L
253.465 336.076 L
253.546 336.093 L
253.626 336.111 L
253.707 336.128 L
253.787 336.145 L
253.868 336.163 L
253.949 336.18 L
254.029 336.198 L
254.11 336.215 L
254.19 336.232 L
254.271 336.25 L
254.352 336.267 L
254.432 336.284 L
254.513 336.302 L
254.593 336.319 L
254.674 336.336 L
254.755 336.354 L
254.835 336.371 L
254.916 336.388 L
254.996 336.405 L
255.077 336.423 L
255.158 336.44 L
255.238 336.457 L
255.319 336.474 L
255.399 336.492 L
255.48 336.509 L
255.561 336.526 L
255.641 336.544 L
255.722 336.561 L
255.802 336.578 L
255.883 336.595 L
255.964 336.612 L
256.044 336.629 L
256.125 336.647 L
256.205 336.664 L
256.286 336.681 L
256.366 336.698 L
256.447 336.715 L
256.528 336.732 L
256.608 336.749 L
256.689 336.767 L
256.77 336.784 L
256.85 336.801 L
256.931 336.818 L
257.011 336.835 L
257.092 336.852 L
257.172 336.869 L
257.253 336.886 L
257.334 336.903 L
257.414 336.92 L
257.495 336.937 L
257.576 336.954 L
257.656 336.971 L
257.737 336.988 L
257.817 337.005 L
257.898 337.022 L
257.979 337.039 L
258.059 337.056 L
258.14 337.073 L
258.22 337.09 L
258.301 337.107 L
258.382 337.124 L
258.462 337.141 L
258.543 337.158 L
258.623 337.175 L
258.704 337.192 L
258.784 337.209 L
258.865 337.226 L
258.946 337.243 L
259.026 337.259 L
259.107 337.276 L
259.188 337.293 L
259.268 337.31 L
259.349 337.327 L
259.429 337.344 L
259.51 337.361 L
259.591 337.378 L
259.671 337.394 L
259.752 337.411 L
259.832 337.428 L
259.913 337.445 L
259.993 337.462 L
260.074 337.478 L
260.155 337.495 L
260.235 337.512 L
260.316 337.529 L
260.396 337.545 L
260.477 337.562 L
260.558 337.579 L
260.638 337.596 L
260.719 337.612 L
260.799 337.629 L
260.88 337.646 L
260.961 337.662 L
261.041 337.679 L
261.122 337.696 L
261.203 337.712 L
261.283 337.729 L
261.364 337.746 L
261.444 337.762 L
261.525 337.779 L
261.605 337.796 L
261.686 337.812 L
261.767 337.829 L
261.847 337.846 L
261.928 337.862 L
262.008 337.879 L
262.089 337.895 L
262.17 337.912 L
262.25 337.928 L
262.331 337.945 L
262.411 337.962 L
262.492 337.978 L
262.573 337.995 L
262.653 338.011 L
262.734 338.028 L
262.814 338.044 L
262.895 338.061 L
262.976 338.077 L
263.056 338.094 L
263.137 338.11 L
263.217 338.127 L
263.298 338.143 L
263.379 338.16 L
263.459 338.176 L
263.54 338.193 L
263.621 338.209 L
263.701 338.226 L
263.782 338.242 L
263.862 338.258 L
263.943 338.275 L
264.023 338.291 L
264.104 338.308 L
264.185 338.324 L
264.265 338.34 L
264.346 338.357 L
264.426 338.373 L
264.507 338.389 L
264.588 338.406 L
264.668 338.422 L
264.749 338.438 L
264.829 338.455 L
264.91 338.471 L
264.991 338.487 L
265.071 338.504 L
265.152 338.52 L
265.233 338.536 L
265.313 338.553 L
265.394 338.569 L
265.474 338.585 L
265.555 338.601 L
265.635 338.618 L
265.716 338.634 L
265.797 338.65 L
265.877 338.666 L
265.958 338.683 L
266.039 338.699 L
266.119 338.715 L
266.2 338.731 L
266.28 338.747 L
266.361 338.764 L
266.441 338.78 L
266.522 338.796 L
266.603 338.812 L
266.683 338.828 L
266.764 338.844 L
266.845 338.86 L
266.925 338.877 L
267.006 338.893 L
267.086 338.909 L
267.167 338.925 L
267.247 338.941 L
267.328 338.957 L
267.409 338.973 L
267.489 338.989 L
267.57 339.005 L
267.651 339.021 L
267.731 339.037 L
267.812 339.054 L
267.892 339.07 L
267.973 339.086 L
268.053 339.102 L
268.134 339.118 L
268.215 339.134 L
268.295 339.15 L
268.376 339.166 L
268.457 339.182 L
268.537 339.198 L
268.618 339.214 L
268.698 339.23 L
268.779 339.246 L
268.859 339.261 L
268.94 339.278 L
269.021 339.293 L
269.101 339.309 L
269.182 339.325 L
269.263 339.341 L
269.343 339.357 L
269.424 339.373 L
269.504 339.389 L
269.585 339.405 L
269.665 339.421 L
269.746 339.437 L
269.827 339.452 L
269.907 339.468 L
269.988 339.484 L
270.069 339.5 L
270.149 339.516 L
270.23 339.532 L
270.31 339.547 L
270.391 339.563 L
270.471 339.579 L
270.552 339.595 L
270.633 339.611 L
270.713 339.626 L
270.794 339.642 L
270.875 339.658 L
270.955 339.674 L
271.036 339.689 L
271.116 339.705 L
271.197 339.721 L
271.277 339.737 L
271.358 339.752 L
271.439 339.768 L
271.519 339.784 L
271.6 339.799 L
271.681 339.815 L
271.761 339.831 L
271.842 339.846 L
271.922 339.862 L
272.003 339.878 L
272.084 339.894 L
272.164 339.909 L
272.245 339.925 L
272.325 339.94 L
272.406 339.956 L
272.486 339.972 L
272.567 339.987 L
272.648 340.003 L
272.728 340.018 L
272.809 340.034 L
272.889 340.05 L
272.97 340.065 L
273.051 340.081 L
273.131 340.096 L
273.212 340.112 L
273.293 340.127 L
273.373 340.143 L
273.454 340.158 L
273.534 340.174 L
273.615 340.19 L
273.695 340.205 L
273.776 340.22 L
273.857 340.236 L
273.937 340.252 L
274.018 340.267 L
274.099 340.283 L
274.179 340.298 L
274.26 340.313 L
274.34 340.329 L
274.421 340.344 L
274.501 340.36 L
274.582 340.375 L
274.663 340.391 L
274.743 340.406 L
274.824 340.422 L
274.905 340.437 L
274.985 340.452 L
275.066 340.468 L
275.146 340.483 L
275.227 340.498 L
275.307 340.514 L
275.388 340.529 L
275.469 340.544 L
275.549 340.56 L
275.63 340.575 L
275.711 340.59 L
275.791 340.606 L
275.872 340.621 L
275.952 340.636 L
276.033 340.652 L
276.113 340.667 L
276.194 340.682 L
276.275 340.698 L
276.355 340.713 L
276.436 340.728 L
276.516 340.743 L
276.597 340.759 L
276.678 340.774 L
276.758 340.789 L
276.839 340.804 L
276.919 340.82 L
277 340.835 L
277.081 340.85 L
277.161 340.865 L
277.242 340.88 L
277.323 340.896 L
277.403 340.911 L
277.484 340.926 L
277.564 340.941 L
277.645 340.956 L
277.726 340.971 L
277.806 340.987 L
277.887 341.002 L
277.967 341.017 L
278.048 341.032 L
278.129 341.047 L
278.209 341.062 L
278.29 341.077 L
278.37 341.092 L
278.451 341.107 L
278.531 341.122 L
278.612 341.138 L
278.693 341.153 L
278.773 341.168 L
278.854 341.183 L
278.935 341.198 L
279.015 341.213 L
279.096 341.228 L
279.176 341.243 L
279.257 341.258 L
279.337 341.273 L
279.418 341.288 L
279.499 341.303 L
279.579 341.318 L
279.66 341.333 L
279.741 341.348 L
279.821 341.363 L
279.902 341.378 L
279.982 341.393 L
280.063 341.408 L
280.144 341.423 L
280.224 341.438 L
280.305 341.453 L
280.385 341.467 L
280.466 341.482 L
280.546 341.497 L
280.627 341.512 L
280.708 341.527 L
280.788 341.542 L
280.869 341.557 L
280.949 341.572 L
281.03 341.587 L
281.111 341.601 L
281.191 341.616 L
281.272 341.631 L
281.353 341.646 L
281.433 341.661 L
281.514 341.676 L
281.594 341.69 L
281.675 341.705 L
281.755 341.72 L
281.836 341.735 L
281.917 341.75 L
281.997 341.764 L
282.078 341.779 L
282.159 341.794 L
282.239 341.809 L
282.32 341.823 L
282.4 341.838 L
282.481 341.853 L
282.561 341.868 L
282.642 341.882 L
282.723 341.897 L
282.803 341.912 L
282.884 341.927 L
282.964 341.941 L
283.045 341.956 L
283.126 341.971 L
283.206 341.985 L
283.287 342 L
283.367 342.015 L
283.448 342.029 L
283.529 342.044 L
283.609 342.059 L
283.69 342.073 L
283.771 342.088 L
283.851 342.102 L
283.932 342.117 L
284.012 342.132 L
284.093 342.146 L
284.173 342.161 L
284.254 342.176 L
284.335 342.19 L
284.415 342.205 L
284.496 342.219 L
284.577 342.234 L
284.657 342.248 L
284.738 342.263 L
284.818 342.277 L
284.899 342.292 L
284.979 342.306 L
285.06 342.321 L
285.141 342.336 L
285.221 342.35 L
285.302 342.365 L
285.382 342.379 L
285.463 342.394 L
285.544 342.408 L
285.624 342.422 L
285.705 342.437 L
285.786 342.451 L
285.866 342.466 L
285.947 342.48 L
286.027 342.495 L
286.108 342.509 L
286.189 342.524 L
286.269 342.538 L
286.35 342.553 L
286.43 342.567 L
286.511 342.581 L
286.591 342.596 L
286.672 342.61 L
286.753 342.624 L
286.833 342.639 L
286.914 342.653 L
286.995 342.668 L
287.075 342.682 L
287.156 342.696 L
287.236 342.711 L
287.317 342.725 L
287.397 342.739 L
287.478 342.754 L
287.559 342.768 L
287.639 342.782 L
287.72 342.797 L
287.801 342.811 L
287.881 342.825 L
287.962 342.839 L
288.042 342.854 L
288.123 342.868 L
288.204 342.882 L
288.284 342.896 L
288.365 342.911 L
288.445 342.925 L
288.526 342.939 L
288.606 342.953 L
288.687 342.968 L
288.768 342.982 L
288.848 342.996 L
288.929 343.01 L
289.009 343.024 L
289.09 343.039 L
289.171 343.053 L
289.251 343.067 L
289.332 343.081 L
289.413 343.095 L
289.493 343.109 L
289.574 343.124 L
289.654 343.138 L
289.735 343.152 L
289.815 343.166 L
289.896 343.18 L
289.977 343.194 L
290.057 343.208 L
290.138 343.222 L
290.219 343.236 L
290.299 343.251 L
290.38 343.265 L
290.46 343.279 L
290.541 343.293 L
290.621 343.307 L
290.702 343.321 L
290.783 343.335 L
290.863 343.349 L
290.944 343.363 L
291.024 343.377 L
291.105 343.391 L
291.186 343.405 L
291.266 343.419 L
291.347 343.433 L
291.427 343.447 L
291.508 343.461 L
291.589 343.475 L
291.669 343.489 L
291.75 343.503 L
291.831 343.517 L
291.911 343.531 L
291.992 343.545 L
292.072 343.559 L
292.153 343.573 L
292.234 343.587 L
292.314 343.601 L
292.395 343.615 L
292.475 343.628 L
292.556 343.642 L
292.637 343.656 L
292.717 343.67 L
292.798 343.684 L
292.878 343.698 L
292.959 343.712 L
293.039 343.726 L
293.12 343.74 L
293.201 343.753 L
293.281 343.767 L
293.362 343.781 L
293.443 343.795 L
293.523 343.809 L
293.604 343.823 L
293.684 343.836 L
293.765 343.85 L
293.845 343.864 L
293.926 343.878 L
294.007 343.892 L
294.087 343.905 L
294.168 343.919 L
294.249 343.933 L
294.329 343.947 L
294.41 343.961 L
294.49 343.974 L
294.571 343.988 L
294.651 344.002 L
294.732 344.015 L
294.813 344.029 L
294.893 344.043 L
294.974 344.057 L
295.055 344.07 L
295.135 344.084 L
295.216 344.098 L
295.296 344.111 L
295.377 344.125 L
295.457 344.139 L
295.538 344.152 L
295.619 344.166 L
295.699 344.18 L
295.78 344.193 L
295.861 344.207 L
295.941 344.221 L
296.022 344.234 L
296.102 344.248 L
296.183 344.261 L
296.263 344.275 L
296.344 344.289 L
296.425 344.302 L
296.505 344.316 L
296.586 344.329 L
296.666 344.343 L
296.747 344.357 L
296.828 344.37 L
296.908 344.384 L
296.989 344.397 L
297.069 344.411 L
297.15 344.424 L
297.231 344.438 L
297.311 344.451 L
297.392 344.465 L
297.473 344.478 L
297.553 344.492 L
297.634 344.505 L
297.714 344.519 L
297.795 344.532 L
297.876 344.546 L
297.956 344.559 L
298.037 344.573 L
298.117 344.586 L
298.198 344.6 L
298.279 344.613 L
298.359 344.627 L
298.44 344.64 L
298.52 344.654 L
298.601 344.667 L
298.681 344.68 L
298.762 344.694 L
298.843 344.707 L
298.923 344.721 L
299.004 344.734 L
299.085 344.747 L
299.165 344.761 L
299.246 344.774 L
299.326 344.788 L
299.407 344.801 L
299.487 344.814 L
299.568 344.828 L
299.649 344.841 L
299.729 344.854 L
299.81 344.868 L
299.891 344.881 L
299.971 344.894 L
300.052 344.908 L
300.132 344.921 L
300.213 344.934 L
300.294 344.948 L
300.374 344.961 L
300.455 344.974 L
300.535 344.987 L
300.616 345.001 L
300.697 345.014 L
300.777 345.027 L
300.858 345.04 L
300.938 345.054 L
301.019 345.067 L
301.099 345.08 L
301.18 345.093 L
301.261 345.107 L
301.341 345.12 L
301.422 345.133 L
301.503 345.146 L
301.583 345.159 L
301.664 345.173 L
301.744 345.186 L
301.825 345.199 L
301.905 345.212 L
301.986 345.225 L
302.067 345.238 L
302.147 345.252 L
302.228 345.265 L
302.309 345.278 L
302.389 345.291 L
302.47 345.304 L
302.55 345.317 L
302.631 345.33 L
302.711 345.344 L
302.792 345.357 L
302.873 345.37 L
302.953 345.383 L
303.034 345.396 L
303.115 345.409 L
303.195 345.422 L
303.276 345.435 L
303.356 345.448 L
303.437 345.461 L
303.518 345.474 L
303.598 345.487 L
303.679 345.5 L
303.759 345.513 L
303.84 345.526 L
303.921 345.539 L
304.001 345.552 L
304.082 345.565 L
304.162 345.578 L
304.243 345.591 L
304.323 345.604 L
304.404 345.617 L
304.485 345.63 L
304.565 345.643 L
304.646 345.656 L
304.727 345.669 L
304.807 345.682 L
304.888 345.695 L
304.968 345.708 L
305.049 345.721 L
305.129 345.734 L
305.21 345.747 L
305.291 345.76 L
305.371 345.773 L
305.452 345.786 L
305.533 345.798 L
305.613 345.811 L
305.694 345.824 L
305.774 345.837 L
305.855 345.85 L
305.936 345.863 L
306.016 345.876 L
306.097 345.889 L
306.177 345.901 L
306.258 345.914 L
306.339 345.927 L
306.419 345.94 L
306.5 345.953 L
306.58 345.966 L
306.661 345.979 L
306.741 345.991 L
306.822 346.004 L
306.903 346.017 L
306.983 346.03 L
307.064 346.042 L
307.145 346.055 L
307.225 346.068 L
307.306 346.081 L
307.386 346.094 L
307.467 346.106 L
307.547 346.119 L
307.628 346.132 L
307.709 346.144 L
307.789 346.157 L
307.87 346.17 L
307.951 346.183 L
308.031 346.195 L
308.112 346.208 L
308.192 346.221 L
308.273 346.233 L
308.354 346.246 L
308.434 346.259 L
308.515 346.272 L
308.595 346.284 L
308.676 346.297 L
308.757 346.31 L
308.837 346.322 L
308.918 346.335 L
308.998 346.348 L
309.079 346.36 L
309.16 346.373 L
309.24 346.385 L
309.321 346.398 L
309.401 346.411 L
309.482 346.423 L
309.562 346.436 L
309.643 346.448 L
309.724 346.461 L
309.804 346.474 L
309.885 346.486 L
309.965 346.499 L
310.046 346.511 L
310.127 346.524 L
310.207 346.536 L
310.288 346.549 L
310.368 346.562 L
310.449 346.574 L
310.53 346.587 L
310.61 346.599 L
310.691 346.612 L
310.771 346.624 L
310.852 346.637 L
310.933 346.649 L
311.013 346.662 L
311.094 346.674 L
311.174 346.687 L
311.255 346.699 L
311.336 346.712 L
311.416 346.724 L
311.497 346.737 L
311.578 346.749 L
311.658 346.761 L
311.739 346.774 L
311.819 346.786 L
311.9 346.799 L
311.98 346.811 L
312.061 346.824 L
312.142 346.836 L
312.222 346.848 L
312.303 346.861 L
312.384 346.873 L
312.464 346.886 L
312.545 346.898 L
312.625 346.91 L
312.706 346.923 L
312.786 346.935 L
312.867 346.947 L
312.948 346.96 L
313.028 346.972 L
313.109 346.984 L
313.189 346.997 L
313.27 347.009 L
313.351 347.021 L
313.431 347.034 L
313.512 347.046 L
313.592 347.058 L
313.673 347.071 L
313.754 347.083 L
313.834 347.095 L
313.915 347.108 L
313.996 347.12 L
314.076 347.132 L
314.157 347.144 L
314.237 347.157 L
314.318 347.169 L
314.398 347.181 L
314.479 347.193 L
314.56 347.206 L
314.64 347.218 L
314.721 347.23 L
314.802 347.242 L
314.882 347.255 L
314.963 347.267 L
315.043 347.279 L
315.124 347.291 L
315.204 347.304 L
315.285 347.316 L
315.366 347.328 L
315.446 347.34 L
315.527 347.352 L
315.607 347.364 L
315.688 347.376 L
315.769 347.389 L
315.849 347.401 L
315.93 347.413 L
316.01 347.425 L
316.091 347.437 L
316.172 347.449 L
316.252 347.462 L
316.333 347.474 L
316.414 347.486 L
316.494 347.498 L
316.575 347.51 L
316.655 347.522 L
316.736 347.534 L
316.816 347.546 L
316.897 347.558 L
316.978 347.57 L
317.058 347.582 L
317.139 347.594 L
317.22 347.607 L
317.3 347.619 L
317.381 347.631 L
317.461 347.643 L
317.542 347.655 L
317.622 347.667 L
317.703 347.679 L
317.784 347.691 L
317.864 347.703 L
317.945 347.715 L
318.026 347.727 L
318.106 347.739 L
318.187 347.751 L
318.267 347.763 L
318.348 347.775 L
318.428 347.787 L
318.509 347.799 L
318.59 347.811 L
318.67 347.823 L
318.751 347.834 L
318.831 347.846 L
318.912 347.858 L
318.993 347.87 L
319.073 347.882 L
319.154 347.894 L
319.234 347.906 L
319.315 347.918 L
319.396 347.93 L
319.476 347.942 L
319.557 347.954 L
319.638 347.966 L
319.718 347.977 L
319.799 347.989 L
319.879 348.001 L
319.96 348.013 L
320.04 348.025 L
320.121 348.037 L
320.202 348.049 L
320.282 348.06 L
320.363 348.072 L
320.444 348.084 L
320.524 348.096 L
320.605 348.108 L
320.685 348.12 L
320.766 348.131 L
320.846 348.143 L
320.927 348.155 L
321.008 348.167 L
321.088 348.179 L
321.169 348.19 L
321.249 348.202 L
321.33 348.214 L
321.411 348.226 L
321.491 348.237 L
321.572 348.249 L
321.652 348.261 L
321.733 348.273 L
321.814 348.284 L
321.894 348.296 L
321.975 348.308 L
322.056 348.32 L
322.136 348.331 L
322.217 348.343 L
322.297 348.355 L
322.378 348.366 L
322.459 348.378 L
322.539 348.39 L
322.62 348.401 L
322.7 348.413 L
322.781 348.425 L
322.862 348.437 L
322.942 348.448 L
323.023 348.46 L
323.103 348.471 L
323.184 348.483 L
323.264 348.495 L
323.345 348.506 L
323.426 348.518 L
323.506 348.53 L
323.587 348.541 L
323.668 348.553 L
323.748 348.564 L
323.829 348.576 L
323.909 348.588 L
323.99 348.599 L
324.07 348.611 L
324.151 348.622 L
324.232 348.634 L
324.312 348.646 L
324.393 348.657 L
324.474 348.669 L
324.554 348.68 L
324.635 348.692 L
324.715 348.703 L
324.796 348.715 L
324.877 348.726 L
324.957 348.738 L
325.038 348.749 L
325.118 348.761 L
325.199 348.772 L
325.279 348.784 L
325.36 348.796 L
325.441 348.807 L
325.521 348.818 L
325.602 348.83 L
325.682 348.841 L
325.763 348.853 L
325.844 348.864 L
325.924 348.876 L
326.005 348.887 L
326.086 348.899 L
326.166 348.91 L
326.247 348.922 L
326.327 348.933 L
326.408 348.945 L
326.488 348.956 L
326.569 348.967 L
326.65 348.979 L
326.73 348.99 L
326.811 349.002 L
326.891 349.013 L
326.972 349.024 L
327.053 349.036 L
327.133 349.047 L
327.214 349.058 L
327.294 349.07 L
327.375 349.081 L
327.456 349.093 L
327.536 349.104 L
327.617 349.115 L
327.697 349.127 L
327.778 349.138 L
327.859 349.149 L
327.939 349.161 L
328.02 349.172 L
328.101 349.183 L
328.181 349.195 L
328.262 349.206 L
328.342 349.217 L
328.423 349.228 L
328.504 349.24 L
328.584 349.251 L
328.665 349.262 L
328.745 349.274 L
328.826 349.285 L
328.906 349.296 L
328.987 349.307 L
329.068 349.319 L
329.148 349.33 L
329.229 349.341 L
329.31 349.352 L
329.39 349.364 L
329.471 349.375 L
329.551 349.386 L
329.632 349.397 L
329.712 349.409 L
329.793 349.42 L
329.874 349.431 L
329.954 349.442 L
330.035 349.453 L
330.115 349.465 L
330.196 349.476 L
330.277 349.487 L
330.357 349.498 L
330.438 349.509 L
330.519 349.52 L
330.599 349.531 L
330.68 349.543 L
330.76 349.554 L
330.841 349.565 L
330.922 349.576 L
331.002 349.587 L
331.083 349.598 L
331.163 349.609 L
331.244 349.621 L
331.324 349.632 L
331.405 349.643 L
331.486 349.654 L
331.566 349.665 L
331.647 349.676 L
331.728 349.687 L
331.808 349.698 L
331.889 349.709 L
331.969 349.72 L
332.05 349.731 L
332.13 349.742 L
332.211 349.754 L
332.292 349.765 L
332.372 349.776 L
332.453 349.787 L
332.534 349.798 L
332.614 349.809 L
332.695 349.82 L
332.775 349.831 L
332.856 349.842 L
332.937 349.853 L
333.017 349.864 L
333.098 349.875 L
333.178 349.886 L
333.259 349.897 L
333.339 349.908 L
333.42 349.919 L
333.501 349.93 L
333.581 349.941 L
333.662 349.952 L
333.742 349.962 L
333.823 349.973 L
333.904 349.984 L
333.984 349.995 L
334.065 350.006 L
334.146 350.017 L
334.226 350.028 L
334.307 350.039 L
334.387 350.05 L
334.468 350.061 L
334.548 350.072 L
334.629 350.083 L
334.71 350.094 L
334.79 350.104 L
334.871 350.115 L
334.952 350.126 L
335.032 350.137 L
335.113 350.148 L
335.193 350.159 L
335.274 350.17 L
335.354 350.181 L
335.435 350.191 L
335.516 350.202 L
335.596 350.213 L
335.677 350.224 L
335.757 350.235 L
335.838 350.246 L
335.919 350.256 L
335.999 350.267 L
336.08 350.278 L
336.16 350.289 L
336.241 350.3 L
336.322 350.31 L
336.402 350.321 L
336.483 350.332 L
336.564 350.343 L
336.644 350.354 L
336.725 350.364 L
336.805 350.375 L
336.886 350.386 L
336.966 350.397 L
337.047 350.407 L
337.128 350.418 L
337.208 350.429 L
337.289 350.44 L
337.37 350.45 L
337.45 350.461 L
337.531 350.472 L
337.611 350.482 L
337.692 350.493 L
337.772 350.504 L
337.853 350.515 L
337.934 350.525 L
338.014 350.536 L
338.095 350.547 L
338.176 350.557 L
338.256 350.568 L
338.337 350.579 L
338.417 350.589 L
338.498 350.6 L
338.578 350.611 L
338.659 350.621 L
338.74 350.632 L
338.82 350.642 L
338.901 350.653 L
338.982 350.664 L
339.062 350.674 L
339.143 350.685 L
339.223 350.696 L
339.304 350.706 L
339.384 350.717 L
339.465 350.727 L
339.546 350.738 L
339.626 350.749 L
339.707 350.759 L
339.788 350.77 L
339.868 350.78 L
339.949 350.791 L
340.029 350.801 L
340.11 350.812 L
340.19 350.823 L
340.271 350.833 L
340.352 350.844 L
340.432 350.854 L
340.513 350.865 L
340.594 350.875 L
340.674 350.886 L
340.755 350.896 L
340.835 350.907 L
340.916 350.917 L
340.996 350.928 L
341.077 350.938 L
341.158 350.949 L
341.238 350.959 L
341.319 350.97 L
341.399 350.98 L
341.48 350.991 L
341.561 351.001 L
341.641 351.012 L
341.722 351.022 L
341.802 351.033 L
341.883 351.043 L
341.964 351.053 L
342.044 351.064 L
342.125 351.074 L
342.206 351.085 L
342.286 351.095 L
342.367 351.106 L
342.447 351.116 L
342.528 351.126 L
342.609 351.137 L
342.689 351.147 L
342.77 351.158 L
342.85 351.168 L
342.931 351.178 L
343.012 351.189 L
343.092 351.199 L
343.173 351.21 L
343.253 351.22 L
343.334 351.23 L
343.414 351.241 L
343.495 351.251 L
343.576 351.261 L
343.656 351.272 L
343.737 351.282 L
343.818 351.292 L
343.898 351.303 L
343.979 351.313 L
344.059 351.323 L
344.14 351.334 L
344.22 351.344 L
344.301 351.354 L
344.382 351.365 L
344.462 351.375 L
344.543 351.385 L
344.623 351.396 L
344.704 351.406 L
344.785 351.416 L
344.865 351.426 L
344.946 351.437 L
345.026 351.447 L
345.107 351.457 L
345.188 351.467 L
345.268 351.478 L
345.349 351.488 L
345.43 351.498 L
345.51 351.508 L
345.591 351.518 L
345.671 351.529 L
345.752 351.539 L
345.832 351.549 L
345.913 351.559 L
345.994 351.57 L
346.074 351.58 L
346.155 351.59 L
346.236 351.6 L
346.316 351.61 L
346.397 351.62 L
346.477 351.631 L
346.558 351.641 L
346.638 351.651 L
346.719 351.661 L
346.8 351.671 L
346.88 351.682 L
346.961 351.692 L
347.042 351.702 L
347.122 351.712 L
347.203 351.722 L
347.283 351.732 L
347.364 351.742 L
347.445 351.752 L
347.525 351.763 L
347.606 351.773 L
347.686 351.783 L
347.767 351.793 L
347.848 351.803 L
347.928 351.813 L
348.009 351.823 L
348.089 351.833 L
348.17 351.843 L
348.251 351.853 L
348.331 351.863 L
348.412 351.873 L
348.492 351.883 L
348.573 351.894 L
348.654 351.904 L
348.734 351.914 L
348.815 351.924 L
348.895 351.934 L
348.976 351.944 L
349.056 351.954 L
349.137 351.964 L
349.218 351.974 L
349.298 351.984 L
349.379 351.994 L
349.46 352.004 L
349.54 352.014 L
349.621 352.024 L
349.701 352.034 L
349.782 352.044 L
349.862 352.054 L
349.943 352.064 L
350.024 352.074 L
350.104 352.084 L
350.185 352.094 L
350.266 352.104 L
350.346 352.114 L
350.427 352.124 L
350.507 352.133 L
350.588 352.143 L
350.669 352.153 L
350.749 352.163 L
350.83 352.173 L
350.91 352.183 L
350.991 352.193 L
351.072 352.203 L
351.152 352.213 L
351.233 352.223 L
351.313 352.233 L
351.394 352.242 L
351.474 352.252 L
351.555 352.262 L
351.636 352.272 L
351.716 352.282 L
351.797 352.292 L
351.878 352.302 L
351.958 352.312 L
352.039 352.322 L
352.119 352.331 L
352.2 352.341 L
352.28 352.351 L
352.361 352.361 L
352.442 352.371 L
352.522 352.38 L
352.603 352.39 L
352.684 352.4 L
352.764 352.41 L
352.845 352.42 L
352.925 352.43 L
353.006 352.439 L
353.086 352.449 L
353.167 352.459 L
353.248 352.469 L
353.328 352.479 L
353.409 352.488 L
353.49 352.498 L
353.57 352.508 L
353.651 352.518 L
353.731 352.527 L
353.812 352.537 L
353.893 352.547 L
353.973 352.557 L
354.054 352.566 L
354.134 352.576 L
354.215 352.586 L
354.296 352.595 L
354.376 352.605 L
354.457 352.615 L
354.537 352.625 L
354.618 352.634 L
354.698 352.644 L
354.779 352.654 L
354.86 352.663 L
354.94 352.673 L
355.021 352.683 L
355.102 352.693 L
355.182 352.702 L
355.263 352.712 L
355.343 352.721 L
355.424 352.731 L
355.505 352.741 L
355.585 352.75 L
355.666 352.76 L
355.746 352.77 L
355.827 352.779 L
355.907 352.789 L
355.988 352.799 L
356.069 352.808 L
356.149 352.818 L
356.23 352.828 L
356.31 352.837 L
356.391 352.847 L
356.472 352.856 L
356.552 352.866 L
356.633 352.876 L
356.714 352.885 L
356.794 352.895 L
356.875 352.904 L
356.955 352.914 L
357.036 352.923 L
357.116 352.933 L
357.197 352.943 L
357.278 352.952 L
357.358 352.962 L
357.439 352.971 L
357.52 352.981 L
357.6 352.99 L
357.681 353 L
357.761 353.009 L
357.842 353.019 L
357.923 353.028 L
358.003 353.038 L
358.084 353.047 L
358.164 353.057 L
358.245 353.066 L
358.326 353.076 L
358.406 353.086 L
358.487 353.095 L
358.567 353.105 L
358.648 353.114 L
358.729 353.123 L
358.809 353.133 L
358.89 353.142 L
358.97 353.152 L
359.051 353.161 L
359.131 353.171 L
359.212 353.18 L
359.293 353.19 L
359.373 353.199 L
359.454 353.209 L
359.534 353.218 L
359.615 353.227 L
359.696 353.237 L
359.776 353.246 L
359.857 353.256 L
359.938 353.265 L
360.018 353.274 L
360.099 353.284 L
360.179 353.293 L
360.26 353.303 L
360.34 353.312 L
360.421 353.321 L
360.502 353.331 L
360.582 353.34 L
360.663 353.35 L
360.743 353.359 L
360.824 353.368 L
360.905 353.378 L
360.985 353.387 L
361.066 353.396 L
361.146 353.406 L
361.227 353.415 L
361.308 353.424 L
361.388 353.434 L
361.469 353.443 L
361.549 353.452 L
361.63 353.462 L
361.711 353.471 L
361.791 353.48 L
361.872 353.49 L
361.953 353.499 L
362.033 353.508 L
362.114 353.518 L
362.194 353.527 L
362.275 353.536 L
362.355 353.545 L
362.436 353.555 L
362.517 353.564 L
362.597 353.573 L
362.678 353.583 L
362.758 353.592 L
362.839 353.601 L
362.92 353.61 L
363 353.62 L
363.081 353.629 L
363.161 353.638 L
363.242 353.647 L
363.323 353.656 L
363.403 353.666 L
363.484 353.675 L
363.565 353.684 L
363.645 353.693 L
363.726 353.703 L
363.806 353.712 L
363.887 353.721 L
363.967 353.73 L
364.048 353.739 L
364.129 353.749 L
364.209 353.758 L
364.29 353.767 L
364.37 353.776 L
364.451 353.785 L
364.532 353.794 L
364.612 353.804 L
364.693 353.813 L
364.773 353.822 L
364.854 353.831 L
364.935 353.84 L
365.015 353.849 L
365.096 353.858 L
365.177 353.868 L
365.257 353.877 L
365.338 353.886 L
365.418 353.895 L
365.499 353.904 L
365.579 353.913 L
365.66 353.922 L
365.741 353.931 L
365.821 353.94 L
365.902 353.95 L
365.982 353.959 L
366.063 353.968 L
366.144 353.977 L
366.224 353.986 L
366.305 353.995 L
366.386 354.004 L
366.466 354.013 L
366.547 354.022 L
366.627 354.031 L
366.708 354.04 L
366.789 354.049 L
366.869 354.058 L
366.95 354.067 L
367.03 354.076 L
367.111 354.085 L
367.191 354.094 L
367.272 354.104 L
367.353 354.113 L
367.433 354.122 L
367.514 354.131 L
367.594 354.14 L
367.675 354.149 L
367.756 354.158 L
367.836 354.166 L
367.917 354.176 L
367.997 354.185 L
368.078 354.193 L
368.159 354.202 L
368.239 354.211 L
368.32 354.22 L
368.401 354.229 L
368.481 354.238 L
368.562 354.247 L
368.642 354.256 L
368.723 354.265 L
368.803 354.274 L
368.884 354.283 L
368.965 354.292 L
369.045 354.301 L
369.126 354.31 L
369.206 354.319 L
369.287 354.328 L
369.368 354.337 L
369.448 354.345 L
369.529 354.354 L
369.609 354.363 L
369.69 354.372 L
369.771 354.381 L
369.851 354.39 L
369.932 354.399 L
370.013 354.408 L
370.093 354.417 L
370.174 354.426 L
370.254 354.434 L
370.335 354.443 L
370.415 354.452 L
370.496 354.461 L
370.577 354.47 L
370.657 354.479 L
370.738 354.487 L
370.818 354.496 L
370.899 354.505 L
370.98 354.514 L
371.06 354.523 L
371.141 354.532 L
371.221 354.54 L
371.302 354.549 L
371.383 354.558 L
371.463 354.567 L
371.544 354.576 L
371.625 354.585 L
371.705 354.593 L
371.786 354.602 L
371.866 354.611 L
371.947 354.62 L
372.027 354.628 L
372.108 354.637 L
372.189 354.646 L
372.269 354.655 L
372.35 354.664 L
372.43 354.672 L
372.511 354.681 L
372.592 354.69 L
372.672 354.698 L
372.753 354.707 L
372.833 354.716 L
372.914 354.725 L
372.995 354.733 L
373.075 354.742 L
373.156 354.751 L
373.237 354.76 L
373.317 354.768 L
373.398 354.777 L
373.478 354.786 L
373.559 354.794 L
373.639 354.803 L
373.72 354.812 L
373.801 354.82 L
373.881 354.829 L
373.962 354.838 L
374.043 354.846 L
374.123 354.855 L
374.204 354.864 L
374.284 354.872 L
374.365 354.881 L
374.445 354.89 L
374.526 354.898 L
374.607 354.907 L
374.687 354.916 L
374.768 354.924 L
374.849 354.933 L
374.929 354.942 L
375.01 354.95 L
375.09 354.959 L
375.171 354.967 L
375.252 354.976 L
375.332 354.985 L
375.413 354.993 L
375.493 355.002 L
375.574 355.01 L
375.654 355.019 L
375.735 355.028 L
375.816 355.036 L
375.896 355.045 L
375.977 355.053 L
376.057 355.062 L
376.138 355.071 L
376.219 355.079 L
376.299 355.088 L
376.38 355.096 L
376.461 355.105 L
376.541 355.113 L
376.622 355.122 L
376.702 355.13 L
376.783 355.139 L
376.863 355.148 L
376.944 355.156 L
377.025 355.165 L
377.105 355.173 L
377.186 355.182 L
377.266 355.19 L
377.347 355.199 L
377.428 355.207 L
377.508 355.216 L
377.589 355.224 L
377.669 355.233 L
377.75 355.241 L
377.831 355.25 L
377.911 355.258 L
377.992 355.267 L
378.073 355.275 L
378.153 355.283 L
378.234 355.292 L
378.314 355.3 L
378.395 355.309 L
378.476 355.317 L
378.556 355.326 L
378.637 355.334 L
378.717 355.343 L
378.798 355.351 L
378.878 355.36 L
378.959 355.368 L
379.04 355.376 L
379.12 355.385 L
379.201 355.393 L
379.281 355.402 L
379.362 355.41 L
379.443 355.418 L
379.523 355.427 L
379.604 355.435 L
379.685 355.444 L
379.765 355.452 L
379.846 355.461 L
379.926 355.469 L
380.007 355.477 L
380.087 355.486 L
380.168 355.494 L
380.249 355.502 L
380.329 355.511 L
380.41 355.519 L
380.49 355.527 L
380.571 355.536 L
380.652 355.544 L
380.732 355.553 L
380.813 355.561 L
380.893 355.569 L
380.974 355.578 L
381.055 355.586 L
381.135 355.594 L
381.216 355.603 L
381.297 355.611 L
381.377 355.619 L
381.458 355.627 L
381.538 355.636 L
381.619 355.644 L
381.699 355.652 L
381.78 355.661 L
381.861 355.669 L
381.941 355.677 L
382.022 355.685 L
382.103 355.694 L
382.183 355.702 L
382.264 355.71 L
382.344 355.719 L
382.425 355.727 L
382.505 355.735 L
382.586 355.743 L
382.667 355.752 L
382.747 355.76 L
382.828 355.768 L
382.909 355.776 L
382.989 355.785 L
383.07 355.793 L
383.15 355.801 L
383.231 355.809 L
383.312 355.817 L
383.392 355.826 L
383.473 355.834 L
383.553 355.842 L
383.634 355.85 L
383.714 355.859 L
383.795 355.867 L
383.876 355.875 L
383.956 355.883 L
384.037 355.891 L
384.117 355.899 L
384.198 355.908 L
384.279 355.916 L
384.359 355.924 L
384.44 355.932 L
384.521 355.94 L
384.601 355.948 L
384.682 355.957 L
384.762 355.965 L
384.843 355.973 L
384.923 355.981 L
385.004 355.989 L
385.085 355.997 L
385.165 356.006 L
385.246 356.014 L
385.327 356.022 L
385.407 356.03 L
385.488 356.038 L
385.568 356.046 L
385.649 356.054 L
385.729 356.062 L
385.81 356.07 L
385.891 356.079 L
385.971 356.087 L
386.052 356.095 L
386.133 356.103 L
386.213 356.111 L
386.294 356.119 L
386.374 356.127 L
386.455 356.135 L
386.536 356.143 L
386.616 356.151 L
386.697 356.159 L
386.777 356.167 L
386.858 356.176 L
386.938 356.183 L
387.019 356.192 L
387.1 356.2 L
387.18 356.208 L
387.261 356.216 L
387.341 356.224 L
387.422 356.232 L
387.503 356.24 L
387.583 356.248 L
387.664 356.256 L
387.745 356.264 L
387.825 356.272 L
387.906 356.28 L
387.986 356.288 L
388.067 356.296 L
388.147 356.304 L
388.228 356.312 L
388.309 356.32 L
388.389 356.328 L
388.47 356.336 L
388.551 356.344 L
388.631 356.352 L
388.712 356.36 L
388.792 356.368 L
388.873 356.376 L
388.953 356.383 L
389.034 356.391 L
389.115 356.4 L
389.195 356.407 L
389.276 356.415 L
389.357 356.423 L
389.437 356.431 L
389.518 356.439 L
389.598 356.447 L
389.679 356.455 L
389.76 356.463 L
389.84 356.471 L
389.921 356.479 L
390.001 356.487 L
390.082 356.495 L
390.163 356.502 L
390.243 356.51 L
390.324 356.518 L
390.404 356.526 L
390.485 356.534 L
390.565 356.542 L
390.646 356.55 L
390.727 356.558 L
390.807 356.566 L
390.888 356.573 L
390.969 356.581 L
391.049 356.589 L
391.13 356.597 L
391.21 356.605 L
391.291 356.613 L
391.372 356.621 L
391.452 356.628 L
391.533 356.636 L
391.613 356.644 L
391.694 356.652 L
391.774 356.66 L
391.855 356.667 L
391.936 356.675 L
392.016 356.683 L
392.097 356.691 L
392.177 356.699 L
392.258 356.707 L
392.339 356.714 L
392.419 356.722 L
392.5 356.73 L
392.58 356.738 L
392.661 356.745 L
392.742 356.753 L
392.822 356.761 L
392.903 356.769 L
392.984 356.777 L
393.064 356.784 L
393.145 356.792 L
393.225 356.8 L
393.306 356.808 L
393.387 356.815 L
393.467 356.823 L
393.548 356.831 L
393.628 356.839 L
393.709 356.846 L
393.789 356.854 L
393.87 356.862 L
393.951 356.87 L
394.031 356.877 L
394.112 356.885 L
394.193 356.893 L
394.273 356.901 L
394.354 356.908 L
394.434 356.916 L
394.515 356.924 L
394.596 356.931 L
394.676 356.939 L
394.757 356.947 L
394.837 356.954 L
394.918 356.962 L
394.998 356.97 L
395.079 356.978 L
395.16 356.985 L
395.24 356.993 L
395.321 357.001 L
395.401 357.008 L
395.482 357.016 L
395.563 357.024 L
395.643 357.031 L
395.724 357.039 L
395.805 357.046 L
395.885 357.054 L
395.966 357.062 L
396.046 357.069 L
396.127 357.077 L
396.207 357.085 L
396.288 357.092 L
396.369 357.1 L
396.449 357.108 L
396.53 357.115 L
396.611 357.123 L
396.691 357.13 L
396.772 357.138 L
396.852 357.146 L
396.933 357.153 L
397.013 357.161 L
397.094 357.168 L
397.175 357.176 L
397.255 357.184 L
397.336 357.191 L
397.416 357.199 L
397.497 357.206 L
397.578 357.214 L
397.658 357.221 L
397.739 357.229 L
397.82 357.237 L
397.9 357.244 L
397.981 357.252 L
398.061 357.259 L
398.142 357.267 L
398.223 357.274 L
398.303 357.282 L
398.384 357.289 L
398.464 357.297 L
398.545 357.304 L
398.626 357.312 L
398.706 357.32 L
398.787 357.327 L
398.867 357.334 L
398.948 357.342 L
399.029 357.349 L
399.109 357.357 L
399.19 357.365 L
399.27 357.372 L
399.351 357.379 L
399.432 357.387 L
399.512 357.394 L
399.593 357.402 L
399.673 357.409 L
399.754 357.417 L
399.835 357.424 L
399.915 357.432 L
399.996 357.439 L
400.076 357.447 L
400.157 357.454 L
400.237 357.462 L
400.318 357.469 L
400.399 357.477 L
400.479 357.484 L
400.56 357.491 L
400.64 357.499 L
400.721 357.506 L
400.802 357.514 L
400.882 357.521 L
400.963 357.529 L
401.043 357.536 L
401.124 357.543 L
401.205 357.551 L
401.285 357.558 L
401.366 357.566 L
401.447 357.573 L
401.527 357.58 L
401.608 357.588 L
401.688 357.595 L
401.769 357.603 L
401.849 357.61 L
401.93 357.617 L
402.011 357.625 L
402.091 357.632 L
402.172 357.639 L
402.253 357.647 L
402.333 357.654 L
402.414 357.662 L
402.494 357.669 L
402.575 357.676 L
402.656 357.684 L
402.736 357.691 L
402.817 357.698 L
402.897 357.706 L
402.978 357.713 L
403.059 357.72 L
403.139 357.728 L
403.22 357.735 L
403.3 357.742 L
403.381 357.75 L
403.461 357.757 L
403.542 357.764 L
403.623 357.772 L
403.703 357.779 L
403.784 357.786 L
403.865 357.794 L
403.945 357.801 L
404.026 357.808 L
404.106 357.815 L
404.187 357.823 L
404.267 357.83 L
404.348 357.837 L
404.429 357.844 L
404.509 357.852 L
404.59 357.859 L
404.671 357.866 L
404.751 357.874 L
404.832 357.881 L
404.912 357.888 L
404.993 357.895 L
405.073 357.902 L
405.154 357.91 L
405.235 357.917 L
405.315 357.924 L
405.396 357.932 L
405.477 357.939 L
405.557 357.946 L
405.638 357.953 L
405.718 357.96 L
405.799 357.968 L
405.879 357.975 L
405.96 357.982 L
406.041 357.989 L
406.121 357.996 L
406.202 358.004 L
406.283 358.011 L
406.363 358.018 L
406.444 358.025 L
406.524 358.032 L
406.605 358.04 L
406.686 358.047 L
406.766 358.054 L
406.847 358.061 L
406.927 358.068 L
407.008 358.075 L
407.089 358.083 L
407.169 358.09 L
407.25 358.097 L
407.33 358.104 L
407.411 358.111 L
407.492 358.118 L
407.572 358.126 L
407.653 358.133 L
407.733 358.14 L
407.814 358.147 L
407.895 358.154 L
407.975 358.161 L
408.056 358.168 L
408.136 358.175 L
408.217 358.183 L
408.297 358.19 L
408.378 358.197 L
408.459 358.204 L
408.539 358.211 L
408.62 358.218 L
408.701 358.225 L
408.781 358.232 L
408.862 358.239 L
408.942 358.246 L
409.023 358.254 L
409.103 358.261 L
409.184 358.268 L
409.265 358.275 L
409.345 358.282 L
409.426 358.289 L
409.507 358.296 L
409.587 358.303 L
409.668 358.31 L
409.748 358.317 L
409.829 358.324 L
409.91 358.331 L
409.99 358.338 L
410.071 358.345 L
410.151 358.352 L
410.232 358.359 L
410.312 358.367 L
410.393 358.373 L
410.474 358.38 L
410.554 358.388 L
410.635 358.395 L
410.715 358.402 L
410.796 358.409 L
410.877 358.416 L
410.957 358.423 L
411.038 358.43 L
411.119 358.437 L
411.199 358.444 L
411.28 358.451 L
411.36 358.458 L
411.441 358.465 L
411.521 358.471 L
411.602 358.479 L
411.683 358.485 L
411.763 358.492 L
411.844 358.499 L
411.924 358.506 L
412.005 358.513 L
412.086 358.52 L
412.166 358.527 L
412.247 358.534 L
412.328 358.541 L
412.408 358.548 L
412.489 358.555 L
412.569 358.562 L
412.65 358.569 L
412.731 358.576 L
412.811 358.583 L
412.892 358.59 L
412.972 358.597 L
413.053 358.604 L
413.134 358.611 L
413.214 358.617 L
413.295 358.624 L
413.375 358.631 L
413.456 358.638 L
413.536 358.645 L
413.617 358.652 L
413.698 358.659 L
413.778 358.666 L
413.859 358.673 L
413.939 358.68 L
414.02 358.686 L
414.101 358.693 L
414.181 358.7 L
414.262 358.707 L
414.342 358.714 L
414.423 358.721 L
414.504 358.728 L
414.584 358.734 L
414.665 358.741 L
414.746 358.748 L
414.826 358.755 L
414.907 358.762 L
414.987 358.769 L
415.068 358.776 L
415.148 358.782 L
415.229 358.789 L
415.31 358.796 L
415.39 358.803 L
415.471 358.81 L
415.552 358.817 L
415.632 358.823 L
415.713 358.83 L
415.793 358.837 L
415.874 358.844 L
415.955 358.851 L
416.035 358.857 L
416.116 358.864 L
416.196 358.871 L
416.277 358.878 L
416.357 358.885 L
416.438 358.891 L
416.519 358.898 L
416.599 358.905 L
416.68 358.912 L
416.76 358.918 L
416.841 358.925 L
416.922 358.932 L
417.002 358.939 L
417.083 358.946 L
417.163 358.952 L
417.244 358.959 L
417.325 358.966 L
417.405 358.973 L
417.486 358.979 L
417.566 358.986 L
417.647 358.993 L
417.728 359 L
417.808 359.006 L
417.889 359.013 L
417.97 359.02 L
418.05 359.026 L
418.131 359.033 L
418.211 359.04 L
418.292 359.047 L
418.372 359.053 L
418.453 359.06 L
418.534 359.067 L
418.614 359.073 L
418.695 359.08 L
418.776 359.087 L
418.856 359.093 L
418.937 359.1 L
419.017 359.107 L
419.098 359.114 L
419.178 359.12 L
419.259 359.127 L
419.34 359.134 L
419.42 359.14 L
419.501 359.147 L
419.581 359.154 L
419.662 359.16 L
419.743 359.167 L
419.823 359.174 L
419.904 359.18 L
419.984 359.187 L
420.065 359.193 L
420.146 359.2 L
420.226 359.207 L
420.307 359.213 L
420.388 359.22 L
420.468 359.227 L
420.549 359.233 L
420.629 359.24 L
420.71 359.246 L
420.791 359.253 L
420.871 359.26 L
420.952 359.266 L
421.032 359.273 L
421.113 359.28 L
421.194 359.286 L
421.274 359.293 L
421.355 359.299 L
421.435 359.306 L
421.516 359.312 L
421.596 359.319 L
421.677 359.326 L
421.758 359.332 L
421.838 359.339 L
421.919 359.346 L
421.999 359.352 L
422.08 359.359 L
422.161 359.365 L
422.241 359.372 L
422.322 359.378 L
422.402 359.385 L
422.483 359.391 L
422.564 359.398 L
422.644 359.404 L
422.725 359.411 L
422.806 359.417 L
422.886 359.424 L
422.967 359.431 L
423.047 359.437 L
423.128 359.444 L
423.208 359.45 L
423.289 359.457 L
423.37 359.463 L
423.45 359.47 L
423.531 359.476 L
423.612 359.483 L
423.692 359.489 L
423.773 359.496 L
423.853 359.502 L
423.934 359.509 L
424.014 359.515 L
424.095 359.522 L
424.176 359.528 L
424.256 359.535 L
424.337 359.541 L
424.418 359.548 L
424.498 359.554 L
424.579 359.561 L
424.659 359.567 L
424.74 359.574 L
424.82 359.58 L
424.901 359.587 L
424.982 359.593 L
425.062 359.599 L
425.143 359.606 L
425.223 359.612 L
425.304 359.619 L
425.385 359.625 L
425.465 359.632 L
425.546 359.638 L
425.626 359.645 L
425.707 359.651 L
425.788 359.657 L
425.868 359.664 L
425.949 359.67 L
426.03 359.677 L
426.11 359.683 L
426.191 359.69 L
426.271 359.696 L
426.352 359.702 L
426.432 359.709 L
426.513 359.715 L
426.594 359.722 L
426.674 359.728 L
426.755 359.734 L
426.836 359.741 L
426.916 359.747 L
426.997 359.754 L
427.077 359.76 L
427.158 359.766 L
427.238 359.773 L
427.319 359.779 L
427.4 359.785 L
427.48 359.792 L
427.561 359.798 L
427.641 359.804 L
427.722 359.811 L
427.803 359.817 L
427.883 359.823 L
427.964 359.83 L
428.044 359.836 L
428.125 359.842 L
428.206 359.849 L
428.286 359.855 L
428.367 359.862 L
428.448 359.868 L
428.528 359.874 L
428.609 359.881 L
428.689 359.887 L
428.77 359.893 L
428.851 359.899 L
428.931 359.906 L
429.012 359.912 L
429.092 359.919 L
429.173 359.925 L
429.254 359.931 L
429.334 359.937 L
429.415 359.944 L
429.495 359.95 L
429.576 359.956 L
429.656 359.962 L
429.737 359.969 L
429.818 359.975 L
429.898 359.981 L
429.979 359.988 L
430.06 359.994 L
430.14 360 L
430.221 360.006 L
430.301 360.013 L
430.382 360.019 L
430.462 360.025 L
430.543 360.031 L
430.624 360.038 L
430.704 360.044 L
430.785 360.05 L
430.866 360.056 L
430.946 360.063 L
431.027 360.069 L
431.107 360.075 L
431.188 360.081 L
431.268 360.088 L
431.349 360.094 L
431.43 360.1 L
431.51 360.106 L
431.591 360.113 L
431.672 360.119 L
431.752 360.125 L
431.833 360.131 L
431.913 360.137 L
431.994 360.143 L
432.074 360.15 L
432.155 360.156 L
432.236 360.162 L
432.316 360.168 L
432.397 360.175 L
432.477 360.181 L
432.558 360.187 L
432.639 360.193 L
432.719 360.199 L
432.8 360.205 L
432.88 360.212 L
432.961 360.218 L
433.042 360.224 L
433.122 360.23 L
433.203 360.236 L
433.284 360.242 L
433.364 360.248 L
433.445 360.255 L
433.525 360.261 L
433.606 360.267 L
433.686 360.273 L
433.767 360.279 L
433.848 360.285 L
433.928 360.291 L
434.009 360.298 L
434.09 360.304 L
434.17 360.31 L
434.251 360.316 L
434.331 360.322 L
434.412 360.328 L
434.493 360.334 L
434.573 360.341 L
434.654 360.346 L
434.734 360.353 L
434.815 360.359 L
434.896 360.365 L
434.976 360.371 L
435.057 360.377 L
435.137 360.383 L
435.218 360.389 L
435.298 360.395 L
435.379 360.401 L
435.46 360.407 L
435.54 360.414 L
435.621 360.42 L
435.701 360.426 L
435.782 360.432 L
435.863 360.438 L
435.943 360.444 L
436.024 360.45 L
436.104 360.456 L
436.185 360.462 L
436.266 360.468 L
436.346 360.474 L
436.427 360.48 L
436.508 360.486 L
436.588 360.492 L
436.669 360.498 L
436.749 360.504 L
436.83 360.51 L
436.911 360.516 L
436.991 360.522 L
437.072 360.528 L
437.152 360.534 L
437.233 360.541 L
437.314 360.547 L
437.394 360.552 L
437.475 360.558 L
437.555 360.565 L
437.636 360.57 L
437.716 360.577 L
437.797 360.583 L
437.878 360.588 L
437.958 360.594 L
438.039 360.601 L
438.12 360.607 L
438.2 360.612 L
438.281 360.618 L
438.361 360.624 L
438.442 360.63 L
438.522 360.636 L
438.603 360.642 L
438.684 360.648 L
438.764 360.654 L
438.845 360.66 L
438.926 360.666 L
439.006 360.672 L
439.087 360.678 L
439.167 360.684 L
439.248 360.69 L
439.328 360.696 L
439.409 360.702 L
439.49 360.708 L
439.57 360.714 L
439.651 360.72 L
439.732 360.726 L
439.812 360.732 L
439.893 360.737 L
439.973 360.743 L
440.054 360.749 L
440.135 360.755 L
440.215 360.761 L
440.296 360.767 L
440.376 360.773 L
440.457 360.779 L
440.537 360.785 L
440.618 360.791 L
440.699 360.797 L
440.779 360.802 L
440.86 360.808 L
440.94 360.814 L
441.021 360.82 L
441.102 360.826 L
441.182 360.832 L
441.263 360.838 L
441.344 360.844 L
441.424 360.849 L
441.505 360.855 L
441.585 360.861 L
441.666 360.867 L
441.746 360.873 L
441.827 360.879 L
441.908 360.885 L
441.988 360.89 L
442.069 360.896 L
442.15 360.902 L
442.23 360.908 L
442.311 360.914 L
442.391 360.92 L
442.472 360.926 L
442.553 360.931 L
442.633 360.937 L
442.714 360.943 L
442.794 360.949 L
442.875 360.955 L
442.956 360.961 L
443.036 360.966 L
443.117 360.972 L
443.197 360.978 L
443.278 360.984 L
443.359 360.99 L
443.439 360.995 L
443.52 361.001 L
443.6 361.007 L
443.681 361.013 L
443.761 361.019 L
443.842 361.024 L
443.923 361.03 L
444.003 361.036 L
444.084 361.042 L
444.164 361.048 L
444.245 361.053 L
444.326 361.059 L
444.406 361.065 L
444.487 361.071 L
444.568 361.076 L
444.648 361.082 L
444.729 361.088 L
444.809 361.094 L
444.89 361.099 L
444.971 361.105 L
445.051 361.111 L
445.132 361.117 L
445.212 361.122 L
445.293 361.128 L
445.373 361.134 L
445.454 361.14 L
445.535 361.145 L
445.615 361.151 L
445.696 361.157 L
445.776 361.163 L
445.857 361.168 L
445.938 361.174 L
446.018 361.18 L
446.099 361.185 L
446.18 361.191 L
446.26 361.197 L
446.341 361.203 L
446.421 361.208 L
446.502 361.214 L
446.582 361.22 L
446.663 361.225 L
446.744 361.231 L
446.824 361.237 L
446.905 361.242 L
446.986 361.248 L
447.066 361.254 L
447.147 361.26 L
447.227 361.265 L
447.308 361.271 L
447.388 361.276 L
447.469 361.282 L
447.55 361.288 L
447.63 361.293 L
447.711 361.299 L
447.792 361.305 L
447.872 361.31 L
447.953 361.316 L
448.033 361.322 L
448.114 361.327 L
448.195 361.333 L
448.275 361.339 L
448.356 361.344 L
448.436 361.35 L
448.517 361.356 L
448.597 361.361 L
448.678 361.367 L
448.759 361.373 L
448.839 361.378 L
448.92 361.384 L
449 361.389 L
449.081 361.395 L
449.162 361.401 L
449.242 361.406 L
449.323 361.412 L
449.404 361.417 L
449.484 361.423 L
449.565 361.429 L
449.645 361.434 L
449.726 361.44 L
449.806 361.445 L
449.887 361.451 L
449.968 361.457 L
450.048 361.462 L
450.129 361.468 L
450.21 361.473 L
450.29 361.479 L
450.371 361.485 L
450.451 361.49 L
450.532 361.496 L
450.613 361.501 L
450.693 361.507 L
450.774 361.512 L
450.854 361.518 L
450.935 361.523 L
451.016 361.529 L
451.096 361.535 L
451.177 361.54 L
451.257 361.546 L
451.338 361.551 L
451.419 361.557 L
451.499 361.562 L
451.58 361.568 L
451.66 361.573 L
451.741 361.579 L
451.821 361.584 L
451.902 361.59 L
451.983 361.596 L
452.063 361.601 L
452.144 361.607 L
452.224 361.612 L
452.305 361.618 L
452.386 361.623 L
452.466 361.629 L
452.547 361.634 L
452.628 361.64 L
452.708 361.645 L
452.789 361.651 L
452.869 361.656 L
452.95 361.662 L
453.031 361.667 L
453.111 361.673 L
453.192 361.678 L
453.272 361.684 L
453.353 361.689 L
453.434 361.694 L
453.514 361.7 L
453.595 361.705 L
453.675 361.711 L
453.756 361.716 L
453.836 361.722 L
453.917 361.727 L
453.998 361.733 L
454.078 361.738 L
454.159 361.744 L
454.24 361.749 L
454.32 361.755 L
454.401 361.76 L
454.481 361.765 L
454.562 361.771 L
454.643 361.776 L
454.723 361.782 L
454.804 361.787 L
454.884 361.793 L
454.965 361.798 L
455.046 361.803 L
455.126 361.809 L
455.207 361.814 L
455.287 361.82 L
455.368 361.825 L
455.448 361.831 L
455.529 361.836 L
455.61 361.841 L
455.69 361.847 L
455.771 361.852 L
455.852 361.858 L
455.932 361.863 L
456.013 361.868 L
456.093 361.874 L
456.174 361.879 L
456.255 361.885 L
456.335 361.89 L
456.416 361.895 L
456.496 361.901 L
456.577 361.906 L
456.657 361.911 L
456.738 361.917 L
456.819 361.922 L
456.899 361.928 L
456.98 361.933 L
457.06 361.938 L
457.141 361.944 L
457.222 361.949 L
457.302 361.954 L
457.383 361.96 L
457.464 361.965 L
457.544 361.971 L
457.625 361.976 L
457.705 361.981 L
457.786 361.987 L
457.866 361.992 L
457.947 361.997 L
458.028 362.003 L
458.108 362.008 L
458.189 362.013 L
458.27 362.018 L
458.35 362.024 L
458.431 362.029 L
458.511 362.034 L
458.592 362.04 L
458.672 362.045 L
458.753 362.05 L
458.834 362.056 L
458.914 362.061 L
458.995 362.066 L
459.076 362.072 L
459.156 362.077 L
459.237 362.082 L
459.317 362.087 L
459.398 362.093 L
459.479 362.098 L
459.559 362.103 L
459.64 362.109 L
459.72 362.114 L
459.801 362.119 L
459.881 362.125 L
459.962 362.13 L
460.043 362.135 L
460.123 362.14 L
460.204 362.146 L
460.284 362.151 L
460.365 362.156 L
460.446 362.161 L
460.526 362.167 L
460.607 362.172 L
460.688 362.177 L
460.768 362.182 L
460.849 362.188 L
460.929 362.193 L
461.01 362.198 L
461.091 362.203 L
461.171 362.209 L
461.252 362.214 L
461.332 362.219 L
461.413 362.224 L
461.493 362.23 L
461.574 362.235 L
461.655 362.24 L
461.735 362.245 L
461.816 362.25 L
461.896 362.256 L
461.977 362.261 L
462.058 362.266 L
462.138 362.271 L
462.219 362.276 L
462.299 362.282 L
462.38 362.287 L
462.461 362.292 L
462.541 362.297 L
462.622 362.302 L
462.703 362.308 L
462.783 362.313 L
462.864 362.318 L
462.944 362.323 L
463.025 362.328 L
463.105 362.334 L
463.186 362.339 L
463.267 362.344 L
463.347 362.349 L
463.428 362.354 L
463.508 362.359 L
463.589 362.365 L
463.67 362.37 L
463.75 362.375 L
463.831 362.38 L
463.911 362.385 L
463.992 362.39 L
464.073 362.396 L
464.153 362.401 L
464.234 362.406 L
464.315 362.411 L
464.395 362.416 L
464.476 362.421 L
464.556 362.426 L
464.637 362.432 L
464.718 362.437 L
464.798 362.442 L
464.879 362.447 L
464.959 362.452 L
465.04 362.457 L
465.12 362.462 L
465.201 362.467 L
465.282 362.472 L
465.362 362.478 L
465.443 362.483 L
465.523 362.488 L
465.604 362.493 L
465.685 362.498 L
465.765 362.503 L
465.846 362.508 L
465.927 362.513 L
466.007 362.518 L
466.088 362.524 L
466.168 362.529 L
466.249 362.534 L
466.329 362.539 L
466.41 362.544 L
466.491 362.549 L
466.571 362.554 L
466.652 362.559 L
466.732 362.564 L
466.813 362.569 L
466.894 362.574 L
466.974 362.579 L
467.055 362.584 L
467.135 362.59 L
467.216 362.594 L
467.297 362.6 L
467.377 362.605 L
467.458 362.61 L
467.539 362.615 L
467.619 362.62 L
467.7 362.625 L
467.78 362.63 L
467.861 362.635 L
467.941 362.64 L
468.022 362.645 L
468.103 362.65 L
468.183 362.655 L
468.264 362.66 L
468.344 362.665 L
468.425 362.67 L
468.506 362.675 L
468.586 362.68 L
468.667 362.685 L
468.747 362.69 L
468.828 362.695 L
468.909 362.7 L
468.989 362.705 L
469.07 362.71 L
469.151 362.715 L
469.231 362.72 L
469.312 362.725 L
469.392 362.73 L
469.473 362.735 L
469.553 362.74 L
469.634 362.745 L
469.715 362.75 L
469.795 362.755 L
469.876 362.76 L
469.957 362.765 L
470.037 362.77 L
470.118 362.775 L
470.198 362.78 L
470.279 362.785 L
470.359 362.79 L
470.44 362.795 L
470.521 362.8 L
470.601 362.805 L
470.682 362.81 L
470.763 362.815 L
470.843 362.82 L
470.924 362.825 L
471.004 362.83 L
471.085 362.834 L
471.166 362.839 L
471.246 362.844 L
471.327 362.849 L
471.407 362.854 L
471.488 362.859 L
471.568 362.864 L
471.649 362.869 L
471.73 362.874 L
471.81 362.879 L
471.891 362.884 L
471.971 362.889 L
472.052 362.894 L
472.133 362.899 L
472.213 362.904 L
472.294 362.908 L
472.375 362.913 L
472.455 362.918 L
472.536 362.923 L
472.616 362.928 L
472.697 362.933 L
472.777 362.938 L
472.858 362.943 L
472.939 362.948 L
473.019 362.953 L
473.1 362.957 L
473.18 362.962 L
473.261 362.967 L
473.342 362.972 L
473.422 362.977 L
473.503 362.982 L
473.583 362.987 L
473.664 362.992 L
473.745 362.996 L
473.825 363.001 L
473.906 363.006 L
473.986 363.011 L
474.067 363.016 L
474.148 363.021 L
474.228 363.026 L
474.309 363.03 L
474.389 363.035 L
474.47 363.04 L
474.551 363.045 L
474.631 363.05 L
474.712 363.055 L
474.793 363.06 L
474.873 363.064 L
474.954 363.069 L
475.034 363.074 L
475.115 363.079 L
475.195 363.084 L
475.276 363.088 L
475.357 363.093 L
475.437 363.098 L
475.518 363.102 L
475.599 363.107 L
475.679 363.11 L
475.76 363.112 LE
[12 4] 0 setdash
386.858 46.2 LS
386.858 356.176 LE
grestore
showpage
cleartomark
%%PageTrailer
%%Trailer
end
%%EOF
