%!PS-Adobe-3.0 EPSF-3.0
%%Title: glps_renderer figure
%%Creator: GL2PS 1.3.8, (C) 1999-2012 C. Geuzaine
%%For: Octave
%%CreationDate: Sun Nov 29 18:29:33 2015
%%LanguageLevel: 3
%%DocumentData: Clean7Bit
%%Pages: 1
%%BoundingBox: 0 0 576 432
%%EndComments
%%BeginProlog
/gl2psdict 64 dict def gl2psdict begin
0 setlinecap 0 setlinejoin
/tryPS3shading false def % set to false to force subdivision
/rThreshold 0.064 def % red component subdivision threshold
/gThreshold 0.034 def % green component subdivision threshold
/bThreshold 0.1 def % blue component subdivision threshold
/BD { bind def } bind def
/C  { setrgbcolor } BD
/G  { 0.082 mul exch 0.6094 mul add exch 0.3086 mul add neg 1.0 add setgray } BD
/W  { setlinewidth } BD
/FC { findfont exch /SH exch def SH scalefont setfont } BD
/SW { dup stringwidth pop } BD
/S  { FC moveto show } BD
/SBC{ FC moveto SW -2 div 0 rmoveto show } BD
/SBR{ FC moveto SW neg 0 rmoveto show } BD
/SCL{ FC moveto 0 SH -2 div rmoveto show } BD
/SCC{ FC moveto SW -2 div SH -2 div rmoveto show } BD
/SCR{ FC moveto SW neg SH -2 div rmoveto show } BD
/STL{ FC moveto 0 SH neg rmoveto show } BD
/STC{ FC moveto SW -2 div SH neg rmoveto show } BD
/STR{ FC moveto SW neg SH neg rmoveto show } BD
/FCT { FC translate 0 0 } BD
/SR  { gsave FCT moveto rotate show grestore } BD
/SBCR{ gsave FCT moveto rotate SW -2 div 0 rmoveto show grestore } BD
/SBRR{ gsave FCT moveto rotate SW neg 0 rmoveto show grestore } BD
/SCLR{ gsave FCT moveto rotate 0 SH -2 div rmoveto show grestore} BD
/SCCR{ gsave FCT moveto rotate SW -2 div SH -2 div rmoveto show grestore} BD
/SCRR{ gsave FCT moveto rotate SW neg SH -2 div rmoveto show grestore} BD
/STLR{ gsave FCT moveto rotate 0 SH neg rmoveto show grestore } BD
/STCR{ gsave FCT moveto rotate SW -2 div SH neg rmoveto show grestore } BD
/STRR{ gsave FCT moveto rotate SW neg SH neg rmoveto show grestore } BD
/P  { newpath 0.0 360.0 arc closepath fill } BD
/LS { newpath moveto } BD
/L  { lineto } BD
/LE { lineto stroke } BD
/T  { newpath moveto lineto lineto closepath fill } BD
/STshfill {
      /b1 exch def /g1 exch def /r1 exch def /y1 exch def /x1 exch def
      /b2 exch def /g2 exch def /r2 exch def /y2 exch def /x2 exch def
      /b3 exch def /g3 exch def /r3 exch def /y3 exch def /x3 exch def
      gsave << /ShadingType 4 /ColorSpace [/DeviceRGB]
      /DataSource [ 0 x1 y1 r1 g1 b1 0 x2 y2 r2 g2 b2 0 x3 y3 r3 g3 b3 ] >>
      shfill grestore } BD
/Tm { 3 -1 roll 8 -1 roll 13 -1 roll add add 3 div
      3 -1 roll 7 -1 roll 11 -1 roll add add 3 div
      3 -1 roll 6 -1 roll 9 -1 roll add add 3 div C T } BD
/STsplit {
      4 index 15 index add 0.5 mul
      4 index 15 index add 0.5 mul
      4 index 15 index add 0.5 mul
      4 index 15 index add 0.5 mul
      4 index 15 index add 0.5 mul
      5 copy 5 copy 25 15 roll
      9 index 30 index add 0.5 mul
      9 index 30 index add 0.5 mul
      9 index 30 index add 0.5 mul
      9 index 30 index add 0.5 mul
      9 index 30 index add 0.5 mul
      5 copy 5 copy 35 5 roll 25 5 roll 15 5 roll
      4 index 10 index add 0.5 mul
      4 index 10 index add 0.5 mul
      4 index 10 index add 0.5 mul
      4 index 10 index add 0.5 mul
      4 index 10 index add 0.5 mul
      5 copy 5 copy 40 5 roll 25 5 roll 15 5 roll 25 5 roll
      STnoshfill STnoshfill STnoshfill STnoshfill } BD
/STnoshfill {
      2 index 8 index sub abs rThreshold gt
      { STsplit }
      { 1 index 7 index sub abs gThreshold gt
        { STsplit }
        { dup 6 index sub abs bThreshold gt
          { STsplit }
          { 2 index 13 index sub abs rThreshold gt
            { STsplit }
            { 1 index 12 index sub abs gThreshold gt
              { STsplit }
              { dup 11 index sub abs bThreshold gt
                { STsplit }
                { 7 index 13 index sub abs rThreshold gt
                  { STsplit }
                  { 6 index 12 index sub abs gThreshold gt
                    { STsplit }
                    { 5 index 11 index sub abs bThreshold gt
                      { STsplit }
                      { Tm }
                      ifelse }
                    ifelse }
                  ifelse }
                ifelse }
              ifelse }
            ifelse }
          ifelse }
        ifelse }
      ifelse } BD
tryPS3shading
{ /shfill where
  { /ST { STshfill } BD }
  { /ST { STnoshfill } BD }
  ifelse }
{ /ST { STnoshfill } BD }
ifelse
end
%%EndProlog
%%BeginSetup
/DeviceRGB setcolorspace
gl2psdict begin
%%EndSetup
%%Page: 1 1
%%BeginPageSetup
%%EndPageSetup
mark
gsave
1.0 1.0 scale
1 1 1 C
521.28 47.52 521.28 399.6 521.28 47.52 T
521.28 47.52 521.28 399.6 521.28 399.6 T
74.88 399.6 521.28 399.6 74.88 399.6 T
74.88 399.6 521.28 399.6 521.28 399.6 T
74.88 399.6 521.28 47.52 74.88 47.52 T
74.88 399.6 521.28 399.6 521.28 47.52 T
0.5 W
[16 0] 0 setdash
0 0 0 C
74.88 47.52 LS
521.28 47.52 LE
74.88 399.6 LS
521.28 399.6 LE
74.88 399.6 LS
521.28 399.6 LE
74.88 47.52 LS
521.28 47.52 LE
74.88 47.52 LS
74.88 399.6 LE
521.28 47.52 LS
521.28 399.6 LE
521.28 47.52 LS
521.28 399.6 LE
74.88 47.52 LS
74.88 399.6 L
74.88 399.6 LE
521.28 399.6 LS
521.28 399.6 LE
521.28 47.52 LS
521.28 47.52 LE
74.88 47.52 LS
74.88 47.52 L
74.88 51.985 LE
74.88 399.6 LS
74.88 395.135 LE
149.28 47.52 LS
149.28 51.985 LE
149.28 399.6 LS
149.28 395.135 LE
223.68 47.52 LS
223.68 51.985 LE
223.68 399.6 LS
223.68 395.135 LE
298.08 47.52 LS
298.08 51.985 LE
298.08 399.6 LS
298.08 395.135 LE
372.48 47.52 LS
372.48 51.985 LE
372.48 399.6 LS
372.48 395.135 LE
446.88 47.52 LS
446.88 51.985 LE
446.88 399.6 LS
446.88 395.135 LE
521.28 47.52 LS
521.28 51.985 LE
521.28 399.6 LS
521.28 395.135 LE
(0) 74.88 42.5189 15 /Helvetica STC
(20) 149.28 42.5189 15 /Helvetica STC
(40) 223.68 42.5189 15 /Helvetica STC
(60) 298.08 42.5189 15 /Helvetica STC
(80) 372.48 42.5189 15 /Helvetica STC
(100) 446.88 42.5189 15 /Helvetica STC
(120) 521.28 42.5189 15 /Helvetica STC
74.88 47.52 LS
79.348 47.52 LE
521.28 47.52 LS
516.812 47.52 LE
74.88 117.936 LS
79.348 117.936 LE
521.28 117.936 LS
516.812 117.936 LE
74.88 188.352 LS
79.348 188.352 LE
521.28 188.352 LS
516.812 188.352 LE
74.88 258.768 LS
79.348 258.768 LE
521.28 258.768 LS
516.812 258.768 LE
74.88 329.184 LS
79.348 329.184 LE
521.28 329.184 LS
516.812 329.184 LE
74.88 399.6 LS
79.348 399.6 LE
521.28 399.6 LS
516.812 399.6 LE
(0) 69.8755 47.52 15 /Helvetica SCR
(1) 69.8755 117.936 15 /Helvetica SCR
(2) 69.8755 188.352 15 /Helvetica SCR
(3) 69.8755 258.768 15 /Helvetica SCR
(4) 69.8755 329.184 15 /Helvetica SCR
(5) 69.8755 399.6 15 /Helvetica SCR
(X) 298.08 24.5188 15 /Helvetica STC
(Wall Temperature Gradient) 90 57.8755 223.56 15 /Helvetica SBCR
(H=1, T*=1, Ec=0.1) 298.08 409.6 15 /Helvetica SBC
2 W
[] 0 setdash
74.9265 146.125 LS
75.0195 167.142 L
75.1125 179.271 L
75.2055 187.777 L
75.2985 194.347 L
75.3915 199.713 L
75.4845 204.262 L
75.5775 208.215 L
75.6705 211.717 L
75.7635 214.864 L
75.8565 217.723 L
75.9495 220.344 L
76.0425 222.765 L
76.1355 225.015 L
76.2285 227.118 L
76.3215 229.092 L
76.4145 230.951 L
76.5075 232.71 L
76.6005 234.377 L
76.6935 235.963 L
76.7865 237.475 L
76.8795 238.919 L
76.9725 240.302 L
77.0655 241.627 L
77.1585 242.901 L
77.2515 244.126 L
77.3445 245.307 L
77.4375 246.445 L
77.5305 247.545 L
77.6235 248.608 L
77.7165 249.637 L
77.8095 250.633 L
77.9025 251.6 L
77.9955 252.538 L
78.0885 253.449 L
78.1815 254.334 L
78.2745 255.196 L
78.3675 256.034 L
78.4605 256.851 L
78.5535 257.646 L
78.6465 258.423 L
78.7395 259.18 L
78.8325 259.919 L
78.9255 260.641 L
79.0185 261.346 L
79.1115 262.036 L
79.2045 262.71 L
79.2975 263.37 L
79.3905 264.016 L
79.4835 264.649 L
79.5765 265.269 L
79.6695 265.876 L
79.7625 266.471 L
79.8555 267.055 L
79.9485 267.628 L
80.0415 268.19 L
80.1345 268.741 L
80.2275 269.283 L
80.3205 269.814 L
80.4135 270.337 L
80.5065 270.85 L
80.5995 271.355 L
80.6925 271.851 L
80.7855 272.339 L
80.8785 272.819 L
80.9715 273.291 L
81.0645 273.756 L
81.1575 274.213 L
81.2505 274.663 L
81.3435 275.107 L
81.4365 275.543 L
81.5295 275.974 L
81.6225 276.397 L
81.7155 276.815 L
81.8085 277.227 L
81.9015 277.633 L
81.9945 278.033 L
82.0875 278.428 L
82.1805 278.817 L
82.2735 279.201 L
82.3665 279.58 L
82.4595 279.954 L
82.5525 280.323 L
82.6455 280.687 L
82.7385 281.047 L
82.8315 281.402 L
82.9245 281.753 L
83.0175 282.099 L
83.1105 282.442 L
83.2035 282.78 L
83.2965 283.114 L
83.3895 283.444 L
83.4825 283.77 L
83.5755 284.093 L
83.6685 284.412 L
83.7615 284.727 L
83.8545 285.039 L
83.9475 285.348 L
84.0405 285.653 L
84.1335 285.954 L
84.2265 286.253 L
84.3195 286.549 L
84.4125 286.841 L
84.5055 287.13 L
84.5985 287.417 L
84.6915 287.7 L
84.7845 287.981 L
84.8775 288.259 L
84.9705 288.534 L
85.0635 288.807 L
85.1565 289.077 L
85.2495 289.344 L
85.3425 289.609 L
85.4355 289.871 L
85.5285 290.131 L
85.6215 290.389 L
85.7145 290.644 L
85.8075 290.897 L
85.9005 291.148 L
85.9935 291.397 L
86.0865 291.644 L
86.1795 291.888 L
86.2725 292.13 L
86.3655 292.371 L
86.4585 292.609 L
86.5515 292.846 L
86.6445 293.08 L
86.7375 293.313 L
86.8305 293.544 L
86.9235 293.773 L
87.0165 294 L
87.1095 294.225 L
87.2025 294.449 L
87.2955 294.671 L
87.3885 294.892 L
87.4815 295.11 L
87.5745 295.328 L
87.6675 295.543 L
87.7605 295.757 L
87.8535 295.97 L
87.9465 296.181 L
88.0395 296.391 L
88.1325 296.599 L
88.2255 296.806 L
88.3185 297.011 L
88.4115 297.215 L
88.5045 297.418 L
88.5975 297.62 L
88.6905 297.82 L
88.7835 298.019 L
88.8765 298.216 L
88.9695 298.413 L
89.0625 298.608 L
89.1555 298.802 L
89.2485 298.995 L
89.3415 299.186 L
89.4345 299.377 L
89.5275 299.566 L
89.6205 299.754 L
89.7135 299.942 L
89.8065 300.128 L
89.8995 300.313 L
89.9925 300.497 L
90.0855 300.68 L
90.1785 300.862 L
90.2715 301.043 L
90.3645 301.223 L
90.4575 301.402 L
90.5505 301.581 L
90.6435 301.758 L
90.7365 301.934 L
90.8295 302.11 L
90.9225 302.285 L
91.0155 302.458 L
91.1085 302.631 L
91.2015 302.803 L
91.2945 302.974 L
91.3875 303.145 L
91.4805 303.314 L
91.5735 303.483 L
91.6665 303.651 L
91.7595 303.818 L
91.8525 303.985 L
91.9455 304.151 L
92.0385 304.316 L
92.1315 304.48 L
92.2245 304.643 L
92.3175 304.806 L
92.4105 304.968 L
92.5035 305.13 L
92.5965 305.29 L
92.6895 305.45 L
92.7825 305.61 L
92.8755 305.768 L
92.9685 305.927 L
93.0615 306.084 L
93.1545 306.241 L
93.2475 306.397 L
93.3405 306.553 L
93.4335 306.708 L
93.5265 306.862 L
93.6195 307.016 L
93.7125 307.169 L
93.8055 307.322 L
93.8985 307.474 L
93.9915 307.625 L
94.0845 307.776 L
94.1775 307.926 L
94.2705 308.076 L
94.3635 308.226 L
94.4565 308.374 L
94.5495 308.523 L
94.6425 308.67 L
94.7355 308.818 L
94.8285 308.964 L
94.9215 309.11 L
95.0145 309.256 L
95.1075 309.401 L
95.2005 309.546 L
95.2935 309.69 L
95.3865 309.834 L
95.4795 309.977 L
95.5725 310.12 L
95.6655 310.263 L
95.7585 310.405 L
95.8515 310.546 L
95.9445 310.687 L
96.0375 310.828 L
96.1305 310.968 L
96.2235 311.108 L
96.3165 311.247 L
96.4095 311.386 L
96.5025 311.525 L
96.5955 311.663 L
96.6885 311.8 L
96.7815 311.938 L
96.8745 312.075 L
96.9675 312.211 L
97.0605 312.347 L
97.1535 312.483 L
97.2465 312.618 L
97.3395 312.753 L
97.4325 312.888 L
97.5255 313.022 L
97.6185 313.155 L
97.7115 313.289 L
97.8045 313.422 L
97.8975 313.555 L
97.9905 313.687 L
98.0835 313.819 L
98.1765 313.951 L
98.2695 314.082 L
98.3625 314.213 L
98.4555 314.343 L
98.5485 314.474 L
98.6415 314.604 L
98.7345 314.733 L
98.8275 314.862 L
98.9205 314.991 L
99.0135 315.12 L
99.1065 315.248 L
99.1995 315.376 L
99.2925 315.504 L
99.3855 315.631 L
99.4785 315.758 L
99.5715 315.885 L
99.6645 316.011 L
99.7575 316.137 L
99.8505 316.263 L
99.9435 316.388 L
100.036 316.513 L
100.13 316.638 L
100.223 316.763 L
100.315 316.887 L
100.408 317.011 L
100.502 317.134 L
100.594 317.258 L
100.688 317.381 L
100.781 317.504 L
100.873 317.626 L
100.967 317.748 L
101.059 317.87 L
101.152 317.992 L
101.245 318.113 L
101.339 318.234 L
101.432 318.355 L
101.525 318.476 L
101.617 318.596 L
101.71 318.716 L
101.803 318.836 L
101.896 318.955 L
101.99 319.074 L
102.083 319.193 L
102.175 319.312 L
102.268 319.431 L
102.362 319.549 L
102.454 319.667 L
102.548 319.784 L
102.64 319.902 L
102.733 320.019 L
102.827 320.136 L
102.919 320.252 L
103.012 320.369 L
103.105 320.485 L
103.198 320.601 L
103.292 320.716 L
103.385 320.832 L
103.477 320.947 L
103.57 321.062 L
103.663 321.176 L
103.757 321.291 L
103.85 321.405 L
103.942 321.519 L
104.035 321.633 L
104.129 321.746 L
104.221 321.86 L
104.314 321.973 L
104.408 322.085 L
104.5 322.198 L
104.594 322.31 L
104.686 322.422 L
104.779 322.534 L
104.872 322.646 L
104.965 322.757 L
105.059 322.868 L
105.152 322.979 L
105.244 323.09 L
105.337 323.201 L
105.431 323.311 L
105.523 323.421 L
105.617 323.531 L
105.71 323.64 L
105.802 323.75 L
105.896 323.859 L
105.989 323.968 L
106.081 324.077 L
106.174 324.185 L
106.267 324.294 L
106.361 324.402 L
106.454 324.51 L
106.546 324.617 L
106.639 324.725 L
106.732 324.832 L
106.826 324.939 L
106.919 325.046 L
107.012 325.153 L
107.104 325.259 L
107.197 325.365 L
107.29 325.471 L
107.383 325.577 L
107.477 325.683 L
107.57 325.788 L
107.662 325.893 L
107.756 325.998 L
107.848 326.103 L
107.941 326.208 L
108.035 326.312 L
108.127 326.416 L
108.221 326.52 L
108.314 326.624 L
108.406 326.728 L
108.499 326.831 L
108.592 326.934 L
108.686 327.037 L
108.779 327.14 L
108.871 327.243 L
108.964 327.345 L
109.057 327.447 L
109.15 327.549 L
109.243 327.651 L
109.337 327.753 L
109.429 327.854 L
109.522 327.955 L
109.616 328.056 L
109.708 328.157 L
109.801 328.258 L
109.895 328.358 L
109.987 328.459 L
110.081 328.559 L
110.174 328.659 L
110.266 328.758 L
110.359 328.858 L
110.452 328.957 L
110.546 329.057 L
110.639 329.156 L
110.731 329.254 L
110.824 329.353 L
110.918 329.451 L
111.01 329.55 L
111.104 329.648 L
111.197 329.746 L
111.289 329.843 L
111.383 329.941 L
111.475 330.038 L
111.568 330.135 L
111.661 330.232 L
111.755 330.329 L
111.848 330.426 L
111.941 330.522 L
112.033 330.619 L
112.126 330.715 L
112.22 330.811 L
112.312 330.906 L
112.406 331.002 L
112.498 331.097 L
112.591 331.192 L
112.685 331.287 L
112.778 331.382 L
112.87 331.477 L
112.964 331.571 L
113.056 331.666 L
113.15 331.76 L
113.243 331.854 L
113.335 331.948 L
113.428 332.041 L
113.521 332.135 L
113.615 332.228 L
113.708 332.321 L
113.801 332.414 L
113.893 332.507 L
113.986 332.6 L
114.079 332.692 L
114.173 332.784 L
114.266 332.876 L
114.359 332.968 L
114.451 333.06 L
114.545 333.152 L
114.637 333.243 L
114.73 333.334 L
114.824 333.426 L
114.916 333.516 L
115.01 333.607 L
115.102 333.698 L
115.195 333.788 L
115.288 333.878 L
115.382 333.969 L
115.475 334.059 L
115.568 334.148 L
115.66 334.238 L
115.753 334.327 L
115.846 334.417 L
115.94 334.506 L
116.033 334.595 L
116.125 334.684 L
116.218 334.772 L
116.311 334.861 L
116.405 334.949 L
116.497 335.037 L
116.59 335.125 L
116.683 335.213 L
116.776 335.301 L
116.87 335.388 L
116.963 335.475 L
117.055 335.563 L
117.148 335.65 L
117.241 335.737 L
117.335 335.823 L
117.428 335.91 L
117.52 335.996 L
117.613 336.083 L
117.706 336.169 L
117.799 336.255 L
117.893 336.34 L
117.986 336.426 L
118.078 336.512 L
118.172 336.597 L
118.264 336.682 L
118.357 336.767 L
118.451 336.852 L
118.544 336.937 L
118.637 337.021 L
118.73 337.105 L
118.822 337.19 L
118.915 337.274 L
119.009 337.358 L
119.102 337.442 L
119.195 337.525 L
119.287 337.609 L
119.38 337.692 L
119.474 337.775 L
119.567 337.858 L
119.66 337.941 L
119.753 338.024 L
119.845 338.107 L
119.939 338.189 L
120.032 338.271 L
120.125 338.353 L
120.217 338.435 L
120.31 338.517 L
120.404 338.599 L
120.497 338.681 L
120.59 338.762 L
120.682 338.843 L
120.775 338.924 L
120.868 339.005 L
120.962 339.086 L
121.055 339.167 L
121.148 339.247 L
121.24 339.328 L
121.334 339.408 L
121.426 339.488 L
121.52 339.568 L
121.613 339.648 L
121.705 339.727 L
121.799 339.807 L
121.891 339.886 L
121.984 339.966 L
122.077 340.045 L
122.17 340.124 L
122.264 340.202 L
122.357 340.281 L
122.449 340.359 L
122.542 340.438 L
122.635 340.516 L
122.729 340.594 L
122.822 340.672 L
122.915 340.75 L
123.007 340.828 L
123.1 340.905 L
123.194 340.983 L
123.286 341.06 L
123.38 341.137 L
123.472 341.214 L
123.565 341.291 L
123.659 341.367 L
123.751 341.444 L
123.844 341.521 L
123.938 341.597 L
124.03 341.673 L
124.124 341.749 L
124.217 341.825 L
124.309 341.901 L
124.402 341.976 L
124.495 342.052 L
124.589 342.127 L
124.682 342.202 L
124.775 342.277 L
124.867 342.352 L
124.961 342.427 L
125.053 342.502 L
125.146 342.576 L
125.24 342.651 L
125.332 342.725 L
125.426 342.799 L
125.519 342.873 L
125.611 342.947 L
125.704 343.021 L
125.798 343.094 L
125.891 343.168 L
125.984 343.241 L
126.076 343.314 L
126.169 343.387 L
126.263 343.46 L
126.355 343.533 L
126.449 343.606 L
126.542 343.678 L
126.634 343.751 L
126.728 343.823 L
126.821 343.895 L
126.913 343.967 L
127.007 344.039 L
127.099 344.111 L
127.193 344.182 L
127.286 344.254 L
127.379 344.325 L
127.471 344.396 L
127.564 344.468 L
127.658 344.539 L
127.751 344.609 L
127.844 344.68 L
127.936 344.751 L
128.029 344.821 L
128.122 344.892 L
128.215 344.962 L
128.309 345.032 L
128.402 345.102 L
128.494 345.172 L
128.588 345.242 L
128.68 345.311 L
128.773 345.381 L
128.867 345.45 L
128.96 345.519 L
129.053 345.588 L
129.145 345.657 L
129.238 345.726 L
129.331 345.795 L
129.424 345.864 L
129.518 345.932 L
129.611 346 L
129.703 346.069 L
129.796 346.137 L
129.889 346.205 L
129.983 346.273 L
130.076 346.34 L
130.169 346.408 L
130.261 346.476 L
130.354 346.543 L
130.448 346.61 L
130.54 346.677 L
130.633 346.744 L
130.726 346.811 L
130.819 346.878 L
130.913 346.945 L
131.006 347.011 L
131.098 347.078 L
131.191 347.144 L
131.284 347.21 L
131.378 347.276 L
131.471 347.342 L
131.564 347.408 L
131.656 347.474 L
131.75 347.539 L
131.842 347.605 L
131.936 347.67 L
132.029 347.736 L
132.121 347.801 L
132.215 347.866 L
132.307 347.931 L
132.4 347.995 L
132.493 348.06 L
132.587 348.125 L
132.68 348.189 L
132.773 348.253 L
132.865 348.318 L
132.958 348.382 L
133.052 348.446 L
133.145 348.509 L
133.238 348.573 L
133.33 348.637 L
133.423 348.7 L
133.517 348.764 L
133.61 348.827 L
133.702 348.89 L
133.796 348.953 L
133.888 349.016 L
133.982 349.079 L
134.075 349.142 L
134.168 349.204 L
134.26 349.267 L
134.354 349.329 L
134.447 349.392 L
134.54 349.454 L
134.633 349.516 L
134.725 349.578 L
134.818 349.64 L
134.912 349.701 L
135.005 349.763 L
135.098 349.824 L
135.191 349.886 L
135.283 349.947 L
135.377 350.008 L
135.469 350.069 L
135.562 350.13 L
135.656 350.191 L
135.748 350.252 L
135.842 350.312 L
135.935 350.373 L
136.027 350.433 L
136.12 350.494 L
136.213 350.554 L
136.307 350.614 L
136.4 350.674 L
136.492 350.734 L
136.585 350.793 L
136.678 350.853 L
136.772 350.913 L
136.865 350.972 L
136.958 351.031 L
137.05 351.091 L
137.143 351.15 L
137.237 351.209 L
137.329 351.268 L
137.423 351.326 L
137.515 351.385 L
137.608 351.444 L
137.702 351.502 L
137.795 351.561 L
137.887 351.619 L
137.98 351.677 L
138.073 351.735 L
138.167 351.793 L
138.26 351.851 L
138.352 351.909 L
138.445 351.966 L
138.538 352.024 L
138.632 352.081 L
138.725 352.139 L
138.818 352.196 L
138.91 352.253 L
139.004 352.31 L
139.097 352.367 L
139.189 352.424 L
139.283 352.481 L
139.375 352.537 L
139.469 352.594 L
139.562 352.65 L
139.654 352.706 L
139.747 352.763 L
139.841 352.819 L
139.934 352.875 L
140.027 352.931 L
140.12 352.986 L
140.212 353.042 L
140.306 353.098 L
140.398 353.153 L
140.492 353.209 L
140.585 353.264 L
140.677 353.319 L
140.771 353.374 L
140.864 353.429 L
140.957 353.484 L
141.049 353.539 L
141.142 353.594 L
141.236 353.648 L
141.329 353.703 L
141.422 353.758 L
141.514 353.812 L
141.607 353.866 L
141.701 353.92 L
141.794 353.974 L
141.887 354.028 L
141.98 354.082 L
142.072 354.136 L
142.165 354.189 L
142.258 354.243 L
142.352 354.296 L
142.445 354.35 L
142.537 354.403 L
142.631 354.456 L
142.723 354.509 L
142.816 354.562 L
142.91 354.615 L
143.003 354.668 L
143.096 354.721 L
143.188 354.773 L
143.281 354.826 L
143.374 354.878 L
143.467 354.931 L
143.561 354.983 L
143.654 355.035 L
143.747 355.087 L
143.839 355.139 L
143.932 355.191 L
144.025 355.243 L
144.118 355.294 L
144.212 355.346 L
144.305 355.397 L
144.397 355.449 L
144.491 355.5 L
144.583 355.551 L
144.676 355.602 L
144.77 355.653 L
144.862 355.704 L
144.956 355.755 L
145.048 355.806 L
145.142 355.857 L
145.234 355.907 L
145.327 355.958 L
145.421 356.008 L
145.514 356.058 L
145.607 356.108 L
145.699 356.159 L
145.793 356.209 L
145.885 356.259 L
145.979 356.308 L
146.072 356.358 L
146.165 356.408 L
146.258 356.457 L
146.35 356.507 L
146.443 356.556 L
146.536 356.606 L
146.63 356.655 L
146.723 356.704 L
146.816 356.753 L
146.909 356.802 L
147.002 356.851 L
147.095 356.9 L
147.188 356.948 L
147.281 356.997 L
147.374 357.046 L
147.467 357.094 L
147.56 357.142 L
147.652 357.191 L
147.745 357.239 L
147.839 357.287 L
147.932 357.335 L
148.025 357.383 L
148.118 357.431 L
148.21 357.478 L
148.303 357.526 L
148.396 357.574 L
148.49 357.621 L
148.583 357.669 L
148.675 357.716 L
148.768 357.763 L
148.861 357.81 L
148.954 357.857 L
149.048 357.904 L
149.141 357.951 L
149.234 357.998 L
149.327 358.045 L
149.42 358.091 L
149.512 358.138 L
149.605 358.184 L
149.699 358.231 L
149.792 358.277 L
149.885 358.323 L
149.977 358.37 L
150.071 358.416 L
150.163 358.462 L
150.257 358.507 L
150.35 358.553 L
150.443 358.599 L
150.536 358.645 L
150.628 358.69 L
150.721 358.736 L
150.814 358.781 L
150.908 358.826 L
151.001 358.872 L
151.093 358.917 L
151.186 358.962 L
151.28 359.007 L
151.372 359.052 L
151.465 359.097 L
151.559 359.141 L
151.652 359.186 L
151.745 359.231 L
151.837 359.275 L
151.93 359.32 L
152.023 359.364 L
152.117 359.408 L
152.21 359.453 L
152.303 359.497 L
152.396 359.541 L
152.488 359.585 L
152.582 359.629 L
152.674 359.672 L
152.768 359.716 L
152.861 359.76 L
152.953 359.803 L
153.047 359.847 L
153.139 359.89 L
153.232 359.934 L
153.326 359.977 L
153.419 360.02 L
153.512 360.063 L
153.605 360.106 L
153.698 360.149 L
153.79 360.192 L
153.883 360.235 L
153.977 360.278 L
154.07 360.32 L
154.163 360.363 L
154.255 360.405 L
154.349 360.448 L
154.441 360.49 L
154.535 360.532 L
154.628 360.574 L
154.721 360.617 L
154.814 360.659 L
154.907 360.701 L
154.999 360.742 L
155.092 360.784 L
155.186 360.826 L
155.279 360.868 L
155.372 360.909 L
155.464 360.951 L
155.558 360.992 L
155.65 361.034 L
155.743 361.075 L
155.837 361.116 L
155.93 361.157 L
156.023 361.198 L
156.115 361.239 L
156.208 361.28 L
156.301 361.321 L
156.395 361.362 L
156.488 361.403 L
156.581 361.443 L
156.674 361.484 L
156.767 361.524 L
156.86 361.565 L
156.952 361.605 L
157.046 361.645 L
157.139 361.685 L
157.232 361.726 L
157.325 361.766 L
157.417 361.806 L
157.51 361.845 L
157.604 361.885 L
157.697 361.925 L
157.79 361.965 L
157.883 362.004 L
157.975 362.044 L
158.068 362.083 L
158.161 362.123 L
158.255 362.162 L
158.348 362.201 L
158.44 362.241 L
158.533 362.28 L
158.626 362.319 L
158.719 362.358 L
158.812 362.397 L
158.906 362.436 L
158.999 362.474 L
159.092 362.513 L
159.185 362.552 L
159.277 362.59 L
159.37 362.629 L
159.464 362.667 L
159.557 362.706 L
159.65 362.744 L
159.742 362.782 L
159.836 362.82 L
159.928 362.858 L
160.022 362.896 L
160.115 362.934 L
160.208 362.972 L
160.301 363.01 L
160.393 363.048 L
160.487 363.085 L
160.579 363.123 L
160.673 363.161 L
160.766 363.198 L
160.859 363.235 L
160.952 363.273 L
161.045 363.31 L
161.138 363.347 L
161.23 363.384 L
161.324 363.422 L
161.417 363.458 L
161.51 363.495 L
161.603 363.532 L
161.695 363.569 L
161.788 363.606 L
161.882 363.643 L
161.975 363.679 L
162.068 363.716 L
162.161 363.752 L
162.254 363.789 L
162.346 363.825 L
162.44 363.861 L
162.533 363.897 L
162.626 363.934 L
162.719 363.97 L
162.811 364.006 L
162.905 364.042 L
162.997 364.078 L
163.091 364.113 L
163.184 364.149 L
163.277 364.185 L
163.37 364.221 L
163.462 364.256 L
163.556 364.292 L
163.648 364.327 L
163.742 364.362 L
163.835 364.398 L
163.927 364.433 L
164.021 364.468 L
164.113 364.503 L
164.206 364.538 L
164.299 364.573 L
164.393 364.608 L
164.486 364.643 L
164.578 364.678 L
164.672 364.713 L
164.764 364.748 L
164.857 364.782 L
164.951 364.817 L
165.043 364.851 L
165.137 364.886 L
165.229 364.92 L
165.323 364.954 L
165.415 364.989 L
165.508 365.023 L
165.602 365.057 L
165.695 365.091 L
165.788 365.125 L
165.88 365.159 L
165.973 365.193 L
166.066 365.227 L
166.16 365.261 L
166.253 365.294 L
166.346 365.328 L
166.439 365.362 L
166.532 365.395 L
166.625 365.429 L
166.717 365.462 L
166.811 365.495 L
166.904 365.529 L
166.997 365.562 L
167.09 365.595 L
167.182 365.628 L
167.275 365.661 L
167.368 365.694 L
167.462 365.727 L
167.555 365.76 L
167.648 365.793 L
167.741 365.826 L
167.833 365.858 L
167.927 365.891 L
168.02 365.923 L
168.113 365.956 L
168.206 365.988 L
168.298 366.021 L
168.392 366.053 L
168.484 366.086 L
168.578 366.118 L
168.671 366.15 L
168.764 366.182 L
168.857 366.214 L
168.95 366.246 L
169.043 366.278 L
169.135 366.31 L
169.229 366.342 L
169.322 366.374 L
169.415 366.405 L
169.508 366.437 L
169.6 366.469 L
169.694 366.5 L
169.786 366.532 L
169.88 366.563 L
169.973 366.594 L
170.065 366.626 L
170.159 366.657 L
170.251 366.688 L
170.345 366.719 L
170.438 366.75 L
170.53 366.781 L
170.624 366.812 L
170.716 366.843 L
170.81 366.874 L
170.902 366.905 L
170.995 366.936 L
171.089 366.967 L
171.182 366.997 L
171.275 367.028 L
171.367 367.058 L
171.46 367.089 L
171.553 367.119 L
171.646 367.15 L
171.74 367.18 L
171.833 367.21 L
171.926 367.24 L
172.018 367.271 L
172.112 367.301 L
172.204 367.331 L
172.298 367.361 L
172.391 367.391 L
172.483 367.421 L
172.577 367.451 L
172.669 367.48 L
172.762 367.51 L
172.855 367.54 L
172.949 367.569 L
173.042 367.599 L
173.135 367.628 L
173.228 367.658 L
173.32 367.687 L
173.413 367.717 L
173.507 367.746 L
173.6 367.775 L
173.693 367.804 L
173.785 367.834 L
173.879 367.863 L
173.971 367.892 L
174.065 367.921 L
174.158 367.95 L
174.251 367.979 L
174.344 368.007 L
174.437 368.036 L
174.53 368.065 L
174.622 368.094 L
174.715 368.122 L
174.809 368.151 L
174.902 368.179 L
174.995 368.208 L
175.088 368.236 L
175.181 368.265 L
175.273 368.293 L
175.367 368.321 L
175.46 368.35 L
175.553 368.378 L
175.646 368.406 L
175.738 368.434 L
175.832 368.462 L
175.924 368.49 L
176.018 368.518 L
176.111 368.546 L
176.204 368.574 L
176.297 368.601 L
176.389 368.629 L
176.483 368.657 L
176.576 368.684 L
176.669 368.712 L
176.762 368.739 L
176.854 368.767 L
176.948 368.794 L
177.04 368.822 L
177.134 368.849 L
177.227 368.876 L
177.32 368.903 L
177.413 368.931 L
177.505 368.958 L
177.599 368.985 L
177.691 369.012 L
177.785 369.039 L
177.878 369.066 L
177.97 369.093 L
178.064 369.12 L
178.156 369.146 L
178.249 369.173 L
178.342 369.2 L
178.436 369.227 L
178.529 369.253 L
178.622 369.28 L
178.715 369.306 L
178.807 369.333 L
178.9 369.359 L
178.993 369.385 L
179.087 369.412 L
179.18 369.438 L
179.272 369.464 L
179.366 369.49 L
179.458 369.517 L
179.552 369.543 L
179.645 369.569 L
179.738 369.595 L
179.831 369.621 L
179.923 369.646 L
180.017 369.672 L
180.109 369.698 L
180.202 369.724 L
180.296 369.75 L
180.389 369.775 L
180.482 369.801 L
180.575 369.826 L
180.668 369.852 L
180.76 369.877 L
180.854 369.903 L
180.947 369.928 L
181.04 369.954 L
181.133 369.979 L
181.225 370.004 L
181.318 370.029 L
181.411 370.055 L
181.505 370.08 L
181.598 370.105 L
181.691 370.13 L
181.784 370.155 L
181.877 370.18 L
181.97 370.205 L
182.062 370.229 L
182.156 370.254 L
182.249 370.279 L
182.342 370.304 L
182.435 370.328 L
182.527 370.353 L
182.621 370.378 L
182.714 370.402 L
182.807 370.427 L
182.9 370.451 L
182.993 370.476 L
183.086 370.5 L
183.178 370.524 L
183.272 370.548 L
183.365 370.573 L
183.458 370.597 L
183.551 370.621 L
183.643 370.645 L
183.737 370.669 L
183.829 370.693 L
183.923 370.717 L
184.016 370.741 L
184.108 370.765 L
184.202 370.789 L
184.294 370.813 L
184.388 370.836 L
184.48 370.86 L
184.573 370.884 L
184.667 370.907 L
184.76 370.931 L
184.853 370.955 L
184.945 370.978 L
185.038 371.002 L
185.132 371.025 L
185.225 371.048 L
185.318 371.072 L
185.41 371.095 L
185.503 371.118 L
185.596 371.141 L
185.689 371.165 L
185.783 371.188 L
185.876 371.211 L
185.969 371.234 L
186.062 371.257 L
186.155 371.28 L
186.247 371.303 L
186.34 371.326 L
186.434 371.348 L
186.527 371.371 L
186.62 371.394 L
186.712 371.417 L
186.805 371.439 L
186.898 371.462 L
186.992 371.485 L
187.085 371.507 L
187.178 371.53 L
187.271 371.552 L
187.363 371.575 L
187.457 371.597 L
187.549 371.619 L
187.643 371.642 L
187.736 371.664 L
187.828 371.686 L
187.922 371.708 L
188.015 371.731 L
188.108 371.753 L
188.201 371.775 L
188.294 371.797 L
188.387 371.819 L
188.48 371.841 L
188.573 371.863 L
188.665 371.885 L
188.758 371.906 L
188.852 371.928 L
188.945 371.95 L
189.038 371.972 L
189.131 371.993 L
189.224 372.015 L
189.317 372.037 L
189.41 372.058 L
189.503 372.08 L
189.596 372.101 L
189.689 372.123 L
189.782 372.144 L
189.875 372.165 L
189.967 372.187 L
190.061 372.208 L
190.154 372.229 L
190.247 372.25 L
190.34 372.272 L
190.432 372.293 L
190.526 372.314 L
190.618 372.335 L
190.712 372.356 L
190.805 372.377 L
190.897 372.398 L
190.991 372.419 L
191.083 372.44 L
191.177 372.461 L
191.27 372.481 L
191.363 372.502 L
191.456 372.523 L
191.548 372.544 L
191.642 372.564 L
191.734 372.585 L
191.827 372.606 L
191.921 372.626 L
192.013 372.647 L
192.107 372.667 L
192.199 372.688 L
192.292 372.708 L
192.385 372.728 L
192.479 372.749 L
192.572 372.769 L
192.665 372.789 L
192.758 372.809 L
192.85 372.83 L
192.943 372.85 L
193.036 372.87 L
193.13 372.89 L
193.223 372.91 L
193.315 372.93 L
193.409 372.95 L
193.502 372.97 L
193.595 372.99 L
193.688 373.009 L
193.781 373.029 L
193.874 373.049 L
193.967 373.069 L
194.059 373.089 L
194.152 373.108 L
194.246 373.128 L
194.339 373.148 L
194.432 373.167 L
194.525 373.187 L
194.618 373.206 L
194.711 373.226 L
194.803 373.245 L
194.897 373.264 L
194.99 373.284 L
195.083 373.303 L
195.176 373.322 L
195.268 373.342 L
195.362 373.361 L
195.454 373.38 L
195.548 373.399 L
195.641 373.418 L
195.734 373.438 L
195.827 373.457 L
195.919 373.476 L
196.013 373.495 L
196.106 373.513 L
196.199 373.532 L
196.292 373.551 L
196.384 373.57 L
196.478 373.589 L
196.571 373.608 L
196.664 373.627 L
196.757 373.645 L
196.85 373.664 L
196.943 373.683 L
197.036 373.701 L
197.129 373.72 L
197.221 373.738 L
197.314 373.757 L
197.408 373.775 L
197.501 373.794 L
197.594 373.812 L
197.686 373.831 L
197.78 373.849 L
197.872 373.867 L
197.966 373.885 L
198.059 373.904 L
198.152 373.922 L
198.245 373.94 L
198.337 373.958 L
198.431 373.976 L
198.523 373.994 L
198.617 374.013 L
198.71 374.031 L
198.803 374.049 L
198.896 374.067 L
198.988 374.084 L
199.082 374.102 L
199.174 374.12 L
199.268 374.138 L
199.361 374.156 L
199.453 374.174 L
199.547 374.191 L
199.639 374.209 L
199.732 374.227 L
199.826 374.244 L
199.919 374.262 L
200.012 374.28 L
200.104 374.297 L
200.198 374.315 L
200.291 374.332 L
200.383 374.35 L
200.477 374.367 L
200.569 374.384 L
200.663 374.402 L
200.756 374.419 L
200.848 374.436 L
200.941 374.454 L
201.035 374.471 L
201.128 374.488 L
201.221 374.505 L
201.314 374.522 L
201.407 374.539 L
201.499 374.556 L
201.592 374.574 L
201.686 374.591 L
201.779 374.608 L
201.872 374.625 L
201.965 374.641 L
202.058 374.658 L
202.151 374.675 L
202.243 374.692 L
202.337 374.709 L
202.43 374.726 L
202.523 374.742 L
202.616 374.759 L
202.708 374.776 L
202.802 374.792 L
202.895 374.809 L
202.988 374.826 L
203.081 374.842 L
203.174 374.859 L
203.267 374.875 L
203.359 374.892 L
203.453 374.908 L
203.546 374.925 L
203.639 374.941 L
203.732 374.957 L
203.824 374.974 L
203.918 374.99 L
204.01 375.006 L
204.104 375.023 L
204.197 375.039 L
204.29 375.055 L
204.383 375.071 L
204.476 375.087 L
204.569 375.103 L
204.661 375.119 L
204.755 375.135 L
204.848 375.151 L
204.941 375.167 L
205.034 375.183 L
205.126 375.199 L
205.22 375.215 L
205.312 375.231 L
205.406 375.247 L
205.499 375.263 L
205.592 375.278 L
205.685 375.294 L
205.777 375.31 L
205.871 375.326 L
205.964 375.341 L
206.057 375.357 L
206.15 375.373 L
206.242 375.388 L
206.336 375.404 L
206.428 375.419 L
206.522 375.435 L
206.615 375.45 L
206.708 375.466 L
206.801 375.481 L
206.893 375.496 L
206.987 375.512 L
207.079 375.527 L
207.173 375.542 L
207.266 375.558 L
207.358 375.573 L
207.452 375.588 L
207.544 375.603 L
207.638 375.619 L
207.731 375.634 L
207.824 375.649 L
207.917 375.664 L
208.009 375.679 L
208.103 375.694 L
208.196 375.709 L
208.288 375.724 L
208.382 375.739 L
208.475 375.754 L
208.568 375.769 L
208.661 375.784 L
208.754 375.799 L
208.847 375.813 L
208.939 375.828 L
209.033 375.843 L
209.126 375.858 L
209.219 375.872 L
209.312 375.887 L
209.404 375.902 L
209.497 375.916 L
209.591 375.931 L
209.684 375.946 L
209.777 375.96 L
209.87 375.975 L
209.963 375.989 L
210.056 376.004 L
210.148 376.018 L
210.242 376.033 L
210.335 376.047 L
210.428 376.061 L
210.521 376.076 L
210.613 376.09 L
210.707 376.104 L
210.799 376.119 L
210.893 376.133 L
210.986 376.147 L
211.079 376.161 L
211.172 376.175 L
211.264 376.19 L
211.358 376.204 L
211.451 376.218 L
211.544 376.232 L
211.637 376.246 L
211.729 376.26 L
211.823 376.274 L
211.915 376.288 L
212.009 376.302 L
212.102 376.316 L
212.194 376.33 L
212.288 376.344 L
212.381 376.357 L
212.474 376.371 L
212.566 376.385 L
212.659 376.399 L
212.753 376.413 L
212.846 376.426 L
212.939 376.44 L
213.032 376.454 L
213.124 376.467 L
213.217 376.481 L
213.311 376.494 L
213.404 376.508 L
213.497 376.522 L
213.589 376.535 L
213.682 376.549 L
213.776 376.562 L
213.868 376.576 L
213.962 376.589 L
214.055 376.602 L
214.148 376.616 L
214.241 376.629 L
214.333 376.642 L
214.427 376.656 L
214.52 376.669 L
214.613 376.682 L
214.706 376.695 L
214.798 376.709 L
214.892 376.722 L
214.984 376.735 L
215.078 376.748 L
215.171 376.761 L
215.264 376.774 L
215.357 376.788 L
215.449 376.801 L
215.543 376.814 L
215.636 376.827 L
215.729 376.84 L
215.822 376.853 L
215.914 376.866 L
216.008 376.878 L
216.101 376.891 L
216.194 376.904 L
216.287 376.917 L
216.38 376.93 L
216.473 376.943 L
216.566 376.955 L
216.659 376.968 L
216.752 376.981 L
216.844 376.993 L
216.938 377.006 L
217.031 377.019 L
217.124 377.032 L
217.217 377.044 L
217.31 377.057 L
217.403 377.069 L
217.496 377.082 L
217.589 377.094 L
217.682 377.107 L
217.775 377.119 L
217.868 377.132 L
217.961 377.144 L
218.053 377.157 L
218.147 377.169 L
218.24 377.181 L
218.333 377.194 L
218.426 377.206 L
218.518 377.218 L
218.612 377.231 L
218.704 377.243 L
218.798 377.255 L
218.891 377.267 L
218.984 377.279 L
219.077 377.292 L
219.169 377.304 L
219.263 377.316 L
219.356 377.328 L
219.449 377.34 L
219.542 377.352 L
219.634 377.364 L
219.728 377.376 L
219.821 377.388 L
219.913 377.4 L
220.007 377.412 L
220.099 377.424 L
220.193 377.436 L
220.286 377.448 L
220.378 377.46 L
220.471 377.472 L
220.564 377.483 L
220.658 377.495 L
220.751 377.507 L
220.843 377.519 L
220.936 377.531 L
221.03 377.542 L
221.123 377.554 L
221.216 377.566 L
221.309 377.577 L
221.402 377.589 L
221.495 377.601 L
221.588 377.612 L
221.681 377.624 L
221.773 377.635 L
221.867 377.647 L
221.96 377.658 L
222.053 377.67 L
222.146 377.681 L
222.238 377.693 L
222.332 377.704 L
222.424 377.715 L
222.518 377.727 L
222.611 377.738 L
222.703 377.75 L
222.797 377.761 L
222.889 377.772 L
222.982 377.783 L
223.076 377.795 L
223.169 377.806 L
223.262 377.817 L
223.355 377.828 L
223.448 377.84 L
223.541 377.851 L
223.634 377.862 L
223.727 377.873 L
223.82 377.884 L
223.913 377.895 L
224.006 377.906 L
224.099 377.917 L
224.192 377.928 L
224.285 377.939 L
224.378 377.95 L
224.471 377.961 L
224.564 377.972 L
224.657 377.983 L
224.749 377.994 L
224.842 378.005 L
224.936 378.016 L
225.029 378.027 L
225.122 378.038 L
225.215 378.048 L
225.308 378.059 L
225.401 378.07 L
225.493 378.081 L
225.587 378.091 L
225.68 378.102 L
225.773 378.113 L
225.866 378.123 L
225.958 378.134 L
226.052 378.145 L
226.145 378.155 L
226.238 378.166 L
226.331 378.176 L
226.423 378.187 L
226.517 378.198 L
226.609 378.208 L
226.702 378.219 L
226.796 378.229 L
226.888 378.24 L
226.982 378.25 L
227.074 378.26 L
227.167 378.271 L
227.26 378.281 L
227.353 378.292 L
227.447 378.302 L
227.54 378.312 L
227.633 378.323 L
227.726 378.333 L
227.819 378.343 L
227.912 378.353 L
228.005 378.364 L
228.098 378.374 L
228.191 378.384 L
228.284 378.394 L
228.377 378.405 L
228.469 378.415 L
228.562 378.425 L
228.656 378.435 L
228.749 378.445 L
228.842 378.455 L
228.934 378.465 L
229.027 378.475 L
229.121 378.485 L
229.214 378.495 L
229.307 378.505 L
229.399 378.515 L
229.492 378.525 L
229.586 378.535 L
229.679 378.545 L
229.772 378.555 L
229.865 378.565 L
229.958 378.575 L
230.051 378.584 L
230.144 378.594 L
230.237 378.604 L
230.329 378.614 L
230.423 378.624 L
230.516 378.633 L
230.609 378.643 L
230.702 378.653 L
230.794 378.663 L
230.888 378.672 L
230.981 378.682 L
231.074 378.692 L
231.167 378.701 L
231.259 378.711 L
231.353 378.72 L
231.446 378.73 L
231.538 378.74 L
231.632 378.749 L
231.725 378.759 L
231.818 378.768 L
231.911 378.778 L
232.004 378.787 L
232.097 378.797 L
232.19 378.806 L
232.283 378.816 L
232.376 378.825 L
232.469 378.834 L
232.562 378.844 L
232.655 378.853 L
232.747 378.862 L
232.841 378.872 L
232.934 378.881 L
233.027 378.89 L
233.12 378.9 L
233.212 378.909 L
233.306 378.918 L
233.398 378.927 L
233.492 378.937 L
233.585 378.946 L
233.677 378.955 L
233.771 378.964 L
233.863 378.973 L
233.956 378.982 L
234.049 378.991 L
234.143 379.001 L
234.236 379.01 L
234.329 379.019 L
234.422 379.028 L
234.514 379.037 L
234.608 379.046 L
234.701 379.055 L
234.794 379.064 L
234.887 379.073 L
234.979 379.082 L
235.073 379.091 L
235.166 379.1 L
235.258 379.109 L
235.352 379.117 L
235.444 379.126 L
235.538 379.135 L
235.631 379.144 L
235.723 379.153 L
235.816 379.162 L
235.909 379.17 L
236.003 379.179 L
236.096 379.188 L
236.189 379.197 L
236.282 379.205 L
236.375 379.214 L
236.468 379.223 L
236.561 379.232 L
236.654 379.24 L
236.747 379.249 L
236.84 379.257 L
236.933 379.266 L
237.026 379.275 L
237.118 379.283 L
237.212 379.292 L
237.305 379.3 L
237.398 379.309 L
237.491 379.318 L
237.583 379.326 L
237.677 379.334 L
237.77 379.343 L
237.863 379.351 L
237.956 379.36 L
238.048 379.368 L
238.142 379.377 L
238.235 379.385 L
238.328 379.394 L
238.421 379.402 L
238.514 379.41 L
238.607 379.419 L
238.7 379.427 L
238.793 379.435 L
238.886 379.444 L
238.979 379.452 L
239.072 379.46 L
239.165 379.468 L
239.258 379.477 L
239.351 379.485 L
239.444 379.493 L
239.536 379.501 L
239.63 379.51 L
239.723 379.518 L
239.816 379.526 L
239.909 379.534 L
240.001 379.542 L
240.094 379.55 L
240.188 379.558 L
240.281 379.566 L
240.374 379.574 L
240.466 379.582 L
240.56 379.591 L
240.653 379.599 L
240.746 379.607 L
240.839 379.615 L
240.932 379.623 L
241.025 379.63 L
241.118 379.638 L
241.211 379.646 L
241.303 379.654 L
241.397 379.662 L
241.49 379.67 L
241.583 379.678 L
241.676 379.686 L
241.768 379.694 L
241.862 379.702 L
241.954 379.709 L
242.048 379.717 L
242.141 379.725 L
242.233 379.733 L
242.327 379.741 L
242.419 379.748 L
242.512 379.756 L
242.605 379.764 L
242.699 379.771 L
242.792 379.779 L
242.885 379.787 L
242.978 379.795 L
243.071 379.802 L
243.164 379.81 L
243.257 379.818 L
243.35 379.825 L
243.443 379.833 L
243.536 379.84 L
243.629 379.848 L
243.722 379.855 L
243.814 379.863 L
243.908 379.871 L
244.001 379.878 L
244.094 379.886 L
244.187 379.893 L
244.279 379.901 L
244.372 379.908 L
244.466 379.915 L
244.559 379.923 L
244.652 379.93 L
244.745 379.938 L
244.838 379.945 L
244.931 379.953 L
245.024 379.96 L
245.117 379.967 L
245.21 379.975 L
245.303 379.982 L
245.396 379.989 L
245.489 379.997 L
245.582 380.004 L
245.674 380.011 L
245.768 380.018 L
245.861 380.026 L
245.954 380.033 L
246.047 380.04 L
246.139 380.047 L
246.233 380.055 L
246.326 380.062 L
246.419 380.069 L
246.512 380.076 L
246.604 380.083 L
246.698 380.09 L
246.79 380.098 L
246.884 380.105 L
246.977 380.112 L
247.07 380.119 L
247.163 380.126 L
247.256 380.133 L
247.349 380.14 L
247.442 380.147 L
247.535 380.154 L
247.628 380.161 L
247.721 380.168 L
247.814 380.175 L
247.907 380.182 L
247.999 380.189 L
248.092 380.196 L
248.186 380.203 L
248.279 380.21 L
248.372 380.217 L
248.464 380.224 L
248.557 380.231 L
248.651 380.238 L
248.743 380.244 L
248.837 380.251 L
248.929 380.258 L
249.022 380.265 L
249.116 380.272 L
249.209 380.278 L
249.302 380.285 L
249.395 380.292 L
249.488 380.299 L
249.581 380.306 L
249.674 380.312 L
249.767 380.319 L
249.859 380.326 L
249.953 380.333 L
250.046 380.339 L
250.139 380.346 L
250.232 380.353 L
250.324 380.359 L
250.418 380.366 L
250.511 380.372 L
250.604 380.379 L
250.697 380.386 L
250.789 380.392 L
250.883 380.399 L
250.976 380.405 L
251.068 380.412 L
251.161 380.419 L
251.255 380.425 L
251.348 380.432 L
251.441 380.438 L
251.534 380.445 L
251.627 380.451 L
251.72 380.458 L
251.813 380.464 L
251.906 380.471 L
251.999 380.477 L
252.092 380.483 L
252.185 380.49 L
252.278 380.496 L
252.371 380.503 L
252.464 380.509 L
252.557 380.515 L
252.65 380.522 L
252.743 380.528 L
252.836 380.535 L
252.928 380.541 L
253.022 380.547 L
253.115 380.553 L
253.208 380.56 L
253.301 380.566 L
253.394 380.572 L
253.487 380.579 L
253.579 380.585 L
253.673 380.591 L
253.766 380.597 L
253.859 380.604 L
253.952 380.61 L
254.044 380.616 L
254.138 380.622 L
254.231 380.628 L
254.324 380.635 L
254.417 380.641 L
254.509 380.647 L
254.603 380.653 L
254.696 380.659 L
254.788 380.665 L
254.882 380.671 L
254.974 380.677 L
255.068 380.683 L
255.161 380.69 L
255.253 380.696 L
255.346 380.702 L
255.439 380.708 L
255.533 380.714 L
255.626 380.72 L
255.719 380.726 L
255.812 380.732 L
255.905 380.738 L
255.998 380.744 L
256.091 380.749 L
256.184 380.755 L
256.277 380.761 L
256.37 380.767 L
256.463 380.773 L
256.556 380.779 L
256.648 380.785 L
256.742 380.791 L
256.835 380.797 L
256.927 380.803 L
257.021 380.809 L
257.113 380.814 L
257.207 380.82 L
257.299 380.826 L
257.393 380.832 L
257.486 380.838 L
257.578 380.843 L
257.672 380.849 L
257.764 380.855 L
257.858 380.861 L
257.951 380.866 L
258.044 380.872 L
258.137 380.878 L
258.229 380.884 L
258.323 380.889 L
258.416 380.895 L
258.509 380.901 L
258.602 380.906 L
258.694 380.912 L
258.788 380.918 L
258.881 380.923 L
258.974 380.929 L
259.066 380.935 L
259.159 380.94 L
259.253 380.946 L
259.346 380.951 L
259.439 380.957 L
259.531 380.963 L
259.624 380.968 L
259.717 380.974 L
259.811 380.979 L
259.904 380.985 L
259.996 380.99 L
260.09 380.996 L
260.183 381.001 L
260.276 381.007 L
260.368 381.012 L
260.462 381.018 L
260.555 381.023 L
260.648 381.029 L
260.741 381.034 L
260.833 381.04 L
260.927 381.045 L
261.02 381.05 L
261.113 381.056 L
261.206 381.061 L
261.298 381.067 L
261.392 381.072 L
261.484 381.077 L
261.578 381.083 L
261.671 381.088 L
261.763 381.093 L
261.857 381.099 L
261.95 381.104 L
262.043 381.109 L
262.135 381.115 L
262.229 381.12 L
262.322 381.125 L
262.415 381.131 L
262.508 381.136 L
262.601 381.141 L
262.694 381.146 L
262.786 381.152 L
262.88 381.157 L
262.973 381.162 L
263.066 381.167 L
263.159 381.172 L
263.252 381.178 L
263.345 381.183 L
263.438 381.188 L
263.531 381.193 L
263.624 381.198 L
263.716 381.203 L
263.81 381.209 L
263.902 381.214 L
263.996 381.219 L
264.089 381.224 L
264.182 381.229 L
264.275 381.234 L
264.368 381.239 L
264.461 381.244 L
264.553 381.249 L
264.647 381.254 L
264.74 381.259 L
264.833 381.264 L
264.926 381.269 L
265.018 381.274 L
265.112 381.279 L
265.204 381.284 L
265.298 381.289 L
265.391 381.294 L
265.483 381.299 L
265.577 381.304 L
265.669 381.309 L
265.763 381.314 L
265.855 381.319 L
265.948 381.324 L
266.042 381.329 L
266.134 381.334 L
266.228 381.339 L
266.32 381.344 L
266.414 381.349 L
266.507 381.353 L
266.6 381.358 L
266.693 381.363 L
266.786 381.368 L
266.879 381.373 L
266.972 381.378 L
267.065 381.383 L
267.158 381.387 L
267.251 381.392 L
267.344 381.397 L
267.437 381.402 L
267.53 381.406 L
267.622 381.411 L
267.716 381.416 L
267.809 381.421 L
267.902 381.425 L
267.995 381.43 L
268.087 381.435 L
268.181 381.44 L
268.273 381.444 L
268.367 381.449 L
268.46 381.454 L
268.552 381.458 L
268.646 381.463 L
268.739 381.468 L
268.832 381.472 L
268.924 381.477 L
269.018 381.482 L
269.111 381.486 L
269.204 381.491 L
269.297 381.496 L
269.389 381.5 L
269.483 381.505 L
269.576 381.509 L
269.669 381.514 L
269.762 381.519 L
269.854 381.523 L
269.948 381.528 L
270.041 381.532 L
270.134 381.537 L
270.227 381.541 L
270.319 381.546 L
270.413 381.55 L
270.505 381.555 L
270.599 381.559 L
270.691 381.564 L
270.785 381.568 L
270.878 381.573 L
270.971 381.577 L
271.064 381.582 L
271.157 381.586 L
271.25 381.591 L
271.342 381.595 L
271.436 381.6 L
271.529 381.604 L
271.622 381.608 L
271.715 381.613 L
271.807 381.617 L
271.901 381.622 L
271.993 381.626 L
272.087 381.63 L
272.18 381.635 L
272.272 381.639 L
272.366 381.643 L
272.458 381.648 L
272.552 381.652 L
272.645 381.656 L
272.737 381.661 L
272.831 381.665 L
272.924 381.669 L
273.017 381.674 L
273.109 381.678 L
273.203 381.682 L
273.296 381.687 L
273.389 381.691 L
273.482 381.695 L
273.574 381.699 L
273.668 381.704 L
273.761 381.708 L
273.854 381.712 L
273.947 381.716 L
274.039 381.72 L
274.133 381.725 L
274.226 381.729 L
274.319 381.733 L
274.411 381.737 L
274.504 381.741 L
274.598 381.746 L
274.691 381.75 L
274.784 381.754 L
274.876 381.758 L
274.97 381.762 L
275.062 381.766 L
275.156 381.77 L
275.249 381.775 L
275.342 381.779 L
275.435 381.783 L
275.528 381.787 L
275.621 381.791 L
275.714 381.795 L
275.807 381.799 L
275.9 381.803 L
275.993 381.807 L
276.086 381.811 L
276.178 381.815 L
276.272 381.819 L
276.365 381.823 L
276.458 381.827 L
276.551 381.831 L
276.643 381.835 L
276.737 381.839 L
276.829 381.844 L
276.923 381.847 L
277.016 381.851 L
277.108 381.855 L
277.202 381.859 L
277.294 381.863 L
277.388 381.867 L
277.481 381.871 L
277.574 381.875 L
277.667 381.879 L
277.76 381.883 L
277.853 381.887 L
277.946 381.891 L
278.039 381.895 L
278.132 381.899 L
278.224 381.902 L
278.318 381.906 L
278.411 381.91 L
278.504 381.914 L
278.596 381.918 L
278.69 381.922 L
278.783 381.926 L
278.876 381.93 L
278.969 381.933 L
279.061 381.937 L
279.154 381.941 L
279.247 381.945 L
279.341 381.949 L
279.434 381.952 L
279.527 381.956 L
279.62 381.96 L
279.713 381.964 L
279.806 381.967 L
279.898 381.971 L
279.992 381.975 L
280.085 381.979 L
280.178 381.983 L
280.271 381.986 L
280.363 381.99 L
280.457 381.994 L
280.549 381.997 L
280.643 382.001 L
280.736 382.005 L
280.828 382.009 L
280.922 382.012 L
281.014 382.016 L
281.108 382.02 L
281.201 382.023 L
281.293 382.027 L
281.387 382.031 L
281.48 382.034 L
281.573 382.038 L
281.665 382.042 L
281.759 382.045 L
281.852 382.049 L
281.945 382.052 L
282.038 382.056 L
282.131 382.06 L
282.224 382.063 L
282.317 382.067 L
282.41 382.07 L
282.503 382.074 L
282.596 382.078 L
282.689 382.081 L
282.782 382.085 L
282.875 382.088 L
282.967 382.092 L
283.061 382.095 L
283.154 382.099 L
283.247 382.102 L
283.34 382.106 L
283.432 382.109 L
283.526 382.113 L
283.618 382.116 L
283.712 382.12 L
283.805 382.123 L
283.898 382.127 L
283.991 382.13 L
284.083 382.134 L
284.177 382.137 L
284.27 382.141 L
284.363 382.144 L
284.456 382.148 L
284.549 382.151 L
284.642 382.155 L
284.734 382.158 L
284.828 382.161 L
284.921 382.165 L
285.013 382.168 L
285.107 382.172 L
285.199 382.175 L
285.293 382.178 L
285.385 382.182 L
285.479 382.185 L
285.572 382.189 L
285.664 382.192 L
285.758 382.195 L
285.85 382.199 L
285.944 382.202 L
286.037 382.205 L
286.13 382.209 L
286.223 382.212 L
286.316 382.215 L
286.409 382.219 L
286.502 382.222 L
286.595 382.225 L
286.688 382.229 L
286.781 382.232 L
286.874 382.235 L
286.967 382.238 L
287.06 382.242 L
287.152 382.245 L
287.246 382.248 L
287.339 382.251 L
287.432 382.255 L
287.525 382.258 L
287.617 382.261 L
287.711 382.264 L
287.803 382.268 L
287.897 382.271 L
287.99 382.274 L
288.083 382.277 L
288.176 382.281 L
288.269 382.284 L
288.362 382.287 L
288.454 382.29 L
288.548 382.293 L
288.641 382.297 L
288.734 382.3 L
288.827 382.303 L
288.919 382.306 L
289.013 382.309 L
289.106 382.312 L
289.199 382.315 L
289.292 382.319 L
289.384 382.322 L
289.478 382.325 L
289.571 382.328 L
289.664 382.331 L
289.757 382.334 L
289.849 382.337 L
289.943 382.34 L
290.036 382.344 L
290.129 382.347 L
290.221 382.35 L
290.315 382.353 L
290.408 382.356 L
290.501 382.359 L
290.594 382.362 L
290.687 382.365 L
290.78 382.368 L
290.872 382.371 L
290.966 382.374 L
291.059 382.377 L
291.152 382.38 L
291.245 382.383 L
291.338 382.386 L
291.431 382.389 L
291.523 382.392 L
291.617 382.395 L
291.71 382.398 L
291.802 382.401 L
291.896 382.404 L
291.988 382.407 L
292.082 382.41 L
292.174 382.413 L
292.268 382.416 L
292.361 382.419 L
292.454 382.422 L
292.547 382.425 L
292.639 382.428 L
292.733 382.431 L
292.826 382.434 L
292.919 382.437 L
293.012 382.44 L
293.104 382.443 L
293.198 382.446 L
293.291 382.448 L
293.384 382.451 L
293.477 382.454 L
293.569 382.457 L
293.663 382.46 L
293.756 382.463 L
293.849 382.466 L
293.941 382.469 L
294.034 382.471 L
294.128 382.474 L
294.221 382.477 L
294.314 382.48 L
294.406 382.483 L
294.5 382.486 L
294.593 382.489 L
294.686 382.491 L
294.779 382.494 L
294.872 382.497 L
294.965 382.5 L
295.058 382.503 L
295.151 382.505 L
295.243 382.508 L
295.337 382.511 L
295.43 382.514 L
295.523 382.517 L
295.616 382.519 L
295.708 382.522 L
295.802 382.525 L
295.895 382.528 L
295.988 382.53 L
296.081 382.533 L
296.173 382.536 L
296.267 382.539 L
296.359 382.541 L
296.453 382.544 L
296.546 382.547 L
296.638 382.55 L
296.732 382.552 L
296.825 382.555 L
296.918 382.558 L
297.011 382.561 L
297.104 382.563 L
297.197 382.566 L
297.29 382.569 L
297.383 382.571 L
297.476 382.574 L
297.569 382.577 L
297.661 382.579 L
297.755 382.582 L
297.848 382.585 L
297.941 382.587 L
298.034 382.59 L
298.127 382.593 L
298.22 382.595 L
298.312 382.598 L
298.406 382.601 L
298.499 382.603 L
298.591 382.606 L
298.685 382.608 L
298.777 382.611 L
298.871 382.614 L
298.964 382.616 L
299.057 382.619 L
299.15 382.621 L
299.243 382.624 L
299.336 382.627 L
299.428 382.629 L
299.522 382.632 L
299.615 382.634 L
299.708 382.637 L
299.801 382.639 L
299.893 382.642 L
299.987 382.645 L
300.079 382.647 L
300.173 382.65 L
300.266 382.652 L
300.358 382.655 L
300.452 382.657 L
300.544 382.66 L
300.638 382.662 L
300.73 382.665 L
300.823 382.667 L
300.917 382.67 L
301.01 382.672 L
301.103 382.675 L
301.195 382.677 L
301.289 382.68 L
301.382 382.682 L
301.475 382.685 L
301.568 382.687 L
301.661 382.69 L
301.754 382.692 L
301.847 382.695 L
301.94 382.697 L
302.033 382.7 L
302.126 382.702 L
302.219 382.705 L
302.312 382.707 L
302.405 382.709 L
302.497 382.712 L
302.591 382.714 L
302.684 382.717 L
302.777 382.719 L
302.87 382.721 L
302.962 382.724 L
303.056 382.726 L
303.149 382.729 L
303.242 382.731 L
303.335 382.734 L
303.428 382.736 L
303.521 382.738 L
303.614 382.741 L
303.707 382.743 L
303.799 382.745 L
303.893 382.748 L
303.986 382.75 L
304.079 382.753 L
304.172 382.755 L
304.264 382.757 L
304.358 382.76 L
304.451 382.762 L
304.544 382.764 L
304.637 382.767 L
304.729 382.769 L
304.823 382.771 L
304.916 382.774 L
305.009 382.776 L
305.102 382.778 L
305.194 382.78 L
305.288 382.783 L
305.38 382.785 L
305.474 382.787 L
305.567 382.79 L
305.66 382.792 L
305.753 382.794 L
305.846 382.797 L
305.939 382.799 L
306.032 382.801 L
306.125 382.803 L
306.217 382.806 L
306.311 382.808 L
306.404 382.81 L
306.497 382.812 L
306.59 382.815 L
306.682 382.817 L
306.776 382.819 L
306.868 382.821 L
306.962 382.824 L
307.055 382.826 L
307.147 382.828 L
307.241 382.83 L
307.333 382.833 L
307.427 382.835 L
307.52 382.837 L
307.613 382.839 L
307.706 382.841 L
307.799 382.844 L
307.892 382.846 L
307.984 382.848 L
308.078 382.85 L
308.171 382.852 L
308.264 382.854 L
308.357 382.857 L
308.449 382.859 L
308.543 382.861 L
308.636 382.863 L
308.729 382.865 L
308.822 382.867 L
308.914 382.87 L
309.008 382.872 L
309.101 382.874 L
309.194 382.876 L
309.286 382.878 L
309.379 382.88 L
309.473 382.882 L
309.566 382.885 L
309.659 382.887 L
309.751 382.889 L
309.845 382.891 L
309.938 382.893 L
310.031 382.895 L
310.124 382.897 L
310.217 382.899 L
310.31 382.901 L
310.403 382.904 L
310.496 382.906 L
310.589 382.908 L
310.682 382.91 L
310.775 382.912 L
310.868 382.914 L
310.961 382.916 L
311.053 382.918 L
311.147 382.92 L
311.24 382.922 L
311.333 382.924 L
311.426 382.926 L
311.518 382.928 L
311.612 382.93 L
311.704 382.932 L
311.798 382.934 L
311.891 382.936 L
311.984 382.938 L
312.077 382.94 L
312.169 382.942 L
312.263 382.945 L
312.356 382.947 L
312.449 382.949 L
312.542 382.951 L
312.635 382.953 L
312.728 382.954 L
312.821 382.957 L
312.914 382.958 L
313.007 382.961 L
313.099 382.962 L
313.193 382.964 L
313.286 382.966 L
313.379 382.968 L
313.471 382.97 L
313.565 382.972 L
313.658 382.974 L
313.751 382.976 L
313.844 382.978 L
313.936 382.98 L
314.03 382.982 L
314.123 382.984 L
314.216 382.986 L
314.309 382.988 L
314.401 382.99 L
314.495 382.992 L
314.588 382.994 L
314.681 382.996 L
314.774 382.998 L
314.866 383 L
314.96 383.001 L
315.053 383.003 L
315.146 383.005 L
315.239 383.007 L
315.331 383.009 L
315.424 383.011 L
315.518 383.013 L
315.611 383.015 L
315.704 383.017 L
315.796 383.018 L
315.889 383.02 L
315.983 383.022 L
316.076 383.024 L
316.169 383.026 L
316.262 383.028 L
316.355 383.03 L
316.448 383.032 L
316.541 383.033 L
316.634 383.035 L
316.727 383.037 L
316.82 383.039 L
316.913 383.041 L
317.006 383.043 L
317.099 383.044 L
317.191 383.046 L
317.285 383.048 L
317.378 383.05 L
317.471 383.052 L
317.564 383.054 L
317.656 383.055 L
317.75 383.057 L
317.842 383.059 L
317.936 383.061 L
318.029 383.063 L
318.122 383.065 L
318.215 383.066 L
318.307 383.068 L
318.401 383.07 L
318.494 383.072 L
318.587 383.073 L
318.68 383.075 L
318.773 383.077 L
318.866 383.079 L
318.959 383.081 L
319.052 383.082 L
319.145 383.084 L
319.238 383.086 L
319.331 383.088 L
319.424 383.089 L
319.517 383.091 L
319.609 383.093 L
319.703 383.095 L
319.796 383.096 L
319.889 383.098 L
319.982 383.1 L
320.074 383.102 L
320.168 383.103 L
320.26 383.105 L
320.354 383.107 L
320.447 383.108 L
320.54 383.11 L
320.633 383.112 L
320.726 383.114 L
320.819 383.115 L
320.911 383.117 L
321.005 383.119 L
321.098 383.12 L
321.191 383.122 L
321.284 383.124 L
321.376 383.125 L
321.47 383.127 L
321.562 383.129 L
321.656 383.131 L
321.749 383.132 L
321.841 383.134 L
321.935 383.136 L
322.027 383.137 L
322.121 383.139 L
322.214 383.141 L
322.306 383.142 L
322.4 383.144 L
322.492 383.146 L
322.586 383.147 L
322.679 383.149 L
322.772 383.15 L
322.865 383.152 L
322.958 383.154 L
323.051 383.155 L
323.144 383.157 L
323.237 383.159 L
323.329 383.16 L
323.423 383.162 L
323.516 383.164 L
323.609 383.165 L
323.702 383.167 L
323.794 383.168 L
323.888 383.17 L
323.981 383.172 L
324.074 383.173 L
324.167 383.175 L
324.259 383.176 L
324.353 383.178 L
324.445 383.18 L
324.539 383.181 L
324.632 383.183 L
324.725 383.184 L
324.818 383.186 L
324.911 383.188 L
325.004 383.189 L
325.096 383.191 L
325.19 383.192 L
325.283 383.194 L
325.376 383.195 L
325.469 383.197 L
325.561 383.198 L
325.655 383.2 L
325.747 383.202 L
325.841 383.203 L
325.934 383.205 L
326.026 383.206 L
326.12 383.208 L
326.213 383.209 L
326.306 383.211 L
326.399 383.212 L
326.491 383.214 L
326.585 383.215 L
326.677 383.217 L
326.771 383.219 L
326.864 383.22 L
326.957 383.222 L
327.049 383.223 L
327.143 383.225 L
327.236 383.226 L
327.329 383.228 L
327.422 383.229 L
327.515 383.231 L
327.608 383.232 L
327.701 383.234 L
327.794 383.235 L
327.887 383.237 L
327.979 383.238 L
328.073 383.24 L
328.166 383.241 L
328.259 383.242 L
328.352 383.244 L
328.445 383.245 L
328.538 383.247 L
328.631 383.248 L
328.724 383.25 L
328.816 383.251 L
328.909 383.253 L
329.003 383.254 L
329.096 383.256 L
329.189 383.257 L
329.281 383.259 L
329.375 383.26 L
329.468 383.262 L
329.561 383.263 L
329.654 383.264 L
329.746 383.266 L
329.84 383.267 L
329.933 383.269 L
330.026 383.27 L
330.119 383.272 L
330.211 383.273 L
330.305 383.274 L
330.398 383.276 L
330.491 383.277 L
330.584 383.279 L
330.676 383.28 L
330.77 383.282 L
330.863 383.283 L
330.956 383.284 L
331.049 383.286 L
331.142 383.287 L
331.234 383.289 L
331.328 383.29 L
331.421 383.291 L
331.514 383.293 L
331.607 383.294 L
331.7 383.295 L
331.793 383.297 L
331.886 383.298 L
331.979 383.3 L
332.072 383.301 L
332.164 383.302 L
332.258 383.304 L
332.351 383.305 L
332.444 383.307 L
332.536 383.308 L
332.63 383.309 L
332.723 383.311 L
332.816 383.312 L
332.909 383.313 L
333.001 383.315 L
333.094 383.316 L
333.188 383.317 L
333.281 383.319 L
333.374 383.32 L
333.466 383.321 L
333.56 383.323 L
333.653 383.324 L
333.746 383.325 L
333.839 383.327 L
333.932 383.328 L
334.025 383.329 L
334.118 383.331 L
334.211 383.332 L
334.304 383.333 L
334.396 383.335 L
334.49 383.336 L
334.583 383.337 L
334.676 383.339 L
334.769 383.34 L
334.862 383.341 L
334.954 383.342 L
335.048 383.344 L
335.141 383.345 L
335.234 383.346 L
335.326 383.348 L
335.419 383.349 L
335.513 383.35 L
335.605 383.352 L
335.699 383.353 L
335.792 383.354 L
335.885 383.355 L
335.978 383.357 L
336.071 383.358 L
336.164 383.359 L
336.257 383.36 L
336.35 383.362 L
336.443 383.363 L
336.536 383.364 L
336.629 383.365 L
336.721 383.367 L
336.815 383.368 L
336.908 383.369 L
337.001 383.37 L
337.094 383.372 L
337.186 383.373 L
337.28 383.374 L
337.372 383.375 L
337.466 383.377 L
337.559 383.378 L
337.652 383.379 L
337.745 383.38 L
337.837 383.382 L
337.931 383.383 L
338.023 383.384 L
338.117 383.385 L
338.21 383.386 L
338.303 383.388 L
338.396 383.389 L
338.489 383.39 L
338.582 383.391 L
338.674 383.393 L
338.768 383.394 L
338.861 383.395 L
338.954 383.396 L
339.047 383.397 L
339.139 383.399 L
339.233 383.4 L
339.326 383.401 L
339.419 383.402 L
339.512 383.403 L
339.604 383.405 L
339.698 383.406 L
339.791 383.407 L
339.884 383.408 L
339.977 383.409 L
340.07 383.411 L
340.163 383.412 L
340.256 383.413 L
340.349 383.414 L
340.441 383.415 L
340.535 383.416 L
340.628 383.418 L
340.721 383.419 L
340.814 383.42 L
340.906 383.421 L
341 383.422 L
341.093 383.423 L
341.186 383.424 L
341.279 383.426 L
341.371 383.427 L
341.465 383.428 L
341.557 383.429 L
341.651 383.43 L
341.744 383.431 L
341.836 383.432 L
341.93 383.434 L
342.023 383.435 L
342.116 383.436 L
342.209 383.437 L
342.302 383.438 L
342.395 383.439 L
342.488 383.44 L
342.581 383.442 L
342.674 383.443 L
342.767 383.444 L
342.859 383.445 L
342.953 383.446 L
343.046 383.447 L
343.139 383.448 L
343.232 383.449 L
343.324 383.45 L
343.418 383.452 L
343.511 383.453 L
343.604 383.454 L
343.697 383.455 L
343.789 383.456 L
343.883 383.457 L
343.976 383.458 L
344.069 383.459 L
344.161 383.46 L
344.255 383.461 L
344.348 383.462 L
344.441 383.464 L
344.534 383.465 L
344.626 383.466 L
344.72 383.467 L
344.812 383.468 L
344.906 383.469 L
344.999 383.47 L
345.091 383.471 L
345.185 383.472 L
345.278 383.473 L
345.371 383.474 L
345.464 383.475 L
345.556 383.476 L
345.65 383.477 L
345.742 383.479 L
345.836 383.48 L
345.929 383.481 L
346.021 383.482 L
346.115 383.483 L
346.208 383.484 L
346.301 383.485 L
346.394 383.486 L
346.487 383.487 L
346.58 383.488 L
346.673 383.489 L
346.766 383.49 L
346.859 383.491 L
346.952 383.492 L
347.044 383.493 L
347.138 383.494 L
347.231 383.495 L
347.324 383.496 L
347.417 383.497 L
347.51 383.498 L
347.603 383.499 L
347.696 383.5 L
347.789 383.501 L
347.882 383.502 L
347.974 383.503 L
348.068 383.504 L
348.161 383.505 L
348.254 383.506 L
348.346 383.507 L
348.44 383.508 L
348.533 383.509 L
348.626 383.51 L
348.719 383.511 L
348.812 383.512 L
348.905 383.513 L
348.998 383.514 L
349.091 383.515 L
349.184 383.516 L
349.276 383.517 L
349.37 383.518 L
349.463 383.519 L
349.556 383.52 L
349.649 383.521 L
349.742 383.522 L
349.835 383.523 L
349.928 383.524 L
350.021 383.525 L
350.114 383.526 L
350.206 383.527 L
350.299 383.528 L
350.393 383.529 L
350.486 383.53 L
350.579 383.531 L
350.672 383.532 L
350.765 383.533 L
350.858 383.534 L
350.951 383.535 L
351.044 383.536 L
351.137 383.537 L
351.23 383.538 L
351.323 383.539 L
351.416 383.54 L
351.509 383.54 L
351.602 383.541 L
351.695 383.542 L
351.788 383.543 L
351.881 383.544 L
351.974 383.545 L
352.066 383.546 L
352.159 383.547 L
352.253 383.548 L
352.346 383.549 L
352.439 383.55 L
352.531 383.551 L
352.625 383.552 L
352.717 383.553 L
352.811 383.554 L
352.904 383.554 L
352.997 383.555 L
353.09 383.556 L
353.183 383.557 L
353.276 383.558 L
353.369 383.559 L
353.461 383.56 L
353.555 383.561 L
353.648 383.562 L
353.741 383.563 L
353.834 383.564 L
353.927 383.565 L
354.02 383.565 L
354.113 383.566 L
354.206 383.567 L
354.299 383.568 L
354.391 383.569 L
354.484 383.57 L
354.578 383.571 L
354.671 383.572 L
354.764 383.573 L
354.857 383.573 L
354.949 383.574 L
355.043 383.575 L
355.135 383.576 L
355.229 383.577 L
355.322 383.578 L
355.415 383.579 L
355.508 383.58 L
355.601 383.58 L
355.694 383.581 L
355.786 383.582 L
355.88 383.583 L
355.973 383.584 L
356.066 383.585 L
356.159 383.586 L
356.251 383.587 L
356.345 383.587 L
356.438 383.588 L
356.531 383.589 L
356.624 383.59 L
356.716 383.591 L
356.81 383.592 L
356.903 383.593 L
356.996 383.593 L
357.089 383.594 L
357.182 383.595 L
357.275 383.596 L
357.368 383.597 L
357.461 383.598 L
357.554 383.598 L
357.647 383.599 L
357.74 383.6 L
357.833 383.601 L
357.926 383.602 L
358.019 383.603 L
358.112 383.603 L
358.204 383.604 L
358.298 383.605 L
358.391 383.606 L
358.484 383.607 L
358.577 383.608 L
358.669 383.608 L
358.763 383.609 L
358.856 383.61 L
358.949 383.611 L
359.042 383.612 L
359.134 383.613 L
359.228 383.613 L
359.32 383.614 L
359.414 383.615 L
359.507 383.616 L
359.6 383.617 L
359.693 383.617 L
359.786 383.618 L
359.879 383.619 L
359.971 383.62 L
360.065 383.621 L
360.158 383.621 L
360.251 383.622 L
360.344 383.623 L
360.436 383.624 L
360.53 383.625 L
360.622 383.625 L
360.716 383.626 L
360.809 383.627 L
360.901 383.628 L
360.995 383.629 L
361.088 383.629 L
361.181 383.63 L
361.274 383.631 L
361.367 383.632 L
361.46 383.632 L
361.552 383.633 L
361.646 383.634 L
361.739 383.635 L
361.832 383.636 L
361.924 383.636 L
362.018 383.637 L
362.111 383.638 L
362.204 383.639 L
362.297 383.639 L
362.39 383.64 L
362.483 383.641 L
362.576 383.642 L
362.669 383.642 L
362.762 383.643 L
362.854 383.644 L
362.948 383.645 L
363.041 383.646 L
363.134 383.646 L
363.227 383.647 L
363.32 383.648 L
363.413 383.648 L
363.506 383.649 L
363.599 383.65 L
363.692 383.651 L
363.785 383.651 L
363.878 383.652 L
363.971 383.653 L
364.064 383.654 L
364.156 383.654 L
364.25 383.655 L
364.343 383.656 L
364.436 383.657 L
364.529 383.657 L
364.622 383.658 L
364.715 383.659 L
364.807 383.66 L
364.901 383.66 L
364.994 383.661 L
365.086 383.662 L
365.18 383.663 L
365.273 383.663 L
365.366 383.664 L
365.459 383.665 L
365.552 383.665 L
365.645 383.666 L
365.737 383.667 L
365.831 383.668 L
365.924 383.668 L
366.016 383.669 L
366.109 383.67 L
366.203 383.67 L
366.296 383.671 L
366.389 383.672 L
366.482 383.673 L
366.574 383.673 L
366.667 383.674 L
366.76 383.675 L
366.854 383.675 L
366.947 383.676 L
367.04 383.677 L
367.133 383.677 L
367.226 383.678 L
367.319 383.679 L
367.411 383.68 L
367.505 383.68 L
367.598 383.681 L
367.691 383.682 L
367.784 383.682 L
367.877 383.683 L
367.97 383.684 L
368.063 383.684 L
368.156 383.685 L
368.249 383.686 L
368.341 383.686 L
368.435 383.687 L
368.528 383.688 L
368.621 383.689 L
368.714 383.689 L
368.807 383.69 L
368.9 383.691 L
368.993 383.691 L
369.086 383.692 L
369.179 383.693 L
369.271 383.693 L
369.365 383.694 L
369.458 383.695 L
369.551 383.695 L
369.644 383.696 L
369.737 383.697 L
369.829 383.697 L
369.923 383.698 L
370.016 383.699 L
370.109 383.699 L
370.201 383.7 L
370.294 383.701 L
370.388 383.701 L
370.481 383.702 L
370.574 383.703 L
370.667 383.703 L
370.759 383.704 L
370.853 383.704 L
370.945 383.705 L
371.039 383.706 L
371.132 383.706 L
371.224 383.707 L
371.318 383.708 L
371.411 383.708 L
371.504 383.709 L
371.596 383.71 L
371.69 383.71 L
371.783 383.711 L
371.876 383.712 L
371.969 383.712 L
372.062 383.713 L
372.155 383.713 L
372.248 383.714 L
372.341 383.715 L
372.434 383.715 L
372.526 383.716 L
372.62 383.717 L
372.713 383.717 L
372.806 383.718 L
372.899 383.719 L
372.992 383.719 L
373.085 383.72 L
373.178 383.72 L
373.271 383.721 L
373.364 383.722 L
373.456 383.722 L
373.549 383.723 L
373.643 383.723 L
373.736 383.724 L
373.829 383.725 L
373.922 383.725 L
374.014 383.726 L
374.108 383.727 L
374.201 383.727 L
374.294 383.728 L
374.386 383.728 L
374.479 383.729 L
374.573 383.73 L
374.666 383.73 L
374.759 383.731 L
374.852 383.731 L
374.944 383.732 L
375.038 383.733 L
375.13 383.733 L
375.224 383.734 L
375.316 383.734 L
375.409 383.735 L
375.503 383.736 L
375.596 383.736 L
375.689 383.737 L
375.782 383.737 L
375.875 383.738 L
375.968 383.739 L
376.061 383.739 L
376.154 383.74 L
376.247 383.74 L
376.34 383.741 L
376.433 383.741 L
376.526 383.742 L
376.619 383.743 L
376.712 383.743 L
376.805 383.744 L
376.898 383.744 L
376.991 383.745 L
377.084 383.745 L
377.177 383.746 L
377.27 383.747 L
377.363 383.747 L
377.456 383.748 L
377.549 383.748 L
377.642 383.749 L
377.734 383.749 L
377.828 383.75 L
377.921 383.751 L
378.014 383.751 L
378.107 383.752 L
378.2 383.752 L
378.293 383.753 L
378.385 383.754 L
378.479 383.754 L
378.572 383.755 L
378.664 383.755 L
378.758 383.756 L
378.851 383.756 L
378.944 383.757 L
379.036 383.757 L
379.13 383.758 L
379.223 383.759 L
379.315 383.759 L
379.409 383.76 L
379.501 383.76 L
379.594 383.761 L
379.688 383.761 L
379.781 383.762 L
379.874 383.762 L
379.967 383.763 L
380.06 383.763 L
380.153 383.764 L
380.246 383.764 L
380.339 383.765 L
380.432 383.766 L
380.525 383.766 L
380.618 383.767 L
380.711 383.767 L
380.804 383.768 L
380.897 383.768 L
380.99 383.769 L
381.083 383.769 L
381.176 383.77 L
381.269 383.77 L
381.362 383.771 L
381.455 383.771 L
381.548 383.772 L
381.641 383.773 L
381.734 383.773 L
381.827 383.774 L
381.919 383.774 L
382.013 383.775 L
382.106 383.775 L
382.199 383.776 L
382.292 383.776 L
382.385 383.777 L
382.478 383.777 L
382.571 383.778 L
382.664 383.778 L
382.757 383.779 L
382.849 383.779 L
382.943 383.78 L
383.036 383.78 L
383.129 383.781 L
383.221 383.781 L
383.315 383.782 L
383.408 383.782 L
383.501 383.783 L
383.594 383.783 L
383.686 383.784 L
383.779 383.784 L
383.872 383.785 L
383.966 383.785 L
384.059 383.786 L
384.152 383.786 L
384.245 383.787 L
384.337 383.787 L
384.431 383.788 L
384.523 383.789 L
384.617 383.789 L
384.71 383.789 L
384.803 383.79 L
384.896 383.79 L
384.989 383.791 L
385.082 383.791 L
385.174 383.792 L
385.268 383.792 L
385.361 383.793 L
385.454 383.793 L
385.547 383.794 L
385.64 383.794 L
385.733 383.795 L
385.826 383.795 L
385.919 383.796 L
386.012 383.796 L
386.104 383.797 L
386.198 383.797 L
386.291 383.798 L
386.384 383.798 L
386.477 383.799 L
386.57 383.799 L
386.663 383.8 L
386.756 383.8 L
386.849 383.801 L
386.941 383.801 L
387.034 383.802 L
387.128 383.802 L
387.221 383.803 L
387.314 383.803 L
387.406 383.804 L
387.5 383.804 L
387.592 383.804 L
387.686 383.805 L
387.779 383.805 L
387.871 383.806 L
387.964 383.806 L
388.057 383.807 L
388.151 383.807 L
388.244 383.808 L
388.336 383.808 L
388.43 383.809 L
388.522 383.809 L
388.616 383.81 L
388.708 383.81 L
388.802 383.811 L
388.895 383.811 L
388.988 383.811 L
389.081 383.812 L
389.174 383.812 L
389.267 383.813 L
389.36 383.813 L
389.453 383.814 L
389.546 383.814 L
389.639 383.815 L
389.732 383.815 L
389.825 383.816 L
389.918 383.816 L
390.011 383.816 L
390.104 383.817 L
390.197 383.817 L
390.29 383.818 L
390.383 383.818 L
390.476 383.819 L
390.569 383.819 L
390.661 383.82 L
390.755 383.82 L
390.848 383.82 L
390.941 383.821 L
391.034 383.821 L
391.126 383.822 L
391.22 383.822 L
391.312 383.823 L
391.406 383.823 L
391.499 383.823 L
391.591 383.824 L
391.685 383.824 L
391.778 383.825 L
391.871 383.825 L
391.964 383.826 L
392.056 383.826 L
392.15 383.827 L
392.242 383.827 L
392.336 383.827 L
392.429 383.828 L
392.521 383.828 L
392.615 383.829 L
392.708 383.829 L
392.801 383.83 L
392.893 383.83 L
392.987 383.83 L
393.08 383.831 L
393.173 383.831 L
393.266 383.832 L
393.359 383.832 L
393.452 383.833 L
393.545 383.833 L
393.638 383.833 L
393.731 383.834 L
393.824 383.834 L
393.917 383.835 L
394.01 383.835 L
394.103 383.835 L
394.196 383.836 L
394.289 383.836 L
394.382 383.837 L
394.475 383.837 L
394.568 383.838 L
394.661 383.838 L
394.754 383.838 L
394.846 383.839 L
394.94 383.839 L
395.033 383.84 L
395.126 383.84 L
395.219 383.84 L
395.311 383.841 L
395.405 383.841 L
395.497 383.842 L
395.591 383.842 L
395.684 383.842 L
395.776 383.843 L
395.87 383.843 L
395.963 383.844 L
396.056 383.844 L
396.149 383.844 L
396.241 383.845 L
396.335 383.845 L
396.427 383.846 L
396.521 383.846 L
396.614 383.846 L
396.706 383.847 L
396.799 383.847 L
396.893 383.848 L
396.986 383.848 L
397.079 383.848 L
397.172 383.849 L
397.265 383.849 L
397.357 383.85 L
397.451 383.85 L
397.544 383.85 L
397.637 383.851 L
397.73 383.851 L
397.823 383.851 L
397.916 383.852 L
398.009 383.852 L
398.102 383.853 L
398.195 383.853 L
398.288 383.853 L
398.381 383.854 L
398.474 383.854 L
398.567 383.855 L
398.66 383.855 L
398.753 383.855 L
398.846 383.856 L
398.939 383.856 L
399.031 383.856 L
399.125 383.857 L
399.218 383.857 L
399.311 383.858 L
399.404 383.858 L
399.497 383.858 L
399.59 383.859 L
399.682 383.859 L
399.776 383.859 L
399.869 383.86 L
399.961 383.86 L
400.055 383.861 L
400.148 383.861 L
400.241 383.861 L
400.334 383.862 L
400.427 383.862 L
400.52 383.862 L
400.612 383.863 L
400.706 383.863 L
400.799 383.864 L
400.891 383.864 L
400.984 383.864 L
401.078 383.865 L
401.171 383.865 L
401.264 383.865 L
401.357 383.866 L
401.449 383.866 L
401.542 383.866 L
401.635 383.867 L
401.729 383.867 L
401.822 383.867 L
401.915 383.868 L
402.008 383.868 L
402.101 383.869 L
402.194 383.869 L
402.286 383.869 L
402.38 383.87 L
402.473 383.87 L
402.566 383.87 L
402.659 383.871 L
402.752 383.871 L
402.845 383.871 L
402.938 383.872 L
403.031 383.872 L
403.124 383.872 L
403.216 383.873 L
403.31 383.873 L
403.403 383.873 L
403.496 383.874 L
403.589 383.874 L
403.682 383.874 L
403.775 383.875 L
403.868 383.875 L
403.961 383.876 L
404.054 383.876 L
404.146 383.876 L
404.24 383.877 L
404.333 383.877 L
404.426 383.877 L
404.519 383.878 L
404.612 383.878 L
404.704 383.878 L
404.798 383.879 L
404.891 383.879 L
404.984 383.879 L
405.076 383.88 L
405.169 383.88 L
405.263 383.88 L
405.356 383.881 L
405.449 383.881 L
405.542 383.881 L
405.634 383.882 L
405.728 383.882 L
405.82 383.882 L
405.914 383.883 L
406.007 383.883 L
406.1 383.883 L
406.193 383.884 L
406.286 383.884 L
406.379 383.884 L
406.471 383.885 L
406.565 383.885 L
406.658 383.885 L
406.751 383.886 L
406.844 383.886 L
406.937 383.886 L
407.03 383.887 L
407.123 383.887 L
407.216 383.887 L
407.309 383.888 L
407.401 383.888 L
407.495 383.888 L
407.588 383.888 L
407.681 383.889 L
407.774 383.889 L
407.867 383.889 L
407.96 383.89 L
408.053 383.89 L
408.146 383.89 L
408.239 383.891 L
408.331 383.891 L
408.424 383.891 L
408.518 383.892 L
408.611 383.892 L
408.704 383.892 L
408.797 383.893 L
408.889 383.893 L
408.983 383.893 L
409.076 383.893 L
409.169 383.894 L
409.261 383.894 L
409.354 383.894 L
409.448 383.895 L
409.541 383.895 L
409.634 383.895 L
409.727 383.896 L
409.819 383.896 L
409.913 383.896 L
410.005 383.897 L
410.099 383.897 L
410.192 383.897 L
410.285 383.898 L
410.378 383.898 L
410.471 383.898 L
410.564 383.898 L
410.657 383.899 L
410.75 383.899 L
410.843 383.899 L
410.936 383.9 L
411.029 383.9 L
411.122 383.9 L
411.215 383.901 L
411.308 383.901 L
411.401 383.901 L
411.494 383.901 L
411.587 383.902 L
411.68 383.902 L
411.773 383.902 L
411.866 383.903 L
411.959 383.903 L
412.052 383.903 L
412.145 383.904 L
412.238 383.904 L
412.331 383.904 L
412.424 383.904 L
412.517 383.905 L
412.609 383.905 L
412.703 383.905 L
412.796 383.906 L
412.889 383.906 L
412.982 383.906 L
413.075 383.906 L
413.168 383.907 L
413.26 383.907 L
413.354 383.907 L
413.447 383.908 L
413.539 383.908 L
413.633 383.908 L
413.726 383.908 L
413.819 383.909 L
413.911 383.909 L
414.005 383.909 L
414.098 383.91 L
414.19 383.91 L
414.284 383.91 L
414.376 383.91 L
414.469 383.911 L
414.562 383.911 L
414.656 383.911 L
414.749 383.912 L
414.842 383.912 L
414.935 383.912 L
415.028 383.912 L
415.121 383.913 L
415.214 383.913 L
415.307 383.913 L
415.4 383.913 L
415.493 383.914 L
415.586 383.914 L
415.679 383.914 L
415.772 383.915 L
415.865 383.915 L
415.958 383.915 L
416.051 383.915 L
416.144 383.916 L
416.237 383.916 L
416.33 383.916 L
416.423 383.916 L
416.516 383.917 L
416.609 383.917 L
416.702 383.917 L
416.794 383.918 L
416.888 383.918 L
416.981 383.918 L
417.074 383.918 L
417.167 383.919 L
417.26 383.919 L
417.353 383.919 L
417.446 383.919 L
417.539 383.92 L
417.632 383.92 L
417.724 383.92 L
417.818 383.92 L
417.911 383.921 L
418.004 383.921 L
418.096 383.921 L
418.19 383.921 L
418.283 383.922 L
418.376 383.922 L
418.469 383.922 L
418.561 383.923 L
418.654 383.923 L
418.747 383.923 L
418.841 383.923 L
418.934 383.924 L
419.027 383.924 L
419.12 383.924 L
419.213 383.924 L
419.306 383.925 L
419.399 383.925 L
419.492 383.925 L
419.585 383.925 L
419.678 383.926 L
419.771 383.926 L
419.864 383.926 L
419.957 383.926 L
420.049 383.927 L
420.143 383.927 L
420.236 383.927 L
420.329 383.927 L
420.422 383.928 L
420.515 383.928 L
420.608 383.928 L
420.701 383.928 L
420.794 383.929 L
420.887 383.929 L
420.979 383.929 L
421.073 383.929 L
421.166 383.93 L
421.259 383.93 L
421.352 383.93 L
421.445 383.93 L
421.538 383.931 L
421.631 383.931 L
421.724 383.931 L
421.816 383.931 L
421.909 383.932 L
422.003 383.932 L
422.096 383.932 L
422.189 383.932 L
422.281 383.933 L
422.375 383.933 L
422.467 383.933 L
422.561 383.933 L
422.654 383.933 L
422.746 383.934 L
422.839 383.934 L
422.932 383.934 L
423.026 383.934 L
423.119 383.935 L
423.212 383.935 L
423.305 383.935 L
423.398 383.935 L
423.491 383.936 L
423.583 383.936 L
423.677 383.936 L
423.77 383.936 L
423.863 383.937 L
423.956 383.937 L
424.049 383.937 L
424.142 383.937 L
424.235 383.938 L
424.328 383.938 L
424.421 383.938 L
424.514 383.938 L
424.607 383.938 L
424.7 383.939 L
424.793 383.939 L
424.886 383.939 L
424.979 383.939 L
425.072 383.94 L
425.165 383.94 L
425.258 383.94 L
425.351 383.94 L
425.444 383.94 L
425.536 383.941 L
425.63 383.941 L
425.723 383.941 L
425.816 383.941 L
425.909 383.942 L
426.001 383.942 L
426.095 383.942 L
426.188 383.942 L
426.281 383.943 L
426.374 383.943 L
426.466 383.943 L
426.56 383.943 L
426.653 383.943 L
426.746 383.944 L
426.839 383.944 L
426.931 383.944 L
427.025 383.944 L
427.117 383.944 L
427.211 383.945 L
427.304 383.945 L
427.397 383.945 L
427.49 383.945 L
427.583 383.946 L
427.676 383.946 L
427.768 383.946 L
427.862 383.946 L
427.955 383.946 L
428.048 383.947 L
428.141 383.947 L
428.234 383.947 L
428.327 383.947 L
428.42 383.948 L
428.513 383.948 L
428.606 383.948 L
428.699 383.948 L
428.792 383.948 L
428.885 383.949 L
428.978 383.949 L
429.071 383.949 L
429.164 383.949 L
429.257 383.949 L
429.35 383.95 L
429.443 383.95 L
429.536 383.95 L
429.629 383.95 L
429.721 383.95 L
429.815 383.951 L
429.908 383.951 L
430.001 383.951 L
430.094 383.951 L
430.186 383.952 L
430.28 383.952 L
430.372 383.952 L
430.466 383.952 L
430.559 383.952 L
430.651 383.953 L
430.745 383.953 L
430.838 383.953 L
430.931 383.953 L
431.024 383.953 L
431.116 383.954 L
431.21 383.954 L
431.302 383.954 L
431.396 383.954 L
431.489 383.954 L
431.581 383.955 L
431.674 383.955 L
431.768 383.955 L
431.861 383.955 L
431.954 383.955 L
432.047 383.956 L
432.14 383.956 L
432.233 383.956 L
432.326 383.956 L
432.419 383.956 L
432.512 383.957 L
432.605 383.957 L
432.698 383.957 L
432.791 383.957 L
432.884 383.957 L
432.977 383.958 L
433.07 383.958 L
433.163 383.958 L
433.256 383.958 L
433.349 383.958 L
433.442 383.959 L
433.535 383.959 L
433.628 383.959 L
433.721 383.959 L
433.814 383.959 L
433.906 383.959 L
434 383.96 L
434.093 383.96 L
434.186 383.96 L
434.279 383.96 L
434.372 383.96 L
434.465 383.961 L
434.557 383.961 L
434.651 383.961 L
434.744 383.961 L
434.836 383.961 L
434.93 383.962 L
435.023 383.962 L
435.116 383.962 L
435.209 383.962 L
435.302 383.962 L
435.395 383.963 L
435.487 383.963 L
435.581 383.963 L
435.674 383.963 L
435.766 383.963 L
435.859 383.964 L
435.953 383.964 L
436.046 383.964 L
436.139 383.964 L
436.232 383.964 L
436.325 383.964 L
436.418 383.965 L
436.511 383.965 L
436.604 383.965 L
436.697 383.965 L
436.79 383.965 L
436.883 383.966 L
436.976 383.966 L
437.069 383.966 L
437.161 383.966 L
437.255 383.966 L
437.348 383.966 L
437.441 383.967 L
437.534 383.967 L
437.627 383.967 L
437.72 383.967 L
437.813 383.967 L
437.906 383.967 L
437.999 383.968 L
438.091 383.968 L
438.185 383.968 L
438.278 383.968 L
438.371 383.968 L
438.464 383.969 L
438.557 383.969 L
438.65 383.969 L
438.743 383.969 L
438.836 383.969 L
438.929 383.969 L
439.021 383.97 L
439.115 383.97 L
439.208 383.97 L
439.301 383.97 L
439.394 383.97 L
439.487 383.97 L
439.579 383.971 L
439.673 383.971 L
439.766 383.971 L
439.859 383.971 L
439.951 383.971 L
440.044 383.972 L
440.138 383.972 L
440.231 383.972 L
440.324 383.972 L
440.417 383.972 L
440.51 383.972 L
440.603 383.973 L
440.695 383.973 L
440.789 383.973 L
440.882 383.973 L
440.975 383.973 L
441.068 383.973 L
441.161 383.974 L
441.254 383.974 L
441.346 383.974 L
441.44 383.974 L
441.533 383.974 L
441.626 383.974 L
441.719 383.975 L
441.812 383.975 L
441.905 383.975 L
441.998 383.975 L
442.091 383.975 L
442.184 383.975 L
442.276 383.976 L
442.37 383.976 L
442.463 383.976 L
442.556 383.976 L
442.649 383.976 L
442.742 383.976 L
442.835 383.977 L
442.928 383.977 L
443.021 383.977 L
443.114 383.977 L
443.206 383.977 L
443.299 383.977 L
443.393 383.977 L
443.486 383.978 L
443.579 383.978 L
443.672 383.978 L
443.764 383.978 L
443.858 383.978 L
443.951 383.978 L
444.044 383.979 L
444.136 383.979 L
444.229 383.979 L
444.323 383.979 L
444.416 383.979 L
444.509 383.979 L
444.602 383.98 L
444.694 383.98 L
444.788 383.98 L
444.88 383.98 L
444.974 383.98 L
445.067 383.98 L
445.16 383.98 L
445.253 383.981 L
445.346 383.981 L
445.439 383.981 L
445.532 383.981 L
445.625 383.981 L
445.718 383.981 L
445.811 383.982 L
445.904 383.982 L
445.997 383.982 L
446.09 383.982 L
446.183 383.982 L
446.276 383.982 L
446.369 383.982 L
446.462 383.983 L
446.555 383.983 L
446.648 383.983 L
446.741 383.983 L
446.834 383.983 L
446.927 383.983 L
447.02 383.983 L
447.113 383.984 L
447.206 383.984 L
447.299 383.984 L
447.392 383.984 L
447.484 383.984 L
447.578 383.984 L
447.671 383.985 L
447.764 383.985 L
447.857 383.985 L
447.95 383.985 L
448.043 383.985 L
448.135 383.985 L
448.229 383.985 L
448.322 383.986 L
448.414 383.986 L
448.508 383.986 L
448.601 383.986 L
448.694 383.986 L
448.786 383.986 L
448.88 383.986 L
448.973 383.987 L
449.065 383.987 L
449.159 383.987 L
449.252 383.987 L
449.345 383.987 L
449.438 383.987 L
449.531 383.987 L
449.624 383.988 L
449.717 383.988 L
449.81 383.988 L
449.903 383.988 L
449.996 383.988 L
450.089 383.988 L
450.182 383.988 L
450.275 383.989 L
450.368 383.989 L
450.461 383.989 L
450.554 383.989 L
450.647 383.989 L
450.74 383.989 L
450.833 383.989 L
450.926 383.99 L
451.019 383.99 L
451.112 383.99 L
451.205 383.99 L
451.298 383.99 L
451.391 383.99 L
451.484 383.99 L
451.577 383.991 L
451.669 383.991 L
451.763 383.991 L
451.856 383.991 L
451.949 383.991 L
452.042 383.991 L
452.135 383.991 L
452.228 383.992 L
452.321 383.992 L
452.414 383.992 L
452.507 383.992 L
452.599 383.992 L
452.693 383.992 L
452.786 383.992 L
452.879 383.992 L
452.971 383.993 L
453.065 383.993 L
453.158 383.993 L
453.251 383.993 L
453.344 383.993 L
453.437 383.993 L
453.53 383.993 L
453.622 383.993 L
453.716 383.994 L
453.809 383.994 L
453.902 383.994 L
453.995 383.994 L
454.088 383.994 L
454.181 383.994 L
454.274 383.994 L
454.367 383.995 L
454.46 383.995 L
454.553 383.995 L
454.646 383.995 L
454.739 383.995 L
454.832 383.995 L
454.924 383.995 L
455.018 383.995 L
455.111 383.996 L
455.204 383.996 L
455.297 383.996 L
455.39 383.996 L
455.483 383.996 L
455.576 383.996 L
455.669 383.996 L
455.762 383.996 L
455.854 383.997 L
455.948 383.997 L
456.041 383.997 L
456.134 383.997 L
456.227 383.997 L
456.32 383.997 L
456.413 383.997 L
456.506 383.997 L
456.599 383.998 L
456.691 383.998 L
456.784 383.998 L
456.878 383.998 L
456.971 383.998 L
457.064 383.998 L
457.156 383.998 L
457.25 383.998 L
457.342 383.999 L
457.436 383.999 L
457.529 383.999 L
457.621 383.999 L
457.714 383.999 L
457.807 383.999 L
457.901 383.999 L
457.994 383.999 L
458.087 384 L
458.18 384 L
458.273 384 L
458.366 384 L
458.459 384 L
458.552 384 L
458.645 384 L
458.738 384 L
458.831 384.001 L
458.924 384.001 L
459.017 384.001 L
459.11 384.001 L
459.203 384.001 L
459.296 384.001 L
459.389 384.001 L
459.482 384.001 L
459.575 384.001 L
459.668 384.002 L
459.761 384.002 L
459.854 384.002 L
459.947 384.002 L
460.04 384.002 L
460.133 384.002 L
460.226 384.002 L
460.319 384.002 L
460.411 384.003 L
460.505 384.003 L
460.598 384.003 L
460.691 384.003 L
460.784 384.003 L
460.876 384.003 L
460.97 384.003 L
461.062 384.003 L
461.156 384.003 L
461.249 384.004 L
461.341 384.004 L
461.435 384.004 L
461.528 384.004 L
461.621 384.004 L
461.714 384.004 L
461.806 384.004 L
461.9 384.004 L
461.992 384.004 L
462.086 384.005 L
462.179 384.005 L
462.272 384.005 L
462.365 384.005 L
462.458 384.005 L
462.551 384.005 L
462.644 384.005 L
462.737 384.005 L
462.83 384.005 L
462.923 384.006 L
463.016 384.006 L
463.109 384.006 L
463.202 384.006 L
463.295 384.006 L
463.388 384.006 L
463.481 384.006 L
463.574 384.006 L
463.667 384.006 L
463.76 384.007 L
463.853 384.007 L
463.946 384.007 L
464.039 384.007 L
464.132 384.007 L
464.225 384.007 L
464.318 384.007 L
464.411 384.007 L
464.504 384.007 L
464.596 384.007 L
464.69 384.008 L
464.783 384.008 L
464.876 384.008 L
464.969 384.008 L
465.061 384.008 L
465.155 384.008 L
465.247 384.008 L
465.341 384.008 L
465.434 384.008 L
465.526 384.009 L
465.62 384.009 L
465.713 384.009 L
465.806 384.009 L
465.899 384.009 L
465.991 384.009 L
466.085 384.009 L
466.177 384.009 L
466.271 384.009 L
466.364 384.009 L
466.457 384.01 L
466.55 384.01 L
466.643 384.01 L
466.736 384.01 L
466.829 384.01 L
466.922 384.01 L
467.015 384.01 L
467.108 384.01 L
467.201 384.01 L
467.294 384.011 L
467.387 384.011 L
467.48 384.011 L
467.573 384.011 L
467.666 384.011 L
467.759 384.011 L
467.852 384.011 L
467.945 384.011 L
468.038 384.011 L
468.131 384.011 L
468.224 384.012 L
468.317 384.012 L
468.41 384.012 L
468.503 384.012 L
468.596 384.012 L
468.689 384.012 L
468.781 384.012 L
468.875 384.012 L
468.968 384.012 L
469.061 384.012 L
469.154 384.013 L
469.247 384.013 L
469.34 384.013 L
469.432 384.013 L
469.526 384.013 L
469.619 384.013 L
469.711 384.013 L
469.805 384.013 L
469.898 384.013 L
469.991 384.013 L
470.084 384.013 L
470.177 384.014 L
470.27 384.014 L
470.362 384.014 L
470.456 384.014 L
470.549 384.014 L
470.641 384.014 L
470.734 384.014 L
470.828 384.014 L
470.921 384.014 L
471.014 384.014 L
471.107 384.014 L
471.2 384.015 L
471.293 384.015 L
471.386 384.015 L
471.479 384.015 L
471.572 384.015 L
471.665 384.015 L
471.758 384.015 L
471.851 384.015 L
471.944 384.015 L
472.036 384.015 L
472.13 384.016 L
472.223 384.016 L
472.316 384.016 L
472.409 384.016 L
472.502 384.016 L
472.595 384.016 L
472.688 384.016 L
472.781 384.016 L
472.874 384.016 L
472.966 384.016 L
473.06 384.016 L
473.153 384.017 L
473.246 384.017 L
473.339 384.017 L
473.432 384.017 L
473.525 384.017 L
473.618 384.017 L
473.711 384.017 L
473.804 384.017 L
473.896 384.017 L
473.99 384.017 L
474.083 384.017 L
474.176 384.018 L
474.269 384.018 L
474.362 384.018 L
474.454 384.018 L
474.548 384.018 L
474.641 384.018 L
474.734 384.018 L
474.826 384.018 L
474.919 384.018 L
475.013 384.018 L
475.106 384.018 L
475.199 384.018 L
475.292 384.019 L
475.385 384.019 L
475.478 384.019 L
475.571 384.019 L
475.664 384.019 L
475.757 384.019 L
475.85 384.019 L
475.943 384.019 L
476.036 384.019 L
476.129 384.019 L
476.221 384.019 L
476.315 384.02 L
476.408 384.02 L
476.501 384.02 L
476.594 384.02 L
476.687 384.02 L
476.78 384.02 L
476.873 384.02 L
476.966 384.02 L
477.059 384.02 L
477.151 384.02 L
477.245 384.02 L
477.338 384.02 L
477.431 384.021 L
477.524 384.021 L
477.617 384.021 L
477.71 384.021 L
477.803 384.021 L
477.896 384.021 L
477.989 384.021 L
478.081 384.021 L
478.174 384.021 L
478.268 384.021 L
478.361 384.021 L
478.454 384.021 L
478.547 384.022 L
478.639 384.022 L
478.733 384.022 L
478.826 384.022 L
478.919 384.022 L
479.011 384.022 L
479.104 384.022 L
479.198 384.022 L
479.291 384.022 L
479.384 384.022 L
479.477 384.022 L
479.57 384.022 L
479.663 384.022 L
479.755 384.023 L
479.849 384.023 L
479.942 384.023 L
480.035 384.023 L
480.128 384.023 L
480.221 384.023 L
480.314 384.023 L
480.407 384.023 L
480.5 384.023 L
480.593 384.023 L
480.686 384.023 L
480.779 384.023 L
480.872 384.023 L
480.965 384.024 L
481.058 384.024 L
481.151 384.024 L
481.244 384.024 L
481.337 384.024 L
481.43 384.024 L
481.523 384.024 L
481.616 384.024 L
481.709 384.024 L
481.802 384.024 L
481.895 384.024 L
481.988 384.024 L
482.081 384.024 L
482.174 384.025 L
482.267 384.025 L
482.359 384.025 L
482.453 384.025 L
482.546 384.025 L
482.639 384.025 L
482.732 384.025 L
482.825 384.025 L
482.918 384.025 L
483.01 384.025 L
483.104 384.025 L
483.197 384.025 L
483.289 384.025 L
483.383 384.026 L
483.476 384.026 L
483.569 384.026 L
483.662 384.026 L
483.755 384.026 L
483.848 384.026 L
483.94 384.026 L
484.034 384.026 L
484.127 384.026 L
484.22 384.026 L
484.313 384.026 L
484.406 384.026 L
484.499 384.026 L
484.592 384.026 L
484.685 384.027 L
484.778 384.027 L
484.871 384.027 L
484.964 384.027 L
485.057 384.027 L
485.15 384.027 L
485.243 384.027 L
485.336 384.027 L
485.429 384.027 L
485.522 384.027 L
485.615 384.027 L
485.708 384.027 L
485.801 384.027 L
485.894 384.028 L
485.987 384.028 L
486.08 384.028 L
486.173 384.028 L
486.266 384.028 L
486.359 384.028 L
486.452 384.028 L
486.544 384.028 L
486.638 384.028 L
486.731 384.028 L
486.824 384.028 L
486.917 384.028 L
487.01 384.028 L
487.103 384.028 L
487.196 384.028 L
487.289 384.029 L
487.382 384.029 L
487.474 384.029 L
487.568 384.029 L
487.661 384.029 L
487.754 384.029 L
487.846 384.029 L
487.94 384.029 L
488.033 384.029 L
488.126 384.029 L
488.219 384.029 L
488.312 384.029 L
488.405 384.029 L
488.498 384.029 L
488.591 384.029 L
488.684 384.03 L
488.777 384.03 L
488.87 384.03 L
488.963 384.03 L
489.056 384.03 L
489.149 384.03 L
489.242 384.03 L
489.335 384.03 L
489.428 384.03 L
489.521 384.03 L
489.614 384.03 L
489.707 384.03 L
489.799 384.03 L
489.893 384.03 L
489.986 384.031 L
490.079 384.031 L
490.172 384.031 L
490.265 384.031 L
490.358 384.031 L
490.451 384.031 L
490.544 384.031 L
490.637 384.031 L
490.729 384.031 L
490.823 384.031 L
490.916 384.031 L
491.009 384.031 L
491.102 384.031 L
491.195 384.031 L
491.288 384.031 L
491.381 384.031 L
491.474 384.031 L
491.566 384.032 L
491.659 384.032 L
491.753 384.032 L
491.846 384.032 L
491.939 384.032 L
492.031 384.032 L
492.125 384.032 L
492.217 384.032 L
492.311 384.032 L
492.404 384.032 L
492.497 384.032 L
492.59 384.032 L
492.683 384.032 L
492.776 384.032 L
492.869 384.032 L
492.962 384.033 L
493.055 384.033 L
493.148 384.033 L
493.241 384.033 L
493.334 384.033 L
493.427 384.033 L
493.52 384.033 L
493.613 384.033 L
493.706 384.033 L
493.799 384.033 L
493.892 384.033 L
493.985 384.033 L
494.078 384.033 L
494.171 384.033 L
494.264 384.033 L
494.357 384.033 L
494.45 384.034 L
494.543 384.034 L
494.636 384.034 L
494.729 384.034 L
494.822 384.034 L
494.915 384.034 L
495.008 384.034 L
495.101 384.034 L
495.194 384.034 L
495.286 384.034 L
495.38 384.034 L
495.473 384.034 L
495.566 384.034 L
495.659 384.034 L
495.751 384.034 L
495.845 384.034 L
495.938 384.034 L
496.031 384.034 L
496.124 384.035 L
496.216 384.035 L
496.31 384.035 L
496.403 384.035 L
496.496 384.035 L
496.589 384.035 L
496.682 384.035 L
496.775 384.035 L
496.867 384.035 L
496.961 384.035 L
497.054 384.035 L
497.147 384.035 L
497.24 384.035 L
497.333 384.035 L
497.426 384.035 L
497.519 384.035 L
497.612 384.035 L
497.705 384.036 L
497.798 384.036 L
497.891 384.036 L
497.984 384.036 L
498.077 384.036 L
498.17 384.036 L
498.263 384.036 L
498.356 384.036 L
498.449 384.036 L
498.542 384.036 L
498.635 384.036 L
498.728 384.036 L
498.821 384.036 L
498.914 384.036 L
499.007 384.036 L
499.1 384.036 L
499.193 384.036 L
499.286 384.036 L
499.379 384.036 L
499.471 384.037 L
499.565 384.037 L
499.658 384.037 L
499.751 384.037 L
499.844 384.037 L
499.936 384.037 L
500.03 384.037 L
500.122 384.037 L
500.216 384.037 L
500.309 384.037 L
500.401 384.037 L
500.495 384.037 L
500.588 384.037 L
500.681 384.037 L
500.774 384.037 L
500.866 384.037 L
500.96 384.037 L
501.052 384.038 L
501.146 384.038 L
501.239 384.038 L
501.332 384.038 L
501.425 384.038 L
501.518 384.038 L
501.611 384.038 L
501.704 384.038 L
501.797 384.038 L
501.89 384.038 L
501.983 384.038 L
502.076 384.038 L
502.169 384.038 L
502.262 384.038 L
502.355 384.038 L
502.448 384.038 L
502.541 384.038 L
502.634 384.038 L
502.727 384.038 L
502.82 384.038 L
502.913 384.039 L
503.006 384.039 L
503.099 384.039 L
503.192 384.039 L
503.285 384.039 L
503.378 384.039 L
503.471 384.039 L
503.564 384.039 L
503.656 384.039 L
503.75 384.039 L
503.843 384.039 L
503.936 384.039 L
504.029 384.039 L
504.122 384.039 L
504.215 384.039 L
504.307 384.039 L
504.401 384.039 L
504.494 384.039 L
504.586 384.039 L
504.68 384.039 L
504.773 384.04 L
504.866 384.04 L
504.959 384.04 L
505.052 384.04 L
505.145 384.04 L
505.237 384.04 L
505.331 384.04 L
505.424 384.04 L
505.517 384.04 L
505.61 384.04 L
505.703 384.04 L
505.796 384.04 L
505.889 384.04 L
505.982 384.04 L
506.075 384.04 L
506.168 384.04 L
506.261 384.04 L
506.354 384.04 L
506.447 384.04 L
506.54 384.04 L
506.633 384.04 L
506.726 384.041 L
506.819 384.041 L
506.911 384.041 L
507.005 384.041 L
507.098 384.041 L
507.191 384.041 L
507.284 384.041 L
507.377 384.041 L
507.47 384.041 L
507.563 384.041 L
507.656 384.041 L
507.749 384.041 L
507.841 384.041 L
507.935 384.041 L
508.028 384.041 L
508.121 384.041 L
508.214 384.041 L
508.307 384.041 L
508.4 384.041 L
508.493 384.041 L
508.586 384.041 L
508.679 384.042 L
508.771 384.042 L
508.865 384.042 L
508.958 384.042 L
509.051 384.042 L
509.144 384.042 L
509.237 384.042 L
509.329 384.042 L
509.423 384.042 L
509.516 384.042 L
509.609 384.042 L
509.702 384.042 L
509.795 384.042 L
509.888 384.042 L
509.981 384.042 L
510.074 384.042 L
510.167 384.042 L
510.26 384.042 L
510.353 384.042 L
510.446 384.042 L
510.539 384.042 L
510.632 384.042 L
510.725 384.042 L
510.818 384.043 L
510.911 384.043 L
511.004 384.043 L
511.096 384.043 L
511.19 384.043 L
511.283 384.043 L
511.376 384.043 L
511.469 384.043 L
511.562 384.043 L
511.655 384.043 L
511.748 384.043 L
511.841 384.043 L
511.934 384.043 L
512.026 384.043 L
512.12 384.043 L
512.213 384.043 L
512.306 384.043 L
512.399 384.043 L
512.492 384.043 L
512.584 384.043 L
512.677 384.043 L
512.771 384.043 L
512.864 384.043 L
512.956 384.044 L
513.049 384.044 L
513.143 384.044 L
513.236 384.044 L
513.328 384.044 L
513.422 384.044 L
513.515 384.044 L
513.608 384.044 L
513.701 384.044 L
513.794 384.044 L
513.886 384.044 L
513.979 384.044 L
514.073 384.044 L
514.166 384.044 L
514.259 384.044 L
514.352 384.044 L
514.445 384.044 L
514.538 384.044 L
514.631 384.044 L
514.724 384.044 L
514.817 384.044 L
514.91 384.044 L
515.003 384.044 L
515.096 384.044 L
515.189 384.045 L
515.281 384.045 L
515.375 384.045 L
515.468 384.045 L
515.561 384.045 L
515.654 384.045 L
515.747 384.045 L
515.84 384.045 L
515.932 384.045 L
516.026 384.045 L
516.119 384.045 L
516.212 384.045 L
516.305 384.045 L
516.398 384.045 L
516.491 384.045 L
516.583 384.045 L
516.677 384.045 L
516.77 384.045 L
516.863 384.045 L
516.956 384.045 L
517.049 384.045 L
517.141 384.045 L
517.234 384.045 L
517.328 384.045 L
517.421 384.045 L
517.514 384.045 L
517.607 384.046 L
517.7 384.046 L
517.792 384.046 L
517.885 384.046 L
517.979 384.046 L
518.072 384.046 L
518.164 384.046 L
518.258 384.046 L
518.351 384.046 L
518.443 384.046 L
518.536 384.046 L
518.63 384.046 L
518.723 384.046 L
518.816 384.046 L
518.909 384.046 L
519.002 384.046 L
519.095 384.046 L
519.188 384.046 L
519.281 384.046 L
519.374 384.046 L
519.467 384.046 L
519.56 384.046 L
519.653 384.046 L
519.746 384.046 L
519.839 384.046 L
519.932 384.046 L
520.025 384.047 L
520.118 384.047 L
520.211 384.047 L
520.304 384.047 L
520.396 384.047 L
520.49 384.047 L
520.583 384.047 L
520.676 384.047 L
520.769 384.047 L
520.862 384.047 L
520.955 384.047 L
521.047 384.047 L
521.141 384.047 L
521.234 384.047 LE
[12 4] 0 setdash
238.979 47.52 LS
238.979 379.452 LE
grestore
showpage
cleartomark
%%PageTrailer
%%Trailer
end
%%EOF
