%!PS-Adobe-3.0 EPSF-3.0
%%Title: glps_renderer figure
%%Creator: GL2PS 1.3.8, (C) 1999-2012 C. Geuzaine
%%For: Octave
%%CreationDate: Sun Nov 29 10:16:09 2015
%%LanguageLevel: 3
%%DocumentData: Clean7Bit
%%Pages: 1
%%BoundingBox: 0 0 576 432
%%EndComments
%%BeginProlog
/gl2psdict 64 dict def gl2psdict begin
0 setlinecap 0 setlinejoin
/tryPS3shading false def % set to false to force subdivision
/rThreshold 0.064 def % red component subdivision threshold
/gThreshold 0.034 def % green component subdivision threshold
/bThreshold 0.1 def % blue component subdivision threshold
/BD { bind def } bind def
/C  { setrgbcolor } BD
/G  { 0.082 mul exch 0.6094 mul add exch 0.3086 mul add neg 1.0 add setgray } BD
/W  { setlinewidth } BD
/FC { findfont exch /SH exch def SH scalefont setfont } BD
/SW { dup stringwidth pop } BD
/S  { FC moveto show } BD
/SBC{ FC moveto SW -2 div 0 rmoveto show } BD
/SBR{ FC moveto SW neg 0 rmoveto show } BD
/SCL{ FC moveto 0 SH -2 div rmoveto show } BD
/SCC{ FC moveto SW -2 div SH -2 div rmoveto show } BD
/SCR{ FC moveto SW neg SH -2 div rmoveto show } BD
/STL{ FC moveto 0 SH neg rmoveto show } BD
/STC{ FC moveto SW -2 div SH neg rmoveto show } BD
/STR{ FC moveto SW neg SH neg rmoveto show } BD
/FCT { FC translate 0 0 } BD
/SR  { gsave FCT moveto rotate show grestore } BD
/SBCR{ gsave FCT moveto rotate SW -2 div 0 rmoveto show grestore } BD
/SBRR{ gsave FCT moveto rotate SW neg 0 rmoveto show grestore } BD
/SCLR{ gsave FCT moveto rotate 0 SH -2 div rmoveto show grestore} BD
/SCCR{ gsave FCT moveto rotate SW -2 div SH -2 div rmoveto show grestore} BD
/SCRR{ gsave FCT moveto rotate SW neg SH -2 div rmoveto show grestore} BD
/STLR{ gsave FCT moveto rotate 0 SH neg rmoveto show grestore } BD
/STCR{ gsave FCT moveto rotate SW -2 div SH neg rmoveto show grestore } BD
/STRR{ gsave FCT moveto rotate SW neg SH neg rmoveto show grestore } BD
/P  { newpath 0.0 360.0 arc closepath fill } BD
/LS { newpath moveto } BD
/L  { lineto } BD
/LE { lineto stroke } BD
/T  { newpath moveto lineto lineto closepath fill } BD
/STshfill {
      /b1 exch def /g1 exch def /r1 exch def /y1 exch def /x1 exch def
      /b2 exch def /g2 exch def /r2 exch def /y2 exch def /x2 exch def
      /b3 exch def /g3 exch def /r3 exch def /y3 exch def /x3 exch def
      gsave << /ShadingType 4 /ColorSpace [/DeviceRGB]
      /DataSource [ 0 x1 y1 r1 g1 b1 0 x2 y2 r2 g2 b2 0 x3 y3 r3 g3 b3 ] >>
      shfill grestore } BD
/Tm { 3 -1 roll 8 -1 roll 13 -1 roll add add 3 div
      3 -1 roll 7 -1 roll 11 -1 roll add add 3 div
      3 -1 roll 6 -1 roll 9 -1 roll add add 3 div C T } BD
/STsplit {
      4 index 15 index add 0.5 mul
      4 index 15 index add 0.5 mul
      4 index 15 index add 0.5 mul
      4 index 15 index add 0.5 mul
      4 index 15 index add 0.5 mul
      5 copy 5 copy 25 15 roll
      9 index 30 index add 0.5 mul
      9 index 30 index add 0.5 mul
      9 index 30 index add 0.5 mul
      9 index 30 index add 0.5 mul
      9 index 30 index add 0.5 mul
      5 copy 5 copy 35 5 roll 25 5 roll 15 5 roll
      4 index 10 index add 0.5 mul
      4 index 10 index add 0.5 mul
      4 index 10 index add 0.5 mul
      4 index 10 index add 0.5 mul
      4 index 10 index add 0.5 mul
      5 copy 5 copy 40 5 roll 25 5 roll 15 5 roll 25 5 roll
      STnoshfill STnoshfill STnoshfill STnoshfill } BD
/STnoshfill {
      2 index 8 index sub abs rThreshold gt
      { STsplit }
      { 1 index 7 index sub abs gThreshold gt
        { STsplit }
        { dup 6 index sub abs bThreshold gt
          { STsplit }
          { 2 index 13 index sub abs rThreshold gt
            { STsplit }
            { 1 index 12 index sub abs gThreshold gt
              { STsplit }
              { dup 11 index sub abs bThreshold gt
                { STsplit }
                { 7 index 13 index sub abs rThreshold gt
                  { STsplit }
                  { 6 index 12 index sub abs gThreshold gt
                    { STsplit }
                    { 5 index 11 index sub abs bThreshold gt
                      { STsplit }
                      { Tm }
                      ifelse }
                    ifelse }
                  ifelse }
                ifelse }
              ifelse }
            ifelse }
          ifelse }
        ifelse }
      ifelse } BD
tryPS3shading
{ /shfill where
  { /ST { STshfill } BD }
  { /ST { STnoshfill } BD }
  ifelse }
{ /ST { STnoshfill } BD }
ifelse
end
%%EndProlog
%%BeginSetup
/DeviceRGB setcolorspace
gl2psdict begin
%%EndSetup
%%Page: 1 1
%%BeginPageSetup
%%EndPageSetup
mark
gsave
1.0 1.0 scale
1 1 1 C
521.28 47.52 521.28 399.6 521.28 47.52 T
521.28 47.52 521.28 399.6 521.28 399.6 T
74.88 399.6 521.28 399.6 74.88 399.6 T
74.88 399.6 521.28 399.6 521.28 399.6 T
74.88 399.6 521.28 47.52 74.88 47.52 T
74.88 399.6 521.28 399.6 521.28 47.52 T
0.5 W
[16 0] 0 setdash
0 0 0 C
74.88 47.52 LS
521.28 47.52 LE
74.88 399.6 LS
521.28 399.6 LE
74.88 399.6 LS
521.28 399.6 LE
74.88 47.52 LS
521.28 47.52 LE
74.88 47.52 LS
74.88 399.6 LE
521.28 47.52 LS
521.28 399.6 LE
521.28 47.52 LS
521.28 399.6 LE
74.88 47.52 LS
74.88 399.6 L
74.88 399.6 LE
521.28 399.6 LS
521.28 399.6 LE
521.28 47.52 LS
521.28 47.52 LE
74.88 47.52 LS
74.88 47.52 LE
[0 3 1 3 1 3 1 3 1 0] 0 setdash
74.88 47.52 LS
74.88 399.6 LE
156.044 47.52 LS
156.044 399.6 LE
237.207 47.52 LS
237.207 399.6 LE
318.371 47.52 LS
318.371 399.6 LE
399.535 47.52 LS
399.535 399.6 LE
480.698 47.52 LS
480.698 399.6 LE
[16 0] 0 setdash
74.88 47.52 LS
74.88 51.985 LE
74.88 399.6 LS
74.88 395.135 LE
156.044 47.52 LS
156.044 51.985 LE
156.044 399.6 LS
156.044 395.135 LE
237.207 47.52 LS
237.207 51.985 LE
237.207 399.6 LS
237.207 395.135 LE
318.371 47.52 LS
318.371 51.985 LE
318.371 399.6 LS
318.371 395.135 LE
399.535 47.52 LS
399.535 51.985 LE
399.535 399.6 LS
399.535 395.135 LE
480.698 47.52 LS
480.698 51.985 LE
480.698 399.6 LS
480.698 395.135 LE
(-1) 74.88 42.5189 15 /Helvetica STC
(-0.8) 156.044 42.5189 15 /Helvetica STC
(-0.6) 237.207 42.5189 15 /Helvetica STC
(-0.4) 318.371 42.5189 15 /Helvetica STC
(-0.2) 399.535 42.5189 15 /Helvetica STC
(0) 480.698 42.5189 15 /Helvetica STC
[0 3 1 3 1 3 1 3 1 0] 0 setdash
74.88 47.52 LS
521.28 47.52 LE
74.88 148.114 LS
521.28 148.114 LE
74.88 248.709 LS
521.28 248.709 LE
74.88 349.303 LS
521.28 349.303 LE
[16 0] 0 setdash
74.88 47.52 LS
79.348 47.52 LE
521.28 47.52 LS
516.812 47.52 LE
74.88 148.114 LS
79.348 148.114 LE
521.28 148.114 LS
516.812 148.114 LE
74.88 248.709 LS
79.348 248.709 LE
521.28 248.709 LS
516.812 248.709 LE
74.88 349.303 LS
79.348 349.303 LE
521.28 349.303 LS
516.812 349.303 LE
(0) 69.8755 47.52 15 /Helvetica SCR
(0.5) 69.8755 148.114 15 /Helvetica SCR
(1) 69.8755 248.709 15 /Helvetica SCR
(1.5) 69.8755 349.303 15 /Helvetica SCR
(Re) 298.08 24.5188 15 /Helvetica STC
(Im) 90 45.8755 223.56 15 /Helvetica SBCR
(Finding CFL(MAX), dx=0.2) 298.08 409.6 15 /Helvetica SBC
1 W
[] 0 setdash
74.4337 47.52 LS
521.726 47.52 LE
0.5 W
480.698 47.1679 LS
480.698 399.952 LE
2 W
480.698 47.52 LS
480.698 51.5435 L
480.698 55.5654 L
480.698 59.5841 L
480.696 63.598 L
480.693 67.6056 L
480.688 71.6053 L
480.679 75.5958 L
480.666 79.5756 L
480.647 83.5432 L
480.621 87.4976 L
480.586 91.4375 L
480.54 95.3616 L
480.483 99.2691 L
480.412 103.159 L
480.326 107.03 L
480.222 110.882 L
480.1 114.713 L
479.956 118.523 L
479.79 122.312 L
479.6 126.079 L
479.383 129.823 L
479.139 133.545 L
478.865 137.243 L
478.561 140.917 L
478.224 144.567 L
477.853 148.192 L
477.447 151.794 L
477.004 155.37 L
476.523 158.922 L
476.004 162.449 L
475.444 165.951 L
474.843 169.428 L
474.2 172.88 L
473.514 176.306 L
472.784 179.707 L
472.009 183.083 L
471.189 186.434 L
470.322 189.76 L
469.409 193.061 L
468.449 196.336 L
467.441 199.586 L
466.385 202.811 L
465.28 206.011 L
464.127 209.186 L
462.924 212.336 L
461.672 215.46 L
460.37 218.56 L
459.018 221.634 L
457.616 224.684 L
456.164 227.709 L
454.662 230.708 L
453.109 233.683 L
451.506 236.633 L
449.853 239.558 L
448.149 242.457 L
446.395 245.332 L
444.591 248.182 L
442.737 251.007 L
440.833 253.806 L
438.879 256.581 L
436.875 259.33 L
434.822 262.055 L
432.72 264.754 L
430.568 267.428 L
428.368 270.077 L
426.119 272.701 L
423.822 275.299 L
421.477 277.872 L
419.084 280.419 L
416.644 282.941 L
414.156 285.438 L
411.622 287.908 L
409.041 290.354 L
406.414 292.773 L
403.741 295.167 L
401.023 297.534 L
398.26 299.876 L
395.452 302.192 L
392.6 304.482 L
389.704 306.745 L
386.765 308.983 L
383.782 311.194 L
380.757 313.378 L
377.69 315.536 L
374.581 317.668 L
371.431 319.773 L
368.24 321.851 L
365.009 323.902 L
361.737 325.927 L
358.427 327.924 L
355.077 329.895 L
351.689 331.838 L
348.263 333.754 L
344.8 335.642 L
341.3 337.503 L
337.763 339.337 L
334.19 341.143 L
330.582 342.921 L
326.939 344.671 L
323.261 346.394 L
319.55 348.089 L
315.805 349.755 L
312.028 351.393 L
308.218 353.004 L
304.377 354.585 L
300.504 356.139 L
296.601 357.664 L
292.668 359.16 L
288.705 360.628 L
284.714 362.066 L
280.693 363.476 L
276.646 364.858 L
272.57 366.21 L
268.469 367.533 L
264.341 368.826 L
260.187 370.091 L
256.009 371.326 L
251.806 372.532 L
247.579 373.709 L
243.33 374.856 L
239.057 375.973 L
234.763 377.061 L
230.447 378.118 L
226.11 379.146 L
221.753 380.145 L
217.376 381.113 L
212.98 382.051 L
208.566 382.959 L
204.134 383.837 L
199.685 384.685 L
195.219 385.503 L
190.737 386.29 L
186.239 387.047 L
181.727 387.774 L
177.2 388.47 L
172.66 389.135 L
168.106 389.77 L
163.541 390.375 L
158.963 390.949 L
154.374 391.492 L
149.775 392.004 L
145.166 392.486 L
140.547 392.937 L
135.92 393.357 L
131.285 393.747 L
126.642 394.105 L
121.992 394.433 L
117.336 394.73 L
112.675 394.996 L
108.008 395.23 L
103.337 395.434 L
98.662 395.607 L
93.9841 395.749 L
89.3035 395.86 L
84.6211 395.94 L
79.9374 395.989 L
75.253 396.007 L
74.4336 396.005 LE
0 0 1 C
480.698 47.52 LS
480.697 47.1679 LE
132.854 47.1679 LS
132.86 50.0572 L
132.883 53.0747 L
132.924 56.0917 L
132.982 59.1078 L
133.058 62.1228 L
133.151 65.1363 L
133.261 68.1481 L
133.388 71.1577 L
133.533 74.1651 L
133.695 77.1697 L
133.875 80.1714 L
134.072 83.1699 L
134.286 86.1647 L
134.517 89.1557 L
134.766 92.1426 L
135.032 95.1249 L
135.315 98.1026 L
135.615 101.075 L
135.932 104.042 L
136.266 107.004 L
136.617 109.959 L
136.986 112.909 L
137.371 115.852 L
137.773 118.788 L
138.193 121.716 L
138.629 124.638 L
139.081 127.552 L
139.551 130.457 L
140.037 133.355 L
140.54 136.244 L
141.06 139.124 L
141.596 141.994 L
142.149 144.856 L
142.718 147.707 L
143.304 150.549 L
143.906 153.38 L
144.524 156.201 L
145.158 159.011 L
145.809 161.81 L
146.476 164.597 L
147.158 167.373 L
147.857 170.136 L
148.572 172.887 L
149.302 175.626 L
150.048 178.352 L
150.81 181.065 L
151.587 183.765 L
152.38 186.451 L
153.189 189.123 L
154.012 191.78 L
154.852 194.424 L
155.706 197.053 L
156.575 199.666 L
157.459 202.265 L
158.359 204.848 L
159.273 207.415 L
160.202 209.967 L
161.145 212.502 L
162.103 215.021 L
163.076 217.523 L
164.063 220.007 L
165.064 222.475 L
166.079 224.925 L
167.109 227.358 L
168.152 229.772 L
169.209 232.168 L
170.28 234.546 L
171.365 236.905 L
172.463 239.245 L
173.575 241.566 L
174.7 243.868 L
175.838 246.149 L
176.989 248.411 L
178.154 250.653 L
179.331 252.875 L
180.52 255.076 L
181.723 257.256 L
182.938 259.416 L
184.165 261.554 L
185.405 263.671 L
186.657 265.766 L
187.92 267.839 L
189.196 269.89 L
190.483 271.919 L
191.783 273.926 L
193.093 275.91 L
194.415 277.871 L
195.748 279.809 L
197.092 281.724 L
198.448 283.616 L
199.814 285.483 L
201.19 287.327 L
202.578 289.148 L
203.975 290.943 L
205.383 292.715 L
206.802 294.462 L
208.23 296.184 L
209.668 297.882 L
211.115 299.554 L
212.573 301.202 L
214.039 302.823 L
215.515 304.42 L
217 305.99 L
218.494 307.535 L
219.997 309.054 L
221.509 310.547 L
223.029 312.013 L
224.557 313.453 L
226.094 314.866 L
227.639 316.253 L
229.192 317.612 L
230.752 318.945 L
232.32 320.251 L
233.896 321.529 L
235.478 322.78 L
237.068 324.003 L
238.665 325.199 L
240.269 326.367 L
241.879 327.507 L
243.496 328.619 L
245.119 329.703 L
246.748 330.759 L
248.384 331.786 L
250.025 332.785 L
251.672 333.755 L
253.324 334.697 L
254.982 335.61 L
256.645 336.495 L
258.313 337.35 L
259.985 338.176 L
261.663 338.974 L
263.345 339.742 L
265.031 340.481 L
266.721 341.191 L
268.416 341.871 L
270.114 342.522 L
271.816 343.143 L
273.521 343.735 L
275.23 344.297 L
276.942 344.83 L
278.657 345.333 L
280.375 345.806 L
282.095 346.249 L
283.818 346.662 L
285.543 347.045 L
287.27 347.399 L
289 347.722 L
290.73 348.016 L
292.463 348.279 L
294.197 348.513 L
295.932 348.716 L
297.669 348.889 L
299.406 349.032 L
301.144 349.145 L
302.883 349.227 L
304.621 349.28 L
306.361 349.302 L
308.1 349.294 L
309.839 349.256 L
311.578 349.188 L
313.316 349.089 L
315.054 348.961 L
316.79 348.802 L
318.526 348.613 L
320.261 348.394 L
321.994 348.145 L
323.726 347.866 L
325.456 347.557 L
327.184 347.218 L
328.91 346.849 L
330.634 346.45 L
332.356 346.021 L
334.075 345.562 L
335.791 345.074 L
337.504 344.555 L
339.215 344.007 L
340.922 343.43 L
342.625 342.822 L
344.325 342.186 L
346.022 341.519 L
347.714 340.824 L
349.402 340.099 L
351.086 339.344 L
352.766 338.561 L
354.441 337.748 L
356.111 336.907 L
357.776 336.036 L
359.437 335.137 L
361.092 334.209 L
362.741 333.252 L
364.385 332.267 L
366.023 331.253 L
367.655 330.211 L
369.281 329.14 L
370.901 328.042 L
372.515 326.915 L
374.122 325.76 L
375.722 324.578 L
377.315 323.368 L
378.901 322.13 L
380.48 320.865 L
382.052 319.572 L
383.616 318.253 L
385.172 316.906 L
386.721 315.532 L
388.261 314.131 L
389.794 312.704 L
391.318 311.251 L
392.834 309.77 L
394.341 308.264 L
395.839 306.732 L
397.328 305.173 L
398.809 303.589 L
400.28 301.98 L
401.742 300.344 L
403.194 298.684 L
404.637 296.999 L
406.07 295.288 L
407.492 293.553 L
408.905 291.793 L
410.308 290.009 L
411.7 288.2 L
413.082 286.367 L
414.453 284.511 L
415.814 282.631 L
417.163 280.727 L
418.502 278.8 L
419.829 276.85 L
421.145 274.877 L
422.449 272.881 L
423.742 270.863 L
425.024 268.822 L
426.293 266.759 L
427.551 264.674 L
428.796 262.568 L
430.029 260.44 L
431.25 258.291 L
432.459 256.12 L
433.655 253.929 L
434.838 251.717 L
436.008 249.485 L
437.166 247.233 L
438.31 244.96 L
439.441 242.668 L
440.559 240.356 L
441.664 238.025 L
442.755 235.675 L
443.833 233.307 L
444.897 230.919 L
445.947 228.513 L
446.983 226.09 L
448.005 223.648 L
449.013 221.189 L
450.007 218.712 L
450.986 216.218 L
451.951 213.707 L
452.902 211.18 L
453.837 208.637 L
454.759 206.077 L
455.665 203.501 L
456.556 200.91 L
457.433 198.303 L
458.294 195.682 L
459.141 193.045 L
459.972 190.394 L
460.787 187.729 L
461.588 185.05 L
462.373 182.357 L
463.142 179.65 L
463.896 176.93 L
464.634 174.198 L
465.356 171.452 L
466.062 168.694 L
466.752 165.925 L
467.427 163.143 L
468.085 160.35 L
468.727 157.545 L
469.353 154.729 L
469.963 151.903 L
470.556 149.066 L
471.133 146.22 L
471.694 143.363 L
472.238 140.496 L
472.766 137.621 L
473.277 134.736 L
473.771 131.843 L
474.249 128.941 L
474.709 126.031 L
475.153 123.113 L
475.581 120.188 L
475.991 117.255 L
476.384 114.316 L
476.761 111.369 L
477.12 108.417 L
477.463 105.458 L
477.788 102.494 L
478.096 99.5235 L
478.388 96.5482 L
478.662 93.5681 L
478.918 90.5834 L
479.158 87.5943 L
479.38 84.6013 L
479.585 81.6045 L
479.773 78.6043 L
479.944 75.601 L
480.097 72.595 L
480.233 69.5863 L
480.351 66.5755 L
480.452 63.5628 L
480.536 60.5485 L
480.602 57.5329 L
480.651 54.5163 L
480.683 51.499 L
480.697 48.4813 LE
1 0 0 C
480.698 47.52 LS
480.697 47.1679 LE
146.768 47.1679 LS
146.774 49.9557 L
146.796 52.8525 L
146.835 55.7488 L
146.891 58.6443 L
146.963 61.5387 L
147.053 64.4317 L
147.158 67.3229 L
147.281 70.2122 L
147.42 73.0993 L
147.576 75.9837 L
147.748 78.8654 L
147.937 81.7439 L
148.142 84.6189 L
148.364 87.4903 L
148.603 90.3577 L
148.858 93.2207 L
149.13 96.0793 L
149.418 98.9329 L
149.722 101.781 L
150.043 104.625 L
150.381 107.462 L
150.734 110.293 L
151.104 113.118 L
151.49 115.937 L
151.893 118.749 L
152.311 121.553 L
152.746 124.35 L
153.197 127.14 L
153.664 129.921 L
154.147 132.695 L
154.646 135.459 L
155.16 138.215 L
155.691 140.962 L
156.237 143.7 L
156.799 146.428 L
157.377 149.146 L
157.971 151.854 L
158.58 154.551 L
159.204 157.238 L
159.844 159.914 L
160.5 162.578 L
161.171 165.231 L
161.857 167.873 L
162.558 170.502 L
163.274 173.119 L
164.006 175.723 L
164.752 178.315 L
165.513 180.893 L
166.289 183.458 L
167.08 186.01 L
167.885 188.548 L
168.705 191.071 L
169.54 193.581 L
170.389 196.075 L
171.252 198.555 L
172.13 201.02 L
173.021 203.469 L
173.927 205.903 L
174.847 208.321 L
175.781 210.722 L
176.728 213.108 L
177.689 215.477 L
178.664 217.829 L
179.652 220.164 L
180.654 222.482 L
181.669 224.782 L
182.697 227.065 L
183.738 229.33 L
184.793 231.576 L
185.86 233.804 L
186.94 236.014 L
188.032 238.204 L
189.138 240.376 L
190.255 242.528 L
191.385 244.661 L
192.528 246.774 L
193.682 248.867 L
194.848 250.94 L
196.027 252.993 L
197.217 255.025 L
198.418 257.036 L
199.632 259.026 L
200.856 260.996 L
202.092 262.943 L
203.339 264.87 L
204.597 266.774 L
205.866 268.657 L
207.146 270.518 L
208.437 272.356 L
209.738 274.172 L
211.049 275.965 L
212.371 277.735 L
213.702 279.482 L
215.044 281.206 L
216.396 282.907 L
217.757 284.584 L
219.128 286.238 L
220.509 287.867 L
221.899 289.473 L
223.298 291.054 L
224.706 292.611 L
226.123 294.144 L
227.548 295.652 L
228.983 297.135 L
230.425 298.593 L
231.876 300.026 L
233.336 301.433 L
234.803 302.816 L
236.278 304.172 L
237.761 305.503 L
239.252 306.809 L
240.75 308.088 L
242.255 309.341 L
243.768 310.569 L
245.287 311.769 L
246.813 312.944 L
248.346 314.092 L
249.886 315.213 L
251.432 316.307 L
252.984 317.375 L
254.542 318.416 L
256.106 319.429 L
257.676 320.415 L
259.252 321.374 L
260.833 322.306 L
262.419 323.21 L
264.01 324.087 L
265.607 324.936 L
267.208 325.757 L
268.814 326.55 L
270.424 327.316 L
272.039 328.053 L
273.658 328.763 L
275.28 329.444 L
276.907 330.097 L
278.537 330.722 L
280.171 331.318 L
281.809 331.886 L
283.449 332.426 L
285.092 332.937 L
286.739 333.42 L
288.388 333.874 L
290.039 334.3 L
291.693 334.696 L
293.349 335.064 L
295.007 335.404 L
296.667 335.714 L
298.329 335.996 L
299.992 336.249 L
301.657 336.473 L
303.323 336.668 L
304.99 336.834 L
306.658 336.971 L
308.326 337.08 L
309.995 337.159 L
311.664 337.209 L
313.334 337.231 L
315.004 337.223 L
316.673 337.187 L
318.342 337.121 L
320.011 337.027 L
321.679 336.903 L
323.347 336.751 L
325.013 336.57 L
326.678 336.359 L
328.342 336.12 L
330.005 335.852 L
331.666 335.556 L
333.325 335.23 L
334.982 334.876 L
336.637 334.493 L
338.289 334.081 L
339.94 333.641 L
341.587 333.172 L
343.232 332.674 L
344.874 332.148 L
346.513 331.593 L
348.148 331.01 L
349.78 330.399 L
351.409 329.759 L
353.033 329.092 L
354.654 328.396 L
356.271 327.671 L
357.883 326.919 L
359.491 326.139 L
361.095 325.331 L
362.693 324.496 L
364.287 323.632 L
365.876 322.741 L
367.459 321.823 L
369.038 320.877 L
370.61 319.904 L
372.177 318.903 L
373.738 317.876 L
375.293 316.821 L
376.842 315.739 L
378.385 314.631 L
379.921 313.496 L
381.45 312.334 L
382.973 311.146 L
384.489 309.931 L
385.998 308.69 L
387.499 307.423 L
388.993 306.13 L
390.48 304.812 L
391.959 303.467 L
393.43 302.097 L
394.893 300.701 L
396.348 299.28 L
397.795 297.834 L
399.233 296.363 L
400.663 294.867 L
402.084 293.347 L
403.497 291.801 L
404.9 290.231 L
406.294 288.638 L
407.679 287.019 L
409.055 285.377 L
410.421 283.711 L
411.777 282.022 L
413.124 280.309 L
414.46 278.573 L
415.787 276.814 L
417.103 275.031 L
418.409 273.226 L
419.705 271.399 L
420.99 269.549 L
422.264 267.677 L
423.527 265.783 L
424.779 263.867 L
426.021 261.929 L
427.251 259.97 L
428.469 257.99 L
429.677 255.988 L
430.872 253.966 L
432.056 251.923 L
433.228 249.86 L
434.388 247.776 L
435.536 245.673 L
436.672 243.549 L
437.796 241.407 L
438.907 239.244 L
440.006 237.063 L
441.092 234.862 L
442.165 232.643 L
443.225 230.405 L
444.273 228.149 L
445.307 225.875 L
446.329 223.583 L
447.337 221.274 L
448.331 218.947 L
449.313 216.603 L
450.28 214.242 L
451.234 211.864 L
452.175 209.47 L
453.101 207.06 L
454.013 204.634 L
454.912 202.192 L
455.796 199.734 L
456.666 197.262 L
457.522 194.774 L
458.364 192.272 L
459.191 189.755 L
460.003 187.224 L
460.801 184.679 L
461.584 182.121 L
462.352 179.548 L
463.106 176.963 L
463.844 174.365 L
464.568 171.754 L
465.276 169.13 L
465.969 166.495 L
466.647 163.847 L
467.31 161.188 L
467.958 158.518 L
468.59 155.836 L
469.206 153.144 L
469.807 150.441 L
470.392 147.728 L
470.962 145.005 L
471.516 142.272 L
472.054 139.529 L
472.576 136.777 L
473.083 134.017 L
473.573 131.248 L
474.048 128.47 L
474.507 125.684 L
474.949 122.891 L
475.375 120.09 L
475.785 117.281 L
476.179 114.466 L
476.557 111.644 L
476.918 108.815 L
477.263 105.981 L
477.592 103.141 L
477.905 100.295 L
478.201 97.4433 L
478.48 94.5871 L
478.743 91.7262 L
478.99 88.8608 L
479.22 85.9913 L
479.433 83.118 L
479.63 80.2411 L
479.81 77.3609 L
479.974 74.4778 L
480.121 71.5919 L
480.251 68.7037 L
480.365 65.8133 L
480.462 62.9211 L
480.543 60.0274 L
480.606 57.1324 L
480.653 54.2364 L
480.684 51.3398 L
480.697 48.4428 LE
0 1 0 C
480.698 47.52 LS
480.697 47.1679 LE
179.234 47.1679 LS
179.239 49.7189 L
179.259 52.3341 L
179.294 54.9488 L
179.344 57.5628 L
179.41 60.1758 L
179.49 62.7875 L
179.586 65.3977 L
179.696 68.006 L
179.822 70.6124 L
179.963 73.2164 L
180.118 75.8179 L
180.289 78.4165 L
180.474 81.0121 L
180.675 83.6043 L
180.89 86.1929 L
181.12 88.7776 L
181.366 91.3582 L
181.626 93.9344 L
181.901 96.506 L
182.19 99.0727 L
182.495 101.634 L
182.814 104.19 L
183.148 106.741 L
183.497 109.285 L
183.86 111.824 L
184.238 114.356 L
184.63 116.881 L
185.037 119.399 L
185.459 121.91 L
185.895 124.414 L
186.345 126.91 L
186.81 129.398 L
187.289 131.878 L
187.782 134.349 L
188.29 136.812 L
188.811 139.266 L
189.347 141.71 L
189.897 144.145 L
190.461 146.571 L
191.039 148.987 L
191.63 151.392 L
192.236 153.787 L
192.855 156.172 L
193.488 158.545 L
194.135 160.908 L
194.795 163.259 L
195.469 165.599 L
196.156 167.926 L
196.857 170.242 L
197.571 172.546 L
198.298 174.837 L
199.038 177.115 L
199.791 179.38 L
200.558 181.632 L
201.337 183.871 L
202.13 186.096 L
202.935 188.307 L
203.752 190.504 L
204.583 192.687 L
205.425 194.856 L
206.281 197.009 L
207.148 199.148 L
208.028 201.271 L
208.921 203.379 L
209.825 205.472 L
210.741 207.548 L
211.669 209.609 L
212.609 211.654 L
213.561 213.682 L
214.525 215.693 L
215.5 217.688 L
216.486 219.665 L
217.484 221.626 L
218.493 223.569 L
219.513 225.494 L
220.544 227.402 L
221.586 229.292 L
222.639 231.163 L
223.703 233.016 L
224.777 234.851 L
225.862 236.666 L
226.957 238.463 L
228.063 240.241 L
229.179 242 L
230.305 243.739 L
231.44 245.458 L
232.586 247.158 L
233.741 248.837 L
234.906 250.497 L
236.081 252.136 L
237.265 253.755 L
238.458 255.353 L
239.66 256.931 L
240.872 258.487 L
242.092 260.022 L
243.321 261.536 L
244.559 263.029 L
245.805 264.5 L
247.06 265.95 L
248.323 267.377 L
249.594 268.783 L
250.873 270.166 L
252.16 271.528 L
253.455 272.866 L
254.757 274.183 L
256.067 275.476 L
257.385 276.747 L
258.71 277.995 L
260.041 279.22 L
261.38 280.422 L
262.726 281.6 L
264.078 282.755 L
265.437 283.887 L
266.803 284.994 L
268.174 286.079 L
269.552 287.139 L
270.936 288.175 L
272.326 289.187 L
273.722 290.175 L
275.123 291.139 L
276.53 292.078 L
277.942 292.993 L
279.359 293.884 L
280.781 294.75 L
282.209 295.591 L
283.641 296.407 L
285.077 297.198 L
286.518 297.965 L
287.964 298.706 L
289.414 299.422 L
290.867 300.113 L
292.325 300.779 L
293.787 301.419 L
295.252 302.035 L
296.72 302.624 L
298.192 303.188 L
299.667 303.727 L
301.145 304.24 L
302.626 304.727 L
304.11 305.188 L
305.596 305.624 L
307.085 306.034 L
308.576 306.418 L
310.069 306.776 L
311.564 307.109 L
313.061 307.415 L
314.559 307.695 L
316.06 307.95 L
317.561 308.178 L
319.064 308.38 L
320.568 308.556 L
322.073 308.706 L
323.578 308.83 L
325.084 308.928 L
326.591 309 L
328.098 309.045 L
329.606 309.064 L
331.113 309.058 L
332.62 309.025 L
334.127 308.965 L
335.634 308.88 L
337.14 308.769 L
338.645 308.631 L
340.149 308.468 L
341.652 308.278 L
343.155 308.062 L
344.656 307.82 L
346.155 307.552 L
347.653 307.258 L
349.149 306.938 L
350.643 306.593 L
352.135 306.221 L
353.625 305.823 L
355.112 305.4 L
356.597 304.951 L
358.079 304.476 L
359.559 303.975 L
361.035 303.449 L
362.508 302.897 L
363.979 302.319 L
365.445 301.717 L
366.909 301.088 L
368.368 300.435 L
369.824 299.756 L
371.275 299.051 L
372.723 298.322 L
374.166 297.568 L
375.605 296.788 L
377.039 295.984 L
378.469 295.155 L
379.893 294.301 L
381.313 293.422 L
382.728 292.519 L
384.137 291.591 L
385.541 290.639 L
386.939 289.662 L
388.332 288.662 L
389.719 287.637 L
391.099 286.588 L
392.474 285.515 L
393.843 284.419 L
395.205 283.299 L
396.56 282.155 L
397.909 280.988 L
399.251 279.797 L
400.586 278.583 L
401.914 277.346 L
403.235 276.086 L
404.549 274.804 L
405.855 273.498 L
407.154 272.17 L
408.444 270.82 L
409.727 269.447 L
411.002 268.052 L
412.269 266.635 L
413.528 265.196 L
414.778 263.735 L
416.02 262.252 L
417.253 260.748 L
418.478 259.223 L
419.693 257.677 L
420.9 256.109 L
422.098 254.521 L
423.286 252.912 L
424.465 251.283 L
425.635 249.633 L
426.795 247.963 L
427.945 246.273 L
429.085 244.563 L
430.216 242.833 L
431.337 241.084 L
432.447 239.315 L
433.547 237.527 L
434.637 235.72 L
435.716 233.895 L
436.785 232.051 L
437.843 230.188 L
438.891 228.307 L
439.927 226.408 L
440.953 224.491 L
441.967 222.556 L
442.97 220.604 L
443.962 218.635 L
444.942 216.648 L
445.911 214.645 L
446.869 212.625 L
447.814 210.588 L
448.748 208.535 L
449.67 206.466 L
450.58 204.381 L
451.478 202.28 L
452.364 200.164 L
453.238 198.033 L
454.099 195.886 L
454.948 193.725 L
455.784 191.549 L
456.608 189.359 L
457.419 187.154 L
458.217 184.936 L
459.003 182.704 L
459.775 180.458 L
460.535 178.199 L
461.282 175.927 L
462.015 173.642 L
462.735 171.344 L
463.442 169.034 L
464.136 166.712 L
464.816 164.378 L
465.483 162.033 L
466.136 159.676 L
466.776 157.307 L
467.401 154.928 L
468.013 152.538 L
468.612 150.137 L
469.196 147.726 L
469.767 145.306 L
470.323 142.875 L
470.866 140.435 L
471.394 137.985 L
471.909 135.527 L
472.409 133.06 L
472.895 130.584 L
473.366 128.1 L
473.823 125.607 L
474.266 123.107 L
474.695 120.6 L
475.108 118.085 L
475.508 115.563 L
475.893 113.034 L
476.263 110.499 L
476.619 107.957 L
476.96 105.41 L
477.286 102.856 L
477.597 100.297 L
477.894 97.733 L
478.176 95.1637 L
478.443 92.5897 L
478.696 90.0111 L
478.933 87.4284 L
479.156 84.8416 L
479.363 82.2511 L
479.556 79.6571 L
479.734 77.0599 L
479.896 74.4597 L
480.044 71.8569 L
480.177 69.2516 L
480.295 66.6442 L
480.397 64.0348 L
480.485 61.4238 L
480.558 58.8114 L
480.615 56.1979 L
480.658 53.5835 L
480.685 50.9684 L
480.697 48.3531 LE
1 1 1 C
316.285 50.2658 316.285 159.992 316.285 50.2658 T
316.285 50.2658 316.285 159.992 316.285 159.992 T
77.6258 159.992 316.285 159.992 77.6258 159.992 T
77.6258 159.992 316.285 159.992 316.285 159.992 T
77.6258 159.992 316.285 50.2658 77.6258 50.2658 T
77.6258 159.992 316.285 159.992 316.285 50.2658 T
[16 0] 0 setdash
0 0 0 C
77.6258 50.2658 LS
316.285 50.2658 LE
77.6258 159.992 LS
316.285 159.992 LE
77.6258 159.992 LS
316.285 159.992 LE
77.6258 50.2658 LS
316.285 50.2658 LE
77.6258 50.2658 LS
77.6258 159.992 LE
316.285 50.2658 LS
316.285 159.992 LE
316.285 50.2658 LS
316.285 159.992 LE
77.6258 50.2658 LS
77.6258 159.992 L
77.6258 159.992 LE
316.285 159.992 LS
316.285 159.992 LE
316.285 50.2658 LS
316.285 50.2658 LE
77.6258 50.2658 LS
77.6258 50.2658 LE
(RK2 Stability Region) 103.711 146.276 20 /Helvetica SCL
(CFL=1.5) 103.711 118.845 20 /Helvetica SCL
(CFL=1.44) 103.711 91.4131 20 /Helvetica SCL
(CFL=1.3) 103.711 63.9816 20 /Helvetica SCL
0.5 W
[] 0 setdash
80.3716 146.276 LS
100.965 146.276 LE
0 0 1 C
80.3716 118.845 LS
100.965 118.845 LE
1 0 0 C
80.3716 91.4131 LS
100.965 91.4131 LE
0 1 0 C
80.3716 63.9816 LS
100.965 63.9816 LE
grestore
showpage
cleartomark
%%PageTrailer
%%Trailer
end
%%EOF
