%!PS-Adobe-3.0 EPSF-3.0
%%Title: glps_renderer figure
%%Creator: GL2PS 1.3.8, (C) 1999-2012 C. Geuzaine
%%For: Octave
%%CreationDate: Sun Nov 29 10:16:08 2015
%%LanguageLevel: 3
%%DocumentData: Clean7Bit
%%Pages: 1
%%BoundingBox: 0 0 576 432
%%EndComments
%%BeginProlog
/gl2psdict 64 dict def gl2psdict begin
0 setlinecap 0 setlinejoin
/tryPS3shading false def % set to false to force subdivision
/rThreshold 0.064 def % red component subdivision threshold
/gThreshold 0.034 def % green component subdivision threshold
/bThreshold 0.1 def % blue component subdivision threshold
/BD { bind def } bind def
/C  { setrgbcolor } BD
/G  { 0.082 mul exch 0.6094 mul add exch 0.3086 mul add neg 1.0 add setgray } BD
/W  { setlinewidth } BD
/FC { findfont exch /SH exch def SH scalefont setfont } BD
/SW { dup stringwidth pop } BD
/S  { FC moveto show } BD
/SBC{ FC moveto SW -2 div 0 rmoveto show } BD
/SBR{ FC moveto SW neg 0 rmoveto show } BD
/SCL{ FC moveto 0 SH -2 div rmoveto show } BD
/SCC{ FC moveto SW -2 div SH -2 div rmoveto show } BD
/SCR{ FC moveto SW neg SH -2 div rmoveto show } BD
/STL{ FC moveto 0 SH neg rmoveto show } BD
/STC{ FC moveto SW -2 div SH neg rmoveto show } BD
/STR{ FC moveto SW neg SH neg rmoveto show } BD
/FCT { FC translate 0 0 } BD
/SR  { gsave FCT moveto rotate show grestore } BD
/SBCR{ gsave FCT moveto rotate SW -2 div 0 rmoveto show grestore } BD
/SBRR{ gsave FCT moveto rotate SW neg 0 rmoveto show grestore } BD
/SCLR{ gsave FCT moveto rotate 0 SH -2 div rmoveto show grestore} BD
/SCCR{ gsave FCT moveto rotate SW -2 div SH -2 div rmoveto show grestore} BD
/SCRR{ gsave FCT moveto rotate SW neg SH -2 div rmoveto show grestore} BD
/STLR{ gsave FCT moveto rotate 0 SH neg rmoveto show grestore } BD
/STCR{ gsave FCT moveto rotate SW -2 div SH neg rmoveto show grestore } BD
/STRR{ gsave FCT moveto rotate SW neg SH neg rmoveto show grestore } BD
/P  { newpath 0.0 360.0 arc closepath fill } BD
/LS { newpath moveto } BD
/L  { lineto } BD
/LE { lineto stroke } BD
/T  { newpath moveto lineto lineto closepath fill } BD
/STshfill {
      /b1 exch def /g1 exch def /r1 exch def /y1 exch def /x1 exch def
      /b2 exch def /g2 exch def /r2 exch def /y2 exch def /x2 exch def
      /b3 exch def /g3 exch def /r3 exch def /y3 exch def /x3 exch def
      gsave << /ShadingType 4 /ColorSpace [/DeviceRGB]
      /DataSource [ 0 x1 y1 r1 g1 b1 0 x2 y2 r2 g2 b2 0 x3 y3 r3 g3 b3 ] >>
      shfill grestore } BD
/Tm { 3 -1 roll 8 -1 roll 13 -1 roll add add 3 div
      3 -1 roll 7 -1 roll 11 -1 roll add add 3 div
      3 -1 roll 6 -1 roll 9 -1 roll add add 3 div C T } BD
/STsplit {
      4 index 15 index add 0.5 mul
      4 index 15 index add 0.5 mul
      4 index 15 index add 0.5 mul
      4 index 15 index add 0.5 mul
      4 index 15 index add 0.5 mul
      5 copy 5 copy 25 15 roll
      9 index 30 index add 0.5 mul
      9 index 30 index add 0.5 mul
      9 index 30 index add 0.5 mul
      9 index 30 index add 0.5 mul
      9 index 30 index add 0.5 mul
      5 copy 5 copy 35 5 roll 25 5 roll 15 5 roll
      4 index 10 index add 0.5 mul
      4 index 10 index add 0.5 mul
      4 index 10 index add 0.5 mul
      4 index 10 index add 0.5 mul
      4 index 10 index add 0.5 mul
      5 copy 5 copy 40 5 roll 25 5 roll 15 5 roll 25 5 roll
      STnoshfill STnoshfill STnoshfill STnoshfill } BD
/STnoshfill {
      2 index 8 index sub abs rThreshold gt
      { STsplit }
      { 1 index 7 index sub abs gThreshold gt
        { STsplit }
        { dup 6 index sub abs bThreshold gt
          { STsplit }
          { 2 index 13 index sub abs rThreshold gt
            { STsplit }
            { 1 index 12 index sub abs gThreshold gt
              { STsplit }
              { dup 11 index sub abs bThreshold gt
                { STsplit }
                { 7 index 13 index sub abs rThreshold gt
                  { STsplit }
                  { 6 index 12 index sub abs gThreshold gt
                    { STsplit }
                    { 5 index 11 index sub abs bThreshold gt
                      { STsplit }
                      { Tm }
                      ifelse }
                    ifelse }
                  ifelse }
                ifelse }
              ifelse }
            ifelse }
          ifelse }
        ifelse }
      ifelse } BD
tryPS3shading
{ /shfill where
  { /ST { STshfill } BD }
  { /ST { STnoshfill } BD }
  ifelse }
{ /ST { STnoshfill } BD }
ifelse
end
%%EndProlog
%%BeginSetup
/DeviceRGB setcolorspace
gl2psdict begin
%%EndSetup
%%Page: 1 1
%%BeginPageSetup
%%EndPageSetup
mark
gsave
1.0 1.0 scale
1 1 1 C
474.12 47.52 474.12 399.6 474.12 47.52 T
474.12 47.52 474.12 399.6 474.12 399.6 T
122.04 399.6 474.12 399.6 122.04 399.6 T
122.04 399.6 474.12 399.6 474.12 399.6 T
122.04 399.6 474.12 47.52 122.04 47.52 T
122.04 399.6 474.12 399.6 474.12 47.52 T
0.5 W
[16 0] 0 setdash
0 0 0 C
122.04 47.52 LS
474.12 47.52 LE
122.04 399.6 LS
474.12 399.6 LE
122.04 399.6 LS
474.12 399.6 LE
122.04 47.52 LS
474.12 47.52 LE
122.04 47.52 LS
122.04 399.6 LE
474.12 47.52 LS
474.12 399.6 LE
474.12 47.52 LS
474.12 399.6 LE
122.04 47.52 LS
122.04 399.6 L
122.04 399.6 LE
474.12 399.6 LS
474.12 399.6 LE
474.12 47.52 LS
474.12 47.52 LE
122.04 47.52 LS
122.04 47.52 LE
[0 3 1 3 1 3 1 3 1 0] 0 setdash
122.04 47.52 LS
122.04 399.6 LE
180.72 47.52 LS
180.72 399.6 LE
239.4 47.52 LS
239.4 399.6 LE
298.08 47.52 LS
298.08 399.6 LE
356.76 47.52 LS
356.76 399.6 LE
415.44 47.52 LS
415.44 399.6 LE
474.12 47.52 LS
474.12 399.6 LE
[16 0] 0 setdash
122.04 47.52 LS
122.04 51.985 LE
122.04 399.6 LS
122.04 395.135 LE
180.72 47.52 LS
180.72 51.985 LE
180.72 399.6 LS
180.72 395.135 LE
239.4 47.52 LS
239.4 51.985 LE
239.4 399.6 LS
239.4 395.135 LE
298.08 47.52 LS
298.08 51.985 LE
298.08 399.6 LS
298.08 395.135 LE
356.76 47.52 LS
356.76 51.985 LE
356.76 399.6 LS
356.76 395.135 LE
415.44 47.52 LS
415.44 51.985 LE
415.44 399.6 LS
415.44 395.135 LE
474.12 47.52 LS
474.12 51.985 LE
474.12 399.6 LS
474.12 395.135 LE
(-2.5) 122.04 42.5189 15 /Helvetica STC
(-2) 180.72 42.5189 15 /Helvetica STC
(-1.5) 239.4 42.5189 15 /Helvetica STC
(-1) 298.08 42.5189 15 /Helvetica STC
(-0.5) 356.76 42.5189 15 /Helvetica STC
(0) 415.44 42.5189 15 /Helvetica STC
(0.5) 474.12 42.5189 15 /Helvetica STC
[0 3 1 3 1 3 1 3 1 0] 0 setdash
122.04 72.6686 LS
474.12 72.6686 LE
122.04 122.966 LS
474.12 122.966 LE
122.04 173.263 LS
474.12 173.263 LE
122.04 223.56 LS
474.12 223.56 LE
122.04 273.857 LS
474.12 273.857 LE
122.04 324.154 LS
474.12 324.154 LE
122.04 374.451 LS
474.12 374.451 LE
[16 0] 0 setdash
122.04 72.6686 LS
126.505 72.6686 LE
474.12 72.6686 LS
469.655 72.6686 LE
122.04 122.966 LS
126.505 122.966 LE
474.12 122.966 LS
469.655 122.966 LE
122.04 173.263 LS
126.505 173.263 LE
474.12 173.263 LS
469.655 173.263 LE
122.04 223.56 LS
126.505 223.56 LE
474.12 223.56 LS
469.655 223.56 LE
122.04 273.857 LS
126.505 273.857 LE
474.12 273.857 LS
469.655 273.857 LE
122.04 324.154 LS
126.505 324.154 LE
474.12 324.154 LS
469.655 324.154 LE
122.04 374.451 LS
126.505 374.451 LE
474.12 374.451 LS
469.655 374.451 LE
(-1.5) 117.039 72.6685 15 /Helvetica SCR
(-1) 117.039 122.966 15 /Helvetica SCR
(-0.5) 117.039 173.263 15 /Helvetica SCR
(0) 117.039 223.56 15 /Helvetica SCR
(0.5) 117.039 273.857 15 /Helvetica SCR
(1) 117.039 324.154 15 /Helvetica SCR
(1.5) 117.039 374.451 15 /Helvetica SCR
(Re) 298.08 24.5188 15 /Helvetica STC
(Im) 90 88.0389 223.56 15 /Helvetica SBCR
(Finding CFL(MAX), dx<0.1) 298.08 409.6 15 /Helvetica SBC
1 W
[] 0 setdash
121.688 223.56 LS
474.472 223.56 LE
0.5 W
415.44 47.1679 LS
415.44 399.952 LE
2 W
415.44 223.56 LS
415.44 225.572 L
415.44 227.583 L
415.44 229.592 L
415.439 231.599 L
415.439 233.603 L
415.437 235.603 L
415.434 237.598 L
415.431 239.588 L
415.425 241.572 L
415.418 243.549 L
415.407 245.519 L
415.394 247.481 L
415.378 249.435 L
415.357 251.379 L
415.332 253.315 L
415.302 255.241 L
415.267 257.156 L
415.225 259.062 L
415.177 260.956 L
415.122 262.84 L
415.06 264.712 L
414.989 266.572 L
414.91 268.421 L
414.822 270.258 L
414.724 272.083 L
414.617 273.896 L
414.5 275.697 L
414.372 277.485 L
414.233 279.261 L
414.082 281.025 L
413.921 282.776 L
413.747 284.514 L
413.561 286.24 L
413.362 287.953 L
413.151 289.654 L
412.927 291.342 L
412.69 293.017 L
412.439 294.68 L
412.175 296.33 L
411.898 297.968 L
411.606 299.593 L
411.301 301.206 L
410.981 302.805 L
410.648 304.393 L
410.3 305.968 L
409.938 307.53 L
409.561 309.08 L
409.17 310.617 L
408.765 312.142 L
408.345 313.654 L
407.91 315.154 L
407.461 316.642 L
406.998 318.116 L
406.52 319.579 L
406.027 321.029 L
405.52 322.466 L
404.998 323.891 L
404.462 325.303 L
403.911 326.703 L
403.346 328.09 L
402.767 329.465 L
402.173 330.827 L
401.565 332.177 L
400.943 333.514 L
400.307 334.839 L
399.656 336.15 L
398.992 337.449 L
398.314 338.736 L
397.622 340.01 L
396.916 341.271 L
396.197 342.519 L
395.464 343.754 L
394.717 344.977 L
393.958 346.187 L
393.185 347.383 L
392.398 348.567 L
391.599 349.738 L
390.787 350.896 L
389.963 352.041 L
389.125 353.173 L
388.275 354.291 L
387.413 355.397 L
386.538 356.489 L
385.651 357.568 L
384.752 358.634 L
383.841 359.686 L
382.918 360.726 L
381.983 361.751 L
381.037 362.763 L
380.08 363.762 L
379.111 364.747 L
378.131 365.719 L
377.141 366.677 L
376.139 367.621 L
375.127 368.552 L
374.104 369.468 L
373.071 370.371 L
372.027 371.26 L
370.974 372.136 L
369.91 372.997 L
368.837 373.844 L
367.754 374.678 L
366.662 375.497 L
365.56 376.302 L
364.449 377.093 L
363.329 377.869 L
362.2 378.632 L
361.063 379.38 L
359.917 380.114 L
358.762 380.833 L
357.6 381.538 L
356.429 382.229 L
355.251 382.905 L
354.065 383.566 L
352.871 384.213 L
351.67 384.846 L
350.461 385.463 L
349.246 386.066 L
348.024 386.654 L
346.795 387.228 L
345.559 387.786 L
344.317 388.33 L
343.069 388.859 L
341.815 389.373 L
340.555 389.872 L
339.289 390.356 L
338.018 390.826 L
336.741 391.28 L
335.459 391.719 L
334.173 392.143 L
332.881 392.551 L
331.585 392.945 L
330.284 393.323 L
328.979 393.687 L
327.67 394.035 L
326.357 394.368 L
325.04 394.685 L
323.72 394.987 L
322.396 395.274 L
321.069 395.546 L
319.739 395.802 L
318.406 396.043 L
317.071 396.269 L
315.732 396.479 L
314.392 396.673 L
313.049 396.853 L
311.705 397.016 L
310.358 397.165 L
309.01 397.298 L
307.66 397.415 L
306.31 397.517 L
304.958 397.604 L
303.605 397.675 L
302.251 397.73 L
300.897 397.77 L
299.543 397.795 L
298.188 397.804 L
296.833 397.797 L
295.479 397.775 L
294.124 397.738 L
292.771 397.685 L
291.418 397.616 L
290.066 397.532 L
288.715 397.432 L
287.365 397.318 L
286.017 397.187 L
284.67 397.041 L
283.325 396.88 L
281.982 396.703 L
280.641 396.511 L
279.302 396.303 L
277.966 396.08 L
276.633 395.842 L
275.302 395.588 L
273.975 395.319 L
272.651 395.034 L
271.33 394.734 L
270.012 394.419 L
268.699 394.089 L
267.389 393.743 L
266.083 393.382 L
264.782 393.006 L
263.485 392.615 L
262.193 392.209 L
260.905 391.787 L
259.623 391.351 L
258.345 390.899 L
257.073 390.432 L
255.806 389.95 L
254.546 389.454 L
253.29 388.942 L
252.041 388.416 L
250.798 387.874 L
249.562 387.318 L
248.332 386.747 L
247.108 386.161 L
245.892 385.56 L
244.682 384.945 L
243.48 384.315 L
242.285 383.67 L
241.098 383.011 L
239.918 382.337 L
238.746 381.649 L
237.582 380.946 L
236.426 380.229 L
235.279 379.498 L
234.14 378.752 L
233.01 377.992 L
231.889 377.217 L
230.776 376.429 L
229.673 375.626 L
228.579 374.809 L
227.495 373.978 L
226.42 373.133 L
225.355 372.274 L
224.3 371.401 L
223.255 370.514 L
222.22 369.613 L
221.195 368.699 L
220.181 367.77 L
219.178 366.828 L
218.186 365.872 L
217.204 364.903 L
216.234 363.92 L
215.274 362.923 L
214.327 361.913 L
213.39 360.89 L
212.466 359.853 L
211.553 358.802 L
210.652 357.739 L
209.763 356.662 L
208.886 355.572 L
208.022 354.468 L
207.169 353.352 L
206.33 352.222 L
205.503 351.079 L
204.689 349.923 L
203.888 348.755 L
203.1 347.573 L
202.325 346.378 L
201.563 345.17 L
200.814 343.95 L
200.079 342.716 L
199.358 341.47 L
198.65 340.211 L
197.956 338.94 L
197.275 337.655 L
196.609 336.358 L
195.956 335.048 L
195.318 333.726 L
194.693 332.391 L
194.083 331.043 L
193.487 329.683 L
192.905 328.31 L
192.338 326.925 L
191.785 325.527 L
191.246 324.117 L
190.722 322.694 L
190.213 321.258 L
189.718 319.81 L
189.237 318.35 L
188.771 316.877 L
188.32 315.392 L
187.883 313.894 L
187.461 312.384 L
187.053 310.861 L
186.66 309.326 L
186.281 307.778 L
185.917 306.217 L
185.567 304.645 L
185.231 303.059 L
184.909 301.461 L
184.602 299.851 L
184.308 298.228 L
184.028 296.592 L
183.762 294.944 L
183.509 293.283 L
183.27 291.609 L
183.044 289.923 L
182.83 288.225 L
182.63 286.513 L
182.442 284.79 L
182.266 283.053 L
182.103 281.304 L
181.951 279.543 L
181.81 277.769 L
181.68 275.982 L
181.561 274.184 L
181.452 272.373 L
181.353 270.55 L
181.263 268.715 L
181.183 266.868 L
181.111 265.009 L
181.047 263.139 L
180.991 261.257 L
180.942 259.364 L
180.899 257.461 L
180.863 255.547 L
180.832 253.622 L
180.806 251.688 L
180.785 249.745 L
180.768 247.793 L
180.754 245.832 L
180.744 243.863 L
180.736 241.887 L
180.73 239.904 L
180.726 237.915 L
180.723 235.921 L
180.722 233.922 L
180.721 231.918 L
180.72 229.912 L
180.72 227.903 L
180.72 225.892 L
180.72 223.88 L
180.72 221.869 L
180.72 219.857 L
180.72 217.848 L
180.72 215.84 L
180.721 213.836 L
180.723 211.836 L
180.725 209.84 L
180.729 207.849 L
180.734 205.864 L
180.741 203.886 L
180.751 201.914 L
180.763 199.951 L
180.779 197.996 L
180.799 196.05 L
180.823 194.113 L
180.853 192.185 L
180.887 190.268 L
180.928 188.361 L
180.975 186.465 L
181.028 184.58 L
181.09 182.706 L
181.159 180.843 L
181.237 178.992 L
181.323 177.153 L
181.419 175.327 L
181.525 173.512 L
181.641 171.709 L
181.767 169.919 L
181.904 168.141 L
182.053 166.375 L
182.213 164.623 L
182.385 162.882 L
182.569 161.154 L
182.765 159.439 L
182.974 157.736 L
183.196 156.046 L
183.431 154.369 L
183.68 152.704 L
183.942 151.052 L
184.217 149.412 L
184.506 147.785 L
184.81 146.17 L
185.127 144.568 L
185.458 142.979 L
185.804 141.402 L
186.164 139.838 L
186.538 138.286 L
186.926 136.747 L
187.33 135.22 L
187.747 133.706 L
188.179 132.204 L
188.626 130.715 L
189.087 129.238 L
189.563 127.773 L
190.054 126.321 L
190.558 124.882 L
191.078 123.455 L
191.612 122.041 L
192.16 120.639 L
192.723 119.25 L
193.3 117.873 L
193.892 116.509 L
194.497 115.157 L
195.117 113.818 L
195.751 112.492 L
196.399 111.178 L
197.061 109.877 L
197.737 108.588 L
198.427 107.312 L
199.131 106.049 L
199.848 104.799 L
200.579 103.562 L
201.323 102.337 L
202.081 101.125 L
202.851 99.9264 L
203.635 98.7404 L
204.432 97.5675 L
205.242 96.4075 L
206.065 95.2605 L
206.901 94.1266 L
207.749 93.0059 L
208.609 91.8983 L
209.482 90.8039 L
210.367 89.7227 L
211.264 88.6548 L
212.173 87.6003 L
213.094 86.5591 L
214.027 85.5312 L
214.971 84.5169 L
215.927 83.5161 L
216.894 82.5287 L
217.872 81.555 L
218.861 80.5948 L
219.861 79.6484 L
220.871 78.7157 L
221.892 77.7967 L
222.924 76.8915 L
223.966 76.0002 L
225.018 75.1227 L
226.08 74.2592 L
227.151 73.4097 L
228.233 72.5742 L
229.324 71.7528 L
230.424 70.9455 L
231.533 70.1523 L
232.652 69.3734 L
233.779 68.6087 L
234.915 67.8582 L
236.06 67.1221 L
237.213 66.4004 L
238.374 65.6931 L
239.544 65.0003 L
240.721 64.3219 L
241.906 63.6581 L
243.099 63.0088 L
244.299 62.3742 L
245.506 61.7542 L
246.72 61.1489 L
247.941 60.5583 L
249.169 59.9825 L
250.404 59.4215 L
251.645 58.8753 L
252.892 58.344 L
254.145 57.8276 L
255.404 57.3261 L
256.669 56.8396 L
257.939 56.3681 L
259.215 55.9117 L
260.496 55.4702 L
261.782 55.0439 L
263.073 54.6327 L
264.368 54.2366 L
265.668 53.8558 L
266.973 53.4901 L
268.281 53.1396 L
269.593 52.8043 L
270.91 52.4844 L
272.229 52.1797 L
273.553 51.8903 L
274.879 51.6163 L
276.209 51.3576 L
277.541 51.1142 L
278.876 50.8863 L
280.214 50.6737 L
281.554 50.4766 L
282.897 50.2948 L
284.241 50.1286 L
285.587 49.9777 L
286.935 49.8423 L
288.285 49.7224 L
289.635 49.618 L
290.987 49.5291 L
292.34 49.4556 L
293.693 49.3976 L
295.047 49.3552 L
296.402 49.3282 L
297.756 49.3167 L
299.111 49.3208 L
300.466 49.3404 L
301.82 49.3754 L
303.174 49.426 L
304.527 49.492 L
305.879 49.5736 L
307.23 49.6706 L
308.58 49.7831 L
309.929 49.9111 L
311.276 50.0546 L
312.621 50.2135 L
313.964 50.3878 L
315.306 50.5776 L
316.645 50.7828 L
317.981 51.0034 L
319.315 51.2394 L
320.646 51.4908 L
321.974 51.7575 L
323.299 52.0395 L
324.62 52.3369 L
325.938 52.6496 L
327.252 52.9775 L
328.563 53.3207 L
329.869 53.6791 L
331.171 54.0528 L
332.469 54.4416 L
333.762 54.8456 L
335.05 55.2647 L
336.333 55.6989 L
337.612 56.1481 L
338.885 56.6125 L
340.152 57.0918 L
341.414 57.5862 L
342.67 58.0954 L
343.92 58.6196 L
345.164 59.1587 L
346.402 59.7126 L
347.633 60.2813 L
348.857 60.8649 L
350.075 61.4631 L
351.286 62.0761 L
352.489 62.7038 L
353.685 63.346 L
354.874 64.0029 L
356.055 64.6743 L
357.228 65.3603 L
358.393 66.0607 L
359.55 66.7755 L
360.699 67.5047 L
361.839 68.2483 L
362.97 69.0062 L
364.093 69.7784 L
365.207 70.5647 L
366.312 71.3653 L
367.407 72.18 L
368.493 73.0087 L
369.569 73.8516 L
370.636 74.7084 L
371.693 75.5792 L
372.74 76.4639 L
373.776 77.3625 L
374.802 78.2748 L
375.818 79.201 L
376.823 80.1409 L
377.817 81.0945 L
378.8 82.0618 L
379.773 83.0426 L
380.734 84.037 L
381.683 85.0449 L
382.621 86.0663 L
383.548 87.1011 L
384.463 88.1493 L
385.366 89.2108 L
386.256 90.2857 L
387.135 91.3737 L
388.002 92.475 L
388.856 93.5895 L
389.697 94.7171 L
390.526 95.8578 L
391.342 97.0116 L
392.145 98.1784 L
392.936 99.3581 L
393.713 100.551 L
394.477 101.756 L
395.227 102.975 L
395.965 104.206 L
396.688 105.45 L
397.398 106.707 L
398.095 107.977 L
398.777 109.259 L
399.446 110.554 L
400.101 111.862 L
400.742 113.183 L
401.368 114.516 L
401.981 115.861 L
402.579 117.22 L
403.163 118.59 L
403.733 119.974 L
404.288 121.369 L
404.829 122.778 L
405.355 124.199 L
405.867 125.632 L
406.364 127.078 L
406.847 128.536 L
407.315 130.007 L
407.769 131.491 L
408.208 132.987 L
408.633 134.495 L
409.043 136.016 L
409.438 137.549 L
409.819 139.095 L
410.186 140.653 L
410.538 142.224 L
410.877 143.808 L
411.201 145.403 L
411.51 147.012 L
411.806 148.633 L
412.088 150.267 L
412.357 151.913 L
412.612 153.572 L
412.853 155.243 L
413.081 156.927 L
413.296 158.624 L
413.499 160.333 L
413.689 162.055 L
413.866 163.789 L
414.032 165.536 L
414.186 167.296 L
414.329 169.068 L
414.46 170.852 L
414.581 172.649 L
414.691 174.458 L
414.792 176.279 L
414.883 178.112 L
414.965 179.957 L
415.038 181.814 L
415.103 183.683 L
415.161 185.563 L
415.211 187.454 L
415.254 189.355 L
415.292 191.268 L
415.323 193.191 L
415.35 195.123 L
415.372 197.065 L
415.389 199.016 L
415.404 200.975 L
415.415 202.943 L
415.423 204.918 L
415.429 206.9 L
415.433 208.888 L
415.436 210.881 L
415.438 212.88 L
415.439 214.882 L
415.44 216.888 L
415.44 218.897 L
415.44 220.908 L
415.44 222.919 LE
0 0 1 C
415.44 223.56 LS
415.434 220.039 L
415.417 216.519 L
415.387 212.999 L
415.346 209.481 L
415.293 205.963 L
415.229 202.448 L
415.153 198.935 L
415.065 195.424 L
414.965 191.916 L
414.854 188.411 L
414.731 184.909 L
414.596 181.412 L
414.45 177.918 L
414.292 174.43 L
414.122 170.946 L
413.941 167.467 L
413.748 163.994 L
413.544 160.527 L
413.328 157.067 L
413.101 153.612 L
412.862 150.165 L
412.611 146.726 L
412.349 143.294 L
412.076 139.87 L
411.792 136.454 L
411.496 133.047 L
411.188 129.649 L
410.869 126.261 L
410.539 122.882 L
410.198 119.513 L
409.846 116.155 L
409.482 112.807 L
409.108 109.471 L
408.722 106.146 L
408.325 102.833 L
407.917 99.5313 L
407.498 96.2424 L
407.068 92.9663 L
406.627 89.7032 L
406.176 86.4536 L
405.713 83.2176 L
405.24 79.9957 L
404.756 76.7881 L
404.262 73.5952 L
403.756 70.4173 L
403.241 67.2547 L
402.714 64.1078 L
402.178 60.9768 L
401.631 57.862 L
401.073 54.7639 L
400.505 51.6825 L
399.927 48.6184 L
399.647 47.1679 LE
196.513 47.1679 LS
196.326 48.132 L
195.746 51.1934 L
195.177 54.272 L
194.618 57.3675 L
194.069 60.4796 L
193.53 63.608 L
193.002 66.7525 L
192.485 69.9126 L
191.978 73.0881 L
191.482 76.2786 L
190.996 79.4839 L
190.521 82.7035 L
190.057 85.9373 L
189.604 89.1848 L
189.161 92.4457 L
188.73 95.7198 L
188.309 99.0066 L
187.899 102.306 L
187.501 105.617 L
187.113 108.941 L
186.737 112.275 L
186.371 115.621 L
186.017 118.978 L
185.674 122.345 L
185.342 125.722 L
185.022 129.109 L
184.713 132.505 L
184.415 135.911 L
184.128 139.325 L
183.853 142.748 L
183.59 146.179 L
183.337 149.617 L
183.097 153.063 L
182.867 156.516 L
182.65 159.976 L
182.444 163.442 L
182.249 166.914 L
182.066 170.391 L
181.894 173.874 L
181.735 177.362 L
181.586 180.855 L
181.45 184.352 L
181.325 187.853 L
181.212 191.357 L
181.11 194.865 L
181.021 198.375 L
180.943 201.888 L
180.876 205.403 L
180.822 208.92 L
180.779 212.439 L
180.747 215.958 L
180.728 219.479 L
180.72 222.999 L
180.724 226.52 L
180.74 230.04 L
180.767 233.56 L
180.807 237.079 L
180.857 240.597 L
180.92 244.112 L
180.994 247.626 L
181.081 251.137 L
181.178 254.646 L
181.288 258.151 L
181.409 261.653 L
181.542 265.151 L
181.686 268.646 L
181.842 272.135 L
182.01 275.62 L
182.189 279.099 L
182.38 282.573 L
182.583 286.041 L
182.797 289.503 L
183.022 292.958 L
183.259 296.406 L
183.508 299.847 L
183.768 303.28 L
184.039 306.706 L
184.322 310.123 L
184.617 313.531 L
184.922 316.93 L
185.239 320.32 L
185.567 323.701 L
185.907 327.071 L
186.257 330.431 L
186.619 333.78 L
186.992 337.118 L
187.376 340.445 L
187.771 343.761 L
188.177 347.064 L
188.595 350.355 L
189.023 353.633 L
189.462 356.898 L
189.912 360.15 L
190.372 363.388 L
190.844 366.612 L
191.326 369.822 L
191.819 373.017 L
192.322 376.198 L
192.836 379.363 L
193.361 382.512 L
193.896 385.646 L
194.442 388.763 L
194.997 391.864 L
195.564 394.948 L
196.14 398.015 L
196.513 399.952 LE
399.648 399.952 LS
399.741 399.474 L
400.322 396.415 L
400.893 393.339 L
401.454 390.247 L
402.005 387.137 L
402.545 384.011 L
403.074 380.869 L
403.593 377.712 L
404.102 374.539 L
404.6 371.351 L
405.087 368.148 L
405.564 364.93 L
406.03 361.699 L
406.485 358.453 L
406.929 355.194 L
407.362 351.922 L
407.785 348.638 L
408.196 345.34 L
408.596 342.031 L
408.986 338.709 L
409.364 335.377 L
409.731 332.033 L
410.087 328.678 L
410.432 325.312 L
410.766 321.937 L
411.088 318.551 L
411.399 315.156 L
411.698 311.752 L
411.987 308.339 L
412.264 304.918 L
412.529 301.488 L
412.783 298.051 L
413.026 294.606 L
413.257 291.154 L
413.476 287.696 L
413.684 284.231 L
413.881 280.76 L
414.066 277.283 L
414.239 273.801 L
414.401 270.313 L
414.551 266.821 L
414.689 263.325 L
414.816 259.825 L
414.931 256.321 L
415.034 252.814 L
415.126 249.304 L
415.206 245.791 L
415.274 242.277 L
415.331 238.76 L
415.375 235.242 L
415.408 231.722 L
415.43 228.202 L
415.439 224.681 LE
1 0 0 C
415.44 223.56 LS
415.434 221.8 L
415.417 220.039 L
415.387 218.28 L
415.346 216.52 L
415.293 214.762 L
415.229 213.004 L
415.153 211.247 L
415.065 209.492 L
414.965 207.738 L
414.854 205.985 L
414.731 204.235 L
414.596 202.486 L
414.45 200.739 L
414.292 198.995 L
414.122 197.253 L
413.941 195.514 L
413.748 193.777 L
413.544 192.044 L
413.328 190.313 L
413.101 188.586 L
412.862 186.863 L
412.611 185.143 L
412.349 183.427 L
412.076 181.715 L
411.792 180.007 L
411.496 178.304 L
411.188 176.605 L
410.869 174.91 L
410.539 173.221 L
410.198 171.537 L
409.846 169.857 L
409.482 168.184 L
409.108 166.515 L
408.722 164.853 L
408.325 163.196 L
407.917 161.546 L
407.498 159.901 L
407.068 158.263 L
406.627 156.632 L
406.176 155.007 L
405.713 153.389 L
405.24 151.778 L
404.756 150.174 L
404.262 148.578 L
403.756 146.989 L
403.241 145.407 L
402.714 143.834 L
402.178 142.268 L
401.631 140.711 L
401.073 139.162 L
400.505 137.621 L
399.927 136.089 L
399.339 134.566 L
398.741 133.051 L
398.132 131.546 L
397.514 130.05 L
396.885 128.563 L
396.247 127.086 L
395.599 125.618 L
394.941 124.16 L
394.274 122.712 L
393.597 121.275 L
392.91 119.847 L
392.214 118.43 L
391.508 117.023 L
390.793 115.627 L
390.069 114.242 L
389.336 112.867 L
388.593 111.504 L
387.842 110.152 L
387.081 108.811 L
386.312 107.482 L
385.534 106.164 L
384.747 104.858 L
383.951 103.564 L
383.147 102.282 L
382.334 101.012 L
381.513 99.7547 L
380.683 98.5094 L
379.845 97.2766 L
379 96.0565 L
378.145 94.8491 L
377.283 93.6545 L
376.413 92.473 L
375.536 91.3046 L
374.65 90.1494 L
373.757 89.0075 L
372.856 87.8791 L
371.948 86.7643 L
371.032 85.6631 L
370.109 84.5758 L
369.179 83.5023 L
368.242 82.4428 L
367.298 81.3974 L
366.346 80.3663 L
365.388 79.3495 L
364.424 78.3471 L
363.452 77.3592 L
362.474 76.386 L
361.49 75.4274 L
360.499 74.4837 L
359.502 73.5549 L
358.499 72.6411 L
357.49 71.7424 L
356.475 70.8588 L
355.454 69.9905 L
354.427 69.1376 L
353.395 68.3001 L
352.357 67.4782 L
351.314 66.6718 L
350.265 65.8812 L
349.212 65.1063 L
348.153 64.3473 L
347.089 63.6041 L
346.02 62.877 L
344.946 62.166 L
343.868 61.471 L
342.785 60.7923 L
341.698 60.1299 L
340.606 59.4838 L
339.51 58.8541 L
338.41 58.2409 L
337.306 57.6443 L
336.198 57.0642 L
335.086 56.5007 L
333.971 55.954 L
332.852 55.424 L
331.729 54.9109 L
330.603 54.4146 L
329.474 53.9352 L
328.341 53.4728 L
327.206 53.0274 L
326.068 52.599 L
324.926 52.1878 L
323.783 51.7937 L
322.636 51.4167 L
321.487 51.057 L
320.336 50.7145 L
319.183 50.3893 L
318.027 50.0814 L
316.87 49.7909 L
315.71 49.5177 L
314.549 49.262 L
313.387 49.0237 L
312.222 48.8028 L
311.056 48.5994 L
309.889 48.4135 L
308.721 48.2451 L
307.552 48.0943 L
306.382 47.961 L
305.211 47.8452 L
304.039 47.7471 L
302.867 47.6665 L
301.694 47.6035 L
300.52 47.558 L
299.347 47.5303 L
298.173 47.5201 L
297 47.5275 L
295.826 47.5524 L
294.653 47.595 L
293.48 47.6553 L
292.308 47.733 L
291.136 47.8284 L
289.965 47.9414 L
288.794 48.0719 L
287.625 48.2199 L
286.457 48.3855 L
285.289 48.5686 L
284.123 48.7692 L
282.959 48.9873 L
281.796 49.2229 L
280.634 49.4758 L
279.475 49.7462 L
278.317 50.034 L
277.161 50.3391 L
276.007 50.6615 L
274.856 51.0013 L
273.707 51.3582 L
272.56 51.7325 L
271.416 52.1239 L
270.274 52.5324 L
269.135 52.958 L
267.999 53.4007 L
266.866 53.8604 L
265.737 54.3371 L
264.61 54.8307 L
263.487 55.3412 L
262.367 55.8685 L
261.251 56.4125 L
260.139 56.9733 L
259.03 57.5508 L
257.925 58.1448 L
256.825 58.7554 L
255.728 59.3824 L
254.636 60.0259 L
253.548 60.6858 L
252.464 61.3619 L
251.385 62.0542 L
250.311 62.7627 L
249.241 63.4873 L
248.176 64.2278 L
247.117 64.9844 L
246.062 65.7567 L
245.013 66.5449 L
243.969 67.3487 L
242.93 68.1682 L
241.897 69.0032 L
240.869 69.8537 L
239.847 70.7195 L
238.831 71.6006 L
237.821 72.4969 L
236.817 73.4084 L
235.819 74.3348 L
234.827 75.2761 L
233.842 76.2323 L
232.863 77.2032 L
231.891 78.1888 L
230.925 79.1889 L
229.966 80.2034 L
229.014 81.2323 L
228.068 82.2754 L
227.13 83.3326 L
226.198 84.4039 L
225.274 85.489 L
224.358 86.588 L
223.448 87.7007 L
222.546 88.8269 L
221.652 89.9666 L
220.765 91.1197 L
219.886 92.286 L
219.015 93.4655 L
218.151 94.658 L
217.296 95.8633 L
216.449 97.0815 L
215.61 98.3122 L
214.779 99.5555 L
213.956 100.811 L
213.142 102.079 L
212.336 103.359 L
211.539 104.651 L
210.751 105.955 L
209.971 107.271 L
209.201 108.599 L
208.439 109.938 L
207.686 111.288 L
206.942 112.649 L
206.207 114.022 L
205.481 115.406 L
204.765 116.8 L
204.058 118.205 L
203.36 119.621 L
202.672 121.047 L
201.993 122.483 L
201.324 123.929 L
200.665 125.385 L
200.015 126.851 L
199.375 128.327 L
198.746 129.813 L
198.126 131.307 L
197.516 132.811 L
196.916 134.324 L
196.326 135.846 L
195.746 137.377 L
195.177 138.916 L
194.618 140.464 L
194.069 142.02 L
193.53 143.584 L
193.002 145.156 L
192.485 146.736 L
191.978 148.324 L
191.482 149.919 L
190.996 151.522 L
190.521 153.132 L
190.057 154.749 L
189.604 156.372 L
189.161 158.003 L
188.73 159.64 L
188.309 161.283 L
187.899 162.933 L
187.501 164.589 L
187.113 166.25 L
186.737 167.918 L
186.371 169.591 L
186.017 171.269 L
185.674 172.952 L
185.342 174.641 L
185.022 176.334 L
184.713 178.033 L
184.415 179.735 L
184.128 181.443 L
183.853 183.154 L
183.59 184.869 L
183.337 186.589 L
183.097 188.312 L
182.867 190.038 L
182.65 191.768 L
182.444 193.501 L
182.249 195.237 L
182.066 196.976 L
181.894 198.717 L
181.735 200.461 L
181.586 202.208 L
181.45 203.956 L
181.325 205.706 L
181.212 207.459 L
181.11 209.212 L
181.021 210.968 L
180.943 212.724 L
180.876 214.482 L
180.822 216.24 L
180.779 217.999 L
180.747 219.759 L
180.728 221.519 L
180.72 223.28 L
180.724 225.04 L
180.74 226.8 L
180.767 228.56 L
180.807 230.32 L
180.857 232.078 L
180.92 233.836 L
180.994 235.593 L
181.081 237.349 L
181.178 239.103 L
181.288 240.856 L
181.409 242.607 L
181.542 244.356 L
181.686 246.103 L
181.842 247.848 L
182.01 249.59 L
182.189 251.33 L
182.38 253.066 L
182.583 254.8 L
182.797 256.531 L
183.022 258.259 L
183.259 259.983 L
183.508 261.703 L
183.768 263.42 L
184.039 265.133 L
184.322 266.841 L
184.617 268.545 L
184.922 270.245 L
185.239 271.94 L
185.567 273.63 L
185.907 275.315 L
186.257 276.995 L
186.619 278.67 L
186.992 280.339 L
187.376 282.003 L
187.771 283.66 L
188.177 285.312 L
188.595 286.957 L
189.023 288.596 L
189.462 290.229 L
189.912 291.855 L
190.372 293.474 L
190.844 295.086 L
191.326 296.691 L
191.819 298.289 L
192.322 299.879 L
192.836 301.461 L
193.361 303.036 L
193.896 304.603 L
194.442 306.161 L
194.997 307.712 L
195.564 309.254 L
196.14 310.787 L
196.727 312.312 L
197.323 313.828 L
197.93 315.335 L
198.547 316.832 L
199.174 318.321 L
199.81 319.799 L
200.457 321.269 L
201.113 322.728 L
201.779 324.178 L
202.455 325.617 L
203.14 327.046 L
203.835 328.465 L
204.539 329.874 L
205.252 331.271 L
205.975 332.658 L
206.707 334.035 L
207.448 335.4 L
208.198 336.754 L
208.957 338.096 L
209.725 339.427 L
210.502 340.747 L
211.287 342.054 L
212.082 343.35 L
212.885 344.634 L
213.696 345.906 L
214.516 347.166 L
215.344 348.413 L
216.181 349.648 L
217.025 350.87 L
217.878 352.079 L
218.739 353.276 L
219.607 354.46 L
220.484 355.63 L
221.368 356.788 L
222.26 357.932 L
223.16 359.062 L
224.067 360.179 L
224.982 361.282 L
225.903 362.372 L
226.832 363.448 L
227.768 364.509 L
228.712 365.557 L
229.662 366.59 L
230.619 367.609 L
231.582 368.614 L
232.553 369.604 L
233.53 370.58 L
234.513 371.541 L
235.503 372.487 L
236.499 373.418 L
237.501 374.334 L
238.509 375.236 L
239.523 376.121 L
240.543 376.992 L
241.569 377.848 L
242.6 378.688 L
243.637 379.512 L
244.679 380.321 L
245.727 381.114 L
246.78 381.891 L
247.838 382.653 L
248.901 383.399 L
249.969 384.128 L
251.042 384.842 L
252.12 385.539 L
253.202 386.221 L
254.289 386.886 L
255.38 387.534 L
256.475 388.167 L
257.574 388.782 L
258.678 389.382 L
259.785 389.965 L
260.896 390.531 L
262.011 391.08 L
263.13 391.613 L
264.252 392.129 L
265.378 392.628 L
266.506 393.11 L
267.638 393.575 L
268.773 394.023 L
269.911 394.454 L
271.052 394.868 L
272.195 395.265 L
273.341 395.644 L
274.489 396.007 L
275.64 396.352 L
276.793 396.68 L
277.948 396.991 L
279.106 397.284 L
280.265 397.56 L
281.426 397.818 L
282.588 398.06 L
283.752 398.283 L
284.918 398.489 L
286.085 398.678 L
287.253 398.849 L
288.422 399.003 L
289.592 399.139 L
290.763 399.258 L
291.934 399.358 L
293.107 399.442 L
294.279 399.508 L
295.453 399.556 L
296.626 399.586 L
297.8 399.599 L
298.973 399.595 L
300.147 399.573 L
301.32 399.533 L
302.493 399.476 L
303.665 399.401 L
304.837 399.308 L
306.009 399.198 L
307.179 399.07 L
308.349 398.925 L
309.517 398.762 L
310.685 398.582 L
311.851 398.384 L
313.016 398.169 L
314.179 397.936 L
315.341 397.686 L
316.501 397.418 L
317.659 397.133 L
318.815 396.831 L
319.969 396.511 L
321.121 396.174 L
322.271 395.82 L
323.418 395.448 L
324.562 395.06 L
325.704 394.654 L
326.844 394.231 L
327.98 393.791 L
329.113 393.334 L
330.244 392.86 L
331.371 392.369 L
332.494 391.861 L
333.615 391.337 L
334.731 390.795 L
335.844 390.237 L
336.954 389.662 L
338.059 389.071 L
339.16 388.463 L
340.258 387.839 L
341.351 387.198 L
342.439 386.54 L
343.524 385.867 L
344.604 385.177 L
345.679 384.471 L
346.749 383.749 L
347.814 383.011 L
348.875 382.257 L
349.93 381.487 L
350.981 380.702 L
352.026 379.9 L
353.065 379.083 L
354.099 378.251 L
355.128 377.403 L
356.15 376.539 L
357.167 375.661 L
358.178 374.767 L
359.183 373.858 L
360.182 372.934 L
361.175 371.995 L
362.161 371.041 L
363.141 370.072 L
364.115 369.089 L
365.082 368.091 L
366.042 367.079 L
366.995 366.053 L
367.942 365.012 L
368.881 363.957 L
369.814 362.888 L
370.739 361.805 L
371.657 360.708 L
372.568 359.597 L
373.471 358.473 L
374.366 357.336 L
375.254 356.185 L
376.135 355.021 L
377.007 353.843 L
377.872 352.653 L
378.728 351.449 L
379.577 350.233 L
380.417 349.005 L
381.249 347.763 L
382.073 346.51 L
382.889 345.244 L
383.696 343.965 L
384.494 342.675 L
385.284 341.373 L
386.065 340.059 L
386.837 338.733 L
387.601 337.396 L
388.355 336.048 L
389.1 334.688 L
389.837 333.317 L
390.564 331.936 L
391.282 330.543 L
391.99 329.14 L
392.689 327.726 L
393.379 326.301 L
394.059 324.867 L
394.73 323.422 L
395.391 321.967 L
396.042 320.503 L
396.683 319.028 L
397.315 317.545 L
397.936 316.051 L
398.548 314.549 L
399.15 313.037 L
399.741 311.517 L
400.322 309.988 L
400.893 308.45 L
401.454 306.903 L
402.005 305.349 L
402.545 303.786 L
403.074 302.215 L
403.593 300.636 L
404.102 299.049 L
404.6 297.455 L
405.087 295.854 L
405.564 294.245 L
406.03 292.629 L
406.485 291.007 L
406.929 289.377 L
407.362 287.741 L
407.785 286.099 L
408.196 284.45 L
408.596 282.795 L
408.986 281.135 L
409.364 279.468 L
409.731 277.796 L
410.087 276.119 L
410.432 274.436 L
410.766 272.748 L
411.088 271.056 L
411.399 269.358 L
411.698 267.656 L
411.987 265.95 L
412.264 264.239 L
412.529 262.524 L
412.783 260.806 L
413.026 259.083 L
413.257 257.357 L
413.476 255.628 L
413.684 253.895 L
413.881 252.16 L
414.066 250.421 L
414.239 248.68 L
414.401 246.937 L
414.551 245.191 L
414.689 243.443 L
414.816 241.693 L
414.931 239.941 L
415.034 238.187 L
415.126 236.432 L
415.206 234.676 L
415.274 232.918 L
415.331 231.16 L
415.375 229.401 L
415.408 227.641 L
415.43 225.881 L
415.439 224.121 LE
0 1 0 C
415.44 223.56 LS
415.434 222.152 L
415.417 220.744 L
415.387 219.336 L
415.346 217.928 L
415.293 216.521 L
415.229 215.115 L
415.153 213.71 L
415.065 212.305 L
414.965 210.902 L
414.854 209.5 L
414.731 208.1 L
414.596 206.701 L
414.45 205.303 L
414.292 203.908 L
414.122 202.514 L
413.941 201.123 L
413.748 199.734 L
413.544 198.347 L
413.328 196.963 L
413.101 195.581 L
412.862 194.202 L
412.611 192.826 L
412.349 191.453 L
412.076 190.084 L
411.792 188.718 L
411.496 187.355 L
411.188 185.996 L
410.869 184.64 L
410.539 183.289 L
410.198 181.941 L
409.846 180.598 L
409.482 179.259 L
409.108 177.924 L
408.722 176.594 L
408.325 175.269 L
407.917 173.949 L
407.498 172.633 L
407.068 171.323 L
406.627 170.017 L
406.176 168.717 L
405.713 167.423 L
405.24 166.134 L
404.756 164.851 L
404.262 163.574 L
403.756 162.303 L
403.241 161.038 L
402.714 159.779 L
402.178 158.527 L
401.631 157.281 L
401.073 156.042 L
400.505 154.809 L
399.927 153.583 L
399.339 152.365 L
398.741 151.153 L
398.132 149.949 L
397.514 148.752 L
396.885 147.563 L
396.247 146.381 L
395.599 145.207 L
394.941 144.04 L
394.274 142.882 L
393.597 141.732 L
392.91 140.59 L
392.214 139.456 L
391.508 138.33 L
390.793 137.214 L
390.069 136.105 L
389.336 135.006 L
388.593 133.915 L
387.842 132.834 L
387.081 131.761 L
386.312 130.698 L
385.534 129.643 L
384.747 128.599 L
383.951 127.563 L
383.147 126.538 L
382.334 125.522 L
381.513 124.516 L
380.683 123.52 L
379.845 122.533 L
379 121.557 L
378.145 120.591 L
377.283 119.636 L
376.413 118.69 L
375.536 117.756 L
374.65 116.832 L
373.757 115.918 L
372.856 115.015 L
371.948 114.123 L
371.032 113.243 L
370.109 112.373 L
369.179 111.514 L
368.242 110.666 L
367.298 109.83 L
366.346 109.005 L
365.388 108.192 L
364.424 107.39 L
363.452 106.599 L
362.474 105.821 L
361.49 105.054 L
360.499 104.299 L
359.502 103.556 L
358.499 102.825 L
357.49 102.106 L
356.475 101.399 L
355.454 100.704 L
354.427 100.022 L
353.395 99.3521 L
352.357 98.6945 L
351.314 98.0495 L
350.265 97.4169 L
349.212 96.797 L
348.153 96.1898 L
347.089 95.5953 L
346.02 95.0136 L
344.946 94.4448 L
343.868 93.8888 L
342.785 93.3459 L
341.698 92.8159 L
340.606 92.2991 L
339.51 91.7953 L
338.41 91.3047 L
337.306 90.8274 L
336.198 90.3633 L
335.086 89.9126 L
333.971 89.4752 L
332.852 89.0512 L
331.729 88.6407 L
330.603 88.2437 L
329.474 87.8602 L
328.341 87.4902 L
327.206 87.1339 L
326.068 86.7912 L
324.926 86.4622 L
323.783 86.1469 L
322.636 85.8454 L
321.487 85.5576 L
320.336 85.2836 L
319.183 85.0234 L
318.027 84.7771 L
316.87 84.5447 L
315.71 84.3262 L
314.549 84.1216 L
313.387 83.9309 L
312.222 83.7542 L
311.056 83.5915 L
309.889 83.4428 L
308.721 83.3081 L
307.552 83.1874 L
306.382 83.0808 L
305.211 82.9882 L
304.039 82.9096 L
302.867 82.8452 L
301.694 82.7948 L
300.52 82.7584 L
299.347 82.7362 L
298.173 82.728 L
297 82.7339 L
295.826 82.754 L
294.653 82.788 L
293.48 82.8362 L
292.308 82.8984 L
291.136 82.9747 L
289.965 83.0651 L
288.794 83.1695 L
287.625 83.2879 L
286.457 83.4204 L
285.289 83.5669 L
284.123 83.7274 L
282.959 83.9019 L
281.796 84.0903 L
280.634 84.2927 L
279.475 84.509 L
278.317 84.7392 L
277.161 84.9833 L
276.007 85.2412 L
274.856 85.513 L
273.707 85.7986 L
272.56 86.098 L
271.416 86.4111 L
270.274 86.7379 L
269.135 87.0784 L
267.999 87.4326 L
266.866 87.8003 L
265.737 88.1817 L
264.61 88.5766 L
263.487 88.9849 L
262.367 89.4068 L
261.251 89.842 L
260.139 90.2906 L
259.03 90.7526 L
257.925 91.2278 L
256.825 91.7163 L
255.728 92.2179 L
254.636 92.7327 L
253.548 93.2606 L
252.464 93.8015 L
251.385 94.3554 L
250.311 94.9222 L
249.241 95.5018 L
248.176 96.0943 L
247.117 96.6995 L
246.062 97.3174 L
245.013 97.9479 L
243.969 98.591 L
242.93 99.2465 L
241.897 99.9146 L
240.869 100.595 L
239.847 101.288 L
238.831 101.992 L
237.821 102.71 L
236.817 103.439 L
235.819 104.18 L
234.827 104.933 L
233.842 105.698 L
232.863 106.475 L
231.891 107.263 L
230.925 108.063 L
229.966 108.875 L
229.014 109.698 L
228.068 110.532 L
227.13 111.378 L
226.198 112.235 L
225.274 113.103 L
224.358 113.982 L
223.448 114.873 L
222.546 115.774 L
221.652 116.685 L
220.765 117.608 L
219.886 118.541 L
219.015 119.484 L
218.151 120.438 L
217.296 121.403 L
216.449 122.377 L
215.61 123.362 L
214.779 124.356 L
213.956 125.361 L
213.142 126.375 L
212.336 127.399 L
211.539 128.433 L
210.751 129.476 L
209.971 130.529 L
209.201 131.591 L
208.439 132.662 L
207.686 133.742 L
206.942 134.832 L
206.207 135.93 L
205.481 137.036 L
204.765 138.152 L
204.058 139.276 L
203.36 140.408 L
202.672 141.549 L
201.993 142.698 L
201.324 143.855 L
200.665 145.02 L
200.015 146.193 L
199.375 147.374 L
198.746 148.562 L
198.126 149.758 L
197.516 150.961 L
196.916 152.171 L
196.326 153.389 L
195.746 154.613 L
195.177 155.845 L
194.618 157.083 L
194.069 158.328 L
193.53 159.579 L
193.002 160.837 L
192.485 162.101 L
191.978 163.371 L
191.482 164.647 L
190.996 165.93 L
190.521 167.217 L
190.057 168.511 L
189.604 169.81 L
189.161 171.114 L
188.73 172.424 L
188.309 173.739 L
187.899 175.058 L
187.501 176.383 L
187.113 177.712 L
186.737 179.046 L
186.371 180.384 L
186.017 181.727 L
185.674 183.074 L
185.342 184.425 L
185.022 185.78 L
184.713 187.138 L
184.415 188.5 L
184.128 189.866 L
183.853 191.235 L
183.59 192.607 L
183.337 193.983 L
183.097 195.361 L
182.867 196.742 L
182.65 198.126 L
182.444 199.513 L
182.249 200.901 L
182.066 202.293 L
181.894 203.686 L
181.735 205.081 L
181.586 206.478 L
181.45 207.877 L
181.325 209.277 L
181.212 210.679 L
181.11 212.082 L
181.021 213.486 L
180.943 214.891 L
180.876 216.297 L
180.822 217.704 L
180.779 219.111 L
180.747 220.519 L
180.728 221.927 L
180.72 223.336 L
180.724 224.744 L
180.74 226.152 L
180.767 227.56 L
180.807 228.968 L
180.857 230.375 L
180.92 231.781 L
180.994 233.186 L
181.081 234.591 L
181.178 235.994 L
181.288 237.397 L
181.409 238.797 L
181.542 240.197 L
181.686 241.594 L
181.842 242.99 L
182.01 244.384 L
182.189 245.776 L
182.38 247.165 L
182.583 248.552 L
182.797 249.937 L
183.022 251.319 L
183.259 252.698 L
183.508 254.075 L
183.768 255.448 L
184.039 256.818 L
184.322 258.185 L
184.617 259.548 L
184.922 260.908 L
185.239 262.264 L
185.567 263.616 L
185.907 264.964 L
186.257 266.308 L
186.619 267.648 L
186.992 268.983 L
187.376 270.314 L
187.771 271.64 L
188.177 272.961 L
188.595 274.278 L
189.023 275.589 L
189.462 276.895 L
189.912 278.196 L
190.372 279.491 L
190.844 280.781 L
191.326 282.065 L
191.819 283.343 L
192.322 284.615 L
192.836 285.881 L
193.361 287.141 L
193.896 288.394 L
194.442 289.641 L
194.997 290.882 L
195.564 292.115 L
196.14 293.342 L
196.727 294.562 L
197.323 295.774 L
197.93 296.98 L
198.547 298.178 L
199.174 299.369 L
199.81 300.552 L
200.457 301.727 L
201.113 302.895 L
201.779 304.054 L
202.455 305.206 L
203.14 306.349 L
203.835 307.484 L
204.539 308.611 L
205.252 309.729 L
205.975 310.839 L
206.707 311.94 L
207.448 313.032 L
208.198 314.115 L
208.957 315.189 L
209.725 316.254 L
210.502 317.309 L
211.287 318.356 L
212.082 319.392 L
212.885 320.419 L
213.696 321.437 L
214.516 322.445 L
215.344 323.442 L
216.181 324.43 L
217.025 325.408 L
217.878 326.376 L
218.739 327.333 L
219.607 328.28 L
220.484 329.216 L
221.368 330.142 L
222.26 331.057 L
223.16 331.962 L
224.067 332.855 L
224.982 333.738 L
225.903 334.61 L
226.832 335.47 L
227.768 336.32 L
228.712 337.158 L
229.662 337.984 L
230.619 338.8 L
231.582 339.603 L
232.553 340.396 L
233.53 341.176 L
234.513 341.945 L
235.503 342.702 L
236.499 343.447 L
237.501 344.18 L
238.509 344.9 L
239.523 345.609 L
240.543 346.306 L
241.569 346.99 L
242.6 347.662 L
243.637 348.322 L
244.679 348.969 L
245.727 349.603 L
246.78 350.225 L
247.838 350.834 L
248.901 351.431 L
249.969 352.015 L
251.042 352.585 L
252.12 353.143 L
253.202 353.689 L
254.289 354.221 L
255.38 354.74 L
256.475 355.245 L
257.574 355.738 L
258.678 356.217 L
259.785 356.684 L
260.896 357.137 L
262.011 357.576 L
263.13 358.002 L
264.252 358.415 L
265.378 358.814 L
266.506 359.2 L
267.638 359.572 L
268.773 359.93 L
269.911 360.275 L
271.052 360.606 L
272.195 360.924 L
273.341 361.228 L
274.489 361.518 L
275.64 361.794 L
276.793 362.056 L
277.948 362.305 L
279.106 362.539 L
280.265 362.76 L
281.426 362.967 L
282.588 363.16 L
283.752 363.339 L
284.918 363.503 L
286.085 363.654 L
287.253 363.791 L
288.422 363.914 L
289.592 364.023 L
290.763 364.118 L
291.934 364.199 L
293.107 364.266 L
294.279 364.318 L
295.453 364.357 L
296.626 364.381 L
297.8 364.392 L
298.973 364.388 L
300.147 364.37 L
301.32 364.338 L
302.493 364.292 L
303.665 364.232 L
304.837 364.158 L
306.009 364.07 L
307.179 363.968 L
308.349 363.852 L
309.517 363.722 L
310.685 363.577 L
311.851 363.419 L
313.016 363.247 L
314.179 363.061 L
315.341 362.861 L
316.501 362.646 L
317.659 362.418 L
318.815 362.177 L
319.969 361.921 L
321.121 361.651 L
322.271 361.368 L
323.418 361.071 L
324.562 360.76 L
325.704 360.435 L
326.844 360.097 L
327.98 359.745 L
329.113 359.379 L
330.244 359 L
331.371 358.607 L
332.494 358.201 L
333.615 357.781 L
334.731 357.348 L
335.844 356.902 L
336.954 356.442 L
338.059 355.969 L
339.16 355.482 L
340.258 354.983 L
341.351 354.47 L
342.439 353.944 L
343.524 353.406 L
344.604 352.854 L
345.679 352.289 L
346.749 351.711 L
347.814 351.121 L
348.875 350.518 L
349.93 349.902 L
350.981 349.273 L
352.026 348.632 L
353.065 347.979 L
354.099 347.313 L
355.128 346.634 L
356.15 345.944 L
357.167 345.241 L
358.178 344.525 L
359.183 343.798 L
360.182 343.059 L
361.175 342.308 L
362.161 341.545 L
363.141 340.77 L
364.115 339.983 L
365.082 339.185 L
366.042 338.375 L
366.995 337.554 L
367.942 336.721 L
368.881 335.877 L
369.814 335.022 L
370.739 334.156 L
371.657 333.278 L
372.568 332.39 L
373.471 331.491 L
374.366 330.581 L
375.254 329.66 L
376.135 328.728 L
377.007 327.787 L
377.872 326.834 L
378.728 325.872 L
379.577 324.899 L
380.417 323.916 L
381.249 322.923 L
382.073 321.92 L
382.889 320.907 L
383.696 319.884 L
384.494 318.852 L
385.284 317.81 L
386.065 316.759 L
386.837 315.699 L
387.601 314.629 L
388.355 313.55 L
389.1 312.463 L
389.837 311.366 L
390.564 310.26 L
391.282 309.146 L
391.99 308.024 L
392.689 306.892 L
393.379 305.753 L
394.059 304.605 L
394.73 303.45 L
395.391 302.286 L
396.042 301.114 L
396.683 299.935 L
397.315 298.748 L
397.936 297.553 L
398.548 296.351 L
399.15 295.142 L
399.741 293.926 L
400.322 292.702 L
400.893 291.472 L
401.454 290.235 L
402.005 288.991 L
402.545 287.741 L
403.074 286.484 L
403.593 285.221 L
404.102 283.951 L
404.6 282.676 L
405.087 281.395 L
405.564 280.108 L
406.03 278.815 L
406.485 277.517 L
406.929 276.214 L
407.362 274.905 L
407.785 273.591 L
408.196 272.272 L
408.596 270.948 L
408.986 269.62 L
409.364 268.287 L
409.731 266.949 L
410.087 265.607 L
410.432 264.261 L
410.766 262.911 L
411.088 261.556 L
411.399 260.198 L
411.698 258.837 L
411.987 257.472 L
412.264 256.103 L
412.529 254.731 L
412.783 253.356 L
413.026 251.979 L
413.257 250.598 L
413.476 249.214 L
413.684 247.828 L
413.881 246.44 L
414.066 245.049 L
414.239 243.656 L
414.401 242.261 L
414.551 240.865 L
414.689 239.466 L
414.816 238.066 L
414.931 236.664 L
415.034 235.262 L
415.126 233.858 L
415.206 232.453 L
415.274 231.047 L
415.331 229.64 L
415.375 228.233 L
415.408 226.825 L
415.43 225.417 L
415.439 224.009 LE
1 0 1 C
415.44 223.56 LS
415.434 222.68 L
415.417 221.8 L
415.387 220.92 L
415.346 220.04 L
415.293 219.161 L
415.229 218.282 L
415.153 217.404 L
415.065 216.526 L
414.965 215.649 L
414.854 214.773 L
414.731 213.897 L
414.596 213.023 L
414.45 212.15 L
414.292 211.277 L
414.122 210.406 L
413.941 209.537 L
413.748 208.669 L
413.544 207.802 L
413.328 206.937 L
413.101 206.073 L
412.862 205.211 L
412.611 204.351 L
412.349 203.493 L
412.076 202.637 L
411.792 201.783 L
411.496 200.932 L
411.188 200.082 L
410.869 199.235 L
410.539 198.39 L
410.198 197.548 L
409.846 196.709 L
409.482 195.872 L
409.108 195.038 L
408.722 194.206 L
408.325 193.378 L
407.917 192.553 L
407.498 191.731 L
407.068 190.912 L
406.627 190.096 L
406.176 189.283 L
405.713 188.474 L
405.24 187.669 L
404.756 186.867 L
404.262 186.069 L
403.756 185.274 L
403.241 184.484 L
402.714 183.697 L
402.178 182.914 L
401.631 182.135 L
401.073 181.361 L
400.505 180.591 L
399.927 179.825 L
399.339 179.063 L
398.741 178.306 L
398.132 177.553 L
397.514 176.805 L
396.885 176.062 L
396.247 175.323 L
395.599 174.589 L
394.941 173.86 L
394.274 173.136 L
393.597 172.417 L
392.91 171.703 L
392.214 170.995 L
391.508 170.291 L
390.793 169.593 L
390.069 168.901 L
389.336 168.214 L
388.593 167.532 L
387.842 166.856 L
387.081 166.186 L
386.312 165.521 L
385.534 164.862 L
384.747 164.209 L
383.951 163.562 L
383.147 162.921 L
382.334 162.286 L
381.513 161.657 L
380.683 161.035 L
379.845 160.418 L
379 159.808 L
378.145 159.205 L
377.283 158.607 L
376.413 158.017 L
375.536 157.432 L
374.65 156.855 L
373.757 156.284 L
372.856 155.72 L
371.948 155.162 L
371.032 154.612 L
370.109 154.068 L
369.179 153.531 L
368.242 153.001 L
367.298 152.479 L
366.346 151.963 L
365.388 151.455 L
364.424 150.954 L
363.452 150.46 L
362.474 149.973 L
361.49 149.494 L
360.499 149.022 L
359.502 148.557 L
358.499 148.101 L
357.49 147.651 L
356.475 147.209 L
355.454 146.775 L
354.427 146.349 L
353.395 145.93 L
352.357 145.519 L
351.314 145.116 L
350.265 144.721 L
349.212 144.333 L
348.153 143.954 L
347.089 143.582 L
346.02 143.219 L
344.946 142.863 L
343.868 142.516 L
342.785 142.176 L
341.698 141.845 L
340.606 141.522 L
339.51 141.207 L
338.41 140.9 L
337.306 140.602 L
336.198 140.312 L
335.086 140.03 L
333.971 139.757 L
332.852 139.492 L
331.729 139.235 L
330.603 138.987 L
329.474 138.748 L
328.341 138.516 L
327.206 138.294 L
326.068 138.079 L
324.926 137.874 L
323.783 137.677 L
322.636 137.488 L
321.487 137.308 L
320.336 137.137 L
319.183 136.975 L
318.027 136.821 L
316.87 136.675 L
315.71 136.539 L
314.549 136.411 L
313.387 136.292 L
312.222 136.181 L
311.056 136.08 L
309.889 135.987 L
308.721 135.903 L
307.552 135.827 L
306.382 135.76 L
305.211 135.703 L
304.039 135.654 L
302.867 135.613 L
301.694 135.582 L
300.52 135.559 L
299.347 135.545 L
298.173 135.54 L
297 135.544 L
295.826 135.556 L
294.653 135.578 L
293.48 135.608 L
292.308 135.647 L
291.136 135.694 L
289.965 135.751 L
288.794 135.816 L
287.625 135.89 L
286.457 135.973 L
285.289 136.064 L
284.123 136.165 L
282.959 136.274 L
281.796 136.391 L
280.634 136.518 L
279.475 136.653 L
278.317 136.797 L
277.161 136.95 L
276.007 137.111 L
274.856 137.281 L
273.707 137.459 L
272.56 137.646 L
271.416 137.842 L
270.274 138.046 L
269.135 138.259 L
267.999 138.48 L
266.866 138.71 L
265.737 138.949 L
264.61 139.195 L
263.487 139.451 L
262.367 139.714 L
261.251 139.986 L
260.139 140.267 L
259.03 140.555 L
257.925 140.852 L
256.825 141.158 L
255.728 141.471 L
254.636 141.793 L
253.548 142.123 L
252.464 142.461 L
251.385 142.807 L
250.311 143.161 L
249.241 143.524 L
248.176 143.894 L
247.117 144.272 L
246.062 144.658 L
245.013 145.052 L
243.969 145.454 L
242.93 145.864 L
241.897 146.282 L
240.869 146.707 L
239.847 147.14 L
238.831 147.58 L
237.821 148.028 L
236.817 148.484 L
235.819 148.947 L
234.827 149.418 L
233.842 149.896 L
232.863 150.382 L
231.891 150.874 L
230.925 151.374 L
229.966 151.882 L
229.014 152.396 L
228.068 152.918 L
227.13 153.446 L
226.198 153.982 L
225.274 154.525 L
224.358 155.074 L
223.448 155.63 L
222.546 156.193 L
221.652 156.763 L
220.765 157.34 L
219.886 157.923 L
219.015 158.513 L
218.151 159.109 L
217.296 159.712 L
216.449 160.321 L
215.61 160.936 L
214.779 161.558 L
213.956 162.186 L
213.142 162.82 L
212.336 163.46 L
211.539 164.106 L
210.751 164.758 L
209.971 165.416 L
209.201 166.079 L
208.439 166.749 L
207.686 167.424 L
206.942 168.105 L
206.207 168.791 L
205.481 169.483 L
204.765 170.18 L
204.058 170.882 L
203.36 171.59 L
202.672 172.303 L
201.993 173.021 L
201.324 173.745 L
200.665 174.473 L
200.015 175.206 L
199.375 175.944 L
198.746 176.686 L
198.126 177.434 L
197.516 178.186 L
196.916 178.942 L
196.326 179.703 L
195.746 180.468 L
195.177 181.238 L
194.618 182.012 L
194.069 182.79 L
193.53 183.572 L
193.002 184.358 L
192.485 185.148 L
191.978 185.942 L
191.482 186.74 L
190.996 187.541 L
190.521 188.346 L
190.057 189.154 L
189.604 189.966 L
189.161 190.781 L
188.73 191.6 L
188.309 192.422 L
187.899 193.246 L
187.501 194.074 L
187.113 194.905 L
186.737 195.739 L
186.371 196.575 L
186.017 197.414 L
185.674 198.256 L
185.342 199.1 L
185.022 199.947 L
184.713 200.796 L
184.415 201.648 L
184.128 202.501 L
183.853 203.357 L
183.59 204.215 L
183.337 205.074 L
183.097 205.936 L
182.867 206.799 L
182.65 207.664 L
182.444 208.53 L
182.249 209.398 L
182.066 210.268 L
181.894 211.139 L
181.735 212.011 L
181.586 212.884 L
181.45 213.758 L
181.325 214.633 L
181.212 215.509 L
181.11 216.386 L
181.021 217.264 L
180.943 218.142 L
180.876 219.021 L
180.822 219.9 L
180.779 220.78 L
180.747 221.66 L
180.728 222.54 L
180.72 223.42 L
180.724 224.3 L
180.74 225.18 L
180.767 226.06 L
180.807 226.94 L
180.857 227.819 L
180.92 228.698 L
180.994 229.577 L
181.081 230.454 L
181.178 231.331 L
181.288 232.208 L
181.409 233.083 L
181.542 233.958 L
181.686 234.831 L
181.842 235.704 L
182.01 236.575 L
182.189 237.445 L
182.38 238.313 L
182.583 239.18 L
182.797 240.046 L
183.022 240.909 L
183.259 241.771 L
183.508 242.632 L
183.768 243.49 L
184.039 244.346 L
184.322 245.201 L
184.617 246.053 L
184.922 246.903 L
185.239 247.75 L
185.567 248.595 L
185.907 249.438 L
186.257 250.278 L
186.619 251.115 L
186.992 251.95 L
187.376 252.781 L
187.771 253.61 L
188.177 254.436 L
188.595 255.259 L
189.023 256.078 L
189.462 256.894 L
189.912 257.707 L
190.372 258.517 L
190.844 259.323 L
191.326 260.125 L
191.819 260.924 L
192.322 261.719 L
192.836 262.511 L
193.361 263.298 L
193.896 264.081 L
194.442 264.861 L
194.997 265.636 L
195.564 266.407 L
196.14 267.174 L
196.727 267.936 L
197.323 268.694 L
197.93 269.447 L
198.547 270.196 L
199.174 270.94 L
199.81 271.68 L
200.457 272.414 L
201.113 273.144 L
201.779 273.869 L
202.455 274.589 L
203.14 275.303 L
203.835 276.013 L
204.539 276.717 L
205.252 277.416 L
205.975 278.109 L
206.707 278.797 L
207.448 279.48 L
208.198 280.157 L
208.957 280.828 L
209.725 281.494 L
210.502 282.153 L
211.287 282.807 L
212.082 283.455 L
212.885 284.097 L
213.696 284.733 L
214.516 285.363 L
215.344 285.987 L
216.181 286.604 L
217.025 287.215 L
217.878 287.82 L
218.739 288.418 L
219.607 289.01 L
220.484 289.595 L
221.368 290.174 L
222.26 290.746 L
223.16 291.311 L
224.067 291.87 L
224.982 292.421 L
225.903 292.966 L
226.832 293.504 L
227.768 294.035 L
228.712 294.558 L
229.662 295.075 L
230.619 295.585 L
231.582 296.087 L
232.553 296.582 L
233.53 297.07 L
234.513 297.55 L
235.503 298.023 L
236.499 298.489 L
237.501 298.947 L
238.509 299.398 L
239.523 299.841 L
240.543 300.276 L
241.569 300.704 L
242.6 301.124 L
243.637 301.536 L
244.679 301.94 L
245.727 302.337 L
246.78 302.726 L
247.838 303.106 L
248.901 303.479 L
249.969 303.844 L
251.042 304.201 L
252.12 304.55 L
253.202 304.89 L
254.289 305.223 L
255.38 305.547 L
256.475 305.863 L
257.574 306.171 L
258.678 306.471 L
259.785 306.762 L
260.896 307.045 L
262.011 307.32 L
263.13 307.586 L
264.252 307.844 L
265.378 308.094 L
266.506 308.335 L
267.638 308.567 L
268.773 308.791 L
269.911 309.007 L
271.052 309.214 L
272.195 309.412 L
273.341 309.602 L
274.489 309.783 L
275.64 309.956 L
276.793 310.12 L
277.948 310.275 L
279.106 310.422 L
280.265 310.56 L
281.426 310.689 L
282.588 310.81 L
283.752 310.922 L
284.918 311.025 L
286.085 311.119 L
287.253 311.205 L
288.422 311.281 L
289.592 311.349 L
290.763 311.409 L
291.934 311.459 L
293.107 311.501 L
294.279 311.534 L
295.453 311.558 L
296.626 311.573 L
297.8 311.58 L
298.973 311.577 L
300.147 311.566 L
301.32 311.546 L
302.493 311.518 L
303.665 311.48 L
304.837 311.434 L
306.009 311.379 L
307.179 311.315 L
308.349 311.242 L
309.517 311.161 L
310.685 311.071 L
311.851 310.972 L
313.016 310.864 L
314.179 310.748 L
315.341 310.623 L
316.501 310.489 L
317.659 310.346 L
318.815 310.195 L
319.969 310.035 L
321.121 309.867 L
322.271 309.69 L
323.418 309.504 L
324.562 309.31 L
325.704 309.107 L
326.844 308.895 L
327.98 308.675 L
329.113 308.447 L
330.244 308.21 L
331.371 307.965 L
332.494 307.711 L
333.615 307.448 L
334.731 307.178 L
335.844 306.899 L
336.954 306.611 L
338.059 306.315 L
339.16 306.011 L
340.258 305.699 L
341.351 305.379 L
342.439 305.05 L
343.524 304.713 L
344.604 304.369 L
345.679 304.016 L
346.749 303.655 L
347.814 303.286 L
348.875 302.909 L
349.93 302.524 L
350.981 302.131 L
352.026 301.73 L
353.065 301.322 L
354.099 300.905 L
355.128 300.481 L
356.15 300.05 L
357.167 299.61 L
358.178 299.163 L
359.183 298.709 L
360.182 298.247 L
361.175 297.777 L
362.161 297.3 L
363.141 296.816 L
364.115 296.325 L
365.082 295.826 L
366.042 295.32 L
366.995 294.806 L
367.942 294.286 L
368.881 293.758 L
369.814 293.224 L
370.739 292.682 L
371.657 292.134 L
372.568 291.579 L
373.471 291.017 L
374.366 290.448 L
375.254 289.872 L
376.135 289.29 L
377.007 288.702 L
377.872 288.106 L
378.728 287.505 L
379.577 286.897 L
380.417 286.282 L
381.249 285.662 L
382.073 285.035 L
382.889 284.402 L
383.696 283.763 L
384.494 283.118 L
385.284 282.466 L
386.065 281.81 L
386.837 281.147 L
387.601 280.478 L
388.355 279.804 L
389.1 279.124 L
389.837 278.439 L
390.564 277.748 L
391.282 277.051 L
391.99 276.35 L
392.689 275.643 L
393.379 274.931 L
394.059 274.213 L
394.73 273.491 L
395.391 272.764 L
396.042 272.031 L
396.683 271.294 L
397.315 270.552 L
397.936 269.806 L
398.548 269.055 L
399.15 268.299 L
399.741 267.538 L
400.322 266.774 L
400.893 266.005 L
401.454 265.232 L
402.005 264.454 L
402.545 263.673 L
403.074 262.887 L
403.593 262.098 L
404.102 261.305 L
404.6 260.508 L
405.087 259.707 L
405.564 258.903 L
406.03 258.095 L
406.485 257.283 L
406.929 256.469 L
407.362 255.651 L
407.785 254.829 L
408.196 254.005 L
408.596 253.178 L
408.986 252.347 L
409.364 251.514 L
409.731 250.678 L
410.087 249.839 L
410.432 248.998 L
410.766 248.154 L
411.088 247.308 L
411.399 246.459 L
411.698 245.608 L
411.987 244.755 L
412.264 243.899 L
412.529 243.042 L
412.783 242.183 L
413.026 241.322 L
413.257 240.459 L
413.476 239.594 L
413.684 238.728 L
413.881 237.86 L
414.066 236.991 L
414.239 236.12 L
414.401 235.248 L
414.551 234.375 L
414.689 233.501 L
414.816 232.626 L
414.931 231.75 L
415.034 230.874 L
415.126 229.996 L
415.206 229.118 L
415.274 228.239 L
415.331 227.36 L
415.375 226.48 L
415.408 225.601 L
415.43 224.721 L
415.439 223.84 LE
0 1 1 C
415.44 223.56 LS
415.434 223.208 L
415.417 222.856 L
415.387 222.504 L
415.346 222.152 L
415.293 221.8 L
415.229 221.449 L
415.153 221.097 L
415.065 220.746 L
414.965 220.396 L
414.854 220.045 L
414.731 219.695 L
414.596 219.345 L
414.45 218.996 L
414.292 218.647 L
414.122 218.299 L
413.941 217.951 L
413.748 217.603 L
413.544 217.257 L
413.328 216.911 L
413.101 216.565 L
412.862 216.221 L
412.611 215.877 L
412.349 215.533 L
412.076 215.191 L
411.792 214.849 L
411.496 214.509 L
411.188 214.169 L
410.869 213.83 L
410.539 213.492 L
410.198 213.155 L
409.846 212.819 L
409.482 212.485 L
409.108 212.151 L
408.722 211.819 L
408.325 211.487 L
407.917 211.157 L
407.498 210.828 L
407.068 210.501 L
406.627 210.174 L
406.176 209.849 L
405.713 209.526 L
405.24 209.204 L
404.756 208.883 L
404.262 208.564 L
403.756 208.246 L
403.241 207.929 L
402.714 207.615 L
402.178 207.302 L
401.631 206.99 L
401.073 206.68 L
400.505 206.372 L
399.927 206.066 L
399.339 205.761 L
398.741 205.458 L
398.132 205.157 L
397.514 204.858 L
396.885 204.561 L
396.247 204.265 L
395.599 203.972 L
394.941 203.68 L
394.274 203.39 L
393.597 203.103 L
392.91 202.817 L
392.214 202.534 L
391.508 202.253 L
390.793 201.973 L
390.069 201.696 L
389.336 201.421 L
388.593 201.149 L
387.842 200.878 L
387.081 200.61 L
386.312 200.344 L
385.534 200.081 L
384.747 199.82 L
383.951 199.561 L
383.147 199.304 L
382.334 199.05 L
381.513 198.799 L
380.683 198.55 L
379.845 198.303 L
379 198.059 L
378.145 197.818 L
377.283 197.579 L
376.413 197.343 L
375.536 197.109 L
374.65 196.878 L
373.757 196.65 L
372.856 196.424 L
371.948 196.201 L
371.032 195.981 L
370.109 195.763 L
369.179 195.548 L
368.242 195.337 L
367.298 195.127 L
366.346 194.921 L
365.388 194.718 L
364.424 194.517 L
363.452 194.32 L
362.474 194.125 L
361.49 193.933 L
360.499 193.745 L
359.502 193.559 L
358.499 193.376 L
357.49 193.196 L
356.475 193.02 L
355.454 192.846 L
354.427 192.676 L
353.395 192.508 L
352.357 192.344 L
351.314 192.182 L
350.265 192.024 L
349.212 191.869 L
348.153 191.717 L
347.089 191.569 L
346.02 191.423 L
344.946 191.281 L
343.868 191.142 L
342.785 191.006 L
341.698 190.874 L
340.606 190.745 L
339.51 190.619 L
338.41 190.496 L
337.306 190.377 L
336.198 190.261 L
335.086 190.148 L
333.971 190.039 L
332.852 189.933 L
331.729 189.83 L
330.603 189.731 L
329.474 189.635 L
328.341 189.543 L
327.206 189.453 L
326.068 189.368 L
324.926 189.286 L
323.783 189.207 L
322.636 189.131 L
321.487 189.059 L
320.336 188.991 L
319.183 188.926 L
318.027 188.864 L
316.87 188.806 L
315.71 188.752 L
314.549 188.7 L
313.387 188.653 L
312.222 188.609 L
311.056 188.568 L
309.889 188.531 L
308.721 188.497 L
307.552 188.467 L
306.382 188.44 L
305.211 188.417 L
304.039 188.397 L
302.867 188.381 L
301.694 188.369 L
300.52 188.36 L
299.347 188.354 L
298.173 188.352 L
297 188.353 L
295.826 188.358 L
294.653 188.367 L
293.48 188.379 L
292.308 188.395 L
291.136 188.414 L
289.965 188.436 L
288.794 188.462 L
287.625 188.492 L
286.457 188.525 L
285.289 188.562 L
284.123 188.602 L
282.959 188.645 L
281.796 188.693 L
280.634 188.743 L
279.475 188.797 L
278.317 188.855 L
277.161 188.916 L
276.007 188.98 L
274.856 189.048 L
273.707 189.12 L
272.56 189.194 L
271.416 189.273 L
270.274 189.354 L
269.135 189.44 L
267.999 189.528 L
266.866 189.62 L
265.737 189.715 L
264.61 189.814 L
263.487 189.916 L
262.367 190.022 L
261.251 190.13 L
260.139 190.243 L
259.03 190.358 L
257.925 190.477 L
256.825 190.599 L
255.728 190.724 L
254.636 190.853 L
253.548 190.985 L
252.464 191.12 L
251.385 191.259 L
250.311 191.401 L
249.241 191.545 L
248.176 191.694 L
247.117 191.845 L
246.062 191.999 L
245.013 192.157 L
243.969 192.318 L
242.93 192.482 L
241.897 192.649 L
240.869 192.819 L
239.847 192.992 L
238.831 193.168 L
237.821 193.347 L
236.817 193.53 L
235.819 193.715 L
234.827 193.903 L
233.842 194.094 L
232.863 194.289 L
231.891 194.486 L
230.925 194.686 L
229.966 194.889 L
229.014 195.094 L
228.068 195.303 L
227.13 195.515 L
226.198 195.729 L
225.274 195.946 L
224.358 196.166 L
223.448 196.388 L
222.546 196.613 L
221.652 196.841 L
220.765 197.072 L
219.886 197.305 L
219.015 197.541 L
218.151 197.78 L
217.296 198.021 L
216.449 198.264 L
215.61 198.51 L
214.779 198.759 L
213.956 199.01 L
213.142 199.264 L
212.336 199.52 L
211.539 199.778 L
210.751 200.039 L
209.971 200.302 L
209.201 200.568 L
208.439 200.836 L
207.686 201.106 L
206.942 201.378 L
206.207 201.652 L
205.481 201.929 L
204.765 202.208 L
204.058 202.489 L
203.36 202.772 L
202.672 203.057 L
201.993 203.345 L
201.324 203.634 L
200.665 203.925 L
200.015 204.218 L
199.375 204.513 L
198.746 204.811 L
198.126 205.109 L
197.516 205.41 L
196.916 205.713 L
196.326 206.017 L
195.746 206.323 L
195.177 206.631 L
194.618 206.941 L
194.069 207.252 L
193.53 207.565 L
193.002 207.879 L
192.485 208.195 L
191.978 208.513 L
191.482 208.832 L
190.996 209.152 L
190.521 209.474 L
190.057 209.798 L
189.604 210.122 L
189.161 210.449 L
188.73 210.776 L
188.309 211.105 L
187.899 211.435 L
187.501 211.766 L
187.113 212.098 L
186.737 212.432 L
186.371 212.766 L
186.017 213.102 L
185.674 213.438 L
185.342 213.776 L
185.022 214.115 L
184.713 214.455 L
184.415 214.795 L
184.128 215.137 L
183.853 215.479 L
183.59 215.822 L
183.337 216.166 L
183.097 216.51 L
182.867 216.856 L
182.65 217.202 L
182.444 217.548 L
182.249 217.895 L
182.066 218.243 L
181.894 218.591 L
181.735 218.94 L
181.586 219.29 L
181.45 219.639 L
181.325 219.989 L
181.212 220.34 L
181.11 220.69 L
181.021 221.042 L
180.943 221.393 L
180.876 221.744 L
180.822 222.096 L
180.779 222.448 L
180.747 222.8 L
180.728 223.152 L
180.72 223.504 L
180.724 223.856 L
180.74 224.208 L
180.767 224.56 L
180.807 224.912 L
180.857 225.264 L
180.92 225.615 L
180.994 225.967 L
181.081 226.318 L
181.178 226.669 L
181.288 227.019 L
181.409 227.369 L
181.542 227.719 L
181.686 228.069 L
181.842 228.417 L
182.01 228.766 L
182.189 229.114 L
182.38 229.461 L
182.583 229.808 L
182.797 230.154 L
183.022 230.5 L
183.259 230.845 L
183.508 231.189 L
183.768 231.532 L
184.039 231.875 L
184.322 232.216 L
184.617 232.557 L
184.922 232.897 L
185.239 233.236 L
185.567 233.574 L
185.907 233.911 L
186.257 234.247 L
186.619 234.582 L
186.992 234.916 L
187.376 235.249 L
187.771 235.58 L
188.177 235.91 L
188.595 236.239 L
189.023 236.567 L
189.462 236.894 L
189.912 237.219 L
190.372 237.543 L
190.844 237.865 L
191.326 238.186 L
191.819 238.506 L
192.322 238.824 L
192.836 239.14 L
193.361 239.455 L
193.896 239.769 L
194.442 240.08 L
194.997 240.39 L
195.564 240.699 L
196.14 241.005 L
196.727 241.31 L
197.323 241.614 L
197.93 241.915 L
198.547 242.214 L
199.174 242.512 L
199.81 242.808 L
200.457 243.102 L
201.113 243.394 L
201.779 243.684 L
202.455 243.971 L
203.14 244.257 L
203.835 244.541 L
204.539 244.823 L
205.252 245.102 L
205.975 245.38 L
206.707 245.655 L
207.448 245.928 L
208.198 246.199 L
208.957 246.467 L
209.725 246.733 L
210.502 246.997 L
211.287 247.259 L
212.082 247.518 L
212.885 247.775 L
213.696 248.029 L
214.516 248.281 L
215.344 248.531 L
216.181 248.778 L
217.025 249.022 L
217.878 249.264 L
218.739 249.503 L
219.607 249.74 L
220.484 249.974 L
221.368 250.206 L
222.26 250.434 L
223.16 250.66 L
224.067 250.884 L
224.982 251.104 L
225.903 251.322 L
226.832 251.538 L
227.768 251.75 L
228.712 251.959 L
229.662 252.166 L
230.619 252.37 L
231.582 252.571 L
232.553 252.769 L
233.53 252.964 L
234.513 253.156 L
235.503 253.345 L
236.499 253.532 L
237.501 253.715 L
238.509 253.895 L
239.523 254.072 L
240.543 254.246 L
241.569 254.418 L
242.6 254.585 L
243.637 254.75 L
244.679 254.912 L
245.727 255.071 L
246.78 255.226 L
247.838 255.379 L
248.901 255.528 L
249.969 255.674 L
251.042 255.816 L
252.12 255.956 L
253.202 256.092 L
254.289 256.225 L
255.38 256.355 L
256.475 256.481 L
257.574 256.604 L
258.678 256.724 L
259.785 256.841 L
260.896 256.954 L
262.011 257.064 L
263.13 257.171 L
264.252 257.274 L
265.378 257.374 L
266.506 257.47 L
267.638 257.563 L
268.773 257.653 L
269.911 257.739 L
271.052 257.822 L
272.195 257.901 L
273.341 257.977 L
274.489 258.049 L
275.64 258.118 L
276.793 258.184 L
277.948 258.246 L
279.106 258.305 L
280.265 258.36 L
281.426 258.412 L
282.588 258.46 L
283.752 258.505 L
284.918 258.546 L
286.085 258.584 L
287.253 258.618 L
288.422 258.649 L
289.592 258.676 L
290.763 258.699 L
291.934 258.72 L
293.107 258.736 L
294.279 258.75 L
295.453 258.759 L
296.626 258.765 L
297.8 258.768 L
298.973 258.767 L
300.147 258.763 L
301.32 258.755 L
302.493 258.743 L
303.665 258.728 L
304.837 258.71 L
306.009 258.688 L
307.179 258.662 L
308.349 258.633 L
309.517 258.6 L
310.685 258.564 L
311.851 258.525 L
313.016 258.482 L
314.179 258.435 L
315.341 258.385 L
316.501 258.332 L
317.659 258.275 L
318.815 258.214 L
319.969 258.15 L
321.121 258.083 L
322.271 258.012 L
323.418 257.938 L
324.562 257.86 L
325.704 257.779 L
326.844 257.694 L
327.98 257.606 L
329.113 257.515 L
330.244 257.42 L
331.371 257.322 L
332.494 257.22 L
333.615 257.115 L
334.731 257.007 L
335.844 256.895 L
336.954 256.78 L
338.059 256.662 L
339.16 256.541 L
340.258 256.416 L
341.351 256.288 L
342.439 256.156 L
343.524 256.021 L
344.604 255.883 L
345.679 255.742 L
346.749 255.598 L
347.814 255.45 L
348.875 255.299 L
349.93 255.145 L
350.981 254.988 L
352.026 254.828 L
353.065 254.665 L
354.099 254.498 L
355.128 254.329 L
356.15 254.156 L
357.167 253.98 L
358.178 253.801 L
359.183 253.62 L
360.182 253.435 L
361.175 253.247 L
362.161 253.056 L
363.141 252.862 L
364.115 252.666 L
365.082 252.466 L
366.042 252.264 L
366.995 252.059 L
367.942 251.85 L
368.881 251.639 L
369.814 251.426 L
370.739 251.209 L
371.657 250.99 L
372.568 250.767 L
373.471 250.543 L
374.366 250.315 L
375.254 250.085 L
376.135 249.852 L
377.007 249.617 L
377.872 249.379 L
378.728 249.138 L
379.577 248.895 L
380.417 248.649 L
381.249 248.401 L
382.073 248.15 L
382.889 247.897 L
383.696 247.641 L
384.494 247.383 L
385.284 247.123 L
386.065 246.86 L
386.837 246.595 L
387.601 246.327 L
388.355 246.058 L
389.1 245.786 L
389.837 245.511 L
390.564 245.235 L
391.282 244.957 L
391.99 244.676 L
392.689 244.393 L
393.379 244.108 L
394.059 243.821 L
394.73 243.532 L
395.391 243.241 L
396.042 242.949 L
396.683 242.654 L
397.315 242.357 L
397.936 242.058 L
398.548 241.758 L
399.15 241.455 L
399.741 241.151 L
400.322 240.846 L
400.893 240.538 L
401.454 240.229 L
402.005 239.918 L
402.545 239.605 L
403.074 239.291 L
403.593 238.975 L
404.102 238.658 L
404.6 238.339 L
405.087 238.019 L
405.564 237.697 L
406.03 237.374 L
406.485 237.049 L
406.929 236.723 L
407.362 236.396 L
407.785 236.068 L
408.196 235.738 L
408.596 235.407 L
408.986 235.075 L
409.364 234.742 L
409.731 234.407 L
410.087 234.072 L
410.432 233.735 L
410.766 233.398 L
411.088 233.059 L
411.399 232.72 L
411.698 232.379 L
411.987 232.038 L
412.264 231.696 L
412.529 231.353 L
412.783 231.009 L
413.026 230.665 L
413.257 230.319 L
413.476 229.974 L
413.684 229.627 L
413.881 229.28 L
414.066 228.932 L
414.239 228.584 L
414.401 228.235 L
414.551 227.886 L
414.689 227.537 L
414.816 227.186 L
414.931 226.836 L
415.034 226.485 L
415.126 226.134 L
415.206 225.783 L
415.274 225.432 L
415.331 225.08 L
415.375 224.728 L
415.408 224.376 L
415.43 224.024 L
415.439 223.672 LE
1 1 1 C
316.285 50.2658 316.285 214.855 316.285 50.2658 T
316.285 50.2658 316.285 214.855 316.285 214.855 T
77.6258 214.855 316.285 214.855 77.6258 214.855 T
77.6258 214.855 316.285 214.855 316.285 214.855 T
77.6258 214.855 316.285 50.2658 77.6258 50.2658 T
77.6258 214.855 316.285 214.855 316.285 50.2658 T
[16 0] 0 setdash
0 0 0 C
77.6258 50.2658 LS
316.285 50.2658 LE
77.6258 214.855 LS
316.285 214.855 LE
77.6258 214.855 LS
316.285 214.855 LE
77.6258 50.2658 LS
316.285 50.2658 LE
77.6258 50.2658 LS
77.6258 214.855 LE
316.285 50.2658 LS
316.285 214.855 LE
316.285 50.2658 LS
316.285 214.855 LE
77.6258 50.2658 LS
77.6258 214.855 L
77.6258 214.855 LE
316.285 214.855 LS
316.285 214.855 LE
316.285 50.2658 LS
316.285 50.2658 LE
77.6258 50.2658 LS
77.6258 50.2658 LE
(RK2 Stability Region) 103.711 201.139 20 /Helvetica SCL
(dx=0.2) 103.711 173.708 20 /Helvetica SCL
(dx=0.1) 103.711 146.276 20 /Helvetica SCL
(dx=0.08) 103.711 118.845 20 /Helvetica SCL
(dx=0.05) 103.711 91.4131 20 /Helvetica SCL
(dx=0.02) 103.711 63.9816 20 /Helvetica SCL
0.5 W
[] 0 setdash
80.3716 201.139 LS
100.965 201.139 LE
0 0 1 C
80.3716 173.708 LS
100.965 173.708 LE
1 0 0 C
80.3716 146.276 LS
100.965 146.276 LE
0 1 0 C
80.3716 118.845 LS
100.965 118.845 LE
1 0 1 C
80.3716 91.4131 LS
100.965 91.4131 LE
0 1 1 C
80.3716 63.9816 LS
100.965 63.9816 LE
grestore
showpage
cleartomark
%%PageTrailer
%%Trailer
end
%%EOF
