%!PS-Adobe-3.0 EPSF-3.0
%%Title: glps_renderer figure
%%Creator: GL2PS 1.3.8, (C) 1999-2012 C. Geuzaine
%%For: Octave
%%CreationDate: Sun Nov 29 12:35:17 2015
%%LanguageLevel: 3
%%DocumentData: Clean7Bit
%%Pages: 1
%%BoundingBox: 0 0 560 420
%%EndComments
%%BeginProlog
/gl2psdict 64 dict def gl2psdict begin
0 setlinecap 0 setlinejoin
/tryPS3shading false def % set to false to force subdivision
/rThreshold 0.064 def % red component subdivision threshold
/gThreshold 0.034 def % green component subdivision threshold
/bThreshold 0.1 def % blue component subdivision threshold
/BD { bind def } bind def
/C  { setrgbcolor } BD
/G  { 0.082 mul exch 0.6094 mul add exch 0.3086 mul add neg 1.0 add setgray } BD
/W  { setlinewidth } BD
/FC { findfont exch /SH exch def SH scalefont setfont } BD
/SW { dup stringwidth pop } BD
/S  { FC moveto show } BD
/SBC{ FC moveto SW -2 div 0 rmoveto show } BD
/SBR{ FC moveto SW neg 0 rmoveto show } BD
/SCL{ FC moveto 0 SH -2 div rmoveto show } BD
/SCC{ FC moveto SW -2 div SH -2 div rmoveto show } BD
/SCR{ FC moveto SW neg SH -2 div rmoveto show } BD
/STL{ FC moveto 0 SH neg rmoveto show } BD
/STC{ FC moveto SW -2 div SH neg rmoveto show } BD
/STR{ FC moveto SW neg SH neg rmoveto show } BD
/FCT { FC translate 0 0 } BD
/SR  { gsave FCT moveto rotate show grestore } BD
/SBCR{ gsave FCT moveto rotate SW -2 div 0 rmoveto show grestore } BD
/SBRR{ gsave FCT moveto rotate SW neg 0 rmoveto show grestore } BD
/SCLR{ gsave FCT moveto rotate 0 SH -2 div rmoveto show grestore} BD
/SCCR{ gsave FCT moveto rotate SW -2 div SH -2 div rmoveto show grestore} BD
/SCRR{ gsave FCT moveto rotate SW neg SH -2 div rmoveto show grestore} BD
/STLR{ gsave FCT moveto rotate 0 SH neg rmoveto show grestore } BD
/STCR{ gsave FCT moveto rotate SW -2 div SH neg rmoveto show grestore } BD
/STRR{ gsave FCT moveto rotate SW neg SH neg rmoveto show grestore } BD
/P  { newpath 0.0 360.0 arc closepath fill } BD
/LS { newpath moveto } BD
/L  { lineto } BD
/LE { lineto stroke } BD
/T  { newpath moveto lineto lineto closepath fill } BD
/STshfill {
      /b1 exch def /g1 exch def /r1 exch def /y1 exch def /x1 exch def
      /b2 exch def /g2 exch def /r2 exch def /y2 exch def /x2 exch def
      /b3 exch def /g3 exch def /r3 exch def /y3 exch def /x3 exch def
      gsave << /ShadingType 4 /ColorSpace [/DeviceRGB]
      /DataSource [ 0 x1 y1 r1 g1 b1 0 x2 y2 r2 g2 b2 0 x3 y3 r3 g3 b3 ] >>
      shfill grestore } BD
/Tm { 3 -1 roll 8 -1 roll 13 -1 roll add add 3 div
      3 -1 roll 7 -1 roll 11 -1 roll add add 3 div
      3 -1 roll 6 -1 roll 9 -1 roll add add 3 div C T } BD
/STsplit {
      4 index 15 index add 0.5 mul
      4 index 15 index add 0.5 mul
      4 index 15 index add 0.5 mul
      4 index 15 index add 0.5 mul
      4 index 15 index add 0.5 mul
      5 copy 5 copy 25 15 roll
      9 index 30 index add 0.5 mul
      9 index 30 index add 0.5 mul
      9 index 30 index add 0.5 mul
      9 index 30 index add 0.5 mul
      9 index 30 index add 0.5 mul
      5 copy 5 copy 35 5 roll 25 5 roll 15 5 roll
      4 index 10 index add 0.5 mul
      4 index 10 index add 0.5 mul
      4 index 10 index add 0.5 mul
      4 index 10 index add 0.5 mul
      4 index 10 index add 0.5 mul
      5 copy 5 copy 40 5 roll 25 5 roll 15 5 roll 25 5 roll
      STnoshfill STnoshfill STnoshfill STnoshfill } BD
/STnoshfill {
      2 index 8 index sub abs rThreshold gt
      { STsplit }
      { 1 index 7 index sub abs gThreshold gt
        { STsplit }
        { dup 6 index sub abs bThreshold gt
          { STsplit }
          { 2 index 13 index sub abs rThreshold gt
            { STsplit }
            { 1 index 12 index sub abs gThreshold gt
              { STsplit }
              { dup 11 index sub abs bThreshold gt
                { STsplit }
                { 7 index 13 index sub abs rThreshold gt
                  { STsplit }
                  { 6 index 12 index sub abs gThreshold gt
                    { STsplit }
                    { 5 index 11 index sub abs bThreshold gt
                      { STsplit }
                      { Tm }
                      ifelse }
                    ifelse }
                  ifelse }
                ifelse }
              ifelse }
            ifelse }
          ifelse }
        ifelse }
      ifelse } BD
tryPS3shading
{ /shfill where
  { /ST { STshfill } BD }
  { /ST { STnoshfill } BD }
  ifelse }
{ /ST { STnoshfill } BD }
ifelse
end
%%EndProlog
%%BeginSetup
/DeviceRGB setcolorspace
gl2psdict begin
%%EndSetup
%%Page: 1 1
%%BeginPageSetup
%%EndPageSetup
mark
gsave
1.0 1.0 scale
1 1 1 C
506.8 46.2 506.8 388.5 506.8 46.2 T
506.8 46.2 506.8 388.5 506.8 388.5 T
72.8 388.5 506.8 388.5 72.8 388.5 T
72.8 388.5 506.8 388.5 506.8 388.5 T
72.8 388.5 506.8 46.2 72.8 46.2 T
72.8 388.5 506.8 388.5 506.8 46.2 T
0.5 W
[16 0] 0 setdash
0 0 0 C
72.8 46.2 LS
506.8 46.2 LE
72.8 388.5 LS
506.8 388.5 LE
72.8 388.5 LS
506.8 388.5 LE
72.8 46.2 LS
506.8 46.2 LE
72.8 46.2 LS
72.8 388.5 LE
506.8 46.2 LS
506.8 388.5 LE
506.8 46.2 LS
506.8 388.5 LE
72.8 46.2 LS
72.8 388.5 L
72.8 388.5 LE
506.8 388.5 LS
506.8 388.5 LE
506.8 46.2 LS
506.8 46.2 LE
72.8 46.2 LS
72.8 46.2 L
72.8 50.5437 LE
72.8 388.5 LS
72.8 384.156 LE
289.8 46.2 LS
289.8 50.5437 LE
289.8 388.5 LS
289.8 384.156 LE
506.8 46.2 LS
506.8 50.5437 LE
506.8 388.5 LS
506.8 384.156 LE
(10) 72.8 41.1956 15 /Helvetica STC
(100) 289.8 41.1956 15 /Helvetica STC
(1000) 506.8 41.1956 15 /Helvetica STC
72.8 46.2 LS
77.14 46.2 LE
506.8 46.2 LS
502.46 46.2 LE
72.8 131.775 LS
77.14 131.775 LE
506.8 131.775 LS
502.46 131.775 LE
72.8 217.35 LS
77.14 217.35 LE
506.8 217.35 LS
502.46 217.35 LE
72.8 302.925 LS
77.14 302.925 LE
506.8 302.925 LS
502.46 302.925 LE
72.8 388.5 LS
77.14 388.5 LE
506.8 388.5 LS
502.46 388.5 LE
(1e-7) 67.8 46.2 15 /Helvetica SCR
(1e-6) 67.8 131.775 15 /Helvetica SCR
(1e-5) 67.8 217.35 15 /Helvetica SCR
(1e-4) 67.8 302.925 15 /Helvetica SCR
(1e-3) 67.8 388.5 15 /Helvetica SCR
(N) 289.8 23.1956 15 /Helvetica STC
(Source term Error Norms) 90 34.8 217.35 15 /Helvetica SBCR
2 W
[] 0 setdash
138.124 305.72 LS
203.447 254.307 L
268.771 202.813 L
334.094 151.299 L
399.418 99.7794 L
464.741 48.2585 LE
[12 4] 0 setdash
138.124 317.024 LS
203.447 265.62 L
268.771 214.128 L
334.094 162.614 L
399.418 111.095 L
464.741 59.5737 LE
[4 5 1 6] 0 setdash
138.124 354.188 LS
203.447 303.553 L
268.771 252.419 L
334.094 201.084 L
399.418 149.653 L
464.741 98.1758 LE
1 1 1 C
306.5 48.8695 306.5 128.878 306.5 48.8695 T
306.5 48.8695 306.5 128.878 306.5 128.878 T
75.4695 128.878 306.5 128.878 75.4695 128.878 T
75.4695 128.878 306.5 128.878 306.5 128.878 T
75.4695 128.878 306.5 48.8695 75.4695 48.8695 T
75.4695 128.878 306.5 128.878 306.5 48.8695 T
[16 0] 0 setdash
0 0 0 C
75.4695 48.8695 LS
306.5 48.8695 LE
75.4695 128.878 LS
306.5 128.878 LE
75.4695 128.878 LS
306.5 128.878 LE
75.4695 48.8695 LS
306.5 48.8695 LE
75.4695 48.8695 LS
75.4695 128.878 LE
306.5 48.8695 LS
306.5 128.878 LE
306.5 48.8695 LS
306.5 128.878 LE
75.4695 48.8695 LS
75.4695 128.878 L
75.4695 128.878 LE
306.5 128.878 LS
306.5 128.878 LE
306.5 48.8695 LS
306.5 48.8695 LE
75.4695 48.8695 LS
75.4695 48.8695 LE
(L1, slope =-1.9991) 100.83 115.543 20 /Helvetica SCL
(L2, slope =-1.999) 100.83 88.8738 20 /Helvetica SCL
(Linf, slope =-1.9887) 100.83 62.2043 20 /Helvetica SCL
0.5 W
[] 0 setdash
78.1391 115.543 LS
98.1606 115.543 LE
[12 4] 0 setdash
78.1391 88.8738 LS
98.1606 88.8738 LE
[4 5 1 6] 0 setdash
78.1391 62.2043 LS
98.1606 62.2043 LE
grestore
showpage
cleartomark
%%PageTrailer
%%Trailer
end
%%EOF
